Data/20220819/UCLA_to_R2A_VPOL_E_30_01_Ch2.csv

"Record Length",5000,"Points",-1.00800000e-007,-5.93745372e-006
"Sample Interval",2.00000000e-010,s,-1.00600000e-007,-4.12499554e-005
"Trigger Point",504,"Samples",-1.00400000e-007,-4.65624556e-005
"Trigger Time",0.00000000e+000,s,-1.00200000e-007,1.15625471e-005
"",,,-1.00000000e-007,4.81250489e-005
"Horizontal Offset",-1.00800000e-007,s,-9.98000000e-008,1.15312552e-004
,,,-9.96000000e-008,1.20312552e-004
,,,-9.94000000e-008,6.06250494e-005
,,,-9.92000000e-008,3.18750481e-005
,,,-9.90000000e-008,-4.06249554e-005
,,,-9.88000000e-008,-6.74999566e-005
,,,-9.86000000e-008,-4.53124556e-005
,,,-9.84000000e-008,-1.24995349e-006
,,,-9.82000000e-008,7.84375503e-005
,,,-9.80000000e-008,1.00937551e-004
,,,-9.78000000e-008,9.56250511e-005
,,,-9.76000000e-008,5.68750493e-005
,,,-9.74000000e-008,-4.40624555e-005
,,,-9.72000000e-008,-7.28124569e-005
,,,-9.70000000e-008,-7.78124571e-005
,,,-9.68000000e-008,-3.12495358e-006
,,,-9.66000000e-008,7.43750501e-005
,,,-9.64000000e-008,1.05937552e-004
,,,-9.62000000e-008,1.21250052e-004
,,,-9.60000000e-008,7.12500500e-005
,,,-9.58000000e-008,-6.87495376e-006
,,,-9.56000000e-008,-4.96874558e-005
,,,-9.54000000e-008,-7.09374568e-005
,,,-9.52000000e-008,-1.62499542e-005
,,,-9.50000000e-008,5.53125492e-005
,,,-9.48000000e-008,9.93750513e-005
,,,-9.46000000e-008,1.04687552e-004
,,,-9.44000000e-008,4.43750487e-005
,,,-9.42000000e-008,1.15625471e-005
,,,-9.40000000e-008,-2.09374544e-005
,,,-9.38000000e-008,-3.49999551e-005
,,,-9.36000000e-008,-1.12499540e-005
,,,-9.34000000e-008,-6.87495376e-006
,,,-9.32000000e-008,-9.37453478e-007
,,,-9.30000000e-008,2.50000478e-005
,,,-9.28000000e-008,4.15625485e-005
,,,-9.26000000e-008,9.68750512e-005
,,,-9.24000000e-008,8.00000504e-005
,,,-9.22000000e-008,4.25000486e-005
,,,-9.20000000e-008,-1.49999541e-005
,,,-9.18000000e-008,-8.65624575e-005
,,,-9.16000000e-008,-7.03124568e-005
,,,-9.14000000e-008,-3.49999551e-005
,,,-9.12000000e-008,3.71875483e-005
,,,-9.10000000e-008,1.20000052e-004
,,,-9.08000000e-008,1.35937553e-004
,,,-9.06000000e-008,1.14687552e-004
,,,-9.04000000e-008,5.12500490e-005
,,,-9.02000000e-008,-3.34374550e-005
,,,-9.00000000e-008,-8.65624575e-005
,,,-8.98000000e-008,-9.93749582e-005
,,,-8.96000000e-008,-4.24999555e-005
,,,-8.94000000e-008,3.81250484e-005
,,,-8.92000000e-008,1.27500053e-004
,,,-8.90000000e-008,1.73125055e-004
,,,-8.88000000e-008,1.35937553e-004
,,,-8.86000000e-008,7.62500502e-005
,,,-8.84000000e-008,-2.53124546e-005
,,,-8.82000000e-008,-8.18749573e-005
,,,-8.80000000e-008,-1.08437459e-004
,,,-8.78000000e-008,-9.46874579e-005
,,,-8.76000000e-008,3.12546581e-007
,,,-8.74000000e-008,7.28125500e-005
,,,-8.72000000e-008,1.27187553e-004
,,,-8.70000000e-008,1.61875054e-004
,,,-8.68000000e-008,8.78125507e-005
,,,-8.66000000e-008,1.87504666e-006
,,,-8.64000000e-008,-8.09374573e-005
,,,-8.62000000e-008,-1.28749960e-004
,,,-8.60000000e-008,-7.71874571e-005
,,,-8.58000000e-008,-1.18749540e-005
,,,-8.56000000e-008,5.56250492e-005
,,,-8.54000000e-008,1.26875053e-004
,,,-8.52000000e-008,1.30000053e-004
,,,-8.50000000e-008,1.08125052e-004
,,,-8.48000000e-008,4.09375485e-005
,,,-8.46000000e-008,-1.49999541e-005
,,,-8.44000000e-008,-3.15624549e-005
,,,-8.42000000e-008,-6.03124563e-005
,,,-8.40000000e-008,-3.84374553e-005
,,,-8.38000000e-008,-4.31249555e-005
,,,-8.36000000e-008,1.25004663e-006
,,,-8.34000000e-008,5.68750493e-005
,,,-8.32000000e-008,1.05625052e-004
,,,-8.30000000e-008,1.54687554e-004
,,,-8.28000000e-008,1.20000052e-004
,,,-8.26000000e-008,5.18750490e-005
,,,-8.24000000e-008,-4.74999557e-005
,,,-8.22000000e-008,-1.49687461e-004
,,,-8.20000000e-008,-1.47812460e-004
,,,-8.18000000e-008,-8.56249575e-005
,,,-8.16000000e-008,3.65625483e-005
,,,-8.14000000e-008,1.56562554e-004
,,,-8.12000000e-008,2.22812557e-004
,,,-8.10000000e-008,2.14062557e-004
,,,-8.08000000e-008,8.65625507e-005
,,,-8.06000000e-008,-8.37499574e-005
,,,-8.04000000e-008,-1.95312463e-004
,,,-8.02000000e-008,-2.29374964e-004
,,,-8.00000000e-008,-1.25312459e-004
,,,-7.98000000e-008,4.18750486e-005
,,,-7.96000000e-008,1.96875056e-004
,,,-7.94000000e-008,2.69375059e-004
,,,-7.92000000e-008,2.21562557e-004
,,,-7.90000000e-008,1.09062552e-004
,,,-7.88000000e-008,-2.81249548e-005
,,,-7.86000000e-008,-1.54374961e-004
,,,-7.84000000e-008,-2.00624963e-004
,,,-7.82000000e-008,-1.58749961e-004
,,,-7.80000000e-008,-4.15624554e-005
,,,-7.78000000e-008,1.17500052e-004
,,,-7.76000000e-008,2.37812558e-004
,,,-7.74000000e-008,2.70937559e-004
,,,-7.72000000e-008,1.83437555e-004
,,,-7.70000000e-008,1.68750474e-005
,,,-7.68000000e-008,-1.49999961e-004
,,,-7.66000000e-008,-2.28749964e-004
,,,-7.64000000e-008,-1.91249963e-004
,,,-7.62000000e-008,-7.15624568e-005
,,,-7.60000000e-008,7.59375502e-005
,,,-7.58000000e-008,2.00312556e-004
,,,-7.56000000e-008,2.35312558e-004
,,,-7.54000000e-008,1.87812555e-004
,,,-7.52000000e-008,6.65625497e-005
,,,-7.50000000e-008,-6.78124567e-005
,,,-7.48000000e-008,-1.54999961e-004
,,,-7.46000000e-008,-1.84687462e-004
,,,-7.44000000e-008,-1.25312459e-004
,,,-7.42000000e-008,-4.37495364e-006
,,,-7.40000000e-008,1.00937551e-004
,,,-7.38000000e-008,1.84062555e-004
,,,-7.36000000e-008,1.97187556e-004
,,,-7.34000000e-008,1.57500054e-004
,,,-7.32000000e-008,6.62500497e-005
,,,-7.30000000e-008,-5.90624562e-005
,,,-7.28000000e-008,-1.53749961e-004
,,,-7.26000000e-008,-1.80312462e-004
,,,-7.24000000e-008,-1.13749959e-004
,,,-7.22000000e-008,3.15625481e-005
,,,-7.20000000e-008,1.59062554e-004
,,,-7.18000000e-008,2.29687557e-004
,,,-7.16000000e-008,2.16875057e-004
,,,-7.14000000e-008,1.20312552e-004
,,,-7.12000000e-008,-9.68745389e-006
,,,-7.10000000e-008,-1.30624960e-004
,,,-7.08000000e-008,-1.63749961e-004
,,,-7.06000000e-008,-1.34999960e-004
,,,-7.04000000e-008,-3.84374553e-005
,,,-7.02000000e-008,7.12500500e-005
,,,-7.00000000e-008,1.55625054e-004
,,,-6.98000000e-008,2.00937556e-004
,,,-6.96000000e-008,1.66562554e-004
,,,-6.94000000e-008,7.31250500e-005
,,,-6.92000000e-008,-2.49999546e-005
,,,-6.90000000e-008,-1.12499959e-004
,,,-6.88000000e-008,-1.54062461e-004
,,,-6.86000000e-008,-1.32187460e-004
,,,-6.84000000e-008,-5.56249561e-005
,,,-6.82000000e-008,5.40625491e-005
,,,-6.80000000e-008,1.84375055e-004
,,,-6.78000000e-008,2.38125058e-004
,,,-6.76000000e-008,2.03750056e-004
,,,-6.74000000e-008,8.25000505e-005
,,,-6.72000000e-008,-7.03124568e-005
,,,-6.70000000e-008,-2.02187463e-004
,,,-6.68000000e-008,-2.07187463e-004
,,,-6.66000000e-008,-1.17499959e-004
,,,-6.64000000e-008,1.31250472e-005
,,,-6.62000000e-008,1.76875055e-004
,,,-6.60000000e-008,2.49062558e-004
,,,-6.58000000e-008,2.37500058e-004
,,,-6.56000000e-008,1.26562553e-004
,,,-6.54000000e-008,-4.99999558e-005
,,,-6.52000000e-008,-1.77187462e-004
,,,-6.50000000e-008,-2.25937464e-004
,,,-6.48000000e-008,-1.66562461e-004
,,,-6.46000000e-008,-1.78124543e-005
,,,-6.44000000e-008,1.35937553e-004
,,,-6.42000000e-008,2.38125058e-004
,,,-6.40000000e-008,2.32812558e-004
,,,-6.38000000e-008,1.56875054e-004
,,,-6.36000000e-008,2.25000476e-005
,,,-6.34000000e-008,-1.23437459e-004
,,,-6.32000000e-008,-1.95624963e-004
,,,-6.30000000e-008,-1.66562461e-004
,,,-6.28000000e-008,-8.18749573e-005
,,,-6.26000000e-008,7.06250499e-005
,,,-6.24000000e-008,1.80625055e-004
,,,-6.22000000e-008,2.11562557e-004
,,,-6.20000000e-008,1.42500053e-004
,,,-6.18000000e-008,1.40625472e-005
,,,-6.16000000e-008,-8.68749576e-005
,,,-6.14000000e-008,-1.43437460e-004
,,,-6.12000000e-008,-1.13437459e-004
,,,-6.10000000e-008,-1.78124543e-005
,,,-6.08000000e-008,6.53125497e-005
,,,-6.06000000e-008,1.40625053e-004
,,,-6.04000000e-008,1.22812552e-004
,,,-6.02000000e-008,9.34375510e-005
,,,-6.00000000e-008,5.06250490e-005
,,,-5.98000000e-008,1.78125474e-005
,,,-5.96000000e-008,-1.34374541e-005
,,,-5.94000000e-008,-2.74999547e-005
,,,-5.92000000e-008,-5.43749560e-005
,,,-5.90000000e-008,-4.59374556e-005
,,,-5.88000000e-008,-1.18749540e-005
,,,-5.86000000e-008,4.87500489e-005
,,,-5.84000000e-008,1.14687552e-004
,,,-5.82000000e-008,1.37187553e-004
,,,-5.80000000e-008,1.14687552e-004
,,,-5.78000000e-008,1.53125473e-005
,,,-5.76000000e-008,-8.53124575e-005
,,,-5.74000000e-008,-1.20937459e-004
,,,-5.72000000e-008,-1.17499959e-004
,,,-5.70000000e-008,-1.31249541e-005
,,,-5.68000000e-008,8.59375506e-005
,,,-5.66000000e-008,1.52500054e-004
,,,-5.64000000e-008,1.70937555e-004
,,,-5.62000000e-008,9.31250510e-005
,,,-5.60000000e-008,2.84375479e-005
,,,-5.58000000e-008,-6.93749567e-005
,,,-5.56000000e-008,-1.11874959e-004
,,,-5.54000000e-008,-8.87499576e-005
,,,-5.52000000e-008,-2.74999547e-005
,,,-5.50000000e-008,8.53125506e-005
,,,-5.48000000e-008,1.54687554e-004
,,,-5.46000000e-008,1.68437555e-004
,,,-5.44000000e-008,1.18437552e-004
,,,-5.42000000e-008,2.53125478e-005
,,,-5.40000000e-008,-7.15624568e-005
,,,-5.38000000e-008,-1.02812458e-004
,,,-5.36000000e-008,-1.19999959e-004
,,,-5.34000000e-008,-3.56249551e-005
,,,-5.32000000e-008,5.90625494e-005
,,,-5.30000000e-008,1.38750053e-004
,,,-5.28000000e-008,1.63437554e-004
,,,-5.26000000e-008,1.07812552e-004
,,,-5.24000000e-008,6.56254688e-006
,,,-5.22000000e-008,-6.74999566e-005
,,,-5.20000000e-008,-1.13749959e-004
,,,-5.18000000e-008,-8.18749573e-005
,,,-5.16000000e-008,-2.93749548e-005
,,,-5.14000000e-008,4.53125487e-005
,,,-5.12000000e-008,8.03125504e-005
,,,-5.10000000e-008,1.05000052e-004
,,,-5.08000000e-008,1.15625052e-004
,,,-5.06000000e-008,8.62500507e-005
,,,-5.04000000e-008,3.43750482e-005
,,,-5.02000000e-008,-2.59374547e-005
,,,-5.00000000e-008,-7.28124569e-005
,,,-4.98000000e-008,-7.96874572e-005
,,,-4.96000000e-008,-4.71874557e-005
,,,-4.94000000e-008,3.12500481e-005
,,,-4.92000000e-008,1.10625052e-004
,,,-4.90000000e-008,1.54687554e-004
,,,-4.88000000e-008,1.53125054e-004
,,,-4.86000000e-008,9.96875513e-005
,,,-4.84000000e-008,9.68754703e-006
,,,-4.82000000e-008,-9.56249580e-005
,,,-4.80000000e-008,-1.52812461e-004
,,,-4.78000000e-008,-1.40312460e-004
,,,-4.76000000e-008,-3.84374553e-005
,,,-4.74000000e-008,1.02500051e-004
,,,-4.72000000e-008,2.04687556e-004
,,,-4.70000000e-008,2.12812557e-004
,,,-4.68000000e-008,1.40000053e-004
,,,-4.66000000e-008,-1.24999540e-005
,,,-4.64000000e-008,-1.41562460e-004
,,,-4.62000000e-008,-2.01249963e-004
,,,-4.60000000e-008,-1.51249961e-004
,,,-4.58000000e-008,6.25046596e-007
,,,-4.56000000e-008,1.29375053e-004
,,,-4.54000000e-008,2.10000057e-004
,,,-4.52000000e-008,2.10000057e-004
,,,-4.50000000e-008,1.04687552e-004
,,,-4.48000000e-008,-1.56245351e-006
,,,-4.46000000e-008,-1.00624958e-004
,,,-4.44000000e-008,-1.11874959e-004
,,,-4.42000000e-008,-7.53124570e-005
,,,-4.40000000e-008,-1.15624540e-005
,,,-4.38000000e-008,4.31250486e-005
,,,-4.36000000e-008,8.87500508e-005
,,,-4.34000000e-008,1.01250051e-004
,,,-4.32000000e-008,1.09062552e-004
,,,-4.30000000e-008,5.59375492e-005
,,,-4.28000000e-008,9.06254700e-006
,,,-4.26000000e-008,-3.65624552e-005
,,,-4.24000000e-008,-7.21874569e-005
,,,-4.22000000e-008,-5.28124559e-005
,,,-4.20000000e-008,-3.40624551e-005
,,,-4.18000000e-008,2.00000475e-005
,,,-4.16000000e-008,6.15625495e-005
,,,-4.14000000e-008,8.53125506e-005
,,,-4.12000000e-008,1.19062552e-004
,,,-4.10000000e-008,8.96875508e-005
,,,-4.08000000e-008,5.78125493e-005
,,,-4.06000000e-008,-6.56245375e-006
,,,-4.04000000e-008,-7.93749572e-005
,,,-4.02000000e-008,-1.00624958e-004
,,,-4.00000000e-008,-1.06249958e-004
,,,-3.98000000e-008,-2.03124544e-005
,,,-3.96000000e-008,1.12187552e-004
,,,-3.94000000e-008,1.95312556e-004
,,,-3.92000000e-008,2.38750058e-004
,,,-3.90000000e-008,1.48437554e-004
,,,-3.88000000e-008,6.25046596e-007
,,,-3.86000000e-008,-1.41249960e-004
,,,-3.84000000e-008,-2.44374965e-004
,,,-3.82000000e-008,-1.76249962e-004
,,,-3.80000000e-008,-7.18745378e-006
,,,-3.78000000e-008,1.62812554e-004
,,,-3.76000000e-008,2.85312560e-004
,,,-3.74000000e-008,2.43125058e-004
,,,-3.72000000e-008,1.03750051e-004
,,,-3.70000000e-008,-8.37499574e-005
,,,-3.68000000e-008,-2.18437464e-004
,,,-3.66000000e-008,-2.03437463e-004
,,,-3.64000000e-008,-1.20624959e-004
,,,-3.62000000e-008,3.93750484e-005
,,,-3.60000000e-008,1.57812554e-004
,,,-3.58000000e-008,2.01562556e-004
,,,-3.56000000e-008,1.99062556e-004
,,,-3.54000000e-008,7.96875504e-005
,,,-3.52000000e-008,-1.59374542e-005
,,,-3.50000000e-008,-9.78124581e-005
,,,-3.48000000e-008,-1.35312460e-004
,,,-3.46000000e-008,-8.18749573e-005
,,,-3.44000000e-008,-3.74995361e-006
,,,-3.42000000e-008,6.87500498e-005
,,,-3.40000000e-008,1.16250052e-004
,,,-3.38000000e-008,1.10937552e-004
,,,-3.36000000e-008,8.06250504e-005
,,,-3.34000000e-008,2.28125476e-005
,,,-3.32000000e-008,-1.65624542e-005
,,,-3.30000000e-008,-4.34374555e-005
,,,-3.28000000e-008,-7.74999571e-005
,,,-3.26000000e-008,-3.28124550e-005
,,,-3.24000000e-008,-3.87499553e-005
,,,-3.22000000e-008,1.25000472e-005
,,,-3.20000000e-008,6.65625497e-005
,,,-3.18000000e-008,8.00000504e-005
,,,-3.16000000e-008,1.38437553e-004
,,,-3.14000000e-008,1.21250052e-004
,,,-3.12000000e-008,4.21875486e-005
,,,-3.10000000e-008,-3.03124549e-005
,,,-3.08000000e-008,-1.27187459e-004
,,,-3.06000000e-008,-1.06562458e-004
,,,-3.04000000e-008,-5.87499562e-005
,,,-3.02000000e-008,2.65625478e-005
,,,-3.00000000e-008,1.45312553e-004
,,,-2.98000000e-008,1.76562555e-004
,,,-2.96000000e-008,1.61250054e-004
,,,-2.94000000e-008,8.96875508e-005
,,,-2.92000000e-008,-3.99999553e-005
,,,-2.90000000e-008,-1.19687459e-004
,,,-2.88000000e-008,-1.84999962e-004
,,,-2.86000000e-008,-1.21562459e-004
,,,-2.84000000e-008,-9.37453478e-007
,,,-2.82000000e-008,1.11250052e-004
,,,-2.80000000e-008,2.28750057e-004
,,,-2.78000000e-008,1.80937555e-004
,,,-2.76000000e-008,8.90625508e-005
,,,-2.74000000e-008,-2.62499547e-005
,,,-2.72000000e-008,-1.49687461e-004
,,,-2.70000000e-008,-1.32187460e-004
,,,-2.68000000e-008,-7.90624572e-005
,,,-2.66000000e-008,2.06250475e-005
,,,-2.64000000e-008,1.21875052e-004
,,,-2.62000000e-008,1.32500053e-004
,,,-2.60000000e-008,1.42187553e-004
,,,-2.58000000e-008,7.78125503e-005
,,,-2.56000000e-008,5.93754685e-006
,,,-2.54000000e-008,-1.46874541e-005
,,,-2.52000000e-008,-7.03124568e-005
,,,-2.50000000e-008,-4.56249556e-005
,,,-2.48000000e-008,-3.71874552e-005
,,,-2.46000000e-008,-2.31249545e-005
,,,-2.44000000e-008,4.59375487e-005
,,,-2.42000000e-008,6.37500496e-005
,,,-2.40000000e-008,1.01562551e-004
,,,-2.38000000e-008,1.08125052e-004
,,,-2.36000000e-008,3.62500483e-005
,,,-2.34000000e-008,-2.99999549e-005
,,,-2.32000000e-008,-1.30937460e-004
,,,-2.30000000e-008,-1.16562459e-004
,,,-2.28000000e-008,-6.65624566e-005
,,,-2.26000000e-008,2.78125479e-005
,,,-2.24000000e-008,1.29062553e-004
,,,-2.22000000e-008,1.22812552e-004
,,,-2.20000000e-008,1.05312552e-004
,,,-2.18000000e-008,2.65625478e-005
,,,-2.16000000e-008,-2.84374548e-005
,,,-2.14000000e-008,-3.43749551e-005
,,,-2.12000000e-008,-5.49999560e-005
,,,-2.10000000e-008,-2.18749545e-005
,,,-2.08000000e-008,1.71875474e-005
,,,-2.06000000e-008,6.15625495e-005
,,,-2.04000000e-008,1.12812552e-004
,,,-2.02000000e-008,1.18125052e-004
,,,-2.00000000e-008,7.46875501e-005
,,,-1.98000000e-008,1.06250471e-005
,,,-1.96000000e-008,-8.18749573e-005
,,,-1.94000000e-008,-8.68749576e-005
,,,-1.92000000e-008,-5.09374559e-005
,,,-1.90000000e-008,3.12500481e-005
,,,-1.88000000e-008,1.04375052e-004
,,,-1.86000000e-008,1.01250051e-004
,,,-1.84000000e-008,6.62500497e-005
,,,-1.82000000e-008,-5.31245369e-006
,,,-1.80000000e-008,-6.53124565e-005
,,,-1.78000000e-008,-6.06249563e-005
,,,-1.76000000e-008,-2.87499548e-005
,,,-1.74000000e-008,5.81250493e-005
,,,-1.72000000e-008,9.40625510e-005
,,,-1.70000000e-008,6.37500496e-005
,,,-1.68000000e-008,5.56250492e-005
,,,-1.66000000e-008,-5.62495370e-006
,,,-1.64000000e-008,3.43754673e-006
,,,-1.62000000e-008,1.00000470e-005
,,,-1.60000000e-008,1.62500473e-005
,,,-1.58000000e-008,6.28125495e-005
,,,-1.56000000e-008,4.03125485e-005
,,,-1.54000000e-008,3.81250484e-005
,,,-1.52000000e-008,2.71875479e-005
,,,-1.50000000e-008,4.65661288e-011
,,,-1.48000000e-008,2.46875477e-005
,,,-1.46000000e-008,1.31250472e-005
,,,-1.44000000e-008,2.75000479e-005
,,,-1.42000000e-008,6.06250494e-005
,,,-1.40000000e-008,1.59375473e-005
,,,-1.38000000e-008,1.31250472e-005
,,,-1.36000000e-008,-3.12499549e-005
,,,-1.34000000e-008,-3.71874552e-005
,,,-1.32000000e-008,6.56254688e-006
,,,-1.30000000e-008,2.43750477e-005
,,,-1.28000000e-008,6.81250498e-005
,,,-1.26000000e-008,6.53125497e-005
,,,-1.24000000e-008,3.28125481e-005
,,,-1.22000000e-008,-8.12495382e-006
,,,-1.20000000e-008,-6.40624565e-005
,,,-1.18000000e-008,-6.84374567e-005
,,,-1.16000000e-008,-4.24999555e-005
,,,-1.14000000e-008,2.00000475e-005
,,,-1.12000000e-008,1.00625051e-004
,,,-1.10000000e-008,1.42500053e-004
,,,-1.08000000e-008,1.36875053e-004
,,,-1.06000000e-008,6.71875498e-005
,,,-1.04000000e-008,-3.81249552e-005
,,,-1.02000000e-008,-9.12499578e-005
,,,-1.00000000e-008,-1.00937458e-004
,,,-9.80000000e-009,-4.28124555e-005
,,,-9.60000000e-009,5.31250491e-005
,,,-9.40000000e-009,9.37500510e-005
,,,-9.20000000e-009,1.46250054e-004
,,,-9.00000000e-009,1.33750053e-004
,,,-8.80000000e-009,5.87500494e-005
,,,-8.60000000e-009,-2.09374544e-005
,,,-8.40000000e-009,-1.30312460e-004
,,,-8.20000000e-009,-1.49999961e-004
,,,-8.00000000e-009,-1.12812459e-004
,,,-7.80000000e-009,-2.62499547e-005
,,,-7.60000000e-009,1.19062552e-004
,,,-7.40000000e-009,1.81875055e-004
,,,-7.20000000e-009,1.81562555e-004
,,,-7.00000000e-009,9.31250510e-005
,,,-6.80000000e-009,-5.56249561e-005
,,,-6.60000000e-009,-1.18437459e-004
,,,-6.40000000e-009,-1.58437461e-004
,,,-6.20000000e-009,-7.84374572e-005
,,,-6.00000000e-009,5.31254682e-006
,,,-5.80000000e-009,8.15625504e-005
,,,-5.60000000e-009,1.44062553e-004
,,,-5.40000000e-009,1.15625052e-004
,,,-5.20000000e-009,7.37500501e-005
,,,-5.00000000e-009,6.25004686e-006
,,,-4.80000000e-009,-8.09374573e-005
,,,-4.60000000e-009,-1.18749959e-004
,,,-4.40000000e-009,-1.41562460e-004
,,,-4.20000000e-009,-9.37499579e-005
,,,-4.00000000e-009,-2.09374544e-005
,,,-3.80000000e-009,6.43750496e-005
,,,-3.60000000e-009,1.45625053e-004
,,,-3.40000000e-009,1.46562554e-004
,,,-3.20000000e-009,6.31250496e-005
,,,-3.00000000e-009,-4.84374557e-005
,,,-2.80000000e-009,-1.64687461e-004
,,,-2.60000000e-009,-1.73749962e-004
,,,-2.40000000e-009,-1.09062459e-004
,,,-2.20000000e-009,-1.03124539e-005
,,,-2.00000000e-009,1.03437551e-004
,,,-1.80000000e-009,1.23125052e-004
,,,-1.60000000e-009,1.02812551e-004
,,,-1.40000000e-009,5.56250492e-005
,,,-1.20000000e-009,-9.06245386e-006
,,,-1.00000000e-009,-3.46874551e-005
,,,-8.00000000e-010,-7.31249569e-005
,,,-6.00000000e-010,-9.81249581e-005
,,,-4.00000000e-010,-8.24999574e-005
,,,-2.00000000e-010,-2.34374545e-005
,,,0.00000000e+000,3.87500484e-005
,,,2.00000000e-010,8.84375508e-005
,,,4.00000000e-010,1.18437552e-004
,,,6.00000000e-010,9.37500510e-005
,,,8.00000000e-010,2.28125476e-005
,,,1.00000000e-009,-5.49999560e-005
,,,1.20000000e-009,-1.14062459e-004
,,,1.40000000e-009,-1.35937460e-004
,,,1.60000000e-009,-7.71874571e-005
,,,1.80000000e-009,1.28125472e-005
,,,2.00000000e-009,1.11875052e-004
,,,2.20000000e-009,1.63125054e-004
,,,2.40000000e-009,1.59687554e-004
,,,2.60000000e-009,1.14687552e-004
,,,2.80000000e-009,1.12500471e-005
,,,3.00000000e-009,-6.24999564e-005
,,,3.20000000e-009,-1.27187459e-004
,,,3.40000000e-009,-1.35937460e-004
,,,3.60000000e-009,-6.59374566e-005
,,,3.80000000e-009,2.18750476e-005
,,,4.00000000e-009,1.65000054e-004
,,,4.20000000e-009,2.24062557e-004
,,,4.40000000e-009,1.90000056e-004
,,,4.60000000e-009,9.93750513e-005
,,,4.80000000e-009,-5.96874563e-005
,,,5.00000000e-009,-1.74999962e-004
,,,5.20000000e-009,-1.94687463e-004
,,,5.40000000e-009,-1.27187459e-004
,,,5.60000000e-009,1.12500471e-005
,,,5.80000000e-009,1.28125053e-004
,,,6.00000000e-009,2.11250057e-004
,,,6.20000000e-009,2.01250056e-004
,,,6.40000000e-009,9.78125512e-005
,,,6.60000000e-009,-8.43745383e-006
,,,6.80000000e-009,-1.29999960e-004
,,,7.00000000e-009,-1.68749961e-004
,,,7.20000000e-009,-1.34062460e-004
,,,7.40000000e-009,-3.87499553e-005
,,,7.60000000e-009,8.59375506e-005
,,,7.80000000e-009,1.94375056e-004
,,,8.00000000e-009,2.15625057e-004
