Data/20220819/UCLA_to_R2A_VPOL_E_50_01_Math2.csv

"Record Length",3125,"Points",0.00000000e+000,-1.26142487e+002
"Sample Interval",8.00000000e+005,Hz,8.00000000e+005,-1.06510353e+002
"Trigger Point",0,"Samples",1.60000000e+006,-1.03732307e+002
"Trigger Time",0.00000000e+000,Hz,2.40000000e+006,-1.10660873e+002
"",,,3.20000000e+006,-1.08692253e+002
"Horizontal Offset",0.00000000e+000,Hz,4.00000000e+006,-1.06823029e+002
,,,4.80000000e+006,-1.19206017e+002
,,,5.60000000e+006,-1.13061859e+002
,,,6.40000000e+006,-1.11007881e+002
,,,7.20000000e+006,-1.15761116e+002
,,,8.00000000e+006,-1.10265190e+002
,,,8.80000000e+006,-1.10928047e+002
,,,9.60000000e+006,-1.11454323e+002
,,,1.04000000e+007,-1.09286140e+002
,,,1.12000000e+007,-1.17934074e+002
,,,1.20000000e+007,-1.15913170e+002
,,,1.28000000e+007,-1.04463936e+002
,,,1.36000000e+007,-1.22038734e+002
,,,1.44000000e+007,-1.09157883e+002
,,,1.52000000e+007,-1.07967224e+002
,,,1.60000000e+007,-1.09685493e+002
,,,1.68000000e+007,-1.05931274e+002
,,,1.76000000e+007,-1.25886414e+002
,,,1.84000000e+007,-1.04692635e+002
,,,1.92000000e+007,-1.12740524e+002
,,,2.00000000e+007,-1.12487778e+002
,,,2.08000000e+007,-1.11558792e+002
,,,2.16000000e+007,-1.10662735e+002
,,,2.24000000e+007,-1.05286217e+002
,,,2.32000000e+007,-1.19280563e+002
,,,2.40000000e+007,-1.06129845e+002
,,,2.48000000e+007,-1.13837463e+002
,,,2.56000000e+007,-1.21699326e+002
,,,2.64000000e+007,-1.09149750e+002
,,,2.72000000e+007,-1.14148834e+002
,,,2.80000000e+007,-1.11270630e+002
,,,2.88000000e+007,-1.12260857e+002
,,,2.96000000e+007,-1.17164734e+002
,,,3.04000000e+007,-1.19830231e+002
,,,3.12000000e+007,-1.15761230e+002
,,,3.20000000e+007,-1.11411415e+002
,,,3.28000000e+007,-1.18239952e+002
,,,3.36000000e+007,-1.12485939e+002
,,,3.44000000e+007,-1.35669983e+002
,,,3.52000000e+007,-1.11255531e+002
,,,3.60000000e+007,-1.13162727e+002
,,,3.68000000e+007,-1.09424377e+002
,,,3.76000000e+007,-1.11332657e+002
,,,3.84000000e+007,-1.18755157e+002
,,,3.92000000e+007,-1.10064705e+002
,,,4.00000000e+007,-1.20119934e+002
,,,4.08000000e+007,-1.12334572e+002
,,,4.16000000e+007,-1.12925415e+002
,,,4.24000000e+007,-1.21888145e+002
,,,4.32000000e+007,-1.12633636e+002
,,,4.40000000e+007,-1.21509933e+002
,,,4.48000000e+007,-1.09065750e+002
,,,4.56000000e+007,-1.28051880e+002
,,,4.64000000e+007,-1.22617378e+002
,,,4.72000000e+007,-1.11251358e+002
,,,4.80000000e+007,-1.10427704e+002
,,,4.88000000e+007,-1.14738220e+002
,,,4.96000000e+007,-1.14619156e+002
,,,5.04000000e+007,-1.10978195e+002
,,,5.12000000e+007,-1.17360153e+002
,,,5.20000000e+007,-1.15595901e+002
,,,5.28000000e+007,-1.15932610e+002
,,,5.36000000e+007,-1.13251999e+002
,,,5.44000000e+007,-1.11558510e+002
,,,5.52000000e+007,-1.15765327e+002
,,,5.60000000e+007,-1.06856712e+002
,,,5.68000000e+007,-1.22826164e+002
,,,5.76000000e+007,-1.14519112e+002
,,,5.84000000e+007,-1.17296921e+002
,,,5.92000000e+007,-1.10491432e+002
,,,6.00000000e+007,-1.13389397e+002
,,,6.08000000e+007,-1.25608795e+002
,,,6.16000000e+007,-1.06573250e+002
,,,6.24000000e+007,-1.20196487e+002
,,,6.32000000e+007,-1.14240387e+002
,,,6.40000000e+007,-1.11778145e+002
,,,6.48000000e+007,-1.15451004e+002
,,,6.56000000e+007,-1.18331764e+002
,,,6.64000000e+007,-1.18344231e+002
,,,6.72000000e+007,-1.11791748e+002
,,,6.80000000e+007,-1.09075584e+002
,,,6.88000000e+007,-1.10256340e+002
,,,6.96000000e+007,-1.11961357e+002
,,,7.04000000e+007,-1.19715004e+002
,,,7.12000000e+007,-1.33472931e+002
,,,7.20000000e+007,-1.14266296e+002
,,,7.28000000e+007,-1.20152351e+002
,,,7.36000000e+007,-1.26012192e+002
,,,7.44000000e+007,-1.24208405e+002
,,,7.52000000e+007,-1.09090652e+002
,,,7.60000000e+007,-1.19732452e+002
,,,7.68000000e+007,-1.16647194e+002
,,,7.76000000e+007,-1.17502914e+002
,,,7.84000000e+007,-1.13062317e+002
,,,7.92000000e+007,-1.23253410e+002
,,,8.00000000e+007,-1.26013336e+002
,,,8.08000000e+007,-1.15936226e+002
,,,8.16000000e+007,-1.26044052e+002
,,,8.24000000e+007,-1.15186821e+002
,,,8.32000000e+007,-1.13159943e+002
,,,8.40000000e+007,-1.14165268e+002
,,,8.48000000e+007,-1.27664803e+002
,,,8.56000000e+007,-1.26432442e+002
,,,8.64000000e+007,-1.13562378e+002
,,,8.72000000e+007,-1.20044815e+002
,,,8.80000000e+007,-1.22818237e+002
,,,8.88000000e+007,-1.11912086e+002
,,,8.96000000e+007,-1.18893051e+002
,,,9.04000000e+007,-1.20759087e+002
,,,9.12000000e+007,-1.08090401e+002
,,,9.20000000e+007,-1.12764091e+002
,,,9.28000000e+007,-1.13816658e+002
,,,9.36000000e+007,-1.18677544e+002
,,,9.44000000e+007,-1.10931015e+002
,,,9.52000000e+007,-1.12830025e+002
,,,9.60000000e+007,-1.19320633e+002
,,,9.68000000e+007,-1.13548531e+002
,,,9.76000000e+007,-1.15623657e+002
,,,9.84000000e+007,-1.05852127e+002
,,,9.92000000e+007,-1.09190361e+002
,,,1.00000000e+008,-1.31757904e+002
,,,1.00800000e+008,-1.15250717e+002
,,,1.01600000e+008,-1.18904716e+002
,,,1.02400000e+008,-1.20130074e+002
,,,1.03200000e+008,-1.14363258e+002
,,,1.04000000e+008,-1.07161636e+002
,,,1.04800000e+008,-1.11065292e+002
,,,1.05600000e+008,-1.11799133e+002
,,,1.06400000e+008,-1.17965408e+002
,,,1.07200000e+008,-1.14725609e+002
,,,1.08000000e+008,-1.32573624e+002
,,,1.08800000e+008,-1.14904434e+002
,,,1.09600000e+008,-1.12117973e+002
,,,1.10400000e+008,-1.10831894e+002
,,,1.11200000e+008,-1.07774529e+002
,,,1.12000000e+008,-1.05525856e+002
,,,1.12800000e+008,-1.05098953e+002
,,,1.13600000e+008,-1.07605339e+002
,,,1.14400000e+008,-1.12436409e+002
,,,1.15200000e+008,-1.23880409e+002
,,,1.16000000e+008,-1.16214226e+002
,,,1.16800000e+008,-1.14268761e+002
,,,1.17600000e+008,-1.19315514e+002
,,,1.18400000e+008,-1.13200249e+002
,,,1.19200000e+008,-1.11714783e+002
,,,1.20000000e+008,-1.14414688e+002
,,,1.20800000e+008,-1.13551994e+002
,,,1.21600000e+008,-1.12320702e+002
,,,1.22400000e+008,-1.15800720e+002
,,,1.23200000e+008,-1.23530312e+002
,,,1.24000000e+008,-1.13606537e+002
,,,1.24800000e+008,-1.20205055e+002
,,,1.25600000e+008,-1.36265991e+002
,,,1.26400000e+008,-1.10683144e+002
,,,1.27200000e+008,-1.14297340e+002
,,,1.28000000e+008,-1.18323471e+002
,,,1.28800000e+008,-1.07418861e+002
,,,1.29600000e+008,-1.05449829e+002
,,,1.30400000e+008,-1.02427444e+002
,,,1.31200000e+008,-1.04686020e+002
,,,1.32000000e+008,-1.07296150e+002
,,,1.32800000e+008,-1.09794395e+002
,,,1.33600000e+008,-1.13212204e+002
,,,1.34400000e+008,-1.13966339e+002
,,,1.35200000e+008,-1.26660675e+002
,,,1.36000000e+008,-1.13907120e+002
,,,1.36800000e+008,-1.25949707e+002
,,,1.37600000e+008,-1.27077660e+002
,,,1.38400000e+008,-1.41606094e+002
,,,1.39200000e+008,-1.22394211e+002
,,,1.40000000e+008,-1.15508133e+002
,,,1.40800000e+008,-1.15628387e+002
,,,1.41600000e+008,-1.22737480e+002
,,,1.42400000e+008,-1.21802505e+002
,,,1.43200000e+008,-1.17145164e+002
,,,1.44000000e+008,-1.20116379e+002
,,,1.44800000e+008,-1.25761658e+002
,,,1.45600000e+008,-1.21708717e+002
,,,1.46400000e+008,-1.11655128e+002
,,,1.47200000e+008,-1.03360153e+002
,,,1.48000000e+008,-9.93792725e+001
,,,1.48800000e+008,-9.89604568e+001
,,,1.49600000e+008,-1.00699745e+002
,,,1.50400000e+008,-1.05473595e+002
,,,1.51200000e+008,-1.03838966e+002
,,,1.52000000e+008,-1.02623497e+002
,,,1.52800000e+008,-1.03089317e+002
,,,1.53600000e+008,-1.07593254e+002
,,,1.54400000e+008,-1.08488632e+002
,,,1.55200000e+008,-1.09639206e+002
,,,1.56000000e+008,-1.06311302e+002
,,,1.56800000e+008,-1.02670181e+002
,,,1.57600000e+008,-1.01498764e+002
,,,1.58400000e+008,-1.01460358e+002
,,,1.59200000e+008,-9.98189163e+001
,,,1.60000000e+008,-9.94725113e+001
,,,1.60800000e+008,-1.03210548e+002
,,,1.61600000e+008,-1.02194160e+002
,,,1.62400000e+008,-9.89077988e+001
,,,1.63200000e+008,-9.99886475e+001
,,,1.64000000e+008,-1.03508675e+002
,,,1.64800000e+008,-9.51335297e+001
,,,1.65600000e+008,-9.03082504e+001
,,,1.66400000e+008,-8.87901611e+001
,,,1.67200000e+008,-9.02061081e+001
,,,1.68000000e+008,-9.37248764e+001
,,,1.68800000e+008,-9.95237885e+001
,,,1.69600000e+008,-9.56244583e+001
,,,1.70400000e+008,-9.61948853e+001
,,,1.71200000e+008,-9.65006332e+001
,,,1.72000000e+008,-9.78545456e+001
,,,1.72800000e+008,-9.83439941e+001
,,,1.73600000e+008,-1.01263107e+002
,,,1.74400000e+008,-9.74666519e+001
,,,1.75200000e+008,-9.66315002e+001
,,,1.76000000e+008,-9.47628098e+001
,,,1.76800000e+008,-9.58095169e+001
,,,1.77600000e+008,-9.53404465e+001
,,,1.78400000e+008,-9.18314667e+001
,,,1.79200000e+008,-9.21890030e+001
,,,1.80000000e+008,-9.03410187e+001
,,,1.80800000e+008,-8.88123932e+001
,,,1.81600000e+008,-8.69216003e+001
,,,1.82400000e+008,-8.57069397e+001
,,,1.83200000e+008,-8.43372269e+001
,,,1.84000000e+008,-8.30494537e+001
,,,1.84800000e+008,-8.23312531e+001
,,,1.85600000e+008,-8.26639633e+001
,,,1.86400000e+008,-8.40099258e+001
,,,1.87200000e+008,-8.56559753e+001
,,,1.88000000e+008,-8.71664276e+001
,,,1.88800000e+008,-8.75592651e+001
,,,1.89600000e+008,-8.87491760e+001
,,,1.90400000e+008,-9.15938873e+001
,,,1.91200000e+008,-9.35417862e+001
,,,1.92000000e+008,-9.07144012e+001
,,,1.92800000e+008,-8.88646164e+001
,,,1.93600000e+008,-8.83680115e+001
,,,1.94400000e+008,-8.98114014e+001
,,,1.95200000e+008,-9.05688782e+001
,,,1.96000000e+008,-8.98049316e+001
,,,1.96800000e+008,-8.96976624e+001
,,,1.97600000e+008,-9.03033905e+001
,,,1.98400000e+008,-9.17263336e+001
,,,1.99200000e+008,-9.22744675e+001
,,,2.00000000e+008,-9.14315948e+001
,,,2.00800000e+008,-9.15423203e+001
,,,2.01600000e+008,-9.31149902e+001
,,,2.02400000e+008,-9.24584503e+001
,,,2.03200000e+008,-9.08341064e+001
,,,2.04000000e+008,-8.81881943e+001
,,,2.04800000e+008,-8.68807220e+001
,,,2.05600000e+008,-9.09354706e+001
,,,2.06400000e+008,-9.14910965e+001
,,,2.07200000e+008,-9.25962906e+001
,,,2.08000000e+008,-9.33945007e+001
,,,2.08800000e+008,-9.45553131e+001
,,,2.09600000e+008,-1.02140862e+002
,,,2.10400000e+008,-1.04923248e+002
,,,2.11200000e+008,-9.59040375e+001
,,,2.12000000e+008,-9.52164993e+001
,,,2.12800000e+008,-9.79562073e+001
,,,2.13600000e+008,-9.88215561e+001
,,,2.14400000e+008,-9.30503006e+001
,,,2.15200000e+008,-9.01999741e+001
,,,2.16000000e+008,-8.87730331e+001
,,,2.16800000e+008,-8.77663879e+001
,,,2.17600000e+008,-8.69584961e+001
,,,2.18400000e+008,-8.64652100e+001
,,,2.19200000e+008,-8.59951477e+001
,,,2.20000000e+008,-8.57146225e+001
,,,2.20800000e+008,-8.72812119e+001
,,,2.21600000e+008,-9.11218719e+001
,,,2.22400000e+008,-9.22601852e+001
,,,2.23200000e+008,-8.79443207e+001
,,,2.24000000e+008,-8.60321350e+001
,,,2.24800000e+008,-8.63037949e+001
,,,2.25600000e+008,-8.70964737e+001
,,,2.26400000e+008,-8.65799103e+001
,,,2.27200000e+008,-8.71529083e+001
,,,2.28000000e+008,-8.87609558e+001
,,,2.28800000e+008,-9.02830353e+001
,,,2.29600000e+008,-8.96111298e+001
,,,2.30400000e+008,-9.05079422e+001
,,,2.31200000e+008,-9.74072952e+001
,,,2.32000000e+008,-9.45948486e+001
,,,2.32800000e+008,-8.70931549e+001
,,,2.33600000e+008,-8.35900497e+001
,,,2.34400000e+008,-8.20409088e+001
,,,2.35200000e+008,-8.17998276e+001
,,,2.36000000e+008,-8.29017868e+001
,,,2.36800000e+008,-8.48620300e+001
,,,2.37600000e+008,-8.57718887e+001
,,,2.38400000e+008,-8.47936172e+001
,,,2.39200000e+008,-8.42139969e+001
,,,2.40000000e+008,-8.44106903e+001
,,,2.40800000e+008,-8.36739502e+001
,,,2.41600000e+008,-8.38358841e+001
,,,2.42400000e+008,-8.37076263e+001
,,,2.43200000e+008,-8.42282410e+001
,,,2.44000000e+008,-8.42590103e+001
,,,2.44800000e+008,-8.42815857e+001
,,,2.45600000e+008,-8.56081238e+001
,,,2.46400000e+008,-9.10665359e+001
,,,2.47200000e+008,-1.02681885e+002
,,,2.48000000e+008,-8.80750809e+001
,,,2.48800000e+008,-8.52286758e+001
,,,2.49600000e+008,-8.57908783e+001
,,,2.50400000e+008,-8.56194992e+001
,,,2.51200000e+008,-8.26089630e+001
,,,2.52000000e+008,-8.09104614e+001
,,,2.52800000e+008,-8.17657928e+001
,,,2.53600000e+008,-8.47735825e+001
,,,2.54400000e+008,-8.72373657e+001
,,,2.55200000e+008,-8.38422928e+001
,,,2.56000000e+008,-8.11735001e+001
,,,2.56800000e+008,-7.96583176e+001
,,,2.57600000e+008,-7.91430054e+001
,,,2.58400000e+008,-7.96446457e+001
,,,2.59200000e+008,-8.14899597e+001
,,,2.60000000e+008,-8.54827118e+001
,,,2.60800000e+008,-8.91221542e+001
,,,2.61600000e+008,-8.50519638e+001
,,,2.62400000e+008,-8.15519867e+001
,,,2.63200000e+008,-7.99458389e+001
,,,2.64000000e+008,-7.96280594e+001
,,,2.64800000e+008,-8.03110504e+001
,,,2.65600000e+008,-8.20956955e+001
,,,2.66400000e+008,-8.41355972e+001
,,,2.67200000e+008,-8.43726120e+001
,,,2.68000000e+008,-8.39071503e+001
,,,2.68800000e+008,-8.44791412e+001
,,,2.69600000e+008,-8.42793198e+001
,,,2.70400000e+008,-8.34058075e+001
,,,2.71200000e+008,-8.41929169e+001
,,,2.72000000e+008,-8.78830795e+001
,,,2.72800000e+008,-8.65052109e+001
,,,2.73600000e+008,-8.22465668e+001
,,,2.74400000e+008,-8.02461166e+001
,,,2.75200000e+008,-7.84915848e+001
,,,2.76000000e+008,-7.62353439e+001
,,,2.76800000e+008,-7.48913345e+001
,,,2.77600000e+008,-7.50092087e+001
,,,2.78400000e+008,-7.61360779e+001
,,,2.79200000e+008,-7.62557144e+001
,,,2.80000000e+008,-7.51839905e+001
,,,2.80800000e+008,-7.46818619e+001
,,,2.81600000e+008,-7.55915756e+001
,,,2.82400000e+008,-7.76328964e+001
,,,2.83200000e+008,-8.00291672e+001
,,,2.84000000e+008,-8.25124359e+001
,,,2.84800000e+008,-8.59812164e+001
,,,2.85600000e+008,-8.80906067e+001
,,,2.86400000e+008,-8.50745163e+001
,,,2.87200000e+008,-8.42969513e+001
,,,2.88000000e+008,-8.52173843e+001
,,,2.88800000e+008,-8.48910065e+001
,,,2.89600000e+008,-8.33666611e+001
,,,2.90400000e+008,-8.36335068e+001
,,,2.91200000e+008,-8.27833099e+001
,,,2.92000000e+008,-8.01367950e+001
,,,2.92800000e+008,-7.85281982e+001
,,,2.93600000e+008,-7.89693909e+001
,,,2.94400000e+008,-7.98711624e+001
,,,2.95200000e+008,-7.99505844e+001
,,,2.96000000e+008,-7.98777313e+001
,,,2.96800000e+008,-8.02677383e+001
,,,2.97600000e+008,-7.87438431e+001
,,,2.98400000e+008,-7.71075974e+001
,,,2.99200000e+008,-7.68385925e+001
,,,3.00000000e+008,-7.69448166e+001
,,,3.00800000e+008,-7.62267990e+001
,,,3.01600000e+008,-7.59563446e+001
,,,3.02400000e+008,-7.73111801e+001
,,,3.03200000e+008,-8.01267242e+001
,,,3.04000000e+008,-7.98008652e+001
,,,3.04800000e+008,-7.76940994e+001
,,,3.05600000e+008,-7.71803589e+001
,,,3.06400000e+008,-7.80250092e+001
,,,3.07200000e+008,-7.87958908e+001
,,,3.08000000e+008,-7.83333359e+001
,,,3.08800000e+008,-7.73028412e+001
,,,3.09600000e+008,-7.73033752e+001
,,,3.10400000e+008,-7.90942688e+001
,,,3.11200000e+008,-8.14109726e+001
,,,3.12000000e+008,-8.00887756e+001
,,,3.12800000e+008,-7.86123047e+001
,,,3.13600000e+008,-7.92569046e+001
,,,3.14400000e+008,-8.12916641e+001
,,,3.15200000e+008,-8.09768906e+001
,,,3.16000000e+008,-7.91599960e+001
,,,3.16800000e+008,-7.84859085e+001
,,,3.17600000e+008,-7.90040436e+001
,,,3.18400000e+008,-8.05485687e+001
,,,3.19200000e+008,-8.30288162e+001
,,,3.20000000e+008,-8.43894882e+001
,,,3.20800000e+008,-8.35468369e+001
,,,3.21600000e+008,-8.15829926e+001
,,,3.22400000e+008,-8.00778885e+001
,,,3.23200000e+008,-7.98853531e+001
,,,3.24000000e+008,-8.15939255e+001
,,,3.24800000e+008,-8.37238693e+001
,,,3.25600000e+008,-8.25697174e+001
,,,3.26400000e+008,-8.14417038e+001
,,,3.27200000e+008,-8.23021088e+001
,,,3.28000000e+008,-8.19749374e+001
,,,3.28800000e+008,-7.97662125e+001
,,,3.29600000e+008,-7.85539627e+001
,,,3.30400000e+008,-7.78574448e+001
,,,3.31200000e+008,-7.69476013e+001
,,,3.32000000e+008,-7.70828094e+001
,,,3.32800000e+008,-7.95746231e+001
,,,3.33600000e+008,-8.57689133e+001
,,,3.34400000e+008,-8.80039597e+001
,,,3.35200000e+008,-8.29424133e+001
,,,3.36000000e+008,-8.10632553e+001
,,,3.36800000e+008,-8.05563278e+001
,,,3.37600000e+008,-8.08668594e+001
,,,3.38400000e+008,-8.23040771e+001
,,,3.39200000e+008,-8.26833115e+001
,,,3.40000000e+008,-8.08904037e+001
,,,3.40800000e+008,-7.99507904e+001
,,,3.41600000e+008,-7.94812012e+001
,,,3.42400000e+008,-7.90903091e+001
,,,3.43200000e+008,-7.89299316e+001
,,,3.44000000e+008,-7.92821121e+001
,,,3.44800000e+008,-7.84045715e+001
,,,3.45600000e+008,-7.64451523e+001
,,,3.46400000e+008,-7.49125900e+001
,,,3.47200000e+008,-7.41241608e+001
,,,3.48000000e+008,-7.37230759e+001
,,,3.48800000e+008,-7.40104141e+001
,,,3.49600000e+008,-7.50173035e+001
,,,3.50400000e+008,-7.61112671e+001
,,,3.51200000e+008,-7.59816055e+001
,,,3.52000000e+008,-7.58232574e+001
,,,3.52800000e+008,-7.64430389e+001
,,,3.53600000e+008,-7.80203171e+001
,,,3.54400000e+008,-7.98600235e+001
,,,3.55200000e+008,-8.21491776e+001
,,,3.56000000e+008,-8.59763947e+001
,,,3.56800000e+008,-8.98882904e+001
,,,3.57600000e+008,-8.69001846e+001
,,,3.58400000e+008,-8.34443207e+001
,,,3.59200000e+008,-8.09452209e+001
,,,3.60000000e+008,-8.00697784e+001
,,,3.60800000e+008,-8.12102661e+001
,,,3.61600000e+008,-8.55459213e+001
,,,3.62400000e+008,-9.16873398e+001
,,,3.63200000e+008,-8.63839951e+001
,,,3.64000000e+008,-8.42016296e+001
,,,3.64800000e+008,-8.63144760e+001
,,,3.65600000e+008,-9.03566971e+001
,,,3.66400000e+008,-8.76019592e+001
,,,3.67200000e+008,-8.43249512e+001
,,,3.68000000e+008,-8.30580673e+001
,,,3.68800000e+008,-8.21413422e+001
,,,3.69600000e+008,-8.21463394e+001
,,,3.70400000e+008,-8.37196426e+001
,,,3.71200000e+008,-8.78468933e+001
,,,3.72000000e+008,-9.20562973e+001
,,,3.72800000e+008,-8.98423309e+001
,,,3.73600000e+008,-8.86088638e+001
,,,3.74400000e+008,-8.88591843e+001
,,,3.75200000e+008,-8.93537521e+001
,,,3.76000000e+008,-9.19227829e+001
,,,3.76800000e+008,-1.00693367e+002
,,,3.77600000e+008,-9.35607376e+001
,,,3.78400000e+008,-8.89065781e+001
,,,3.79200000e+008,-8.84392014e+001
,,,3.80000000e+008,-9.02144318e+001
,,,3.80800000e+008,-9.26398087e+001
,,,3.81600000e+008,-8.98439713e+001
,,,3.82400000e+008,-8.68075180e+001
,,,3.83200000e+008,-8.54693832e+001
,,,3.84000000e+008,-8.69571075e+001
,,,3.84800000e+008,-8.96728668e+001
,,,3.85600000e+008,-8.64597778e+001
,,,3.86400000e+008,-8.24592438e+001
,,,3.87200000e+008,-8.10045776e+001
,,,3.88000000e+008,-8.11868057e+001
,,,3.88800000e+008,-8.26028061e+001
,,,3.89600000e+008,-8.39728546e+001
,,,3.90400000e+008,-8.43368301e+001
,,,3.91200000e+008,-8.46105804e+001
,,,3.92000000e+008,-8.55909729e+001
,,,3.92800000e+008,-8.66255493e+001
,,,3.93600000e+008,-8.77953644e+001
,,,3.94400000e+008,-8.75393600e+001
,,,3.95200000e+008,-8.57544556e+001
,,,3.96000000e+008,-8.38649063e+001
,,,3.96800000e+008,-8.36555328e+001
,,,3.97600000e+008,-8.53312225e+001
,,,3.98400000e+008,-8.65005341e+001
,,,3.99200000e+008,-8.40226898e+001
,,,4.00000000e+008,-8.20994492e+001
,,,4.00800000e+008,-8.18109131e+001
,,,4.01600000e+008,-8.23454666e+001
,,,4.02400000e+008,-8.31283264e+001
,,,4.03200000e+008,-8.38639526e+001
,,,4.04000000e+008,-8.42007904e+001
,,,4.04800000e+008,-8.41604919e+001
,,,4.05600000e+008,-8.49835358e+001
,,,4.06400000e+008,-8.70482178e+001
,,,4.07200000e+008,-8.83584137e+001
,,,4.08000000e+008,-8.62449417e+001
,,,4.08800000e+008,-8.48506088e+001
,,,4.09600000e+008,-8.33072510e+001
,,,4.10400000e+008,-8.22707977e+001
,,,4.11200000e+008,-8.27581863e+001
,,,4.12000000e+008,-8.57523804e+001
,,,4.12800000e+008,-8.72984619e+001
,,,4.13600000e+008,-8.50090332e+001
,,,4.14400000e+008,-8.37474518e+001
,,,4.15200000e+008,-8.40207672e+001
,,,4.16000000e+008,-8.23920212e+001
,,,4.16800000e+008,-8.07637024e+001
,,,4.17600000e+008,-8.02759399e+001
,,,4.18400000e+008,-8.11700974e+001
,,,4.19200000e+008,-8.21394043e+001
,,,4.20000000e+008,-8.36373062e+001
,,,4.20800000e+008,-8.55658798e+001
,,,4.21600000e+008,-8.94471130e+001
,,,4.22400000e+008,-9.15902328e+001
,,,4.23200000e+008,-9.04618378e+001
,,,4.24000000e+008,-8.81286621e+001
,,,4.24800000e+008,-8.69311981e+001
,,,4.25600000e+008,-8.59509888e+001
,,,4.26400000e+008,-8.60210419e+001
,,,4.27200000e+008,-8.55829697e+001
,,,4.28000000e+008,-8.53481293e+001
,,,4.28800000e+008,-8.44125900e+001
,,,4.29600000e+008,-8.40213318e+001
,,,4.30400000e+008,-8.38092957e+001
,,,4.31200000e+008,-8.48283234e+001
,,,4.32000000e+008,-8.47214661e+001
,,,4.32800000e+008,-8.46448517e+001
,,,4.33600000e+008,-8.46763077e+001
,,,4.34400000e+008,-8.49824219e+001
,,,4.35200000e+008,-8.47542572e+001
,,,4.36000000e+008,-8.52074280e+001
,,,4.36800000e+008,-8.53799133e+001
,,,4.37600000e+008,-8.60986099e+001
,,,4.38400000e+008,-8.60142059e+001
,,,4.39200000e+008,-8.62100296e+001
,,,4.40000000e+008,-8.72573013e+001
