Data/20220819/UCLA_to_R2B_VPOL_E_NEG80_01_Ch2.csv

"Record Length",5000,"Points",-1.00800000e-007,-1.18749540e-005
"Sample Interval",2.00000000e-010,s,-1.00600000e-007,4.59375487e-005
"Trigger Point",504,"Samples",-1.00400000e-007,2.65625478e-005
"Trigger Time",0.00000000e+000,s,-1.00200000e-007,2.81254670e-006
"",,,-1.00000000e-007,-1.18749540e-005
"Horizontal Offset",-1.00800000e-007,s,-9.98000000e-008,-4.06249554e-005
,,,-9.96000000e-008,-1.00624958e-004
,,,-9.94000000e-008,-8.24999574e-005
,,,-9.92000000e-008,-8.31249574e-005
,,,-9.90000000e-008,-1.93749544e-005
,,,-9.88000000e-008,3.59375483e-005
,,,-9.86000000e-008,3.46875482e-005
,,,-9.84000000e-008,3.81250484e-005
,,,-9.82000000e-008,3.12500481e-005
,,,-9.80000000e-008,-6.56245375e-006
,,,-9.78000000e-008,-4.09374554e-005
,,,-9.76000000e-008,-7.31249569e-005
,,,-9.74000000e-008,-1.02499958e-004
,,,-9.72000000e-008,-1.07499959e-004
,,,-9.70000000e-008,-4.78124557e-005
,,,-9.68000000e-008,5.00004680e-006
,,,-9.66000000e-008,2.46875477e-005
,,,-9.64000000e-008,5.56250492e-005
,,,-9.62000000e-008,4.31250486e-005
,,,-9.60000000e-008,7.18754691e-006
,,,-9.58000000e-008,-1.56249542e-005
,,,-9.56000000e-008,-5.65624561e-005
,,,-9.54000000e-008,-1.02187458e-004
,,,-9.52000000e-008,-7.74999571e-005
,,,-9.50000000e-008,-8.37499574e-005
,,,-9.48000000e-008,-4.65624556e-005
,,,-9.46000000e-008,2.18750476e-005
,,,-9.44000000e-008,7.21875500e-005
,,,-9.42000000e-008,1.19062552e-004
,,,-9.40000000e-008,8.00000504e-005
,,,-9.38000000e-008,2.93750480e-005
,,,-9.36000000e-008,-9.65624580e-005
,,,-9.34000000e-008,-1.70312462e-004
,,,-9.32000000e-008,-1.67812461e-004
,,,-9.30000000e-008,-1.72499962e-004
,,,-9.28000000e-008,-4.49999556e-005
,,,-9.26000000e-008,1.25937553e-004
,,,-9.24000000e-008,1.75937555e-004
,,,-9.22000000e-008,2.18125057e-004
,,,-9.20000000e-008,1.14375052e-004
,,,-9.18000000e-008,-1.01874958e-004
,,,-9.16000000e-008,-2.57187466e-004
,,,-9.14000000e-008,-3.01562468e-004
,,,-9.12000000e-008,-2.27812464e-004
,,,-9.10000000e-008,-6.99999568e-005
,,,-9.08000000e-008,9.78125512e-005
,,,-9.06000000e-008,2.05625056e-004
,,,-9.04000000e-008,2.14687557e-004
,,,-9.02000000e-008,1.24375052e-004
,,,-9.00000000e-008,-9.06249577e-005
,,,-8.98000000e-008,-2.28749964e-004
,,,-8.96000000e-008,-2.89999967e-004
,,,-8.94000000e-008,-2.51249965e-004
,,,-8.92000000e-008,-7.84374572e-005
,,,-8.90000000e-008,7.12500500e-005
,,,-8.88000000e-008,1.91875056e-004
,,,-8.86000000e-008,2.40000058e-004
,,,-8.84000000e-008,1.48125054e-004
,,,-8.82000000e-008,2.56250478e-005
,,,-8.80000000e-008,-9.18749578e-005
,,,-8.78000000e-008,-2.01562463e-004
,,,-8.76000000e-008,-1.89062462e-004
,,,-8.74000000e-008,-1.59374961e-004
,,,-8.72000000e-008,-4.96874558e-005
,,,-8.70000000e-008,5.78125493e-005
,,,-8.68000000e-008,1.27812553e-004
,,,-8.66000000e-008,1.59687554e-004
,,,-8.64000000e-008,1.09687552e-004
,,,-8.62000000e-008,2.06250475e-005
,,,-8.60000000e-008,-7.78124571e-005
,,,-8.58000000e-008,-1.64062461e-004
,,,-8.56000000e-008,-1.71874962e-004
,,,-8.54000000e-008,-1.75624962e-004
,,,-8.52000000e-008,-8.65624575e-005
,,,-8.50000000e-008,3.50000482e-005
,,,-8.48000000e-008,1.34062553e-004
,,,-8.46000000e-008,2.28437557e-004
,,,-8.44000000e-008,1.84062555e-004
,,,-8.42000000e-008,7.12500500e-005
,,,-8.40000000e-008,-5.21874559e-005
,,,-8.38000000e-008,-2.09374963e-004
,,,-8.36000000e-008,-2.65624966e-004
,,,-8.34000000e-008,-2.47187465e-004
,,,-8.32000000e-008,-1.27812460e-004
,,,-8.30000000e-008,9.65625512e-005
,,,-8.28000000e-008,2.29062557e-004
,,,-8.26000000e-008,2.95000061e-004
,,,-8.24000000e-008,2.07500056e-004
,,,-8.22000000e-008,-2.46874546e-005
,,,-8.20000000e-008,-2.09374963e-004
,,,-8.18000000e-008,-3.40937470e-004
,,,-8.16000000e-008,-3.24374969e-004
,,,-8.14000000e-008,-1.90937463e-004
,,,-8.12000000e-008,1.71875474e-005
,,,-8.10000000e-008,1.93125056e-004
,,,-8.08000000e-008,2.81250060e-004
,,,-8.06000000e-008,2.51875059e-004
,,,-8.04000000e-008,7.87500503e-005
,,,-8.02000000e-008,-1.35624960e-004
,,,-8.00000000e-008,-2.79062467e-004
,,,-7.98000000e-008,-3.48437470e-004
,,,-7.96000000e-008,-2.64687466e-004
,,,-7.94000000e-008,-8.59374575e-005
,,,-7.92000000e-008,9.90625513e-005
,,,-7.90000000e-008,2.30312558e-004
,,,-7.88000000e-008,2.93437561e-004
,,,-7.86000000e-008,1.57812554e-004
,,,-7.84000000e-008,-1.09374540e-005
,,,-7.82000000e-008,-1.79062462e-004
,,,-7.80000000e-008,-2.67812466e-004
,,,-7.78000000e-008,-2.78124967e-004
,,,-7.76000000e-008,-1.48749960e-004
,,,-7.74000000e-008,6.25046596e-007
,,,-7.72000000e-008,1.36875053e-004
,,,-7.70000000e-008,2.20625057e-004
,,,-7.68000000e-008,1.90937556e-004
,,,-7.66000000e-008,9.06254700e-006
,,,-7.64000000e-008,-9.90624581e-005
,,,-7.62000000e-008,-2.07187463e-004
,,,-7.60000000e-008,-2.43124965e-004
,,,-7.58000000e-008,-1.85312462e-004
,,,-7.56000000e-008,-8.21874573e-005
,,,-7.54000000e-008,2.28125476e-005
,,,-7.52000000e-008,1.47500054e-004
,,,-7.50000000e-008,2.03750056e-004
,,,-7.48000000e-008,1.54375054e-004
,,,-7.46000000e-008,3.28125481e-005
,,,-7.44000000e-008,-4.96874558e-005
,,,-7.42000000e-008,-1.53437461e-004
,,,-7.40000000e-008,-1.91874963e-004
,,,-7.38000000e-008,-1.45312460e-004
,,,-7.36000000e-008,-8.37499574e-005
,,,-7.34000000e-008,3.43750482e-005
,,,-7.32000000e-008,1.21250052e-004
,,,-7.30000000e-008,1.51250054e-004
,,,-7.28000000e-008,1.40312553e-004
,,,-7.26000000e-008,-8.74995385e-006
,,,-7.24000000e-008,-1.25624959e-004
,,,-7.22000000e-008,-2.01562463e-004
,,,-7.20000000e-008,-2.56874966e-004
,,,-7.18000000e-008,-1.85937462e-004
,,,-7.16000000e-008,-6.43749565e-005
,,,-7.14000000e-008,2.68750478e-005
,,,-7.12000000e-008,1.60312554e-004
,,,-7.10000000e-008,1.76875055e-004
,,,-7.08000000e-008,1.02500051e-004
,,,-7.06000000e-008,-8.43745383e-006
,,,-7.04000000e-008,-1.54999961e-004
,,,-7.02000000e-008,-2.39374965e-004
,,,-7.00000000e-008,-2.25312464e-004
,,,-6.98000000e-008,-1.04062458e-004
,,,-6.96000000e-008,3.28125481e-005
,,,-6.94000000e-008,1.47187554e-004
,,,-6.92000000e-008,1.82187555e-004
,,,-6.90000000e-008,1.00937551e-004
,,,-6.88000000e-008,-9.99995391e-006
,,,-6.86000000e-008,-1.25312459e-004
,,,-6.84000000e-008,-2.00312463e-004
,,,-6.82000000e-008,-2.00937463e-004
,,,-6.80000000e-008,-1.34062460e-004
,,,-6.78000000e-008,-2.96874548e-005
,,,-6.76000000e-008,8.31250505e-005
,,,-6.74000000e-008,1.17500052e-004
,,,-6.72000000e-008,1.03437551e-004
,,,-6.70000000e-008,-1.46874541e-005
,,,-6.68000000e-008,-1.14062459e-004
,,,-6.66000000e-008,-1.27499959e-004
,,,-6.64000000e-008,-1.14687459e-004
,,,-6.62000000e-008,-6.31249564e-005
,,,-6.60000000e-008,-1.18749540e-005
,,,-6.58000000e-008,1.75000474e-005
,,,-6.56000000e-008,4.15625485e-005
,,,-6.54000000e-008,5.93750494e-005
,,,-6.52000000e-008,2.34375477e-005
,,,-6.50000000e-008,-5.37499560e-005
,,,-6.48000000e-008,-4.43749555e-005
,,,-6.46000000e-008,-4.28124555e-005
,,,-6.44000000e-008,-6.65624566e-005
,,,-6.42000000e-008,-3.40624551e-005
,,,-6.40000000e-008,-1.62499542e-005
,,,-6.38000000e-008,-1.18749540e-005
,,,-6.36000000e-008,7.81254694e-006
,,,-6.34000000e-008,3.06250480e-005
,,,-6.32000000e-008,9.68754703e-006
,,,-6.30000000e-008,-2.59374547e-005
,,,-6.28000000e-008,-4.59374556e-005
,,,-6.26000000e-008,-7.78124571e-005
,,,-6.24000000e-008,-7.34374569e-005
,,,-6.22000000e-008,-7.59374570e-005
,,,-6.20000000e-008,-1.87499543e-005
,,,-6.18000000e-008,-6.87495376e-006
,,,-6.16000000e-008,1.56254664e-006
,,,-6.14000000e-008,-2.43749546e-005
,,,-6.12000000e-008,-7.03124568e-005
,,,-6.10000000e-008,-7.40624570e-005
,,,-6.08000000e-008,-6.31249564e-005
,,,-6.06000000e-008,-3.53124551e-005
,,,-6.04000000e-008,-2.18749545e-005
,,,-6.02000000e-008,2.53125478e-005
,,,-6.00000000e-008,4.00000485e-005
,,,-5.98000000e-008,-1.87495352e-006
,,,-5.96000000e-008,-3.71874552e-005
,,,-5.94000000e-008,-8.53124575e-005
,,,-5.92000000e-008,-1.06562458e-004
,,,-5.90000000e-008,-6.74999566e-005
,,,-5.88000000e-008,-4.68745366e-006
,,,-5.86000000e-008,7.81254694e-006
,,,-5.84000000e-008,3.75000483e-005
,,,-5.82000000e-008,3.68750483e-005
,,,-5.80000000e-008,-3.12453449e-007
,,,-5.78000000e-008,-6.68749566e-005
,,,-5.76000000e-008,-1.03124958e-004
,,,-5.74000000e-008,-1.47812460e-004
,,,-5.72000000e-008,-1.19999959e-004
,,,-5.70000000e-008,-1.15624540e-005
,,,-5.68000000e-008,7.34375501e-005
,,,-5.66000000e-008,8.71875507e-005
,,,-5.64000000e-008,4.12500485e-005
,,,-5.62000000e-008,-4.37495364e-006
,,,-5.60000000e-008,-7.28124569e-005
,,,-5.58000000e-008,-9.93749582e-005
,,,-5.56000000e-008,-7.03124568e-005
,,,-5.54000000e-008,-6.59374566e-005
,,,-5.52000000e-008,-2.59374547e-005
,,,-5.50000000e-008,1.46875473e-005
,,,-5.48000000e-008,2.06250475e-005
,,,-5.46000000e-008,5.00004680e-006
,,,-5.44000000e-008,4.84375489e-005
,,,-5.42000000e-008,3.28125481e-005
,,,-5.40000000e-008,-1.56249542e-005
,,,-5.38000000e-008,-1.99999544e-005
,,,-5.36000000e-008,-3.37499550e-005
,,,-5.34000000e-008,-1.31249960e-004
,,,-5.32000000e-008,-1.23124959e-004
,,,-5.30000000e-008,-5.90624562e-005
,,,-5.28000000e-008,-2.93749548e-005
,,,-5.26000000e-008,8.28125505e-005
,,,-5.24000000e-008,1.31562553e-004
,,,-5.22000000e-008,9.75000512e-005
,,,-5.20000000e-008,-6.87495376e-006
,,,-5.18000000e-008,-1.30624960e-004
,,,-5.16000000e-008,-2.39687465e-004
,,,-5.14000000e-008,-2.69687466e-004
,,,-5.12000000e-008,-1.42812460e-004
,,,-5.10000000e-008,-1.71874543e-005
,,,-5.08000000e-008,1.11875052e-004
,,,-5.06000000e-008,2.30312558e-004
,,,-5.04000000e-008,1.96562556e-004
,,,-5.02000000e-008,5.12500490e-005
,,,-5.00000000e-008,-1.04062458e-004
,,,-4.98000000e-008,-2.53437465e-004
,,,-4.96000000e-008,-3.07187468e-004
,,,-4.94000000e-008,-1.94999963e-004
,,,-4.92000000e-008,-4.06245363e-006
,,,-4.90000000e-008,1.67812555e-004
,,,-4.88000000e-008,2.76250060e-004
,,,-4.86000000e-008,2.08437556e-004
,,,-4.84000000e-008,6.81250498e-005
,,,-4.82000000e-008,-1.20937459e-004
,,,-4.80000000e-008,-2.59687466e-004
,,,-4.78000000e-008,-2.87812467e-004
,,,-4.76000000e-008,-2.32187464e-004
,,,-4.74000000e-008,-5.18749559e-005
,,,-4.72000000e-008,1.00937551e-004
,,,-4.70000000e-008,1.74375055e-004
,,,-4.68000000e-008,1.51875054e-004
,,,-4.66000000e-008,7.84375503e-005
,,,-4.64000000e-008,-4.49999556e-005
,,,-4.62000000e-008,-1.19687459e-004
,,,-4.60000000e-008,-1.18124959e-004
,,,-4.58000000e-008,-1.30312460e-004
,,,-4.56000000e-008,-9.34374579e-005
,,,-4.54000000e-008,-1.84374543e-005
,,,-4.52000000e-008,7.18754691e-006
,,,-4.50000000e-008,6.12500495e-005
,,,-4.48000000e-008,1.43750053e-004
,,,-4.46000000e-008,9.37500510e-005
,,,-4.44000000e-008,3.71875483e-005
,,,-4.42000000e-008,6.25046596e-007
,,,-4.40000000e-008,-1.17187459e-004
,,,-4.38000000e-008,-1.84999962e-004
,,,-4.36000000e-008,-1.99062463e-004
,,,-4.34000000e-008,-1.61562461e-004
,,,-4.32000000e-008,-4.15624554e-005
,,,-4.30000000e-008,1.27500053e-004
,,,-4.28000000e-008,2.06250056e-004
,,,-4.26000000e-008,1.66250054e-004
,,,-4.24000000e-008,6.59375497e-005
,,,-4.22000000e-008,-9.03124577e-005
,,,-4.20000000e-008,-2.40937465e-004
,,,-4.18000000e-008,-2.69062466e-004
,,,-4.16000000e-008,-2.25937464e-004
,,,-4.14000000e-008,-6.87499567e-005
,,,-4.12000000e-008,1.05937552e-004
,,,-4.10000000e-008,2.21250057e-004
,,,-4.08000000e-008,2.40312558e-004
,,,-4.06000000e-008,1.44375053e-004
,,,-4.04000000e-008,-2.74999547e-005
,,,-4.02000000e-008,-1.80312462e-004
,,,-4.00000000e-008,-2.77187467e-004
,,,-3.98000000e-008,-2.45624965e-004
,,,-3.96000000e-008,-1.20312459e-004
,,,-3.94000000e-008,3.09375480e-005
,,,-3.92000000e-008,1.44375053e-004
,,,-3.90000000e-008,1.90625056e-004
,,,-3.88000000e-008,1.47187554e-004
,,,-3.86000000e-008,5.53125492e-005
,,,-3.84000000e-008,-5.43749560e-005
,,,-3.82000000e-008,-1.46874960e-004
,,,-3.80000000e-008,-2.14062464e-004
,,,-3.78000000e-008,-1.96562463e-004
,,,-3.76000000e-008,-1.15312459e-004
,,,-3.74000000e-008,-2.46874546e-005
,,,-3.72000000e-008,8.18750505e-005
,,,-3.70000000e-008,1.70000055e-004
,,,-3.68000000e-008,1.74687555e-004
,,,-3.66000000e-008,1.10625052e-004
,,,-3.64000000e-008,-6.24953464e-007
,,,-3.62000000e-008,-1.17187459e-004
,,,-3.60000000e-008,-2.52187465e-004
,,,-3.58000000e-008,-2.15624964e-004
,,,-3.56000000e-008,-1.79999962e-004
,,,-3.54000000e-008,-1.99999544e-005
,,,-3.52000000e-008,1.86875055e-004
,,,-3.50000000e-008,2.58125059e-004
,,,-3.48000000e-008,2.35625058e-004
,,,-3.46000000e-008,1.20937552e-004
,,,-3.44000000e-008,-6.84374567e-005
,,,-3.42000000e-008,-2.48749965e-004
,,,-3.40000000e-008,-3.25312469e-004
,,,-3.38000000e-008,-2.54687466e-004
,,,-3.36000000e-008,-1.24999959e-004
,,,-3.34000000e-008,7.71875502e-005
,,,-3.32000000e-008,2.19375057e-004
,,,-3.30000000e-008,2.29062557e-004
,,,-3.28000000e-008,1.44687553e-004
,,,-3.26000000e-008,-1.31249541e-005
,,,-3.24000000e-008,-2.00624963e-004
,,,-3.22000000e-008,-2.33437465e-004
,,,-3.20000000e-008,-2.29374964e-004
,,,-3.18000000e-008,-1.43124960e-004
,,,-3.16000000e-008,-1.09374540e-005
,,,-3.14000000e-008,8.34375505e-005
,,,-3.12000000e-008,1.65625054e-004
,,,-3.10000000e-008,1.73750055e-004
,,,-3.08000000e-008,6.84375498e-005
,,,-3.06000000e-008,-1.49999541e-005
,,,-3.04000000e-008,-1.26249959e-004
,,,-3.02000000e-008,-1.93124963e-004
,,,-3.00000000e-008,-1.78437462e-004
,,,-2.98000000e-008,-1.25937459e-004
,,,-2.96000000e-008,-5.93749563e-005
,,,-2.94000000e-008,4.84375489e-005
,,,-2.92000000e-008,9.34375510e-005
,,,-2.90000000e-008,1.30312553e-004
,,,-2.88000000e-008,1.02812551e-004
,,,-2.86000000e-008,1.50000473e-005
,,,-2.84000000e-008,-1.23437459e-004
,,,-2.82000000e-008,-2.04999963e-004
,,,-2.80000000e-008,-2.04374963e-004
,,,-2.78000000e-008,-1.43124960e-004
,,,-2.76000000e-008,-4.37499555e-005
,,,-2.74000000e-008,7.75000502e-005
,,,-2.72000000e-008,1.65937554e-004
,,,-2.70000000e-008,1.63125054e-004
,,,-2.68000000e-008,1.00312551e-004
,,,-2.66000000e-008,1.56250473e-005
,,,-2.64000000e-008,-1.47499960e-004
,,,-2.62000000e-008,-2.12187464e-004
,,,-2.60000000e-008,-2.25624964e-004
,,,-2.58000000e-008,-1.43437460e-004
,,,-2.56000000e-008,1.56250473e-005
,,,-2.54000000e-008,1.61875054e-004
,,,-2.52000000e-008,2.13750057e-004
,,,-2.50000000e-008,2.06562556e-004
,,,-2.48000000e-008,5.62500492e-005
,,,-2.46000000e-008,-8.18749573e-005
,,,-2.44000000e-008,-1.89062462e-004
,,,-2.42000000e-008,-2.24374964e-004
,,,-2.40000000e-008,-1.89687462e-004
,,,-2.38000000e-008,-1.16249959e-004
,,,-2.36000000e-008,4.00000485e-005
,,,-2.34000000e-008,1.44375053e-004
,,,-2.32000000e-008,1.65000054e-004
,,,-2.30000000e-008,1.28437553e-004
,,,-2.28000000e-008,-2.15624545e-005
,,,-2.26000000e-008,-1.30624960e-004
,,,-2.24000000e-008,-1.89687462e-004
,,,-2.22000000e-008,-2.04374963e-004
,,,-2.20000000e-008,-1.57812461e-004
,,,-2.18000000e-008,-5.62499561e-005
,,,-2.16000000e-008,7.00000499e-005
,,,-2.14000000e-008,1.65312554e-004
,,,-2.12000000e-008,1.81562555e-004
,,,-2.10000000e-008,1.13437552e-004
,,,-2.08000000e-008,-2.18749545e-005
,,,-2.06000000e-008,-1.44999960e-004
,,,-2.04000000e-008,-1.79687462e-004
,,,-2.02000000e-008,-1.83437462e-004
,,,-2.00000000e-008,-9.56249580e-005
,,,-1.98000000e-008,-9.06245386e-006
,,,-1.96000000e-008,7.50000501e-005
,,,-1.94000000e-008,1.46875054e-004
,,,-1.92000000e-008,8.34375505e-005
,,,-1.90000000e-008,1.37500472e-005
,,,-1.88000000e-008,-6.21874564e-005
,,,-1.86000000e-008,-1.57812461e-004
,,,-1.84000000e-008,-1.64687461e-004
,,,-1.82000000e-008,-1.29062460e-004
,,,-1.80000000e-008,-6.74999566e-005
,,,-1.78000000e-008,-1.71874543e-005
,,,-1.76000000e-008,4.81250489e-005
,,,-1.74000000e-008,5.28125491e-005
,,,-1.72000000e-008,4.75000488e-005
,,,-1.70000000e-008,4.03125485e-005
,,,-1.68000000e-008,2.50004668e-006
,,,-1.66000000e-008,-7.49999570e-005
,,,-1.64000000e-008,-7.84374572e-005
,,,-1.62000000e-008,-8.24999574e-005
,,,-1.60000000e-008,-1.08124959e-004
,,,-1.58000000e-008,-3.09374549e-005
,,,-1.56000000e-008,1.03125471e-005
,,,-1.54000000e-008,2.65625478e-005
,,,-1.52000000e-008,5.46875492e-005
,,,-1.50000000e-008,4.50000487e-005
,,,-1.48000000e-008,2.28125476e-005
,,,-1.46000000e-008,-3.90624553e-005
,,,-1.44000000e-008,-8.62499575e-005
,,,-1.42000000e-008,-1.50624961e-004
,,,-1.40000000e-008,-1.67499961e-004
,,,-1.38000000e-008,-7.71874571e-005
,,,-1.36000000e-008,1.68750474e-005
,,,-1.34000000e-008,6.34375496e-005
,,,-1.32000000e-008,6.75000498e-005
,,,-1.30000000e-008,3.75000483e-005
,,,-1.28000000e-008,-2.87499548e-005
,,,-1.26000000e-008,-9.06249577e-005
,,,-1.24000000e-008,-1.14687459e-004
,,,-1.22000000e-008,-1.39687460e-004
,,,-1.20000000e-008,-8.49999575e-005
,,,-1.18000000e-008,1.37500472e-005
,,,-1.16000000e-008,5.12500490e-005
,,,-1.14000000e-008,3.81250484e-005
,,,-1.12000000e-008,5.50000492e-005
,,,-1.10000000e-008,-9.06245386e-006
,,,-1.08000000e-008,-4.99999558e-005
,,,-1.06000000e-008,-4.62499556e-005
,,,-1.04000000e-008,-4.31249555e-005
,,,-1.02000000e-008,-4.59374556e-005
,,,-1.00000000e-008,-2.99999549e-005
,,,-9.80000000e-009,-1.93749544e-005
,,,-9.60000000e-009,-3.78124552e-005
,,,-9.40000000e-009,-5.12499559e-005
,,,-9.20000000e-009,-4.37495364e-006
,,,-9.00000000e-009,1.00000470e-005
,,,-8.80000000e-009,-1.03124539e-005
,,,-8.60000000e-009,-1.96874544e-005
,,,-8.40000000e-009,-8.24999574e-005
,,,-8.20000000e-009,-8.59374575e-005
,,,-8.00000000e-009,-9.53124580e-005
,,,-7.80000000e-009,-7.81249571e-005
,,,-7.60000000e-009,-3.24999550e-005
,,,-7.40000000e-009,-2.62499547e-005
,,,-7.20000000e-009,5.43750491e-005
,,,-7.00000000e-009,6.93750499e-005
,,,-6.80000000e-009,2.50000478e-005
,,,-6.60000000e-009,1.34375472e-005
,,,-6.40000000e-009,-3.62499552e-005
,,,-6.20000000e-009,-8.18749573e-005
,,,-6.00000000e-009,-9.62499580e-005
,,,-5.80000000e-009,-8.53124575e-005
,,,-5.60000000e-009,-6.34374564e-005
,,,-5.40000000e-009,-5.68749561e-005
,,,-5.20000000e-009,3.28125481e-005
,,,-5.00000000e-009,4.06250485e-005
,,,-4.80000000e-009,1.09375471e-005
,,,-4.60000000e-009,4.37504677e-006
,,,-4.40000000e-009,-7.28124569e-005
,,,-4.20000000e-009,-1.01249958e-004
,,,-4.00000000e-009,-7.24999569e-005
,,,-3.80000000e-009,-1.50937461e-004
,,,-3.60000000e-009,-1.69062461e-004
,,,-3.40000000e-009,-8.56249575e-005
,,,-3.20000000e-009,-8.12495382e-006
,,,-3.00000000e-009,8.28125505e-005
,,,-2.80000000e-009,1.36562553e-004
,,,-2.60000000e-009,9.75000512e-005
,,,-2.40000000e-009,-2.46874546e-005
,,,-2.20000000e-009,-1.24999959e-004
,,,-2.00000000e-009,-2.20624964e-004
,,,-1.80000000e-009,-2.58437466e-004
,,,-1.60000000e-009,-1.62499961e-004
,,,-1.40000000e-009,-4.15624554e-005
,,,-1.20000000e-009,8.71875507e-005
,,,-1.00000000e-009,2.07500056e-004
,,,-8.00000000e-010,1.59062554e-004
,,,-6.00000000e-010,2.06250475e-005
,,,-4.00000000e-010,-1.29062460e-004
,,,-2.00000000e-010,-2.69062466e-004
,,,0.00000000e+000,-2.83749967e-004
,,,2.00000000e-010,-1.81874962e-004
,,,4.00000000e-010,-4.74999557e-005
,,,6.00000000e-010,9.96875513e-005
,,,8.00000000e-010,1.42812553e-004
,,,1.00000000e-009,9.25000510e-005
,,,1.20000000e-009,8.12504695e-006
,,,1.40000000e-009,-9.24999578e-005
,,,1.60000000e-009,-1.46249960e-004
,,,1.80000000e-009,-1.89062462e-004
,,,2.00000000e-009,-1.31562460e-004
,,,2.20000000e-009,-8.93749577e-005
,,,2.40000000e-009,-1.43749541e-005
,,,2.60000000e-009,6.43750496e-005
,,,2.80000000e-009,5.06250490e-005
,,,3.00000000e-009,5.28125491e-005
,,,3.20000000e-009,2.21875476e-005
,,,3.40000000e-009,-2.84374548e-005
,,,3.60000000e-009,-3.81249552e-005
,,,3.80000000e-009,-5.93749563e-005
,,,4.00000000e-009,-1.02187458e-004
,,,4.20000000e-009,-1.19999959e-004
,,,4.40000000e-009,-1.21249959e-004
,,,4.60000000e-009,-5.81249562e-005
,,,4.80000000e-009,2.56250478e-005
,,,5.00000000e-009,1.26875053e-004
,,,5.20000000e-009,1.29687553e-004
,,,5.40000000e-009,8.78125507e-005
,,,5.60000000e-009,-1.49999541e-005
,,,5.80000000e-009,-2.15624964e-004
,,,6.00000000e-009,-2.79999967e-004
,,,6.20000000e-009,-2.70937466e-004
,,,6.40000000e-009,-1.88437462e-004
,,,6.60000000e-009,4.81250489e-005
,,,6.80000000e-009,2.20000057e-004
,,,7.00000000e-009,2.61875059e-004
,,,7.20000000e-009,2.03750056e-004
,,,7.40000000e-009,-1.62499542e-005
,,,7.60000000e-009,-2.11249963e-004
