Data/20220819/UCLA_to_R2B_VPOL_E_NEG60_01_Ch2.csv

"Record Length",5000,"Points",-1.00800000e-007,3.40625482e-005
"Sample Interval",2.00000000e-010,s,-1.00600000e-007,-3.31249550e-005
"Trigger Point",504,"Samples",-1.00400000e-007,-8.59374575e-005
"Trigger Time",0.00000000e+000,s,-1.00200000e-007,-5.65624561e-005
"",,,-1.00000000e-007,-3.84374553e-005
"Horizontal Offset",-1.00800000e-007,s,-9.98000000e-008,1.78125474e-005
,,,-9.96000000e-008,6.34375496e-005
,,,-9.94000000e-008,8.84375508e-005
,,,-9.92000000e-008,8.00000504e-005
,,,-9.90000000e-008,7.06250499e-005
,,,-9.88000000e-008,1.00000470e-005
,,,-9.86000000e-008,-2.68749547e-005
,,,-9.84000000e-008,-7.46874570e-005
,,,-9.82000000e-008,-9.46874579e-005
,,,-9.80000000e-008,-5.65624561e-005
,,,-9.78000000e-008,-8.74995385e-006
,,,-9.76000000e-008,8.06250504e-005
,,,-9.74000000e-008,1.34687553e-004
,,,-9.72000000e-008,1.29687553e-004
,,,-9.70000000e-008,9.65625512e-005
,,,-9.68000000e-008,-1.15624540e-005
,,,-9.66000000e-008,-8.18749573e-005
,,,-9.64000000e-008,-1.05624958e-004
,,,-9.62000000e-008,-9.81249581e-005
,,,-9.60000000e-008,-1.87495352e-006
,,,-9.58000000e-008,1.13125052e-004
,,,-9.56000000e-008,1.50312554e-004
,,,-9.54000000e-008,1.64375054e-004
,,,-9.52000000e-008,7.90625503e-005
,,,-9.50000000e-008,-3.65624552e-005
,,,-9.48000000e-008,-1.23437459e-004
,,,-9.46000000e-008,-1.28124960e-004
,,,-9.44000000e-008,-9.31249579e-005
,,,-9.42000000e-008,-2.21874545e-005
,,,-9.40000000e-008,6.43750496e-005
,,,-9.38000000e-008,1.14375052e-004
,,,-9.36000000e-008,1.27187553e-004
,,,-9.34000000e-008,9.43750510e-005
,,,-9.32000000e-008,3.46875482e-005
,,,-9.30000000e-008,-4.09374554e-005
,,,-9.28000000e-008,-7.31249569e-005
,,,-9.26000000e-008,-8.18749573e-005
,,,-9.24000000e-008,-5.34374560e-005
,,,-9.22000000e-008,2.68750478e-005
,,,-9.20000000e-008,1.21562552e-004
,,,-9.18000000e-008,1.42812553e-004
,,,-9.16000000e-008,1.45312553e-004
,,,-9.14000000e-008,8.06250504e-005
,,,-9.12000000e-008,-6.56245375e-006
,,,-9.10000000e-008,-6.62499566e-005
,,,-9.08000000e-008,-1.00312458e-004
,,,-9.06000000e-008,-7.62499571e-005
,,,-9.04000000e-008,-8.74995385e-006
,,,-9.02000000e-008,6.84375498e-005
,,,-9.00000000e-008,1.24062552e-004
,,,-8.98000000e-008,9.71875512e-005
,,,-8.96000000e-008,5.50000492e-005
,,,-8.94000000e-008,-9.99995391e-006
,,,-8.92000000e-008,-5.71874562e-005
,,,-8.90000000e-008,-6.68749566e-005
,,,-8.88000000e-008,-5.46874560e-005
,,,-8.86000000e-008,-1.43749541e-005
,,,-8.84000000e-008,3.25000481e-005
,,,-8.82000000e-008,7.28125500e-005
,,,-8.80000000e-008,9.03125509e-005
,,,-8.78000000e-008,9.78125512e-005
,,,-8.76000000e-008,6.28125495e-005
,,,-8.74000000e-008,2.12500476e-005
,,,-8.72000000e-008,-2.37499546e-005
,,,-8.70000000e-008,-3.78124552e-005
,,,-8.68000000e-008,-2.49999546e-005
,,,-8.66000000e-008,-9.99995391e-006
,,,-8.64000000e-008,6.18750495e-005
,,,-8.62000000e-008,9.25000510e-005
,,,-8.60000000e-008,8.00000504e-005
,,,-8.58000000e-008,5.18750490e-005
,,,-8.56000000e-008,-4.99995367e-006
,,,-8.54000000e-008,-5.68749561e-005
,,,-8.52000000e-008,-6.99999568e-005
,,,-8.50000000e-008,-2.37499546e-005
,,,-8.48000000e-008,1.25004663e-006
,,,-8.46000000e-008,1.09375471e-005
,,,-8.44000000e-008,1.31250472e-005
,,,-8.42000000e-008,2.62500478e-005
,,,-8.40000000e-008,6.25004686e-006
,,,-8.38000000e-008,1.84375474e-005
,,,-8.36000000e-008,1.53125473e-005
,,,-8.34000000e-008,3.75000483e-005
,,,-8.32000000e-008,6.37500496e-005
,,,-8.30000000e-008,-1.24995349e-006
,,,-8.28000000e-008,-9.06245386e-006
,,,-8.26000000e-008,-1.31249541e-005
,,,-8.24000000e-008,2.03125475e-005
,,,-8.22000000e-008,6.90625498e-005
,,,-8.20000000e-008,9.59375511e-005
,,,-8.18000000e-008,8.00000504e-005
,,,-8.16000000e-008,6.03125494e-005
,,,-8.14000000e-008,-6.56245375e-006
,,,-8.12000000e-008,-2.87499548e-005
,,,-8.10000000e-008,-5.31249560e-005
,,,-8.08000000e-008,-3.74995361e-006
,,,-8.06000000e-008,3.15625481e-005
,,,-8.04000000e-008,7.40625501e-005
,,,-8.02000000e-008,7.90625503e-005
,,,-8.00000000e-008,4.84375489e-005
,,,-7.98000000e-008,-1.34374541e-005
,,,-7.96000000e-008,-6.12499563e-005
,,,-7.94000000e-008,-7.43749570e-005
,,,-7.92000000e-008,-6.18749564e-005
,,,-7.90000000e-008,-7.81245380e-006
,,,-7.88000000e-008,4.00000485e-005
,,,-7.86000000e-008,9.34375510e-005
,,,-7.84000000e-008,1.17500052e-004
,,,-7.82000000e-008,9.15625509e-005
,,,-7.80000000e-008,3.09375480e-005
,,,-7.78000000e-008,-4.49999556e-005
,,,-7.76000000e-008,-7.53124570e-005
,,,-7.74000000e-008,-7.21874569e-005
,,,-7.72000000e-008,9.37546611e-007
,,,-7.70000000e-008,9.71875512e-005
,,,-7.68000000e-008,1.34687553e-004
,,,-7.66000000e-008,1.44375053e-004
,,,-7.64000000e-008,7.21875500e-005
,,,-7.62000000e-008,-5.24999559e-005
,,,-7.60000000e-008,-9.68749580e-005
,,,-7.58000000e-008,-1.40937460e-004
,,,-7.56000000e-008,-7.24999569e-005
,,,-7.54000000e-008,4.03125485e-005
,,,-7.52000000e-008,1.07500052e-004
,,,-7.50000000e-008,1.45937553e-004
,,,-7.48000000e-008,1.05937552e-004
,,,-7.46000000e-008,5.93754685e-006
,,,-7.44000000e-008,-6.96874567e-005
,,,-7.42000000e-008,-8.71874576e-005
,,,-7.40000000e-008,-7.40624570e-005
,,,-7.38000000e-008,-6.56245375e-006
,,,-7.36000000e-008,6.40625496e-005
,,,-7.34000000e-008,5.28125491e-005
,,,-7.32000000e-008,6.43750496e-005
,,,-7.30000000e-008,7.31250500e-005
,,,-7.28000000e-008,2.84375479e-005
,,,-7.26000000e-008,-5.31245369e-006
,,,-7.24000000e-008,8.43754697e-006
,,,-7.22000000e-008,-5.93745372e-006
,,,-7.20000000e-008,3.65625483e-005
,,,-7.18000000e-008,2.71875479e-005
,,,-7.16000000e-008,3.46875482e-005
,,,-7.14000000e-008,1.75000474e-005
,,,-7.12000000e-008,1.96875475e-005
,,,-7.10000000e-008,5.71875493e-005
,,,-7.08000000e-008,4.53125487e-005
,,,-7.06000000e-008,4.43750487e-005
,,,-7.04000000e-008,4.31250486e-005
,,,-7.02000000e-008,-1.09374540e-005
,,,-7.00000000e-008,-3.43745360e-006
,,,-6.98000000e-008,-2.03124544e-005
,,,-6.96000000e-008,-3.15624549e-005
,,,-6.94000000e-008,-1.71874543e-005
,,,-6.92000000e-008,1.46875473e-005
,,,-6.90000000e-008,4.50000487e-005
,,,-6.88000000e-008,7.53125501e-005
,,,-6.86000000e-008,9.03125509e-005
,,,-6.84000000e-008,5.46875492e-005
,,,-6.82000000e-008,-2.81245357e-006
,,,-6.80000000e-008,-5.37499560e-005
,,,-6.78000000e-008,-5.96874563e-005
,,,-6.76000000e-008,-4.43749555e-005
,,,-6.74000000e-008,3.87500484e-005
,,,-6.72000000e-008,1.14062552e-004
,,,-6.70000000e-008,1.35937553e-004
,,,-6.68000000e-008,1.01875051e-004
,,,-6.66000000e-008,2.37500477e-005
,,,-6.64000000e-008,-4.65624556e-005
,,,-6.62000000e-008,-9.56249580e-005
,,,-6.60000000e-008,-8.65624575e-005
,,,-6.58000000e-008,-1.37499541e-005
,,,-6.56000000e-008,2.00000475e-005
,,,-6.54000000e-008,9.00000508e-005
,,,-6.52000000e-008,1.12500052e-004
,,,-6.50000000e-008,5.93750494e-005
,,,-6.48000000e-008,1.03125471e-005
,,,-6.46000000e-008,-1.06249539e-005
,,,-6.44000000e-008,-5.49999560e-005
,,,-6.42000000e-008,-2.49999546e-005
,,,-6.40000000e-008,-7.81245380e-006
,,,-6.38000000e-008,-2.49995355e-006
,,,-6.36000000e-008,1.09375471e-005
,,,-6.34000000e-008,7.40625501e-005
,,,-6.32000000e-008,9.28125510e-005
,,,-6.30000000e-008,1.18125052e-004
,,,-6.28000000e-008,9.71875512e-005
,,,-6.26000000e-008,4.06250485e-005
,,,-6.24000000e-008,-2.87499548e-005
,,,-6.22000000e-008,-5.84374562e-005
,,,-6.20000000e-008,-6.74999566e-005
,,,-6.18000000e-008,-3.49999551e-005
,,,-6.16000000e-008,3.28125481e-005
,,,-6.14000000e-008,1.19375052e-004
,,,-6.12000000e-008,1.41875053e-004
,,,-6.10000000e-008,9.78125512e-005
,,,-6.08000000e-008,2.18750476e-005
,,,-6.06000000e-008,-2.46874546e-005
,,,-6.04000000e-008,-7.31249569e-005
,,,-6.02000000e-008,-6.53124565e-005
,,,-6.00000000e-008,-4.90624558e-005
,,,-5.98000000e-008,1.31250472e-005
,,,-5.96000000e-008,5.53125492e-005
,,,-5.94000000e-008,9.37500510e-005
,,,-5.92000000e-008,1.11250052e-004
,,,-5.90000000e-008,8.00000504e-005
,,,-5.88000000e-008,5.06250490e-005
,,,-5.86000000e-008,9.68754703e-006
,,,-5.84000000e-008,-5.93749563e-005
,,,-5.82000000e-008,-6.53124565e-005
,,,-5.80000000e-008,-3.18749549e-005
,,,-5.78000000e-008,4.06254676e-006
,,,-5.76000000e-008,8.21875505e-005
,,,-5.74000000e-008,1.25312553e-004
,,,-5.72000000e-008,8.75000507e-005
,,,-5.70000000e-008,6.71875498e-005
,,,-5.68000000e-008,5.62504683e-006
,,,-5.66000000e-008,-2.21874545e-005
,,,-5.64000000e-008,-4.43749555e-005
,,,-5.62000000e-008,-3.96874553e-005
,,,-5.60000000e-008,-4.81249557e-005
,,,-5.58000000e-008,-3.90624553e-005
,,,-5.56000000e-008,2.18754667e-006
,,,-5.54000000e-008,3.15625481e-005
,,,-5.52000000e-008,6.12500495e-005
,,,-5.50000000e-008,1.12500052e-004
,,,-5.48000000e-008,8.12500504e-005
,,,-5.46000000e-008,4.46875487e-005
,,,-5.44000000e-008,-3.99999553e-005
,,,-5.42000000e-008,-1.06562458e-004
,,,-5.40000000e-008,-1.21562459e-004
,,,-5.38000000e-008,-5.56249561e-005
,,,-5.36000000e-008,8.37500505e-005
,,,-5.34000000e-008,2.06875056e-004
,,,-5.32000000e-008,2.31250058e-004
,,,-5.30000000e-008,1.90000056e-004
,,,-5.28000000e-008,1.34375472e-005
,,,-5.26000000e-008,-1.30624960e-004
,,,-5.24000000e-008,-1.77812462e-004
,,,-5.22000000e-008,-1.57187461e-004
,,,-5.20000000e-008,-3.96874553e-005
,,,-5.18000000e-008,9.68750512e-005
,,,-5.16000000e-008,1.75312555e-004
,,,-5.14000000e-008,1.79375055e-004
,,,-5.12000000e-008,1.01250051e-004
,,,-5.10000000e-008,2.81254670e-006
,,,-5.08000000e-008,-1.18437459e-004
,,,-5.06000000e-008,-1.65312461e-004
,,,-5.04000000e-008,-1.24687459e-004
,,,-5.02000000e-008,-3.49999551e-005
,,,-5.00000000e-008,5.37500491e-005
,,,-4.98000000e-008,1.50937554e-004
,,,-4.96000000e-008,1.84062555e-004
,,,-4.94000000e-008,1.58437554e-004
,,,-4.92000000e-008,6.87500498e-005
,,,-4.90000000e-008,-3.34374550e-005
,,,-4.88000000e-008,-1.34687460e-004
,,,-4.86000000e-008,-1.10624959e-004
,,,-4.84000000e-008,-4.74999557e-005
,,,-4.82000000e-008,3.12500481e-005
,,,-4.80000000e-008,1.37812553e-004
,,,-4.78000000e-008,1.69375055e-004
,,,-4.76000000e-008,8.56250506e-005
,,,-4.74000000e-008,6.53125497e-005
,,,-4.72000000e-008,-2.06249544e-005
,,,-4.70000000e-008,-6.59374566e-005
,,,-4.68000000e-008,-6.15624564e-005
,,,-4.66000000e-008,-5.84374562e-005
,,,-4.64000000e-008,-2.81249548e-005
,,,-4.62000000e-008,-9.06245386e-006
,,,-4.60000000e-008,1.18750471e-005
,,,-4.58000000e-008,3.90625484e-005
,,,-4.56000000e-008,6.65625497e-005
,,,-4.54000000e-008,1.03437551e-004
,,,-4.52000000e-008,8.65625507e-005
,,,-4.50000000e-008,3.37500482e-005
,,,-4.48000000e-008,-4.96874558e-005
,,,-4.46000000e-008,-1.30624960e-004
,,,-4.44000000e-008,-1.40624960e-004
,,,-4.42000000e-008,-5.68749561e-005
,,,-4.40000000e-008,4.15625485e-005
,,,-4.38000000e-008,1.85625055e-004
,,,-4.36000000e-008,2.21875057e-004
,,,-4.34000000e-008,1.61562554e-004
,,,-4.32000000e-008,5.18750490e-005
,,,-4.30000000e-008,-7.37499569e-005
,,,-4.28000000e-008,-1.56249961e-004
,,,-4.26000000e-008,-1.36562460e-004
,,,-4.24000000e-008,-5.18749559e-005
,,,-4.22000000e-008,3.50000482e-005
,,,-4.20000000e-008,9.87500513e-005
,,,-4.18000000e-008,1.82812555e-004
,,,-4.16000000e-008,1.38437553e-004
,,,-4.14000000e-008,7.43750501e-005
,,,-4.12000000e-008,-2.65624547e-005
,,,-4.10000000e-008,-1.27499959e-004
,,,-4.08000000e-008,-1.29687460e-004
,,,-4.06000000e-008,-1.10312459e-004
,,,-4.04000000e-008,-4.46874556e-005
,,,-4.02000000e-008,7.50000501e-005
,,,-4.00000000e-008,1.54375054e-004
,,,-3.98000000e-008,1.84062555e-004
,,,-3.96000000e-008,1.34375053e-004
,,,-3.94000000e-008,5.00000489e-005
,,,-3.92000000e-008,-5.62499561e-005
,,,-3.90000000e-008,-1.34999960e-004
,,,-3.88000000e-008,-1.08124959e-004
,,,-3.86000000e-008,-5.43749560e-005
,,,-3.84000000e-008,3.09375480e-005
,,,-3.82000000e-008,1.42187553e-004
,,,-3.80000000e-008,1.13437552e-004
,,,-3.78000000e-008,1.22812552e-004
,,,-3.76000000e-008,3.65625483e-005
,,,-3.74000000e-008,-3.74999552e-005
,,,-3.72000000e-008,-7.18749568e-005
,,,-3.70000000e-008,-8.53124575e-005
,,,-3.68000000e-008,-7.03124568e-005
,,,-3.66000000e-008,-2.90624548e-005
,,,-3.64000000e-008,8.43754697e-006
,,,-3.62000000e-008,7.06250499e-005
,,,-3.60000000e-008,1.09062552e-004
,,,-3.58000000e-008,9.46875511e-005
,,,-3.56000000e-008,3.75000483e-005
,,,-3.54000000e-008,-6.65624566e-005
,,,-3.52000000e-008,-8.87499576e-005
,,,-3.50000000e-008,-9.28124578e-005
,,,-3.48000000e-008,-4.62499556e-005
,,,-3.46000000e-008,6.90625498e-005
,,,-3.44000000e-008,9.50000511e-005
,,,-3.42000000e-008,1.80312555e-004
,,,-3.40000000e-008,1.08750052e-004
,,,-3.38000000e-008,3.12546581e-007
,,,-3.36000000e-008,-6.96874567e-005
,,,-3.34000000e-008,-1.32499960e-004
,,,-3.32000000e-008,-7.65624571e-005
,,,-3.30000000e-008,3.00000480e-005
,,,-3.28000000e-008,9.15625509e-005
,,,-3.26000000e-008,1.41250053e-004
,,,-3.24000000e-008,8.93750508e-005
,,,-3.22000000e-008,5.37500491e-005
,,,-3.20000000e-008,-3.46874551e-005
,,,-3.18000000e-008,-9.37499579e-005
,,,-3.16000000e-008,-6.71874566e-005
,,,-3.14000000e-008,-1.59374542e-005
,,,-3.12000000e-008,1.46875473e-005
,,,-3.10000000e-008,6.93750499e-005
,,,-3.08000000e-008,1.90625475e-005
,,,-3.06000000e-008,1.50000473e-005
,,,-3.04000000e-008,1.15625471e-005
,,,-3.02000000e-008,1.40625472e-005
,,,-3.00000000e-008,1.09375471e-005
,,,-2.98000000e-008,2.15625476e-005
,,,-2.96000000e-008,1.84375474e-005
,,,-2.94000000e-008,2.31250477e-005
,,,-2.92000000e-008,2.37500477e-005
,,,-2.90000000e-008,3.68750483e-005
,,,-2.88000000e-008,8.12504695e-006
,,,-2.86000000e-008,1.56250473e-005
,,,-2.84000000e-008,2.96875480e-005
,,,-2.82000000e-008,3.12504671e-006
,,,-2.80000000e-008,1.09375471e-005
,,,-2.78000000e-008,1.50000473e-005
,,,-2.76000000e-008,2.03125475e-005
,,,-2.74000000e-008,1.31250472e-005
,,,-2.72000000e-008,-2.74999547e-005
,,,-2.70000000e-008,-2.03124544e-005
,,,-2.68000000e-008,-3.40624551e-005
,,,-2.66000000e-008,2.12500476e-005
,,,-2.64000000e-008,7.78125503e-005
,,,-2.62000000e-008,6.75000498e-005
,,,-2.60000000e-008,3.15625481e-005
,,,-2.58000000e-008,-2.62499547e-005
,,,-2.56000000e-008,-7.40624570e-005
,,,-2.54000000e-008,-8.37499574e-005
,,,-2.52000000e-008,-1.90624543e-005
,,,-2.50000000e-008,8.37500505e-005
,,,-2.48000000e-008,1.51250054e-004
,,,-2.46000000e-008,1.73750055e-004
,,,-2.44000000e-008,9.62500511e-005
,,,-2.42000000e-008,-2.59374547e-005
,,,-2.40000000e-008,-1.23124959e-004
,,,-2.38000000e-008,-1.43749960e-004
,,,-2.36000000e-008,-7.93749572e-005
,,,-2.34000000e-008,6.31250496e-005
,,,-2.32000000e-008,1.47187554e-004
,,,-2.30000000e-008,2.04062556e-004
,,,-2.28000000e-008,9.31250510e-005
,,,-2.26000000e-008,-1.15624540e-005
,,,-2.24000000e-008,-1.05312458e-004
,,,-2.22000000e-008,-1.79687462e-004
,,,-2.20000000e-008,-1.42812460e-004
,,,-2.18000000e-008,-3.87499553e-005
,,,-2.16000000e-008,6.12500495e-005
,,,-2.14000000e-008,1.58125054e-004
,,,-2.12000000e-008,1.88437556e-004
,,,-2.10000000e-008,1.36562553e-004
,,,-2.08000000e-008,5.87500494e-005
,,,-2.06000000e-008,-3.78124552e-005
,,,-2.04000000e-008,-1.14062459e-004
,,,-2.02000000e-008,-1.45937460e-004
,,,-2.00000000e-008,-7.59374570e-005
,,,-1.98000000e-008,3.78125484e-005
,,,-1.96000000e-008,1.22500052e-004
,,,-1.94000000e-008,2.14375057e-004
,,,-1.92000000e-008,2.05625056e-004
,,,-1.90000000e-008,1.04375052e-004
,,,-1.88000000e-008,-7.18745378e-006
,,,-1.86000000e-008,-1.26249959e-004
,,,-1.84000000e-008,-1.89687462e-004
,,,-1.82000000e-008,-1.15624959e-004
,,,-1.80000000e-008,-1.40624541e-005
,,,-1.78000000e-008,9.59375511e-005
,,,-1.76000000e-008,1.65000054e-004
,,,-1.74000000e-008,1.45312553e-004
,,,-1.72000000e-008,7.75000502e-005
,,,-1.70000000e-008,-1.78124543e-005
,,,-1.68000000e-008,-7.90624572e-005
,,,-1.66000000e-008,-1.23124959e-004
,,,-1.64000000e-008,-1.00624958e-004
,,,-1.62000000e-008,-3.49999551e-005
,,,-1.60000000e-008,1.65625474e-005
,,,-1.58000000e-008,9.59375511e-005
,,,-1.56000000e-008,1.41562553e-004
,,,-1.54000000e-008,1.29687553e-004
,,,-1.52000000e-008,1.13437552e-004
,,,-1.50000000e-008,-7.18745378e-006
,,,-1.48000000e-008,-7.46874570e-005
,,,-1.46000000e-008,-9.78124581e-005
,,,-1.44000000e-008,-9.37499579e-005
,,,-1.42000000e-008,-1.59374542e-005
,,,-1.40000000e-008,7.00000499e-005
,,,-1.38000000e-008,1.24687552e-004
,,,-1.36000000e-008,1.50937554e-004
,,,-1.34000000e-008,9.34375510e-005
,,,-1.32000000e-008,3.71875483e-005
,,,-1.30000000e-008,-5.96874563e-005
,,,-1.28000000e-008,-1.05937458e-004
,,,-1.26000000e-008,-9.18749578e-005
,,,-1.24000000e-008,-5.71874562e-005
,,,-1.22000000e-008,1.75000474e-005
,,,-1.20000000e-008,7.03125499e-005
,,,-1.18000000e-008,7.50000501e-005
,,,-1.16000000e-008,8.31250505e-005
,,,-1.14000000e-008,7.84375503e-005
,,,-1.12000000e-008,5.62500492e-005
,,,-1.10000000e-008,1.50000473e-005
,,,-1.08000000e-008,-2.74999547e-005
,,,-1.06000000e-008,-7.74999571e-005
,,,-1.04000000e-008,-7.81249571e-005
,,,-1.02000000e-008,-1.81249543e-005
,,,-1.00000000e-008,4.68750488e-005
,,,-9.80000000e-009,1.33125053e-004
,,,-9.60000000e-009,1.89375056e-004
,,,-9.40000000e-009,1.54062554e-004
,,,-9.20000000e-009,7.53125501e-005
,,,-9.00000000e-009,-5.62499561e-005
,,,-8.80000000e-009,-1.69062461e-004
,,,-8.60000000e-009,-1.74374962e-004
,,,-8.40000000e-009,-9.56249580e-005
,,,-8.20000000e-009,6.87504689e-006
,,,-8.00000000e-009,1.20937552e-004
,,,-7.80000000e-009,1.87500055e-004
,,,-7.60000000e-009,1.85312555e-004
,,,-7.40000000e-009,8.46875506e-005
,,,-7.20000000e-009,-5.53124561e-005
,,,-7.00000000e-009,-1.69062461e-004
,,,-6.80000000e-009,-2.37187465e-004
,,,-6.60000000e-009,-1.59999961e-004
,,,-6.40000000e-009,-4.46874556e-005
,,,-6.20000000e-009,9.43750510e-005
,,,-6.00000000e-009,2.03125056e-004
,,,-5.80000000e-009,2.40000058e-004
,,,-5.60000000e-009,1.57812554e-004
,,,-5.40000000e-009,2.93750480e-005
,,,-5.20000000e-009,-1.44999960e-004
,,,-5.00000000e-009,-2.41562465e-004
,,,-4.80000000e-009,-2.17812464e-004
,,,-4.60000000e-009,-8.12499573e-005
,,,-4.40000000e-009,8.50000506e-005
,,,-4.20000000e-009,2.16875057e-004
,,,-4.00000000e-009,2.48125058e-004
,,,-3.80000000e-009,1.71875055e-004
,,,-3.60000000e-009,-6.87495376e-006
,,,-3.40000000e-009,-1.51249961e-004
,,,-3.20000000e-009,-2.32499964e-004
,,,-3.00000000e-009,-1.96874963e-004
,,,-2.80000000e-009,-8.24999574e-005
,,,-2.60000000e-009,5.40625491e-005
,,,-2.40000000e-009,1.33750053e-004
,,,-2.20000000e-009,1.33437553e-004
,,,-2.00000000e-009,8.25000505e-005
,,,-1.80000000e-009,9.06254700e-006
,,,-1.60000000e-009,-8.65624575e-005
,,,-1.40000000e-009,-1.16562459e-004
,,,-1.20000000e-009,-1.20937459e-004
,,,-1.00000000e-009,-6.81249567e-005
,,,-8.00000000e-010,1.59375473e-005
,,,-6.00000000e-010,6.56250497e-005
,,,-4.00000000e-010,1.06562552e-004
,,,-2.00000000e-010,1.06875052e-004
,,,0.00000000e+000,5.65625493e-005
,,,2.00000000e-010,1.18750471e-005
,,,4.00000000e-010,-6.99999568e-005
,,,6.00000000e-010,-1.05937458e-004
,,,8.00000000e-010,-7.93749572e-005
,,,1.00000000e-009,-4.53124556e-005
,,,1.20000000e-009,2.93750480e-005
,,,1.40000000e-009,7.87500503e-005
,,,1.60000000e-009,6.62500497e-005
,,,1.80000000e-009,5.71875493e-005
,,,2.00000000e-009,-2.78124548e-005
,,,2.20000000e-009,-5.34374560e-005
,,,2.40000000e-009,-8.24999574e-005
,,,2.60000000e-009,-6.65624566e-005
,,,2.80000000e-009,-4.12499554e-005
,,,3.00000000e-009,-3.34374550e-005
,,,3.20000000e-009,8.43754697e-006
,,,3.40000000e-009,4.06250485e-005
,,,3.60000000e-009,6.50000497e-005
,,,3.80000000e-009,6.71875498e-005
,,,4.00000000e-009,7.15625500e-005
,,,4.20000000e-009,4.71875488e-005
,,,4.40000000e-009,-1.68749542e-005
,,,4.60000000e-009,-6.43749565e-005
,,,4.80000000e-009,-7.62499571e-005
,,,5.00000000e-009,-2.74999547e-005
,,,5.20000000e-009,6.68750497e-005
,,,5.40000000e-009,1.37500053e-004
,,,5.60000000e-009,1.22812552e-004
,,,5.80000000e-009,1.11875052e-004
,,,6.00000000e-009,2.71875479e-005
,,,6.20000000e-009,-6.59374566e-005
,,,6.40000000e-009,-1.07812459e-004
,,,6.60000000e-009,-1.21249959e-004
,,,6.80000000e-009,-5.71874562e-005
,,,7.00000000e-009,5.56250492e-005
,,,7.20000000e-009,1.09375052e-004
,,,7.40000000e-009,1.34375053e-004
,,,7.60000000e-009,1.09375052e-004
,,,7.80000000e-009,7.37500501e-005
,,,8.00000000e-009,-1.53124542e-005
