Data/20220819/UCLA_to_R2B_VPOL_E_NEG90_01_Ch2.csv

"Record Length",5000,"Points",-1.00800000e-007,-8.12495382e-006
"Sample Interval",2.00000000e-010,s,-1.00600000e-007,-3.87499553e-005
"Trigger Point",504,"Samples",-1.00400000e-007,-8.81249576e-005
"Trigger Time",0.00000000e+000,s,-1.00200000e-007,-6.68749566e-005
"",,,-1.00000000e-007,-6.03124563e-005
"Horizontal Offset",-1.00800000e-007,s,-9.98000000e-008,-5.53124561e-005
,,,-9.96000000e-008,-5.46874560e-005
,,,-9.94000000e-008,-1.93749544e-005
,,,-9.92000000e-008,-2.37499546e-005
,,,-9.90000000e-008,-5.24999559e-005
,,,-9.88000000e-008,-6.40624565e-005
,,,-9.86000000e-008,-6.43749565e-005
,,,-9.84000000e-008,-8.84374576e-005
,,,-9.82000000e-008,-5.53124561e-005
,,,-9.80000000e-008,-5.18749559e-005
,,,-9.78000000e-008,-6.24999564e-005
,,,-9.76000000e-008,-1.28124540e-005
,,,-9.74000000e-008,-5.62495370e-006
,,,-9.72000000e-008,-9.46874579e-005
,,,-9.70000000e-008,-1.51874961e-004
,,,-9.68000000e-008,-1.41562460e-004
,,,-9.66000000e-008,-7.21874569e-005
,,,-9.64000000e-008,2.31250477e-005
,,,-9.62000000e-008,9.93750513e-005
,,,-9.60000000e-008,7.00000499e-005
,,,-9.58000000e-008,9.06254700e-006
,,,-9.56000000e-008,-7.40624570e-005
,,,-9.54000000e-008,-1.56562461e-004
,,,-9.52000000e-008,-1.89999962e-004
,,,-9.50000000e-008,-1.35624960e-004
,,,-9.48000000e-008,-3.93749553e-005
,,,-9.46000000e-008,4.84375489e-005
,,,-9.44000000e-008,7.12500500e-005
,,,-9.42000000e-008,2.93750480e-005
,,,-9.40000000e-008,-5.68749561e-005
,,,-9.38000000e-008,-1.35624960e-004
,,,-9.36000000e-008,-1.73124962e-004
,,,-9.34000000e-008,-1.99687463e-004
,,,-9.32000000e-008,-1.30624960e-004
,,,-9.30000000e-008,-1.21874540e-005
,,,-9.28000000e-008,2.62500478e-005
,,,-9.26000000e-008,4.25000486e-005
,,,-9.24000000e-008,7.81254694e-006
,,,-9.22000000e-008,-4.78124557e-005
,,,-9.20000000e-008,-9.99999582e-005
,,,-9.18000000e-008,-7.78124571e-005
,,,-9.16000000e-008,-7.62499571e-005
,,,-9.14000000e-008,-6.18749564e-005
,,,-9.12000000e-008,-2.31249545e-005
,,,-9.10000000e-008,-5.31245369e-006
,,,-9.08000000e-008,9.68754703e-006
,,,-9.06000000e-008,2.46875477e-005
,,,-9.04000000e-008,-1.03124539e-005
,,,-9.02000000e-008,-5.34374560e-005
,,,-9.00000000e-008,-1.36562460e-004
,,,-8.98000000e-008,-1.20624959e-004
,,,-8.96000000e-008,-7.03124568e-005
,,,-8.94000000e-008,-6.49999565e-005
,,,-8.92000000e-008,-8.43745383e-006
,,,-8.90000000e-008,5.62504683e-006
,,,-8.88000000e-008,-5.46874560e-005
,,,-8.86000000e-008,-3.65624552e-005
,,,-8.84000000e-008,-7.18749568e-005
,,,-8.82000000e-008,-7.68749571e-005
,,,-8.80000000e-008,-6.09374563e-005
,,,-8.78000000e-008,-6.28124564e-005
,,,-8.76000000e-008,-7.99999572e-005
,,,-8.74000000e-008,-5.43749560e-005
,,,-8.72000000e-008,4.68754679e-006
,,,-8.70000000e-008,1.62500473e-005
,,,-8.68000000e-008,-3.03124549e-005
,,,-8.66000000e-008,-2.06249544e-005
,,,-8.64000000e-008,-7.43749570e-005
,,,-8.62000000e-008,-7.43749570e-005
,,,-8.60000000e-008,-6.81249567e-005
,,,-8.58000000e-008,-7.46874570e-005
,,,-8.56000000e-008,-7.40624570e-005
,,,-8.54000000e-008,-6.34374564e-005
,,,-8.52000000e-008,-2.59374547e-005
,,,-8.50000000e-008,-3.74995361e-006
,,,-8.48000000e-008,-1.37499541e-005
,,,-8.46000000e-008,-1.81249543e-005
,,,-8.44000000e-008,-6.03124563e-005
,,,-8.42000000e-008,-6.87499567e-005
,,,-8.40000000e-008,-7.09374568e-005
,,,-8.38000000e-008,-7.59374570e-005
,,,-8.36000000e-008,-8.84374576e-005
,,,-8.34000000e-008,-6.09374563e-005
,,,-8.32000000e-008,-6.71874566e-005
,,,-8.30000000e-008,-4.93749558e-005
,,,-8.28000000e-008,-4.34374555e-005
,,,-8.26000000e-008,-2.06249544e-005
,,,-8.24000000e-008,2.78125479e-005
,,,-8.22000000e-008,3.75004674e-006
,,,-8.20000000e-008,-2.34374545e-005
,,,-8.18000000e-008,-6.21874564e-005
,,,-8.16000000e-008,-1.16874959e-004
,,,-8.14000000e-008,-6.65624566e-005
,,,-8.12000000e-008,-4.96874558e-005
,,,-8.10000000e-008,2.12500476e-005
,,,-8.08000000e-008,6.90625498e-005
,,,-8.06000000e-008,4.90625489e-005
,,,-8.04000000e-008,-1.24999540e-005
,,,-8.02000000e-008,-6.93749567e-005
,,,-8.00000000e-008,-1.54687461e-004
,,,-7.98000000e-008,-1.74374962e-004
,,,-7.96000000e-008,-1.30312460e-004
,,,-7.94000000e-008,-4.21874554e-005
,,,-7.92000000e-008,2.81254670e-006
,,,-7.90000000e-008,7.40625501e-005
,,,-7.88000000e-008,3.84375484e-005
,,,-7.86000000e-008,3.43754673e-006
,,,-7.84000000e-008,-5.09374559e-005
,,,-7.82000000e-008,-1.57187461e-004
,,,-7.80000000e-008,-1.64687461e-004
,,,-7.78000000e-008,-9.15624578e-005
,,,-7.76000000e-008,-2.68749547e-005
,,,-7.74000000e-008,4.03125485e-005
,,,-7.72000000e-008,5.81250493e-005
,,,-7.70000000e-008,6.65625497e-005
,,,-7.68000000e-008,-3.12453449e-007
,,,-7.66000000e-008,-4.68749557e-005
,,,-7.64000000e-008,-7.59374570e-005
,,,-7.62000000e-008,-1.71249962e-004
,,,-7.60000000e-008,-1.49687461e-004
,,,-7.58000000e-008,-7.65624571e-005
,,,-7.56000000e-008,-3.49999551e-005
,,,-7.54000000e-008,5.15625490e-005
,,,-7.52000000e-008,5.87500494e-005
,,,-7.50000000e-008,2.18754667e-006
,,,-7.48000000e-008,-4.74999557e-005
,,,-7.46000000e-008,-8.74999576e-005
,,,-7.44000000e-008,-1.04062458e-004
,,,-7.42000000e-008,-1.06249958e-004
,,,-7.40000000e-008,-6.56249566e-005
,,,-7.38000000e-008,-2.68749547e-005
,,,-7.36000000e-008,-3.06249549e-005
,,,-7.34000000e-008,-1.68749542e-005
,,,-7.32000000e-008,-2.93749548e-005
,,,-7.30000000e-008,-2.03124544e-005
,,,-7.28000000e-008,2.12500476e-005
,,,-7.26000000e-008,-2.18749545e-005
,,,-7.24000000e-008,-7.40624570e-005
,,,-7.22000000e-008,-1.07812459e-004
,,,-7.20000000e-008,-1.20312459e-004
,,,-7.18000000e-008,-7.21874569e-005
,,,-7.16000000e-008,-5.96874563e-005
,,,-7.14000000e-008,1.84375474e-005
,,,-7.12000000e-008,6.87500498e-005
,,,-7.10000000e-008,3.50000482e-005
,,,-7.08000000e-008,5.37500491e-005
,,,-7.06000000e-008,-2.96874548e-005
,,,-7.04000000e-008,-1.27187459e-004
,,,-7.02000000e-008,-1.54999961e-004
,,,-7.00000000e-008,-1.49062461e-004
,,,-6.98000000e-008,-9.46874579e-005
,,,-6.96000000e-008,-3.18749549e-005
,,,-6.94000000e-008,1.28125472e-005
,,,-6.92000000e-008,4.15625485e-005
,,,-6.90000000e-008,5.96875494e-005
,,,-6.88000000e-008,5.28125491e-005
,,,-6.86000000e-008,-3.84374553e-005
,,,-6.84000000e-008,-1.38749960e-004
,,,-6.82000000e-008,-1.78749962e-004
,,,-6.80000000e-008,-2.03124963e-004
,,,-6.78000000e-008,-1.08749959e-004
,,,-6.76000000e-008,5.00004680e-006
,,,-6.74000000e-008,9.53125511e-005
,,,-6.72000000e-008,1.64687554e-004
,,,-6.70000000e-008,1.14375052e-004
,,,-6.68000000e-008,8.12504695e-006
,,,-6.66000000e-008,-1.21249959e-004
,,,-6.64000000e-008,-2.28437464e-004
,,,-6.62000000e-008,-1.97812463e-004
,,,-6.60000000e-008,-1.48437460e-004
,,,-6.58000000e-008,3.12546581e-007
,,,-6.56000000e-008,8.59375506e-005
,,,-6.54000000e-008,1.00000051e-004
,,,-6.52000000e-008,9.21875509e-005
,,,-6.50000000e-008,-9.68745389e-006
,,,-6.48000000e-008,-1.30312460e-004
,,,-6.46000000e-008,-2.21562464e-004
,,,-6.44000000e-008,-2.44374965e-004
,,,-6.42000000e-008,-1.80312462e-004
,,,-6.40000000e-008,-1.06874959e-004
,,,-6.38000000e-008,1.03125471e-005
,,,-6.36000000e-008,1.09375052e-004
,,,-6.34000000e-008,1.11562552e-004
,,,-6.32000000e-008,9.21875509e-005
,,,-6.30000000e-008,-2.24999545e-005
,,,-6.28000000e-008,-1.36874960e-004
,,,-6.26000000e-008,-2.01249963e-004
,,,-6.24000000e-008,-1.97499963e-004
,,,-6.22000000e-008,-1.31249960e-004
,,,-6.20000000e-008,-3.93749553e-005
,,,-6.18000000e-008,3.15625481e-005
,,,-6.16000000e-008,8.65625507e-005
,,,-6.14000000e-008,4.28125486e-005
,,,-6.12000000e-008,5.87500494e-005
,,,-6.10000000e-008,-2.84374548e-005
,,,-6.08000000e-008,-1.33437460e-004
,,,-6.06000000e-008,-1.73749962e-004
,,,-6.04000000e-008,-2.15312464e-004
,,,-6.02000000e-008,-1.54374961e-004
,,,-6.00000000e-008,-6.03124563e-005
,,,-5.98000000e-008,-3.84374553e-005
,,,-5.96000000e-008,3.75000483e-005
,,,-5.94000000e-008,8.31250505e-005
,,,-5.92000000e-008,9.31250510e-005
,,,-5.90000000e-008,-1.37499541e-005
,,,-5.88000000e-008,-1.33749960e-004
,,,-5.86000000e-008,-2.29687464e-004
,,,-5.84000000e-008,-2.51874965e-004
,,,-5.82000000e-008,-1.91249963e-004
,,,-5.80000000e-008,-5.24999559e-005
,,,-5.78000000e-008,5.81250493e-005
,,,-5.76000000e-008,1.92500056e-004
,,,-5.74000000e-008,1.68437555e-004
,,,-5.72000000e-008,4.37500486e-005
,,,-5.70000000e-008,-9.12499578e-005
,,,-5.68000000e-008,-2.10937463e-004
,,,-5.66000000e-008,-2.55937466e-004
,,,-5.64000000e-008,-1.76249962e-004
,,,-5.62000000e-008,-8.87499576e-005
,,,-5.60000000e-008,2.34375477e-005
,,,-5.58000000e-008,1.08750052e-004
,,,-5.56000000e-008,1.41250053e-004
,,,-5.54000000e-008,7.56250502e-005
,,,-5.52000000e-008,-8.09374573e-005
,,,-5.50000000e-008,-1.95312463e-004
,,,-5.48000000e-008,-2.71874966e-004
,,,-5.46000000e-008,-2.39062465e-004
,,,-5.44000000e-008,-1.30624960e-004
,,,-5.42000000e-008,-3.90624553e-005
,,,-5.40000000e-008,6.21875495e-005
,,,-5.38000000e-008,1.15937552e-004
,,,-5.36000000e-008,1.00937551e-004
,,,-5.34000000e-008,2.06250475e-005
,,,-5.32000000e-008,-5.84374562e-005
,,,-5.30000000e-008,-1.31562460e-004
,,,-5.28000000e-008,-1.78124962e-004
,,,-5.26000000e-008,-1.51249961e-004
,,,-5.24000000e-008,-7.56249570e-005
,,,-5.22000000e-008,7.50004692e-006
,,,-5.20000000e-008,7.59375502e-005
,,,-5.18000000e-008,1.02812551e-004
,,,-5.16000000e-008,4.68750488e-005
,,,-5.14000000e-008,-3.15624549e-005
,,,-5.12000000e-008,-1.23124959e-004
,,,-5.10000000e-008,-1.91562463e-004
,,,-5.08000000e-008,-1.88437462e-004
,,,-5.06000000e-008,-1.40937460e-004
,,,-5.04000000e-008,-6.09374563e-005
,,,-5.02000000e-008,-2.68749547e-005
,,,-5.00000000e-008,5.09375490e-005
,,,-4.98000000e-008,1.28125053e-004
,,,-4.96000000e-008,8.37500505e-005
,,,-4.94000000e-008,7.50004692e-006
,,,-4.92000000e-008,-1.29687460e-004
,,,-4.90000000e-008,-2.24374964e-004
,,,-4.88000000e-008,-2.30624964e-004
,,,-4.86000000e-008,-1.59062461e-004
,,,-4.84000000e-008,-3.96874553e-005
,,,-4.82000000e-008,7.56250502e-005
,,,-4.80000000e-008,1.55625054e-004
,,,-4.78000000e-008,1.75937555e-004
,,,-4.76000000e-008,6.43750496e-005
,,,-4.74000000e-008,-9.24999578e-005
,,,-4.72000000e-008,-1.92187463e-004
,,,-4.70000000e-008,-2.63437466e-004
,,,-4.68000000e-008,-1.97499963e-004
,,,-4.66000000e-008,-7.84374572e-005
,,,-4.64000000e-008,2.75000479e-005
,,,-4.62000000e-008,1.06875052e-004
,,,-4.60000000e-008,1.44062553e-004
,,,-4.58000000e-008,9.15625509e-005
,,,-4.56000000e-008,-5.09374559e-005
,,,-4.54000000e-008,-1.48749960e-004
,,,-4.52000000e-008,-1.93749963e-004
,,,-4.50000000e-008,-2.26249964e-004
,,,-4.48000000e-008,-1.21249959e-004
,,,-4.46000000e-008,-5.96874563e-005
,,,-4.44000000e-008,-1.21874540e-005
,,,-4.42000000e-008,9.68750512e-005
,,,-4.40000000e-008,1.22812552e-004
,,,-4.38000000e-008,6.81250498e-005
,,,-4.36000000e-008,-2.24999545e-005
,,,-4.34000000e-008,-1.80624962e-004
,,,-4.32000000e-008,-2.42499965e-004
,,,-4.30000000e-008,-1.87499962e-004
,,,-4.28000000e-008,-7.15624568e-005
,,,-4.26000000e-008,5.06250490e-005
,,,-4.24000000e-008,1.18125052e-004
,,,-4.22000000e-008,1.48125054e-004
,,,-4.20000000e-008,6.53125497e-005
,,,-4.18000000e-008,-3.78124552e-005
,,,-4.16000000e-008,-1.31562460e-004
,,,-4.14000000e-008,-1.91874963e-004
,,,-4.12000000e-008,-1.73437462e-004
,,,-4.10000000e-008,-8.81249576e-005
,,,-4.08000000e-008,-4.34374555e-005
,,,-4.06000000e-008,4.31250486e-005
,,,-4.04000000e-008,6.00000494e-005
,,,-4.02000000e-008,5.56250492e-005
,,,-4.00000000e-008,5.31254682e-006
,,,-3.98000000e-008,-8.56249575e-005
,,,-3.96000000e-008,-1.71562462e-004
,,,-3.94000000e-008,-1.98749963e-004
,,,-3.92000000e-008,-1.23749959e-004
,,,-3.90000000e-008,-2.81249548e-005
,,,-3.88000000e-008,5.84375493e-005
,,,-3.86000000e-008,1.27187553e-004
,,,-3.84000000e-008,9.90625513e-005
,,,-3.82000000e-008,3.78125484e-005
,,,-3.80000000e-008,-3.84374553e-005
,,,-3.78000000e-008,-1.34374960e-004
,,,-3.76000000e-008,-1.80312462e-004
,,,-3.74000000e-008,-1.36562460e-004
,,,-3.72000000e-008,-5.53124561e-005
,,,-3.70000000e-008,2.15625476e-005
,,,-3.68000000e-008,4.00000485e-005
,,,-3.66000000e-008,3.56250483e-005
,,,-3.64000000e-008,3.12546581e-007
,,,-3.62000000e-008,-3.96874553e-005
,,,-3.60000000e-008,-5.24999559e-005
,,,-3.58000000e-008,-1.04062458e-004
,,,-3.56000000e-008,-1.45937460e-004
,,,-3.54000000e-008,-1.21874959e-004
,,,-3.52000000e-008,-1.29687460e-004
,,,-3.50000000e-008,-5.62499561e-005
,,,-3.48000000e-008,3.21875481e-005
,,,-3.46000000e-008,1.05000052e-004
,,,-3.44000000e-008,1.43437553e-004
,,,-3.42000000e-008,5.37500491e-005
,,,-3.40000000e-008,-5.90624562e-005
,,,-3.38000000e-008,-2.04062463e-004
,,,-3.36000000e-008,-2.26249964e-004
,,,-3.34000000e-008,-1.54374961e-004
,,,-3.32000000e-008,-4.24999555e-005
,,,-3.30000000e-008,6.84375498e-005
,,,-3.28000000e-008,1.55937554e-004
,,,-3.26000000e-008,1.30312553e-004
,,,-3.24000000e-008,7.25000500e-005
,,,-3.22000000e-008,-6.59374566e-005
,,,-3.20000000e-008,-1.80937462e-004
,,,-3.18000000e-008,-2.11562463e-004
,,,-3.16000000e-008,-2.01562463e-004
,,,-3.14000000e-008,-7.74999571e-005
,,,-3.12000000e-008,3.25000481e-005
,,,-3.10000000e-008,1.25625053e-004
,,,-3.08000000e-008,1.46875054e-004
,,,-3.06000000e-008,4.28125486e-005
,,,-3.04000000e-008,-5.59374561e-005
,,,-3.02000000e-008,-1.94999963e-004
,,,-3.00000000e-008,-2.65624966e-004
,,,-2.98000000e-008,-2.19999964e-004
,,,-2.96000000e-008,-1.01874958e-004
,,,-2.94000000e-008,7.40625501e-005
,,,-2.92000000e-008,1.21250052e-004
,,,-2.90000000e-008,1.64687554e-004
,,,-2.88000000e-008,1.14375052e-004
,,,-2.86000000e-008,-8.24999574e-005
,,,-2.84000000e-008,-1.62812461e-004
,,,-2.82000000e-008,-2.24687464e-004
,,,-2.80000000e-008,-1.98749963e-004
,,,-2.78000000e-008,-2.71874547e-005
,,,-2.76000000e-008,7.75000502e-005
,,,-2.74000000e-008,1.20937552e-004
,,,-2.72000000e-008,1.20625052e-004
,,,-2.70000000e-008,4.00000485e-005
,,,-2.68000000e-008,-8.99999577e-005
,,,-2.66000000e-008,-1.69062461e-004
,,,-2.64000000e-008,-2.03437463e-004
,,,-2.62000000e-008,-2.15312464e-004
,,,-2.60000000e-008,-1.34374960e-004
,,,-2.58000000e-008,7.50004692e-006
,,,-2.56000000e-008,4.34375486e-005
,,,-2.54000000e-008,8.56250506e-005
,,,-2.52000000e-008,8.93750508e-005
,,,-2.50000000e-008,-2.40624546e-005
,,,-2.48000000e-008,-8.71874576e-005
,,,-2.46000000e-008,-1.58124961e-004
,,,-2.44000000e-008,-2.09999963e-004
,,,-2.42000000e-008,-1.32812460e-004
,,,-2.40000000e-008,-2.68749547e-005
,,,-2.38000000e-008,8.59375506e-005
,,,-2.36000000e-008,1.19375052e-004
,,,-2.34000000e-008,1.35000053e-004
,,,-2.32000000e-008,4.65625488e-005
,,,-2.30000000e-008,-8.06249573e-005
,,,-2.28000000e-008,-1.53124961e-004
,,,-2.26000000e-008,-1.81874962e-004
,,,-2.24000000e-008,-1.82187462e-004
,,,-2.22000000e-008,-7.28124569e-005
,,,-2.20000000e-008,-1.24995349e-006
,,,-2.18000000e-008,5.43750491e-005
,,,-2.16000000e-008,6.71875498e-005
,,,-2.14000000e-008,7.81254694e-006
,,,-2.12000000e-008,-4.24999555e-005
,,,-2.10000000e-008,-1.14062459e-004
,,,-2.08000000e-008,-1.43124960e-004
,,,-2.06000000e-008,-1.37187460e-004
,,,-2.04000000e-008,-1.11562459e-004
,,,-2.02000000e-008,-3.43749551e-005
,,,-2.00000000e-008,1.37500472e-005
,,,-1.98000000e-008,3.43754673e-006
,,,-1.96000000e-008,3.09375480e-005
,,,-1.94000000e-008,3.21875481e-005
,,,-1.92000000e-008,-4.06245363e-006
,,,-1.90000000e-008,-4.31249555e-005
,,,-1.88000000e-008,-8.24999574e-005
,,,-1.86000000e-008,-1.35312460e-004
,,,-1.84000000e-008,-1.30624960e-004
,,,-1.82000000e-008,-6.87499567e-005
,,,-1.80000000e-008,-2.49999546e-005
,,,-1.78000000e-008,2.09375476e-005
,,,-1.76000000e-008,6.62500497e-005
,,,-1.74000000e-008,5.31250491e-005
,,,-1.72000000e-008,9.68754703e-006
,,,-1.70000000e-008,-5.43749560e-005
,,,-1.68000000e-008,-1.54687461e-004
,,,-1.66000000e-008,-2.18437464e-004
,,,-1.64000000e-008,-2.20624964e-004
,,,-1.62000000e-008,-1.06562458e-004
,,,-1.60000000e-008,2.03125475e-005
,,,-1.58000000e-008,1.16250052e-004
,,,-1.56000000e-008,1.87812555e-004
,,,-1.54000000e-008,8.65625507e-005
,,,-1.52000000e-008,-8.78124576e-005
,,,-1.50000000e-008,-2.07187463e-004
,,,-1.48000000e-008,-2.99687468e-004
,,,-1.46000000e-008,-2.57812466e-004
,,,-1.44000000e-008,-1.11562459e-004
,,,-1.42000000e-008,9.12500509e-005
,,,-1.40000000e-008,2.10625057e-004
,,,-1.38000000e-008,2.28125057e-004
,,,-1.36000000e-008,1.47187554e-004
,,,-1.34000000e-008,-5.81249562e-005
,,,-1.32000000e-008,-2.10937463e-004
,,,-1.30000000e-008,-2.68124966e-004
,,,-1.28000000e-008,-2.33749965e-004
,,,-1.26000000e-008,-7.87499572e-005
,,,-1.24000000e-008,9.28125510e-005
,,,-1.22000000e-008,1.64062554e-004
,,,-1.20000000e-008,1.30625053e-004
,,,-1.18000000e-008,5.21875490e-005
,,,-1.16000000e-008,-1.08437459e-004
,,,-1.14000000e-008,-2.16249964e-004
,,,-1.12000000e-008,-2.28749964e-004
,,,-1.10000000e-008,-1.94062463e-004
,,,-1.08000000e-008,-1.02499958e-004
,,,-1.06000000e-008,3.78125484e-005
,,,-1.04000000e-008,9.50000511e-005
,,,-1.02000000e-008,5.50000492e-005
,,,-1.00000000e-008,3.28125481e-005
,,,-9.80000000e-009,-4.06245363e-006
,,,-9.60000000e-009,-9.12499578e-005
,,,-9.40000000e-009,-9.09374578e-005
,,,-9.20000000e-009,-1.07187459e-004
,,,-9.00000000e-009,-9.49999579e-005
,,,-8.80000000e-009,-6.53124565e-005
,,,-8.60000000e-009,-1.40624541e-005
,,,-8.40000000e-009,2.50004668e-006
,,,-8.20000000e-009,4.68754679e-006
,,,-8.00000000e-009,-1.24995349e-006
,,,-7.80000000e-009,9.37504701e-006
,,,-7.60000000e-009,-1.78124543e-005
,,,-7.40000000e-009,-8.56249575e-005
,,,-7.20000000e-009,-1.43437460e-004
,,,-7.00000000e-009,-1.50624961e-004
,,,-6.80000000e-009,-1.42187460e-004
,,,-6.60000000e-009,-1.22812459e-004
,,,-6.40000000e-009,3.12504671e-006
,,,-6.20000000e-009,6.12500495e-005
,,,-6.00000000e-009,8.21875505e-005
,,,-5.80000000e-009,5.53125492e-005
,,,-5.60000000e-009,-9.09374578e-005
,,,-5.40000000e-009,-2.04062463e-004
,,,-5.20000000e-009,-1.88437462e-004
,,,-5.00000000e-009,-1.70937462e-004
,,,-4.80000000e-009,-8.24999574e-005
,,,-4.60000000e-009,2.18750476e-005
,,,-4.40000000e-009,5.25000491e-005
,,,-4.20000000e-009,4.37500486e-005
,,,-4.00000000e-009,1.59375473e-005
,,,-3.80000000e-009,-4.24999555e-005
,,,-3.60000000e-009,-1.38124960e-004
,,,-3.40000000e-009,-1.41249960e-004
,,,-3.20000000e-009,-8.49999575e-005
,,,-3.00000000e-009,-6.96874567e-005
,,,-2.80000000e-009,1.37500472e-005
,,,-2.60000000e-009,-2.49995355e-006
,,,-2.40000000e-009,-4.81249557e-005
,,,-2.20000000e-009,-9.59374580e-005
,,,-2.00000000e-009,-1.08437459e-004
,,,-1.80000000e-009,-1.14687459e-004
,,,-1.60000000e-009,-8.87499576e-005
,,,-1.40000000e-009,-7.18749568e-005
,,,-1.20000000e-009,-4.43749555e-005
,,,-1.00000000e-009,-5.68749561e-005
,,,-8.00000000e-010,-5.74999562e-005
,,,-6.00000000e-010,-3.59374551e-005
,,,-4.00000000e-010,-7.49999570e-005
,,,-2.00000000e-010,-5.96874563e-005
,,,0.00000000e+000,-5.99999563e-005
,,,2.00000000e-010,-6.59374566e-005
,,,4.00000000e-010,-4.46874556e-005
,,,6.00000000e-010,-5.71874562e-005
,,,8.00000000e-010,-3.87499553e-005
,,,1.00000000e-009,-3.37499550e-005
,,,1.20000000e-009,-1.15624540e-005
,,,1.40000000e-009,-4.06245363e-006
,,,1.60000000e-009,-3.15624549e-005
,,,1.80000000e-009,-5.71874562e-005
,,,2.00000000e-009,-8.24999574e-005
,,,2.20000000e-009,-1.49062461e-004
,,,2.40000000e-009,-1.60937461e-004
,,,2.60000000e-009,-1.16562459e-004
,,,2.80000000e-009,-6.40624565e-005
,,,3.00000000e-009,4.09375485e-005
,,,3.20000000e-009,3.31250481e-005
,,,3.40000000e-009,-2.68749547e-005
,,,3.60000000e-009,-7.99999572e-005
,,,3.80000000e-009,-1.46249960e-004
,,,4.00000000e-009,-1.39062460e-004
,,,4.20000000e-009,-1.39999960e-004
,,,4.40000000e-009,-4.43749555e-005
,,,4.60000000e-009,2.21875476e-005
,,,4.80000000e-009,8.68750507e-005
,,,5.00000000e-009,9.46875511e-005
,,,5.20000000e-009,-7.81245380e-006
,,,5.40000000e-009,-9.31249579e-005
,,,5.60000000e-009,-1.33124960e-004
,,,5.80000000e-009,-1.44062460e-004
,,,6.00000000e-009,-7.31249569e-005
,,,6.20000000e-009,-2.59374547e-005
,,,6.40000000e-009,5.18750490e-005
,,,6.60000000e-009,8.46875506e-005
,,,6.80000000e-009,3.37500482e-005
,,,7.00000000e-009,-3.96874553e-005
,,,7.20000000e-009,-1.46562460e-004
,,,7.40000000e-009,-1.86874962e-004
