Data/20220819/UCLA_to_R2A_VPOL_E_NEG50_01_Ch2.csv

"Record Length",5000,"Points",-1.00800000e-007,8.84375508e-005
"Sample Interval",2.00000000e-010,s,-1.00600000e-007,1.13125052e-004
"Trigger Point",504,"Samples",-1.00400000e-007,7.59375502e-005
"Trigger Time",0.00000000e+000,s,-1.00200000e-007,5.06250490e-005
"",,,-1.00000000e-007,1.93750475e-005
"Horizontal Offset",-1.00800000e-007,s,-9.98000000e-008,-2.65624547e-005
,,,-9.96000000e-008,-3.18749549e-005
,,,-9.94000000e-008,-4.40624555e-005
,,,-9.92000000e-008,-1.84374543e-005
,,,-9.90000000e-008,6.25004686e-006
,,,-9.88000000e-008,4.37500486e-005
,,,-9.86000000e-008,8.71875507e-005
,,,-9.84000000e-008,7.43750501e-005
,,,-9.82000000e-008,6.28125495e-005
,,,-9.80000000e-008,1.06250471e-005
,,,-9.78000000e-008,-4.46874556e-005
,,,-9.76000000e-008,-7.40624570e-005
,,,-9.74000000e-008,-6.21874564e-005
,,,-9.72000000e-008,-3.21874550e-005
,,,-9.70000000e-008,2.93750480e-005
,,,-9.68000000e-008,9.40625510e-005
,,,-9.66000000e-008,1.44062553e-004
,,,-9.64000000e-008,1.41562553e-004
,,,-9.62000000e-008,7.15625500e-005
,,,-9.60000000e-008,-3.53124551e-005
,,,-9.58000000e-008,-1.31562460e-004
,,,-9.56000000e-008,-1.18749959e-004
,,,-9.54000000e-008,-4.37499555e-005
,,,-9.52000000e-008,5.68750493e-005
,,,-9.50000000e-008,1.47500054e-004
,,,-9.48000000e-008,1.73750055e-004
,,,-9.46000000e-008,1.33125053e-004
,,,-9.44000000e-008,5.40625491e-005
,,,-9.42000000e-008,-6.24999564e-005
,,,-9.40000000e-008,-1.20624959e-004
,,,-9.38000000e-008,-1.05624958e-004
,,,-9.36000000e-008,-4.24999555e-005
,,,-9.34000000e-008,5.65625493e-005
,,,-9.32000000e-008,1.11250052e-004
,,,-9.30000000e-008,1.33125053e-004
,,,-9.28000000e-008,8.87500508e-005
,,,-9.26000000e-008,2.90625479e-005
,,,-9.24000000e-008,-3.84374553e-005
,,,-9.22000000e-008,-9.46874579e-005
,,,-9.20000000e-008,-7.78124571e-005
,,,-9.18000000e-008,-6.84374567e-005
,,,-9.16000000e-008,-5.62495370e-006
,,,-9.14000000e-008,7.90625503e-005
,,,-9.12000000e-008,1.37500053e-004
,,,-9.10000000e-008,1.58125054e-004
,,,-9.08000000e-008,1.03437551e-004
,,,-9.06000000e-008,2.59375478e-005
,,,-9.04000000e-008,-4.81249557e-005
,,,-9.02000000e-008,-8.53124575e-005
,,,-9.00000000e-008,-8.68749576e-005
,,,-8.98000000e-008,-3.37499550e-005
,,,-8.96000000e-008,3.25000481e-005
,,,-8.94000000e-008,1.14375052e-004
,,,-8.92000000e-008,1.71875055e-004
,,,-8.90000000e-008,1.44375053e-004
,,,-8.88000000e-008,5.59375492e-005
,,,-8.86000000e-008,-4.43749555e-005
,,,-8.84000000e-008,-1.34062460e-004
,,,-8.82000000e-008,-1.31249960e-004
,,,-8.80000000e-008,-8.03124572e-005
,,,-8.78000000e-008,1.03125471e-005
,,,-8.76000000e-008,7.96875504e-005
,,,-8.74000000e-008,1.41875053e-004
,,,-8.72000000e-008,1.33125053e-004
,,,-8.70000000e-008,1.10625052e-004
,,,-8.68000000e-008,3.18750481e-005
,,,-8.66000000e-008,-5.18749559e-005
,,,-8.64000000e-008,-1.16562459e-004
,,,-8.62000000e-008,-1.24999959e-004
,,,-8.60000000e-008,-5.53124561e-005
,,,-8.58000000e-008,5.90625494e-005
,,,-8.56000000e-008,1.66875054e-004
,,,-8.54000000e-008,1.99687556e-004
,,,-8.52000000e-008,1.59687554e-004
,,,-8.50000000e-008,5.81250493e-005
,,,-8.48000000e-008,-6.43749565e-005
,,,-8.46000000e-008,-1.05624958e-004
,,,-8.44000000e-008,-1.19687459e-004
,,,-8.42000000e-008,-7.56249570e-005
,,,-8.40000000e-008,7.81254694e-006
,,,-8.38000000e-008,9.71875512e-005
,,,-8.36000000e-008,1.55937554e-004
,,,-8.34000000e-008,1.35000053e-004
,,,-8.32000000e-008,7.53125501e-005
,,,-8.30000000e-008,8.75004698e-006
,,,-8.28000000e-008,-5.81249562e-005
,,,-8.26000000e-008,-7.18749568e-005
,,,-8.24000000e-008,-8.46874575e-005
,,,-8.22000000e-008,-5.24999559e-005
,,,-8.20000000e-008,4.65661288e-011
,,,-8.18000000e-008,6.06250494e-005
,,,-8.16000000e-008,1.31562553e-004
,,,-8.14000000e-008,1.60625054e-004
,,,-8.12000000e-008,1.25937553e-004
,,,-8.10000000e-008,3.65625483e-005
,,,-8.08000000e-008,-6.65624566e-005
,,,-8.06000000e-008,-1.11562459e-004
,,,-8.04000000e-008,-1.16249959e-004
,,,-8.02000000e-008,-4.81249557e-005
,,,-8.00000000e-008,7.62500502e-005
,,,-7.98000000e-008,1.55000054e-004
,,,-7.96000000e-008,1.88125056e-004
,,,-7.94000000e-008,1.40000053e-004
,,,-7.92000000e-008,4.50000487e-005
,,,-7.90000000e-008,-5.96874563e-005
,,,-7.88000000e-008,-1.51874961e-004
,,,-7.86000000e-008,-1.37499960e-004
,,,-7.84000000e-008,-7.24999569e-005
,,,-7.82000000e-008,-6.56245375e-006
,,,-7.80000000e-008,9.34375510e-005
,,,-7.78000000e-008,1.30000053e-004
,,,-7.76000000e-008,1.54687554e-004
,,,-7.74000000e-008,1.11250052e-004
,,,-7.72000000e-008,4.59375487e-005
,,,-7.70000000e-008,-3.12499549e-005
,,,-7.68000000e-008,-9.78124581e-005
,,,-7.66000000e-008,-1.15312459e-004
,,,-7.64000000e-008,-7.28124569e-005
,,,-7.62000000e-008,4.84375489e-005
,,,-7.60000000e-008,1.40312553e-004
,,,-7.58000000e-008,1.84375055e-004
,,,-7.56000000e-008,1.63125054e-004
,,,-7.54000000e-008,8.25000505e-005
,,,-7.52000000e-008,-3.24999550e-005
,,,-7.50000000e-008,-9.34374579e-005
,,,-7.48000000e-008,-1.44062460e-004
,,,-7.46000000e-008,-8.68749576e-005
,,,-7.44000000e-008,-1.71874543e-005
,,,-7.42000000e-008,6.03125494e-005
,,,-7.40000000e-008,1.20625052e-004
,,,-7.38000000e-008,1.37500053e-004
,,,-7.36000000e-008,1.01875051e-004
,,,-7.34000000e-008,4.28125486e-005
,,,-7.32000000e-008,-3.09374549e-005
,,,-7.30000000e-008,-8.65624575e-005
,,,-7.28000000e-008,-1.02812458e-004
,,,-7.26000000e-008,-8.71874576e-005
,,,-7.24000000e-008,-9.68745389e-006
,,,-7.22000000e-008,8.18750505e-005
,,,-7.20000000e-008,1.58750054e-004
,,,-7.18000000e-008,1.80000055e-004
,,,-7.16000000e-008,1.38125053e-004
,,,-7.14000000e-008,3.25000481e-005
,,,-7.12000000e-008,-8.03124572e-005
,,,-7.10000000e-008,-1.53124961e-004
,,,-7.08000000e-008,-1.08749959e-004
,,,-7.06000000e-008,-2.34374545e-005
,,,-7.04000000e-008,8.43750506e-005
,,,-7.02000000e-008,1.43750053e-004
,,,-7.00000000e-008,1.48125054e-004
,,,-6.98000000e-008,9.81250512e-005
,,,-6.96000000e-008,2.62500478e-005
,,,-6.94000000e-008,-4.12499554e-005
,,,-6.92000000e-008,-7.93749572e-005
,,,-6.90000000e-008,-7.99999572e-005
,,,-6.88000000e-008,-4.34374555e-005
,,,-6.86000000e-008,2.81254670e-006
,,,-6.84000000e-008,3.81250484e-005
,,,-6.82000000e-008,7.40625501e-005
,,,-6.80000000e-008,8.84375508e-005
,,,-6.78000000e-008,8.56250506e-005
,,,-6.76000000e-008,6.31250496e-005
,,,-6.74000000e-008,1.03125471e-005
,,,-6.72000000e-008,-3.87499553e-005
,,,-6.70000000e-008,-7.90624572e-005
,,,-6.68000000e-008,-7.62499571e-005
,,,-6.66000000e-008,-9.37453478e-007
,,,-6.64000000e-008,9.31250510e-005
,,,-6.62000000e-008,1.33125053e-004
,,,-6.60000000e-008,1.41250053e-004
,,,-6.58000000e-008,9.18750509e-005
,,,-6.56000000e-008,1.90625475e-005
,,,-6.54000000e-008,-3.68749552e-005
,,,-6.52000000e-008,-8.56249575e-005
,,,-6.50000000e-008,-1.12187459e-004
,,,-6.48000000e-008,-6.74999566e-005
,,,-6.46000000e-008,1.18750471e-005
,,,-6.44000000e-008,7.59375502e-005
,,,-6.42000000e-008,1.21875052e-004
,,,-6.40000000e-008,1.21562552e-004
,,,-6.38000000e-008,6.43750496e-005
,,,-6.36000000e-008,-4.68745366e-006
,,,-6.34000000e-008,-7.18749568e-005
,,,-6.32000000e-008,-1.09062459e-004
,,,-6.30000000e-008,-8.40624574e-005
,,,-6.28000000e-008,-2.62499547e-005
,,,-6.26000000e-008,5.93750494e-005
,,,-6.24000000e-008,1.58437554e-004
,,,-6.22000000e-008,1.95625056e-004
,,,-6.20000000e-008,1.38125053e-004
,,,-6.18000000e-008,4.78125488e-005
,,,-6.16000000e-008,-7.65624571e-005
,,,-6.14000000e-008,-1.17187459e-004
,,,-6.12000000e-008,-8.96874577e-005
,,,-6.10000000e-008,-1.34374541e-005
,,,-6.08000000e-008,8.56250506e-005
,,,-6.06000000e-008,1.25312553e-004
,,,-6.04000000e-008,1.16250052e-004
,,,-6.02000000e-008,8.34375505e-005
,,,-6.00000000e-008,3.65625483e-005
,,,-5.98000000e-008,-9.06245386e-006
,,,-5.96000000e-008,-5.12499559e-005
,,,-5.94000000e-008,-6.06249563e-005
,,,-5.92000000e-008,-7.56249570e-005
,,,-5.90000000e-008,-1.62499542e-005
,,,-5.88000000e-008,3.12500481e-005
,,,-5.86000000e-008,8.81250508e-005
,,,-5.84000000e-008,1.05312552e-004
,,,-5.82000000e-008,1.00000051e-004
,,,-5.80000000e-008,6.18750495e-005
,,,-5.78000000e-008,-1.37499541e-005
,,,-5.76000000e-008,-5.99999563e-005
,,,-5.74000000e-008,-9.59374580e-005
,,,-5.72000000e-008,-8.37499574e-005
,,,-5.70000000e-008,2.53125478e-005
,,,-5.68000000e-008,1.12187552e-004
,,,-5.66000000e-008,1.60000054e-004
,,,-5.64000000e-008,1.61875054e-004
,,,-5.62000000e-008,8.00000504e-005
,,,-5.60000000e-008,-1.09374540e-005
,,,-5.58000000e-008,-7.09374568e-005
,,,-5.56000000e-008,-8.71874576e-005
,,,-5.54000000e-008,-6.46874565e-005
,,,-5.52000000e-008,-1.15624540e-005
,,,-5.50000000e-008,5.75000493e-005
,,,-5.48000000e-008,9.09375509e-005
,,,-5.46000000e-008,1.08437552e-004
,,,-5.44000000e-008,8.96875508e-005
,,,-5.42000000e-008,3.46875482e-005
,,,-5.40000000e-008,-2.62499547e-005
,,,-5.38000000e-008,-7.62499571e-005
,,,-5.36000000e-008,-9.74999581e-005
,,,-5.34000000e-008,-5.49999560e-005
,,,-5.32000000e-008,-5.93745372e-006
,,,-5.30000000e-008,5.75000493e-005
,,,-5.28000000e-008,1.22187552e-004
,,,-5.26000000e-008,1.35937553e-004
,,,-5.24000000e-008,1.23125052e-004
,,,-5.22000000e-008,3.65625483e-005
,,,-5.20000000e-008,-2.31249545e-005
,,,-5.18000000e-008,-7.62499571e-005
,,,-5.16000000e-008,-6.53124565e-005
,,,-5.14000000e-008,-1.56249542e-005
,,,-5.12000000e-008,2.28125476e-005
,,,-5.10000000e-008,7.78125503e-005
,,,-5.08000000e-008,1.08750052e-004
,,,-5.06000000e-008,1.00312551e-004
,,,-5.04000000e-008,8.12500504e-005
,,,-5.02000000e-008,3.59375483e-005
,,,-5.00000000e-008,-4.99999558e-005
,,,-4.98000000e-008,-9.65624580e-005
,,,-4.96000000e-008,-1.28749960e-004
,,,-4.94000000e-008,-7.74999571e-005
,,,-4.92000000e-008,1.12500471e-005
,,,-4.90000000e-008,1.06250052e-004
,,,-4.88000000e-008,1.68437555e-004
,,,-4.86000000e-008,1.48437554e-004
,,,-4.84000000e-008,7.40625501e-005
,,,-4.82000000e-008,-2.81249548e-005
,,,-4.80000000e-008,-1.15312459e-004
,,,-4.78000000e-008,-1.43437460e-004
,,,-4.76000000e-008,-9.78124581e-005
,,,-4.74000000e-008,4.00000485e-005
,,,-4.72000000e-008,1.50625054e-004
,,,-4.70000000e-008,2.18125057e-004
,,,-4.68000000e-008,1.85000055e-004
,,,-4.66000000e-008,5.31250491e-005
,,,-4.64000000e-008,-5.40624560e-005
,,,-4.62000000e-008,-1.21249959e-004
,,,-4.60000000e-008,-1.38749960e-004
,,,-4.58000000e-008,-4.65624556e-005
,,,-4.56000000e-008,8.43754697e-006
,,,-4.54000000e-008,9.84375512e-005
,,,-4.52000000e-008,1.23125052e-004
,,,-4.50000000e-008,1.21250052e-004
,,,-4.48000000e-008,7.50000501e-005
,,,-4.46000000e-008,-9.06245386e-006
,,,-4.44000000e-008,-6.31249564e-005
,,,-4.42000000e-008,-1.05624958e-004
,,,-4.40000000e-008,-8.18749573e-005
,,,-4.38000000e-008,-1.53124542e-005
,,,-4.36000000e-008,3.93750484e-005
,,,-4.34000000e-008,1.07187552e-004
,,,-4.32000000e-008,1.29062553e-004
,,,-4.30000000e-008,9.43750510e-005
,,,-4.28000000e-008,5.00000489e-005
,,,-4.26000000e-008,-2.74999547e-005
,,,-4.24000000e-008,-4.40624555e-005
,,,-4.22000000e-008,-6.37499565e-005
,,,-4.20000000e-008,-4.93749558e-005
,,,-4.18000000e-008,-3.12453449e-007
,,,-4.16000000e-008,5.65625493e-005
,,,-4.14000000e-008,9.09375509e-005
,,,-4.12000000e-008,1.11250052e-004
,,,-4.10000000e-008,7.34375501e-005
,,,-4.08000000e-008,3.21875481e-005
,,,-4.06000000e-008,-1.68749542e-005
,,,-4.04000000e-008,-5.31249560e-005
,,,-4.02000000e-008,-6.03124563e-005
,,,-4.00000000e-008,-6.31249564e-005
,,,-3.98000000e-008,3.12504671e-006
,,,-3.96000000e-008,5.43750491e-005
,,,-3.94000000e-008,1.00000051e-004
,,,-3.92000000e-008,1.23750052e-004
,,,-3.90000000e-008,7.34375501e-005
,,,-3.88000000e-008,1.75000474e-005
,,,-3.86000000e-008,-3.28124550e-005
,,,-3.84000000e-008,-7.87499572e-005
,,,-3.82000000e-008,-5.06249558e-005
,,,-3.80000000e-008,-1.93749544e-005
,,,-3.78000000e-008,6.62500497e-005
,,,-3.76000000e-008,1.08750052e-004
,,,-3.74000000e-008,1.40937553e-004
,,,-3.72000000e-008,1.17812552e-004
,,,-3.70000000e-008,2.59375478e-005
,,,-3.68000000e-008,-1.43749541e-005
,,,-3.66000000e-008,-5.84374562e-005
,,,-3.64000000e-008,-6.03124563e-005
,,,-3.62000000e-008,9.37546611e-007
,,,-3.60000000e-008,1.75000474e-005
,,,-3.58000000e-008,4.46875487e-005
,,,-3.56000000e-008,5.90625494e-005
,,,-3.54000000e-008,4.21875486e-005
,,,-3.52000000e-008,4.81250489e-005
,,,-3.50000000e-008,3.65625483e-005
,,,-3.48000000e-008,-2.18745354e-006
,,,-3.46000000e-008,-2.84374548e-005
,,,-3.44000000e-008,-5.96874563e-005
,,,-3.42000000e-008,-1.99999544e-005
,,,-3.40000000e-008,-3.24999550e-005
,,,-3.38000000e-008,1.62500473e-005
,,,-3.36000000e-008,8.03125504e-005
,,,-3.34000000e-008,8.40625506e-005
,,,-3.32000000e-008,8.18750505e-005
,,,-3.30000000e-008,5.15625490e-005
,,,-3.28000000e-008,-1.56249542e-005
,,,-3.26000000e-008,-5.06249558e-005
,,,-3.24000000e-008,-5.71874562e-005
,,,-3.22000000e-008,-1.56249542e-005
,,,-3.20000000e-008,3.96875485e-005
,,,-3.18000000e-008,1.04062552e-004
,,,-3.16000000e-008,1.22812552e-004
,,,-3.14000000e-008,6.96875499e-005
,,,-3.12000000e-008,2.12500476e-005
,,,-3.10000000e-008,-3.62499552e-005
,,,-3.08000000e-008,-5.18749559e-005
,,,-3.06000000e-008,-3.53124551e-005
,,,-3.04000000e-008,-2.12499544e-005
,,,-3.02000000e-008,2.25000476e-005
,,,-3.00000000e-008,6.46875496e-005
,,,-2.98000000e-008,7.71875502e-005
,,,-2.96000000e-008,7.93750503e-005
,,,-2.94000000e-008,3.09375480e-005
,,,-2.92000000e-008,-2.03124544e-005
,,,-2.90000000e-008,-3.37499550e-005
,,,-2.88000000e-008,-4.15624554e-005
,,,-2.86000000e-008,1.15625471e-005
,,,-2.84000000e-008,3.93750484e-005
,,,-2.82000000e-008,9.59375511e-005
,,,-2.80000000e-008,7.40625501e-005
,,,-2.78000000e-008,5.59375492e-005
,,,-2.76000000e-008,1.75000474e-005
,,,-2.74000000e-008,-1.31249541e-005
,,,-2.72000000e-008,-1.96874544e-005
,,,-2.70000000e-008,5.31254682e-006
,,,-2.68000000e-008,4.78125488e-005
,,,-2.66000000e-008,8.50000506e-005
,,,-2.64000000e-008,6.53125497e-005
,,,-2.62000000e-008,1.90625475e-005
,,,-2.60000000e-008,-2.18749545e-005
,,,-2.58000000e-008,-2.96874548e-005
,,,-2.56000000e-008,-9.99995391e-006
,,,-2.54000000e-008,3.43750482e-005
,,,-2.52000000e-008,4.65625488e-005
,,,-2.50000000e-008,5.21875490e-005
,,,-2.48000000e-008,2.18750476e-005
,,,-2.46000000e-008,1.87504666e-006
,,,-2.44000000e-008,-3.21874550e-005
,,,-2.42000000e-008,-1.68749542e-005
,,,-2.40000000e-008,1.87504666e-006
,,,-2.38000000e-008,2.37500477e-005
,,,-2.36000000e-008,6.46875496e-005
,,,-2.34000000e-008,6.06250494e-005
,,,-2.32000000e-008,2.09375476e-005
,,,-2.30000000e-008,-2.49995355e-006
,,,-2.28000000e-008,-2.81245357e-006
,,,-2.26000000e-008,1.81250474e-005
,,,-2.24000000e-008,3.62500483e-005
,,,-2.22000000e-008,5.25000491e-005
,,,-2.20000000e-008,3.65625483e-005
,,,-2.18000000e-008,7.50004692e-006
,,,-2.16000000e-008,-1.03124539e-005
,,,-2.14000000e-008,-1.87495352e-006
,,,-2.12000000e-008,6.56254688e-006
,,,-2.10000000e-008,3.46875482e-005
,,,-2.08000000e-008,3.25000481e-005
,,,-2.06000000e-008,2.75000479e-005
,,,-2.04000000e-008,2.18754667e-006
,,,-2.02000000e-008,1.56254664e-006
,,,-2.00000000e-008,-9.99995391e-006
,,,-1.98000000e-008,-9.37495388e-006
,,,-1.96000000e-008,9.06254700e-006
,,,-1.94000000e-008,3.46875482e-005
,,,-1.92000000e-008,4.90625489e-005
,,,-1.90000000e-008,8.37500505e-005
,,,-1.88000000e-008,8.40625506e-005
,,,-1.86000000e-008,5.12500490e-005
,,,-1.84000000e-008,3.43754673e-006
,,,-1.82000000e-008,-1.93749544e-005
,,,-1.80000000e-008,-2.28124545e-005
,,,-1.78000000e-008,1.12500471e-005
,,,-1.76000000e-008,4.84375489e-005
,,,-1.74000000e-008,7.21875500e-005
,,,-1.72000000e-008,8.09375504e-005
,,,-1.70000000e-008,8.90625508e-005
,,,-1.68000000e-008,5.06250490e-005
,,,-1.66000000e-008,-1.46874541e-005
,,,-1.64000000e-008,-5.87499562e-005
,,,-1.62000000e-008,-5.37499560e-005
,,,-1.60000000e-008,-1.09374540e-005
,,,-1.58000000e-008,5.50000492e-005
,,,-1.56000000e-008,9.25000510e-005
,,,-1.54000000e-008,7.37500501e-005
,,,-1.52000000e-008,3.37500482e-005
,,,-1.50000000e-008,-7.81245380e-006
,,,-1.48000000e-008,-3.43749551e-005
,,,-1.46000000e-008,-2.68749547e-005
,,,-1.44000000e-008,-7.49995379e-006
,,,-1.42000000e-008,2.96875480e-005
,,,-1.40000000e-008,2.53125478e-005
,,,-1.38000000e-008,4.46875487e-005
,,,-1.36000000e-008,5.90625494e-005
,,,-1.34000000e-008,3.21875481e-005
,,,-1.32000000e-008,3.34375482e-005
,,,-1.30000000e-008,4.00000485e-005
,,,-1.28000000e-008,2.53125478e-005
,,,-1.26000000e-008,1.03125471e-005
,,,-1.24000000e-008,-1.18749540e-005
,,,-1.22000000e-008,-2.24999545e-005
,,,-1.20000000e-008,-1.62499542e-005
,,,-1.18000000e-008,3.21875481e-005
,,,-1.16000000e-008,7.09375499e-005
,,,-1.14000000e-008,7.62500502e-005
,,,-1.12000000e-008,6.71875498e-005
,,,-1.10000000e-008,1.06250471e-005
,,,-1.08000000e-008,-4.37499555e-005
,,,-1.06000000e-008,-4.78124557e-005
,,,-1.04000000e-008,-5.03124558e-005
,,,-1.02000000e-008,-1.31249541e-005
,,,-1.00000000e-008,2.25000476e-005
,,,-9.80000000e-009,6.09375495e-005
,,,-9.60000000e-009,7.75000502e-005
,,,-9.40000000e-009,5.28125491e-005
,,,-9.20000000e-009,2.87500479e-005
,,,-9.00000000e-009,6.25004686e-006
,,,-8.80000000e-009,-4.15624554e-005
,,,-8.60000000e-009,-1.68749542e-005
,,,-8.40000000e-009,-2.18745354e-006
,,,-8.20000000e-009,1.84375474e-005
,,,-8.00000000e-009,5.43750491e-005
,,,-7.80000000e-009,4.75000488e-005
,,,-7.60000000e-009,2.84375479e-005
,,,-7.40000000e-009,1.31250472e-005
,,,-7.20000000e-009,-2.49995355e-006
,,,-7.00000000e-009,-6.87495376e-006
,,,-6.80000000e-009,-3.46874551e-005
,,,-6.60000000e-009,-1.84374543e-005
,,,-6.40000000e-009,1.87504666e-006
,,,-6.20000000e-009,2.21875476e-005
,,,-6.00000000e-009,3.31250481e-005
,,,-5.80000000e-009,2.75000479e-005
,,,-5.60000000e-009,7.81254694e-006
,,,-5.40000000e-009,-7.18745378e-006
,,,-5.20000000e-009,2.81254670e-006
,,,-5.00000000e-009,2.15625476e-005
,,,-4.80000000e-009,6.25046596e-007
,,,-4.60000000e-009,-4.37495364e-006
,,,-4.40000000e-009,-1.74999543e-005
,,,-4.20000000e-009,-2.99999549e-005
,,,-4.00000000e-009,-6.24995373e-006
,,,-3.80000000e-009,5.93754685e-006
,,,-3.60000000e-009,1.43750472e-005
,,,-3.40000000e-009,3.25000481e-005
,,,-3.20000000e-009,2.28125476e-005
,,,-3.00000000e-009,-8.43745383e-006
,,,-2.80000000e-009,-4.87499557e-005
,,,-2.60000000e-009,-5.84374562e-005
,,,-2.40000000e-009,-2.78124548e-005
,,,-2.20000000e-009,5.62504683e-006
,,,-2.00000000e-009,5.28125491e-005
,,,-1.80000000e-009,5.75000493e-005
,,,-1.60000000e-009,2.90625479e-005
,,,-1.40000000e-009,-2.15624545e-005
,,,-1.20000000e-009,-7.06249568e-005
,,,-1.00000000e-009,-6.37499565e-005
,,,-8.00000000e-010,-1.81249543e-005
,,,-6.00000000e-010,2.68750478e-005
,,,-4.00000000e-010,6.84375498e-005
,,,-2.00000000e-010,4.68750488e-005
,,,0.00000000e+000,2.84375479e-005
,,,2.00000000e-010,-2.65624547e-005
,,,4.00000000e-010,-6.56249566e-005
,,,6.00000000e-010,-6.03124563e-005
,,,8.00000000e-010,-4.84374557e-005
,,,1.00000000e-009,3.43750482e-005
,,,1.20000000e-009,5.50000492e-005
,,,1.40000000e-009,8.87500508e-005
,,,1.60000000e-009,7.06250499e-005
,,,1.80000000e-009,-3.12495358e-006
,,,2.00000000e-009,-3.90624553e-005
,,,2.20000000e-009,-5.87499562e-005
,,,2.40000000e-009,-1.81249543e-005
,,,2.60000000e-009,3.34375482e-005
,,,2.80000000e-009,5.46875492e-005
,,,3.00000000e-009,7.31250500e-005
,,,3.20000000e-009,6.59375497e-005
,,,3.40000000e-009,5.50000492e-005
,,,3.60000000e-009,2.00000475e-005
,,,3.80000000e-009,-2.96874548e-005
,,,4.00000000e-009,-4.03124553e-005
,,,4.20000000e-009,-4.15624554e-005
,,,4.40000000e-009,5.62504683e-006
,,,4.60000000e-009,7.90625503e-005
,,,4.80000000e-009,1.05312552e-004
,,,5.00000000e-009,7.21875500e-005
,,,5.20000000e-009,3.00000480e-005
,,,5.40000000e-009,-2.21874545e-005
,,,5.60000000e-009,-1.43749541e-005
,,,5.80000000e-009,-2.09374544e-005
,,,6.00000000e-009,3.93750484e-005
,,,6.20000000e-009,5.03125490e-005
,,,6.40000000e-009,5.59375492e-005
,,,6.60000000e-009,5.59375492e-005
,,,6.80000000e-009,1.90625475e-005
,,,7.00000000e-009,-3.43745360e-006
,,,7.20000000e-009,1.50000473e-005
,,,7.40000000e-009,6.56254688e-006
,,,7.60000000e-009,3.46875482e-005
,,,7.80000000e-009,3.34375482e-005
,,,8.00000000e-009,3.78125484e-005
,,,8.20000000e-009,-5.62495370e-006
