Data/20220819/UCLA_to_R2A_VPOL_E_NEG60_01_Ch2.csv

"Record Length",5000,"Points",-1.00800000e-007,9.62500511e-005
"Sample Interval",2.00000000e-010,s,-1.00600000e-007,-2.56249547e-005
"Trigger Point",504,"Samples",-1.00400000e-007,-1.54999961e-004
"Trigger Time",0.00000000e+000,s,-1.00200000e-007,-1.46249960e-004
"",,,-1.00000000e-007,-1.38124960e-004
"Horizontal Offset",-1.00800000e-007,s,-9.98000000e-008,-5.99999563e-005
,,,-9.96000000e-008,3.87500484e-005
,,,-9.94000000e-008,8.00000504e-005
,,,-9.92000000e-008,1.26250053e-004
,,,-9.90000000e-008,8.21875505e-005
,,,-9.88000000e-008,-1.78124543e-005
,,,-9.86000000e-008,-1.22499959e-004
,,,-9.84000000e-008,-1.76562462e-004
,,,-9.82000000e-008,-1.29062460e-004
,,,-9.80000000e-008,-5.74999562e-005
,,,-9.78000000e-008,1.84375474e-005
,,,-9.76000000e-008,5.87500494e-005
,,,-9.74000000e-008,2.56250478e-005
,,,-9.72000000e-008,5.62504683e-006
,,,-9.70000000e-008,-4.34374555e-005
,,,-9.68000000e-008,-1.13124959e-004
,,,-9.66000000e-008,-1.07187459e-004
,,,-9.64000000e-008,-7.24999569e-005
,,,-9.62000000e-008,3.43754673e-006
,,,-9.60000000e-008,6.93750499e-005
,,,-9.58000000e-008,5.09375490e-005
,,,-9.56000000e-008,1.75000474e-005
,,,-9.54000000e-008,-6.59374566e-005
,,,-9.52000000e-008,-1.15624959e-004
,,,-9.50000000e-008,-7.62499571e-005
,,,-9.48000000e-008,-3.28124550e-005
,,,-9.46000000e-008,5.43750491e-005
,,,-9.44000000e-008,7.81250503e-005
,,,-9.42000000e-008,3.53125482e-005
,,,-9.40000000e-008,-4.99995367e-006
,,,-9.38000000e-008,-8.68749576e-005
,,,-9.36000000e-008,-1.12812459e-004
,,,-9.34000000e-008,-1.19687459e-004
,,,-9.32000000e-008,-6.93749567e-005
,,,-9.30000000e-008,1.09375471e-005
,,,-9.28000000e-008,3.06250480e-005
,,,-9.26000000e-008,3.31250481e-005
,,,-9.24000000e-008,1.81250474e-005
,,,-9.22000000e-008,-7.90624572e-005
,,,-9.20000000e-008,-1.25312459e-004
,,,-9.18000000e-008,-1.37499960e-004
,,,-9.16000000e-008,-1.02812458e-004
,,,-9.14000000e-008,-7.18745378e-006
,,,-9.12000000e-008,3.84375484e-005
,,,-9.10000000e-008,9.71875512e-005
,,,-9.08000000e-008,6.03125494e-005
,,,-9.06000000e-008,-9.99995391e-006
,,,-9.04000000e-008,-4.90624558e-005
,,,-9.02000000e-008,-1.24062459e-004
,,,-9.00000000e-008,-1.22812459e-004
,,,-8.98000000e-008,-4.81249557e-005
,,,-8.96000000e-008,1.00000470e-005
,,,-8.94000000e-008,1.01562551e-004
,,,-8.92000000e-008,1.14062552e-004
,,,-8.90000000e-008,2.84375479e-005
,,,-8.88000000e-008,-7.68749571e-005
,,,-8.86000000e-008,-1.37187460e-004
,,,-8.84000000e-008,-1.58437461e-004
,,,-8.82000000e-008,-9.06249577e-005
,,,-8.80000000e-008,-1.24995349e-006
,,,-8.78000000e-008,6.50000497e-005
,,,-8.76000000e-008,5.37500491e-005
,,,-8.74000000e-008,2.75000479e-005
,,,-8.72000000e-008,-7.06249568e-005
,,,-8.70000000e-008,-1.50624961e-004
,,,-8.68000000e-008,-1.44999960e-004
,,,-8.66000000e-008,-1.01562458e-004
,,,-8.64000000e-008,-1.81249543e-005
,,,-8.62000000e-008,6.50000497e-005
,,,-8.60000000e-008,1.00937551e-004
,,,-8.58000000e-008,8.28125505e-005
,,,-8.56000000e-008,-1.09374540e-005
,,,-8.54000000e-008,-9.43749579e-005
,,,-8.52000000e-008,-1.36874960e-004
,,,-8.50000000e-008,-1.32187460e-004
,,,-8.48000000e-008,-3.53124551e-005
,,,-8.46000000e-008,2.50000478e-005
,,,-8.44000000e-008,6.40625496e-005
,,,-8.42000000e-008,1.07187552e-004
,,,-8.40000000e-008,4.34375486e-005
,,,-8.38000000e-008,-2.68749547e-005
,,,-8.36000000e-008,-1.12812459e-004
,,,-8.34000000e-008,-1.71874962e-004
,,,-8.32000000e-008,-1.29374960e-004
,,,-8.30000000e-008,-7.99999572e-005
,,,-8.28000000e-008,3.28125481e-005
,,,-8.26000000e-008,7.65625502e-005
,,,-8.24000000e-008,8.75000507e-005
,,,-8.22000000e-008,2.84375479e-005
,,,-8.20000000e-008,-8.74999576e-005
,,,-8.18000000e-008,-1.32499960e-004
,,,-8.16000000e-008,-1.60312461e-004
,,,-8.14000000e-008,-1.14374959e-004
,,,-8.12000000e-008,-2.49999546e-005
,,,-8.10000000e-008,5.37500491e-005
,,,-8.08000000e-008,9.75000512e-005
,,,-8.06000000e-008,6.59375497e-005
,,,-8.04000000e-008,-4.99995367e-006
,,,-8.02000000e-008,-5.78124562e-005
,,,-8.00000000e-008,-1.01249958e-004
,,,-7.98000000e-008,-7.09374568e-005
,,,-7.96000000e-008,-3.15624549e-005
,,,-7.94000000e-008,-1.59374542e-005
,,,-7.92000000e-008,3.37500482e-005
,,,-7.90000000e-008,1.37500472e-005
,,,-7.88000000e-008,-3.78124552e-005
,,,-7.86000000e-008,-4.49999556e-005
,,,-7.84000000e-008,-8.49999575e-005
,,,-7.82000000e-008,-4.18749554e-005
,,,-7.80000000e-008,-1.56249542e-005
,,,-7.78000000e-008,-1.62499542e-005
,,,-7.76000000e-008,4.68754679e-006
,,,-7.74000000e-008,-2.59374547e-005
,,,-7.72000000e-008,-6.31249564e-005
,,,-7.70000000e-008,-8.81249576e-005
,,,-7.68000000e-008,-8.84374576e-005
,,,-7.66000000e-008,-4.71874557e-005
,,,-7.64000000e-008,1.40625472e-005
,,,-7.62000000e-008,8.50000506e-005
,,,-7.60000000e-008,8.40625506e-005
,,,-7.58000000e-008,2.06250475e-005
,,,-7.56000000e-008,-3.03124549e-005
,,,-7.54000000e-008,-1.11562459e-004
,,,-7.52000000e-008,-1.48749960e-004
,,,-7.50000000e-008,-1.38749960e-004
,,,-7.48000000e-008,-8.84374576e-005
,,,-7.46000000e-008,2.03125475e-005
,,,-7.44000000e-008,9.62500511e-005
,,,-7.42000000e-008,1.28125053e-004
,,,-7.40000000e-008,6.78125498e-005
,,,-7.38000000e-008,-8.24999574e-005
,,,-7.36000000e-008,-1.62499961e-004
,,,-7.34000000e-008,-2.18124964e-004
,,,-7.32000000e-008,-1.67812461e-004
,,,-7.30000000e-008,-5.43749560e-005
,,,-7.28000000e-008,4.81250489e-005
,,,-7.26000000e-008,1.23125052e-004
,,,-7.24000000e-008,1.51250054e-004
,,,-7.22000000e-008,3.50000482e-005
,,,-7.20000000e-008,-6.56249566e-005
,,,-7.18000000e-008,-1.79062462e-004
,,,-7.16000000e-008,-2.09062463e-004
,,,-7.14000000e-008,-1.30312460e-004
,,,-7.12000000e-008,-4.99995367e-006
,,,-7.10000000e-008,7.21875500e-005
,,,-7.08000000e-008,1.50000054e-004
,,,-7.06000000e-008,1.28125053e-004
,,,-7.04000000e-008,2.12500476e-005
,,,-7.02000000e-008,-7.62499571e-005
,,,-7.00000000e-008,-1.44374960e-004
,,,-6.98000000e-008,-1.78749962e-004
,,,-6.96000000e-008,-1.22187459e-004
,,,-6.94000000e-008,-2.96874548e-005
,,,-6.92000000e-008,2.06250475e-005
,,,-6.90000000e-008,6.25000495e-005
,,,-6.88000000e-008,7.03125499e-005
,,,-6.86000000e-008,1.53125473e-005
,,,-6.84000000e-008,-2.62499547e-005
,,,-6.82000000e-008,-1.17812459e-004
,,,-6.80000000e-008,-1.31874960e-004
,,,-6.78000000e-008,-1.15312459e-004
,,,-6.76000000e-008,-5.81249562e-005
,,,-6.74000000e-008,2.18750476e-005
,,,-6.72000000e-008,3.18750481e-005
,,,-6.70000000e-008,3.43750482e-005
,,,-6.68000000e-008,4.00000485e-005
,,,-6.66000000e-008,-4.06245363e-006
,,,-6.64000000e-008,-1.21874540e-005
,,,-6.62000000e-008,-4.18749554e-005
,,,-6.60000000e-008,-1.62499542e-005
,,,-6.58000000e-008,-2.34374545e-005
,,,-6.56000000e-008,-1.40624541e-005
,,,-6.54000000e-008,-3.49999551e-005
,,,-6.52000000e-008,-4.59374556e-005
,,,-6.50000000e-008,-3.21874550e-005
,,,-6.48000000e-008,4.68754679e-006
,,,-6.46000000e-008,3.21875481e-005
,,,-6.44000000e-008,4.62500488e-005
,,,-6.42000000e-008,-6.24953464e-007
,,,-6.40000000e-008,-6.59374566e-005
,,,-6.38000000e-008,-1.27812460e-004
,,,-6.36000000e-008,-1.48124960e-004
,,,-6.34000000e-008,-9.74999581e-005
,,,-6.32000000e-008,-6.43749565e-005
,,,-6.30000000e-008,1.18750471e-005
,,,-6.28000000e-008,9.68750512e-005
,,,-6.26000000e-008,6.75000498e-005
,,,-6.24000000e-008,4.15625485e-005
,,,-6.22000000e-008,-4.37499555e-005
,,,-6.20000000e-008,-1.42499960e-004
,,,-6.18000000e-008,-1.30937460e-004
,,,-6.16000000e-008,-1.04999958e-004
,,,-6.14000000e-008,-1.46874541e-005
,,,-6.12000000e-008,7.50000501e-005
,,,-6.10000000e-008,9.06250509e-005
,,,-6.08000000e-008,1.20000052e-004
,,,-6.06000000e-008,7.62500502e-005
,,,-6.04000000e-008,-1.34374541e-005
,,,-6.02000000e-008,-1.03124958e-004
,,,-6.00000000e-008,-1.67812461e-004
,,,-5.98000000e-008,-1.54374961e-004
,,,-5.96000000e-008,-9.49999579e-005
,,,-5.94000000e-008,2.46875477e-005
,,,-5.92000000e-008,8.93750508e-005
,,,-5.90000000e-008,1.12500052e-004
,,,-5.88000000e-008,6.62500497e-005
,,,-5.86000000e-008,-6.99999568e-005
,,,-5.84000000e-008,-1.49374961e-004
,,,-5.82000000e-008,-1.61874961e-004
,,,-5.80000000e-008,-1.43749960e-004
,,,-5.78000000e-008,-6.78124567e-005
,,,-5.76000000e-008,3.09375480e-005
,,,-5.74000000e-008,8.59375506e-005
,,,-5.72000000e-008,9.65625512e-005
,,,-5.70000000e-008,3.46875482e-005
,,,-5.68000000e-008,-3.18749549e-005
,,,-5.66000000e-008,-8.81249576e-005
,,,-5.64000000e-008,-7.18749568e-005
,,,-5.62000000e-008,-2.06249544e-005
,,,-5.60000000e-008,1.12500471e-005
,,,-5.58000000e-008,5.37500491e-005
,,,-5.56000000e-008,3.78125484e-005
,,,-5.54000000e-008,-4.99995367e-006
,,,-5.52000000e-008,-1.28124540e-005
,,,-5.50000000e-008,-2.74999547e-005
,,,-5.48000000e-008,-2.65624547e-005
,,,-5.46000000e-008,-4.12499554e-005
,,,-5.44000000e-008,-3.53124551e-005
,,,-5.42000000e-008,-3.18749549e-005
,,,-5.40000000e-008,-4.37499555e-005
,,,-5.38000000e-008,-1.62499542e-005
,,,-5.36000000e-008,-3.90624553e-005
,,,-5.34000000e-008,-5.34374560e-005
,,,-5.32000000e-008,-5.40624560e-005
,,,-5.30000000e-008,-4.15624554e-005
,,,-5.28000000e-008,-1.46874541e-005
,,,-5.26000000e-008,-1.87495352e-006
,,,-5.24000000e-008,2.81254670e-006
,,,-5.22000000e-008,-9.06245386e-006
,,,-5.20000000e-008,-1.21874540e-005
,,,-5.18000000e-008,-1.81249543e-005
,,,-5.16000000e-008,-1.15624540e-005
,,,-5.14000000e-008,-2.43749546e-005
,,,-5.12000000e-008,1.12500471e-005
,,,-5.10000000e-008,3.81250484e-005
,,,-5.08000000e-008,1.90625475e-005
,,,-5.06000000e-008,2.18750476e-005
,,,-5.04000000e-008,-1.78124543e-005
,,,-5.02000000e-008,-4.56249556e-005
,,,-5.00000000e-008,-8.18749573e-005
,,,-4.98000000e-008,-4.46874556e-005
,,,-4.96000000e-008,-2.03124544e-005
,,,-4.94000000e-008,-1.06249539e-005
,,,-4.92000000e-008,-1.06249539e-005
,,,-4.90000000e-008,-3.49999551e-005
,,,-4.88000000e-008,-8.06249573e-005
,,,-4.86000000e-008,-6.09374563e-005
,,,-4.84000000e-008,-1.28124540e-005
,,,-4.82000000e-008,-3.12453449e-007
,,,-4.80000000e-008,1.96875475e-005
,,,-4.78000000e-008,7.50004692e-006
,,,-4.76000000e-008,-5.81249562e-005
,,,-4.74000000e-008,-6.18749564e-005
,,,-4.72000000e-008,-6.59374566e-005
,,,-4.70000000e-008,-4.15624554e-005
,,,-4.68000000e-008,1.50000473e-005
,,,-4.66000000e-008,5.53125492e-005
,,,-4.64000000e-008,9.03125509e-005
,,,-4.62000000e-008,5.50000492e-005
,,,-4.60000000e-008,-1.28124540e-005
,,,-4.58000000e-008,-7.81249571e-005
,,,-4.56000000e-008,-1.28124960e-004
,,,-4.54000000e-008,-9.03124577e-005
,,,-4.52000000e-008,-5.15624559e-005
,,,-4.50000000e-008,9.06254700e-006
,,,-4.48000000e-008,5.93750494e-005
,,,-4.46000000e-008,6.78125498e-005
,,,-4.44000000e-008,4.78125488e-005
,,,-4.42000000e-008,-8.12495382e-006
,,,-4.40000000e-008,-6.93749567e-005
,,,-4.38000000e-008,-1.26562459e-004
,,,-4.36000000e-008,-1.29374960e-004
,,,-4.34000000e-008,-8.90624577e-005
,,,-4.32000000e-008,-3.15624549e-005
,,,-4.30000000e-008,2.87500479e-005
,,,-4.28000000e-008,7.75000502e-005
,,,-4.26000000e-008,8.75000507e-005
,,,-4.24000000e-008,4.56250487e-005
,,,-4.22000000e-008,-1.21874540e-005
,,,-4.20000000e-008,-6.99999568e-005
,,,-4.18000000e-008,-1.19374959e-004
,,,-4.16000000e-008,-9.34374579e-005
,,,-4.14000000e-008,-5.31249560e-005
,,,-4.12000000e-008,1.25004663e-006
,,,-4.10000000e-008,4.37500486e-005
,,,-4.08000000e-008,1.05937552e-004
,,,-4.06000000e-008,5.09375490e-005
,,,-4.04000000e-008,2.46875477e-005
,,,-4.02000000e-008,-3.18749549e-005
,,,-4.00000000e-008,-1.06874959e-004
,,,-3.98000000e-008,-1.25937459e-004
,,,-3.96000000e-008,-1.16249959e-004
,,,-3.94000000e-008,-8.59374575e-005
,,,-3.92000000e-008,-3.09374549e-005
,,,-3.90000000e-008,3.68750483e-005
,,,-3.88000000e-008,7.12500500e-005
,,,-3.86000000e-008,7.15625500e-005
,,,-3.84000000e-008,3.40625482e-005
,,,-3.82000000e-008,-4.87499557e-005
,,,-3.80000000e-008,-1.25937459e-004
,,,-3.78000000e-008,-1.38124960e-004
,,,-3.76000000e-008,-9.78124581e-005
,,,-3.74000000e-008,-2.53124546e-005
,,,-3.72000000e-008,5.90625494e-005
,,,-3.70000000e-008,9.96875513e-005
,,,-3.68000000e-008,1.19062552e-004
,,,-3.66000000e-008,8.71875507e-005
,,,-3.64000000e-008,-3.62499552e-005
,,,-3.62000000e-008,-9.28124578e-005
,,,-3.60000000e-008,-1.30312460e-004
,,,-3.58000000e-008,-1.09374959e-004
,,,-3.56000000e-008,-4.62499556e-005
,,,-3.54000000e-008,-4.06245363e-006
,,,-3.52000000e-008,2.59375478e-005
,,,-3.50000000e-008,3.25000481e-005
,,,-3.48000000e-008,2.50000478e-005
,,,-3.46000000e-008,1.34375472e-005
,,,-3.44000000e-008,-1.24999540e-005
,,,-3.42000000e-008,-5.99999563e-005
,,,-3.40000000e-008,-1.06249958e-004
,,,-3.38000000e-008,-1.14062459e-004
,,,-3.36000000e-008,-1.21562459e-004
,,,-3.34000000e-008,-7.81249571e-005
,,,-3.32000000e-008,2.62500478e-005
,,,-3.30000000e-008,8.37500505e-005
,,,-3.28000000e-008,1.34375053e-004
,,,-3.26000000e-008,1.17812552e-004
,,,-3.24000000e-008,9.68754703e-006
,,,-3.22000000e-008,-9.21874578e-005
,,,-3.20000000e-008,-1.40312460e-004
,,,-3.18000000e-008,-1.79062462e-004
,,,-3.16000000e-008,-1.32187460e-004
,,,-3.14000000e-008,5.62504683e-006
,,,-3.12000000e-008,1.30312553e-004
,,,-3.10000000e-008,1.79375055e-004
,,,-3.08000000e-008,1.39375053e-004
,,,-3.06000000e-008,1.75000474e-005
,,,-3.04000000e-008,-1.19062459e-004
,,,-3.02000000e-008,-1.95312463e-004
,,,-3.00000000e-008,-2.20937464e-004
,,,-2.98000000e-008,-1.77812462e-004
,,,-2.96000000e-008,-4.03124553e-005
,,,-2.94000000e-008,8.96875508e-005
,,,-2.92000000e-008,1.55625054e-004
,,,-2.90000000e-008,1.37500053e-004
,,,-2.88000000e-008,4.40625487e-005
,,,-2.86000000e-008,-7.99999572e-005
,,,-2.84000000e-008,-1.66874961e-004
,,,-2.82000000e-008,-1.97187463e-004
,,,-2.80000000e-008,-1.21249959e-004
,,,-2.78000000e-008,-8.43745383e-006
,,,-2.76000000e-008,1.14062552e-004
,,,-2.74000000e-008,1.49375054e-004
,,,-2.72000000e-008,1.22812552e-004
,,,-2.70000000e-008,1.84375474e-005
,,,-2.68000000e-008,-5.18749559e-005
,,,-2.66000000e-008,-1.04687458e-004
,,,-2.64000000e-008,-9.34374579e-005
,,,-2.62000000e-008,-1.99999544e-005
,,,-2.60000000e-008,1.50000473e-005
,,,-2.58000000e-008,1.03125471e-005
,,,-2.56000000e-008,-5.93745372e-006
,,,-2.54000000e-008,-6.06249563e-005
,,,-2.52000000e-008,-5.68749561e-005
,,,-2.50000000e-008,-2.53124546e-005
,,,-2.48000000e-008,2.68750478e-005
,,,-2.46000000e-008,2.50004668e-006
,,,-2.44000000e-008,-2.81249548e-005
,,,-2.42000000e-008,-6.74999566e-005
,,,-2.40000000e-008,-1.57187461e-004
,,,-2.38000000e-008,-1.62812461e-004
,,,-2.36000000e-008,-7.59374570e-005
,,,-2.34000000e-008,1.06250471e-005
,,,-2.32000000e-008,1.10312552e-004
,,,-2.30000000e-008,1.56875054e-004
,,,-2.28000000e-008,7.81250503e-005
,,,-2.26000000e-008,-1.24995349e-006
,,,-2.24000000e-008,-9.12499578e-005
,,,-2.22000000e-008,-1.69999962e-004
,,,-2.20000000e-008,-1.74374962e-004
,,,-2.18000000e-008,-4.74999557e-005
,,,-2.16000000e-008,8.96875508e-005
,,,-2.14000000e-008,1.13125052e-004
,,,-2.12000000e-008,1.50625054e-004
,,,-2.10000000e-008,7.09375499e-005
,,,-2.08000000e-008,-6.59374566e-005
,,,-2.06000000e-008,-1.27187459e-004
,,,-2.04000000e-008,-1.89374962e-004
,,,-2.02000000e-008,-1.86562462e-004
,,,-2.00000000e-008,-8.56249575e-005
,,,-1.98000000e-008,1.43750472e-005
,,,-1.96000000e-008,9.68750512e-005
,,,-1.94000000e-008,1.01875051e-004
,,,-1.92000000e-008,5.28125491e-005
,,,-1.90000000e-008,-4.87499557e-005
,,,-1.88000000e-008,-1.19999959e-004
,,,-1.86000000e-008,-1.23749959e-004
,,,-1.84000000e-008,-8.99999577e-005
,,,-1.82000000e-008,-9.68745389e-006
,,,-1.80000000e-008,3.96875485e-005
,,,-1.78000000e-008,7.96875504e-005
,,,-1.76000000e-008,5.28125491e-005
,,,-1.74000000e-008,4.37504677e-006
,,,-1.72000000e-008,-3.65624552e-005
,,,-1.70000000e-008,-4.09374554e-005
,,,-1.68000000e-008,-2.15624545e-005
,,,-1.66000000e-008,1.62500473e-005
,,,-1.64000000e-008,4.81250489e-005
,,,-1.62000000e-008,3.43754673e-006
,,,-1.60000000e-008,-5.56249561e-005
,,,-1.58000000e-008,-8.43749574e-005
,,,-1.56000000e-008,-9.03124577e-005
,,,-1.54000000e-008,-5.99999563e-005
,,,-1.52000000e-008,2.37500477e-005
,,,-1.50000000e-008,5.56250492e-005
,,,-1.48000000e-008,1.37500472e-005
,,,-1.46000000e-008,-2.24999545e-005
,,,-1.44000000e-008,-8.53124575e-005
,,,-1.42000000e-008,-1.29687460e-004
,,,-1.40000000e-008,-9.18749578e-005
,,,-1.38000000e-008,-4.06249554e-005
,,,-1.36000000e-008,-1.43749541e-005
,,,-1.34000000e-008,1.78125474e-005
,,,-1.32000000e-008,3.25000481e-005
,,,-1.30000000e-008,4.68754679e-006
,,,-1.28000000e-008,-1.43749541e-005
,,,-1.26000000e-008,-3.68749552e-005
,,,-1.24000000e-008,-4.90624558e-005
,,,-1.22000000e-008,-2.87499548e-005
,,,-1.20000000e-008,-1.03124539e-005
,,,-1.18000000e-008,-3.24999550e-005
,,,-1.16000000e-008,-2.87499548e-005
,,,-1.14000000e-008,-3.12499549e-005
,,,-1.12000000e-008,-3.09374549e-005
,,,-1.10000000e-008,-1.03124539e-005
,,,-1.08000000e-008,-2.06249544e-005
,,,-1.06000000e-008,-9.37495388e-006
,,,-1.04000000e-008,-3.15624549e-005
,,,-1.02000000e-008,-6.87499567e-005
,,,-1.00000000e-008,-4.90624558e-005
,,,-9.80000000e-009,-6.53124565e-005
,,,-9.60000000e-009,-3.65624552e-005
,,,-9.40000000e-009,-4.71874557e-005
,,,-9.20000000e-009,-4.37499555e-005
,,,-9.00000000e-009,7.50004692e-006
,,,-8.80000000e-009,-6.87495376e-006
,,,-8.60000000e-009,1.84375474e-005
,,,-8.40000000e-009,1.06250471e-005
,,,-8.20000000e-009,-3.40624551e-005
,,,-8.00000000e-009,-5.68749561e-005
,,,-7.80000000e-009,-4.59374556e-005
,,,-7.60000000e-009,-5.56249561e-005
,,,-7.40000000e-009,-2.06249544e-005
,,,-7.20000000e-009,1.56254664e-006
,,,-7.00000000e-009,1.18750471e-005
,,,-6.80000000e-009,2.40625477e-005
,,,-6.60000000e-009,-1.21874540e-005
,,,-6.40000000e-009,-2.78124548e-005
,,,-6.20000000e-009,-7.59374570e-005
,,,-6.00000000e-009,-9.49999579e-005
,,,-5.80000000e-009,-6.09374563e-005
,,,-5.60000000e-009,-5.78124562e-005
,,,-5.40000000e-009,-4.90624558e-005
,,,-5.20000000e-009,-3.49999551e-005
,,,-5.00000000e-009,-6.74999566e-005
,,,-4.80000000e-009,-4.56249556e-005
,,,-4.60000000e-009,-1.06249539e-005
,,,-4.40000000e-009,1.09375471e-005
,,,-4.20000000e-009,-2.81245357e-006
,,,-4.00000000e-009,-4.74999557e-005
,,,-3.80000000e-009,-1.06874959e-004
,,,-3.60000000e-009,-1.67812461e-004
,,,-3.40000000e-009,-1.11562459e-004
,,,-3.20000000e-009,-4.09374554e-005
,,,-3.00000000e-009,4.96875489e-005
,,,-2.80000000e-009,1.21250052e-004
,,,-2.60000000e-009,1.04687552e-004
,,,-2.40000000e-009,1.96875475e-005
,,,-2.20000000e-009,-9.96874582e-005
,,,-2.00000000e-009,-1.77812462e-004
,,,-1.80000000e-009,-1.96562463e-004
,,,-1.60000000e-009,-1.57187461e-004
,,,-1.40000000e-009,-2.56249547e-005
,,,-1.20000000e-009,1.02812551e-004
,,,-1.00000000e-009,1.21562552e-004
,,,-8.00000000e-010,7.78125503e-005
,,,-6.00000000e-010,-4.28124555e-005
,,,-4.00000000e-010,-1.65937461e-004
,,,-2.00000000e-010,-1.95937463e-004
,,,0.00000000e+000,-1.67812461e-004
,,,2.00000000e-010,-9.15624578e-005
,,,4.00000000e-010,3.12546581e-007
,,,6.00000000e-010,6.12500495e-005
,,,8.00000000e-010,7.09375499e-005
,,,1.00000000e-009,3.87500484e-005
,,,1.20000000e-009,1.62500473e-005
,,,1.40000000e-009,-8.56249575e-005
,,,1.60000000e-009,-1.19374959e-004
,,,1.80000000e-009,-9.40624579e-005
,,,2.00000000e-009,-1.21874540e-005
,,,2.20000000e-009,3.06250480e-005
,,,2.40000000e-009,4.31250486e-005
,,,2.60000000e-009,3.59375483e-005
,,,2.80000000e-009,-2.15624545e-005
,,,3.00000000e-009,-4.90624558e-005
,,,3.20000000e-009,-4.06249554e-005
,,,3.40000000e-009,-6.03124563e-005
,,,3.60000000e-009,-1.15624540e-005
,,,3.80000000e-009,-2.81245357e-006
,,,4.00000000e-009,-4.15624554e-005
,,,4.20000000e-009,-9.12499578e-005
,,,4.40000000e-009,-1.24374959e-004
,,,4.60000000e-009,-1.38124960e-004
,,,4.80000000e-009,-7.12499568e-005
,,,5.00000000e-009,2.25000476e-005
,,,5.20000000e-009,9.09375509e-005
,,,5.40000000e-009,1.29062553e-004
,,,5.60000000e-009,8.50000506e-005
,,,5.80000000e-009,-5.34374560e-005
,,,6.00000000e-009,-1.74999962e-004
,,,6.20000000e-009,-2.04374963e-004
,,,6.40000000e-009,-1.26562459e-004
,,,6.60000000e-009,3.71875483e-005
,,,6.80000000e-009,1.92187556e-004
,,,7.00000000e-009,2.31250058e-004
,,,7.20000000e-009,1.45312553e-004
,,,7.40000000e-009,3.40625482e-005
,,,7.60000000e-009,-1.10937459e-004
