Data/20220819/UCLA_to_R2A_VPOL_E_20_01_Math2.csv

"Record Length",3125,"Points",0.00000000e+000,-8.19382858e+001
"Sample Interval",8.00000000e+005,Hz,8.00000000e+005,-8.83365402e+001
"Trigger Point",0,"Samples",1.60000000e+006,-9.01530609e+001
"Trigger Time",0.00000000e+000,Hz,2.40000000e+006,-9.49959106e+001
"",,,3.20000000e+006,-1.02049255e+002
"Horizontal Offset",0.00000000e+000,Hz,4.00000000e+006,-1.08299103e+002
,,,4.80000000e+006,-1.04586212e+002
,,,5.60000000e+006,-9.91130981e+001
,,,6.40000000e+006,-1.02102356e+002
,,,7.20000000e+006,-1.06248497e+002
,,,8.00000000e+006,-1.18971809e+002
,,,8.80000000e+006,-1.06803101e+002
,,,9.60000000e+006,-1.05288689e+002
,,,1.04000000e+007,-1.05563423e+002
,,,1.12000000e+007,-1.11447159e+002
,,,1.20000000e+007,-1.32431778e+002
,,,1.28000000e+007,-1.06827362e+002
,,,1.36000000e+007,-1.12443008e+002
,,,1.44000000e+007,-1.16576935e+002
,,,1.52000000e+007,-1.07229080e+002
,,,1.60000000e+007,-1.17922775e+002
,,,1.68000000e+007,-1.09179993e+002
,,,1.76000000e+007,-1.08472420e+002
,,,1.84000000e+007,-1.04445297e+002
,,,1.92000000e+007,-1.14937798e+002
,,,2.00000000e+007,-1.16368675e+002
,,,2.08000000e+007,-1.15021950e+002
,,,2.16000000e+007,-1.08466904e+002
,,,2.24000000e+007,-1.13645775e+002
,,,2.32000000e+007,-1.14825966e+002
,,,2.40000000e+007,-1.11135612e+002
,,,2.48000000e+007,-1.12150467e+002
,,,2.56000000e+007,-1.15084846e+002
,,,2.64000000e+007,-1.08664467e+002
,,,2.72000000e+007,-1.20842720e+002
,,,2.80000000e+007,-1.14025810e+002
,,,2.88000000e+007,-1.15796059e+002
,,,2.96000000e+007,-1.09792625e+002
,,,3.04000000e+007,-1.28269653e+002
,,,3.12000000e+007,-1.16767227e+002
,,,3.20000000e+007,-1.17346497e+002
,,,3.28000000e+007,-1.15598770e+002
,,,3.36000000e+007,-1.17037292e+002
,,,3.44000000e+007,-1.19898773e+002
,,,3.52000000e+007,-1.10997345e+002
,,,3.60000000e+007,-1.16122955e+002
,,,3.68000000e+007,-1.21057510e+002
,,,3.76000000e+007,-1.08822075e+002
,,,3.84000000e+007,-1.10322220e+002
,,,3.92000000e+007,-1.12828354e+002
,,,4.00000000e+007,-1.12330818e+002
,,,4.08000000e+007,-1.11043983e+002
,,,4.16000000e+007,-1.21700920e+002
,,,4.24000000e+007,-1.28139267e+002
,,,4.32000000e+007,-1.13263603e+002
,,,4.40000000e+007,-1.19696487e+002
,,,4.48000000e+007,-1.21867111e+002
,,,4.56000000e+007,-1.12460205e+002
,,,4.64000000e+007,-1.15007843e+002
,,,4.72000000e+007,-1.16162369e+002
,,,4.80000000e+007,-1.32801315e+002
,,,4.88000000e+007,-1.15440605e+002
,,,4.96000000e+007,-1.17958351e+002
,,,5.04000000e+007,-1.17043938e+002
,,,5.12000000e+007,-1.41423798e+002
,,,5.20000000e+007,-1.15882675e+002
,,,5.28000000e+007,-1.23675797e+002
,,,5.36000000e+007,-1.16246552e+002
,,,5.44000000e+007,-1.20550125e+002
,,,5.52000000e+007,-1.23123512e+002
,,,5.60000000e+007,-1.16023834e+002
,,,5.68000000e+007,-1.16661713e+002
,,,5.76000000e+007,-1.13151230e+002
,,,5.84000000e+007,-1.14072845e+002
,,,5.92000000e+007,-1.16741623e+002
,,,6.00000000e+007,-1.13936623e+002
,,,6.08000000e+007,-1.22741013e+002
,,,6.16000000e+007,-1.13691452e+002
,,,6.24000000e+007,-1.17096642e+002
,,,6.32000000e+007,-1.22157097e+002
,,,6.40000000e+007,-1.14960373e+002
,,,6.48000000e+007,-1.17881531e+002
,,,6.56000000e+007,-1.17119003e+002
,,,6.64000000e+007,-1.17127968e+002
,,,6.72000000e+007,-1.28732880e+002
,,,6.80000000e+007,-1.16772720e+002
,,,6.88000000e+007,-1.28963608e+002
,,,6.96000000e+007,-1.23011551e+002
,,,7.04000000e+007,-1.16281837e+002
,,,7.12000000e+007,-1.27135750e+002
,,,7.20000000e+007,-1.30776138e+002
,,,7.28000000e+007,-1.17719513e+002
,,,7.36000000e+007,-1.22813507e+002
,,,7.44000000e+007,-1.28550232e+002
,,,7.52000000e+007,-1.19813889e+002
,,,7.60000000e+007,-1.15609482e+002
,,,7.68000000e+007,-1.19781151e+002
,,,7.76000000e+007,-1.24396782e+002
,,,7.84000000e+007,-1.18313065e+002
,,,7.92000000e+007,-1.34423050e+002
,,,8.00000000e+007,-1.15467758e+002
,,,8.08000000e+007,-1.20030014e+002
,,,8.16000000e+007,-1.30196442e+002
,,,8.24000000e+007,-1.22198502e+002
,,,8.32000000e+007,-1.18804077e+002
,,,8.40000000e+007,-1.17688614e+002
,,,8.48000000e+007,-1.20537460e+002
,,,8.56000000e+007,-1.18477211e+002
,,,8.64000000e+007,-1.17474724e+002
,,,8.72000000e+007,-1.43665085e+002
,,,8.80000000e+007,-1.17435799e+002
,,,8.88000000e+007,-1.14696671e+002
,,,8.96000000e+007,-1.21665009e+002
,,,9.04000000e+007,-1.17373238e+002
,,,9.12000000e+007,-1.14648865e+002
,,,9.20000000e+007,-1.14290115e+002
,,,9.28000000e+007,-1.10925850e+002
,,,9.36000000e+007,-1.15807068e+002
,,,9.44000000e+007,-1.08097351e+002
,,,9.52000000e+007,-1.11924576e+002
,,,9.60000000e+007,-1.11406479e+002
,,,9.68000000e+007,-1.09308189e+002
,,,9.76000000e+007,-1.16498444e+002
,,,9.84000000e+007,-1.05221504e+002
,,,9.92000000e+007,-1.02975754e+002
,,,1.00000000e+008,-1.17289520e+002
,,,1.00800000e+008,-1.16321892e+002
,,,1.01600000e+008,-1.06535454e+002
,,,1.02400000e+008,-1.12135033e+002
,,,1.03200000e+008,-1.22978401e+002
,,,1.04000000e+008,-1.10342659e+002
,,,1.04800000e+008,-1.13099770e+002
,,,1.05600000e+008,-1.04781837e+002
,,,1.06400000e+008,-1.13240242e+002
,,,1.07200000e+008,-1.14604034e+002
,,,1.08000000e+008,-1.13750259e+002
,,,1.08800000e+008,-1.13235176e+002
,,,1.09600000e+008,-1.18424194e+002
,,,1.10400000e+008,-1.12685989e+002
,,,1.11200000e+008,-1.08007156e+002
,,,1.12000000e+008,-1.05830376e+002
,,,1.12800000e+008,-1.06178101e+002
,,,1.13600000e+008,-1.11540466e+002
,,,1.14400000e+008,-1.13694427e+002
,,,1.15200000e+008,-1.18842209e+002
,,,1.16000000e+008,-1.15002739e+002
,,,1.16800000e+008,-1.18886505e+002
,,,1.17600000e+008,-1.23874710e+002
,,,1.18400000e+008,-1.17565681e+002
,,,1.19200000e+008,-1.19376984e+002
,,,1.20000000e+008,-1.26288895e+002
,,,1.20800000e+008,-1.16321388e+002
,,,1.21600000e+008,-1.15164207e+002
,,,1.22400000e+008,-1.24708115e+002
,,,1.23200000e+008,-1.22042015e+002
,,,1.24000000e+008,-1.25315750e+002
,,,1.24800000e+008,-1.14035751e+002
,,,1.25600000e+008,-1.22447769e+002
,,,1.26400000e+008,-1.15700455e+002
,,,1.27200000e+008,-1.16560150e+002
,,,1.28000000e+008,-1.16227135e+002
,,,1.28800000e+008,-1.12005333e+002
,,,1.29600000e+008,-1.05698807e+002
,,,1.30400000e+008,-1.06163139e+002
,,,1.31200000e+008,-1.08708618e+002
,,,1.32000000e+008,-1.12405968e+002
,,,1.32800000e+008,-1.21191666e+002
,,,1.33600000e+008,-1.16761650e+002
,,,1.34400000e+008,-1.24460815e+002
,,,1.35200000e+008,-1.21991356e+002
,,,1.36000000e+008,-1.20331802e+002
,,,1.36800000e+008,-1.24345116e+002
,,,1.37600000e+008,-1.21241173e+002
,,,1.38400000e+008,-1.13350525e+002
,,,1.39200000e+008,-1.17319221e+002
,,,1.40000000e+008,-1.14741295e+002
,,,1.40800000e+008,-1.21138794e+002
,,,1.41600000e+008,-1.15375084e+002
,,,1.42400000e+008,-1.30479416e+002
,,,1.43200000e+008,-1.22618088e+002
,,,1.44000000e+008,-1.12461533e+002
,,,1.44800000e+008,-1.17134010e+002
,,,1.45600000e+008,-1.16279625e+002
,,,1.46400000e+008,-1.09818542e+002
,,,1.47200000e+008,-1.02706963e+002
,,,1.48000000e+008,-9.97207108e+001
,,,1.48800000e+008,-9.77970505e+001
,,,1.49600000e+008,-9.95297318e+001
,,,1.50400000e+008,-1.04769913e+002
,,,1.51200000e+008,-1.07982620e+002
,,,1.52000000e+008,-1.03228157e+002
,,,1.52800000e+008,-1.01112595e+002
,,,1.53600000e+008,-1.04937599e+002
,,,1.54400000e+008,-1.11571823e+002
,,,1.55200000e+008,-1.12891922e+002
,,,1.56000000e+008,-1.10324661e+002
,,,1.56800000e+008,-1.07932190e+002
,,,1.57600000e+008,-1.02727142e+002
,,,1.58400000e+008,-1.02762375e+002
,,,1.59200000e+008,-1.02745354e+002
,,,1.60000000e+008,-1.03972649e+002
,,,1.60800000e+008,-1.06950333e+002
,,,1.61600000e+008,-1.10700478e+002
,,,1.62400000e+008,-1.06822029e+002
,,,1.63200000e+008,-1.07132904e+002
,,,1.64000000e+008,-1.10004776e+002
,,,1.64800000e+008,-1.24981903e+002
,,,1.65600000e+008,-1.03770020e+002
,,,1.66400000e+008,-9.61776733e+001
,,,1.67200000e+008,-9.30952148e+001
,,,1.68000000e+008,-9.18864288e+001
,,,1.68800000e+008,-9.33167572e+001
,,,1.69600000e+008,-9.68700714e+001
,,,1.70400000e+008,-9.95129013e+001
,,,1.71200000e+008,-9.78273773e+001
,,,1.72000000e+008,-9.71637421e+001
,,,1.72800000e+008,-9.86868973e+001
,,,1.73600000e+008,-9.88399658e+001
,,,1.74400000e+008,-9.71314087e+001
,,,1.75200000e+008,-9.59196243e+001
,,,1.76000000e+008,-9.59912949e+001
,,,1.76800000e+008,-9.62085876e+001
,,,1.77600000e+008,-9.65084839e+001
,,,1.78400000e+008,-9.51276932e+001
,,,1.79200000e+008,-9.42659988e+001
,,,1.80000000e+008,-9.36461868e+001
,,,1.80800000e+008,-9.22091217e+001
,,,1.81600000e+008,-9.09069748e+001
,,,1.82400000e+008,-8.88367691e+001
,,,1.83200000e+008,-8.70155487e+001
,,,1.84000000e+008,-8.59584885e+001
,,,1.84800000e+008,-8.60910339e+001
,,,1.85600000e+008,-8.75760345e+001
,,,1.86400000e+008,-9.07399902e+001
,,,1.87200000e+008,-9.51619034e+001
,,,1.88000000e+008,-9.93561935e+001
,,,1.88800000e+008,-1.01536880e+002
,,,1.89600000e+008,-1.08300507e+002
,,,1.90400000e+008,-1.05370216e+002
,,,1.91200000e+008,-9.84812546e+001
,,,1.92000000e+008,-9.46471558e+001
,,,1.92800000e+008,-9.49531555e+001
,,,1.93600000e+008,-9.52771835e+001
,,,1.94400000e+008,-9.53895493e+001
,,,1.95200000e+008,-9.57287369e+001
,,,1.96000000e+008,-9.58530350e+001
,,,1.96800000e+008,-9.58887787e+001
,,,1.97600000e+008,-9.49137650e+001
,,,1.98400000e+008,-9.27540817e+001
,,,1.99200000e+008,-9.16772614e+001
,,,2.00000000e+008,-8.90959473e+001
,,,2.00800000e+008,-8.78322601e+001
,,,2.01600000e+008,-8.86760635e+001
,,,2.02400000e+008,-8.92541656e+001
,,,2.03200000e+008,-9.30381927e+001
,,,2.04000000e+008,-9.27150803e+001
,,,2.04800000e+008,-9.27123871e+001
,,,2.05600000e+008,-9.16311646e+001
,,,2.06400000e+008,-8.87447510e+001
,,,2.07200000e+008,-9.29486847e+001
,,,2.08000000e+008,-9.32303238e+001
,,,2.08800000e+008,-9.85931625e+001
,,,2.09600000e+008,-1.08140167e+002
,,,2.10400000e+008,-9.88528671e+001
,,,2.11200000e+008,-9.96534119e+001
,,,2.12000000e+008,-9.27301178e+001
,,,2.12800000e+008,-8.81098633e+001
,,,2.13600000e+008,-8.51062851e+001
,,,2.14400000e+008,-8.47100830e+001
,,,2.15200000e+008,-8.56818085e+001
,,,2.16000000e+008,-8.68434067e+001
,,,2.16800000e+008,-8.73786163e+001
,,,2.17600000e+008,-8.79964828e+001
,,,2.18400000e+008,-9.01820374e+001
,,,2.19200000e+008,-9.10862274e+001
,,,2.20000000e+008,-8.94478073e+001
,,,2.20800000e+008,-8.85549850e+001
,,,2.21600000e+008,-8.77908020e+001
,,,2.22400000e+008,-8.63085785e+001
,,,2.23200000e+008,-8.57137451e+001
,,,2.24000000e+008,-8.53090591e+001
,,,2.24800000e+008,-8.47272491e+001
,,,2.25600000e+008,-8.46910553e+001
,,,2.26400000e+008,-8.64485855e+001
,,,2.27200000e+008,-9.01659393e+001
,,,2.28000000e+008,-9.16243973e+001
,,,2.28800000e+008,-9.10209351e+001
,,,2.29600000e+008,-9.39734650e+001
,,,2.30400000e+008,-9.13748550e+001
,,,2.31200000e+008,-8.66991043e+001
,,,2.32000000e+008,-8.47707062e+001
,,,2.32800000e+008,-8.36787109e+001
,,,2.33600000e+008,-8.24568405e+001
,,,2.34400000e+008,-8.17116470e+001
,,,2.35200000e+008,-8.21013031e+001
,,,2.36000000e+008,-8.37091064e+001
,,,2.36800000e+008,-8.52768097e+001
,,,2.37600000e+008,-8.60167313e+001
,,,2.38400000e+008,-8.52640686e+001
,,,2.39200000e+008,-8.48208389e+001
,,,2.40000000e+008,-8.49330673e+001
,,,2.40800000e+008,-8.68276596e+001
,,,2.41600000e+008,-9.18322525e+001
,,,2.42400000e+008,-9.41995468e+001
,,,2.43200000e+008,-9.32725372e+001
,,,2.44000000e+008,-9.46239319e+001
,,,2.44800000e+008,-1.07145790e+002
,,,2.45600000e+008,-9.37182007e+001
,,,2.46400000e+008,-8.57337341e+001
,,,2.47200000e+008,-8.20642166e+001
,,,2.48000000e+008,-8.08366318e+001
,,,2.48800000e+008,-8.12531891e+001
,,,2.49600000e+008,-8.24081955e+001
,,,2.50400000e+008,-8.33947906e+001
,,,2.51200000e+008,-8.41381912e+001
,,,2.52000000e+008,-8.50708313e+001
,,,2.52800000e+008,-8.70229568e+001
,,,2.53600000e+008,-9.10378418e+001
,,,2.54400000e+008,-9.07602081e+001
,,,2.55200000e+008,-8.58594818e+001
,,,2.56000000e+008,-8.44309998e+001
,,,2.56800000e+008,-8.57940521e+001
,,,2.57600000e+008,-8.72212982e+001
,,,2.58400000e+008,-8.55099716e+001
,,,2.59200000e+008,-8.55408020e+001
,,,2.60000000e+008,-8.81295776e+001
,,,2.60800000e+008,-8.57546539e+001
,,,2.61600000e+008,-8.18543243e+001
,,,2.62400000e+008,-8.08266373e+001
,,,2.63200000e+008,-8.15418701e+001
,,,2.64000000e+008,-8.20324478e+001
,,,2.64800000e+008,-8.13603745e+001
,,,2.65600000e+008,-8.08556519e+001
,,,2.66400000e+008,-8.05535126e+001
,,,2.67200000e+008,-8.06126404e+001
,,,2.68000000e+008,-8.11737213e+001
,,,2.68800000e+008,-8.20239716e+001
,,,2.69600000e+008,-8.16773682e+001
,,,2.70400000e+008,-8.12894287e+001
,,,2.71200000e+008,-8.08235397e+001
,,,2.72000000e+008,-8.00240021e+001
,,,2.72800000e+008,-7.96707993e+001
,,,2.73600000e+008,-8.07178192e+001
,,,2.74400000e+008,-8.12941132e+001
,,,2.75200000e+008,-7.85412598e+001
,,,2.76000000e+008,-7.57268600e+001
,,,2.76800000e+008,-7.49397049e+001
,,,2.77600000e+008,-7.49447937e+001
,,,2.78400000e+008,-7.54121323e+001
,,,2.79200000e+008,-7.59560852e+001
,,,2.80000000e+008,-7.70571442e+001
,,,2.80800000e+008,-7.83231583e+001
,,,2.81600000e+008,-8.05326920e+001
,,,2.82400000e+008,-8.36547546e+001
,,,2.83200000e+008,-9.19993362e+001
,,,2.84000000e+008,-9.28807907e+001
,,,2.84800000e+008,-8.38956680e+001
,,,2.85600000e+008,-8.09032440e+001
,,,2.86400000e+008,-7.99890747e+001
,,,2.87200000e+008,-8.01250916e+001
,,,2.88000000e+008,-8.09228210e+001
,,,2.88800000e+008,-8.12803345e+001
,,,2.89600000e+008,-8.06581955e+001
,,,2.90400000e+008,-7.94303894e+001
,,,2.91200000e+008,-7.80164871e+001
,,,2.92000000e+008,-7.71636887e+001
,,,2.92800000e+008,-7.71904831e+001
,,,2.93600000e+008,-7.79990082e+001
,,,2.94400000e+008,-7.83579330e+001
,,,2.95200000e+008,-7.73166122e+001
,,,2.96000000e+008,-7.64795837e+001
,,,2.96800000e+008,-7.68047867e+001
,,,2.97600000e+008,-7.79064789e+001
,,,2.98400000e+008,-7.84365158e+001
,,,2.99200000e+008,-7.81745605e+001
,,,3.00000000e+008,-7.86203232e+001
,,,3.00800000e+008,-8.09748917e+001
,,,3.01600000e+008,-8.53461685e+001
,,,3.02400000e+008,-8.81220016e+001
,,,3.03200000e+008,-8.62986908e+001
,,,3.04000000e+008,-8.54401932e+001
,,,3.04800000e+008,-8.54268875e+001
,,,3.05600000e+008,-8.70629349e+001
,,,3.06400000e+008,-9.16820221e+001
,,,3.07200000e+008,-8.88967667e+001
,,,3.08000000e+008,-8.35635452e+001
,,,3.08800000e+008,-8.22523041e+001
,,,3.09600000e+008,-8.41332779e+001
,,,3.10400000e+008,-8.94446716e+001
,,,3.11200000e+008,-8.41877747e+001
,,,3.12000000e+008,-8.00690460e+001
,,,3.12800000e+008,-7.98073425e+001
,,,3.13600000e+008,-8.14613113e+001
,,,3.14400000e+008,-8.23737946e+001
,,,3.15200000e+008,-8.03426132e+001
,,,3.16000000e+008,-7.92306595e+001
,,,3.16800000e+008,-8.06583633e+001
,,,3.17600000e+008,-8.29448395e+001
,,,3.18400000e+008,-8.37757263e+001
,,,3.19200000e+008,-8.37210083e+001
,,,3.20000000e+008,-8.35924835e+001
,,,3.20800000e+008,-8.21455765e+001
,,,3.21600000e+008,-8.00885620e+001
,,,3.22400000e+008,-8.04427261e+001
,,,3.23200000e+008,-8.30320206e+001
,,,3.24000000e+008,-8.61268997e+001
,,,3.24800000e+008,-8.56807556e+001
,,,3.25600000e+008,-8.51565704e+001
,,,3.26400000e+008,-8.27558289e+001
,,,3.27200000e+008,-8.04720612e+001
,,,3.28000000e+008,-8.01034088e+001
,,,3.28800000e+008,-8.13096237e+001
,,,3.29600000e+008,-8.13806915e+001
,,,3.30400000e+008,-7.94266663e+001
,,,3.31200000e+008,-7.87193832e+001
,,,3.32000000e+008,-8.07728424e+001
,,,3.32800000e+008,-8.47441559e+001
,,,3.33600000e+008,-8.58783112e+001
,,,3.34400000e+008,-8.39098587e+001
,,,3.35200000e+008,-8.28253021e+001
,,,3.36000000e+008,-8.15670013e+001
,,,3.36800000e+008,-8.05589828e+001
,,,3.37600000e+008,-8.05229263e+001
,,,3.38400000e+008,-8.17838211e+001
,,,3.39200000e+008,-8.21304474e+001
,,,3.40000000e+008,-8.17855072e+001
,,,3.40800000e+008,-8.15612030e+001
,,,3.41600000e+008,-8.09266205e+001
,,,3.42400000e+008,-8.04381409e+001
,,,3.43200000e+008,-8.11236649e+001
,,,3.44000000e+008,-8.38824234e+001
,,,3.44800000e+008,-8.75167923e+001
,,,3.45600000e+008,-8.50247803e+001
,,,3.46400000e+008,-8.23085632e+001
,,,3.47200000e+008,-8.13023224e+001
,,,3.48000000e+008,-8.14563522e+001
,,,3.48800000e+008,-8.23906784e+001
,,,3.49600000e+008,-8.24854660e+001
,,,3.50400000e+008,-8.10371857e+001
,,,3.51200000e+008,-8.00942535e+001
,,,3.52000000e+008,-8.09783325e+001
,,,3.52800000e+008,-8.41813583e+001
,,,3.53600000e+008,-8.90315857e+001
,,,3.54400000e+008,-9.03166199e+001
,,,3.55200000e+008,-9.10905380e+001
,,,3.56000000e+008,-9.45554810e+001
,,,3.56800000e+008,-9.38507919e+001
,,,3.57600000e+008,-9.04170380e+001
,,,3.58400000e+008,-8.83918228e+001
,,,3.59200000e+008,-8.75433273e+001
,,,3.60000000e+008,-8.76928711e+001
,,,3.60800000e+008,-8.79848022e+001
,,,3.61600000e+008,-8.77211304e+001
,,,3.62400000e+008,-8.72850037e+001
,,,3.63200000e+008,-8.90964432e+001
,,,3.64000000e+008,-9.21131210e+001
,,,3.64800000e+008,-8.86103516e+001
,,,3.65600000e+008,-8.61586456e+001
,,,3.66400000e+008,-8.61934280e+001
,,,3.67200000e+008,-8.78880005e+001
,,,3.68000000e+008,-9.04532394e+001
,,,3.68800000e+008,-9.47664185e+001
,,,3.69600000e+008,-9.63200607e+001
,,,3.70400000e+008,-8.95764999e+001
,,,3.71200000e+008,-8.64782104e+001
,,,3.72000000e+008,-8.57183380e+001
,,,3.72800000e+008,-8.57408142e+001
,,,3.73600000e+008,-8.57470398e+001
,,,3.74400000e+008,-8.66731644e+001
,,,3.75200000e+008,-9.01021042e+001
,,,3.76000000e+008,-9.81437454e+001
,,,3.76800000e+008,-9.51679230e+001
,,,3.77600000e+008,-9.18621368e+001
,,,3.78400000e+008,-9.18034058e+001
,,,3.79200000e+008,-8.86604385e+001
,,,3.80000000e+008,-8.36485062e+001
,,,3.80800000e+008,-8.05808411e+001
,,,3.81600000e+008,-7.94192657e+001
,,,3.82400000e+008,-7.97469559e+001
,,,3.83200000e+008,-8.16576309e+001
,,,3.84000000e+008,-8.45413589e+001
,,,3.84800000e+008,-8.50193481e+001
,,,3.85600000e+008,-8.24093552e+001
,,,3.86400000e+008,-8.06188812e+001
,,,3.87200000e+008,-8.00796890e+001
,,,3.88000000e+008,-8.00193329e+001
,,,3.88800000e+008,-7.94322128e+001
,,,3.89600000e+008,-7.91939240e+001
,,,3.90400000e+008,-8.00651169e+001
,,,3.91200000e+008,-8.18553925e+001
,,,3.92000000e+008,-8.33686600e+001
,,,3.92800000e+008,-8.36193542e+001
,,,3.93600000e+008,-8.25997314e+001
,,,3.94400000e+008,-8.06221542e+001
,,,3.95200000e+008,-7.88994751e+001
,,,3.96000000e+008,-7.79384460e+001
,,,3.96800000e+008,-7.74580383e+001
,,,3.97600000e+008,-7.71560669e+001
,,,3.98400000e+008,-7.69854736e+001
,,,3.99200000e+008,-7.71090546e+001
,,,4.00000000e+008,-7.72918777e+001
,,,4.00800000e+008,-7.73557892e+001
,,,4.01600000e+008,-7.82691879e+001
,,,4.02400000e+008,-7.90028763e+001
,,,4.03200000e+008,-7.83633881e+001
,,,4.04000000e+008,-7.73113403e+001
,,,4.04800000e+008,-7.75119705e+001
,,,4.05600000e+008,-7.89237595e+001
,,,4.06400000e+008,-8.05670700e+001
,,,4.07200000e+008,-8.11451263e+001
,,,4.08000000e+008,-8.08532944e+001
,,,4.08800000e+008,-8.01032562e+001
,,,4.09600000e+008,-7.97783508e+001
,,,4.10400000e+008,-8.03487854e+001
,,,4.11200000e+008,-8.21189804e+001
,,,4.12000000e+008,-8.33778152e+001
,,,4.12800000e+008,-8.34580231e+001
,,,4.13600000e+008,-8.45513763e+001
,,,4.14400000e+008,-8.62938004e+001
,,,4.15200000e+008,-8.50034561e+001
,,,4.16000000e+008,-8.26568069e+001
,,,4.16800000e+008,-8.18429794e+001
,,,4.17600000e+008,-8.21516266e+001
,,,4.18400000e+008,-8.17582932e+001
,,,4.19200000e+008,-8.08967896e+001
,,,4.20000000e+008,-8.11292419e+001
,,,4.20800000e+008,-8.31554031e+001
,,,4.21600000e+008,-8.60696716e+001
,,,4.22400000e+008,-8.81527634e+001
,,,4.23200000e+008,-8.89356308e+001
,,,4.24000000e+008,-8.94833221e+001
,,,4.24800000e+008,-8.90798340e+001
,,,4.25600000e+008,-8.82626953e+001
,,,4.26400000e+008,-8.77732773e+001
,,,4.27200000e+008,-8.65981827e+001
,,,4.28000000e+008,-8.62257843e+001
,,,4.28800000e+008,-8.77357178e+001
,,,4.29600000e+008,-9.17328720e+001
,,,4.30400000e+008,-9.61359940e+001
,,,4.31200000e+008,-9.41833878e+001
,,,4.32000000e+008,-9.08623199e+001
,,,4.32800000e+008,-8.71602631e+001
,,,4.33600000e+008,-8.47489548e+001
,,,4.34400000e+008,-8.42834778e+001
,,,4.35200000e+008,-8.59989243e+001
,,,4.36000000e+008,-8.81197510e+001
,,,4.36800000e+008,-8.72978516e+001
,,,4.37600000e+008,-8.53059845e+001
,,,4.38400000e+008,-8.52366180e+001
,,,4.39200000e+008,-8.70107803e+001
,,,4.40000000e+008,-9.05673676e+001
