Data/20220819/UCLA_to_R2B_VPOL_E_40_01_Math2.csv

"Record Length",3125,"Points",0.00000000e+000,-7.52783432e+001
"Sample Interval",8.00000000e+005,Hz,8.00000000e+005,-8.19896851e+001
"Trigger Point",0,"Samples",1.60000000e+006,-8.35074997e+001
"Trigger Time",0.00000000e+000,Hz,2.40000000e+006,-8.72866211e+001
"",,,3.20000000e+006,-9.51988831e+001
"Horizontal Offset",0.00000000e+000,Hz,4.00000000e+006,-1.05276749e+002
,,,4.80000000e+006,-9.74356537e+001
,,,5.60000000e+006,-9.31024246e+001
,,,6.40000000e+006,-9.61559372e+001
,,,7.20000000e+006,-9.89055099e+001
,,,8.00000000e+006,-1.11177498e+002
,,,8.80000000e+006,-1.03043831e+002
,,,9.60000000e+006,-9.96890335e+001
,,,1.04000000e+007,-9.76729584e+001
,,,1.12000000e+007,-1.07238914e+002
,,,1.20000000e+007,-1.24460014e+002
,,,1.28000000e+007,-1.01923203e+002
,,,1.36000000e+007,-1.03038696e+002
,,,1.44000000e+007,-1.08817642e+002
,,,1.52000000e+007,-1.02136665e+002
,,,1.60000000e+007,-1.14430885e+002
,,,1.68000000e+007,-1.03497849e+002
,,,1.76000000e+007,-1.02840271e+002
,,,1.84000000e+007,-9.99731216e+001
,,,1.92000000e+007,-1.10665802e+002
,,,2.00000000e+007,-1.08734161e+002
,,,2.08000000e+007,-1.02835640e+002
,,,2.16000000e+007,-1.08199081e+002
,,,2.24000000e+007,-1.12666298e+002
,,,2.32000000e+007,-1.03886406e+002
,,,2.40000000e+007,-1.16659752e+002
,,,2.48000000e+007,-1.04663445e+002
,,,2.56000000e+007,-1.08660942e+002
,,,2.64000000e+007,-1.04543633e+002
,,,2.72000000e+007,-1.21685951e+002
,,,2.80000000e+007,-1.14175606e+002
,,,2.88000000e+007,-1.16803650e+002
,,,2.96000000e+007,-1.04617027e+002
,,,3.04000000e+007,-1.08882973e+002
,,,3.12000000e+007,-1.08110458e+002
,,,3.20000000e+007,-1.09228668e+002
,,,3.28000000e+007,-1.08251007e+002
,,,3.36000000e+007,-1.33675674e+002
,,,3.44000000e+007,-1.08632469e+002
,,,3.52000000e+007,-1.09880432e+002
,,,3.60000000e+007,-1.10976875e+002
,,,3.68000000e+007,-1.15344833e+002
,,,3.76000000e+007,-1.03650398e+002
,,,3.84000000e+007,-1.09629608e+002
,,,3.92000000e+007,-1.07456284e+002
,,,4.00000000e+007,-1.12185814e+002
,,,4.08000000e+007,-1.07522858e+002
,,,4.16000000e+007,-1.22627174e+002
,,,4.24000000e+007,-1.12041138e+002
,,,4.32000000e+007,-1.11771217e+002
,,,4.40000000e+007,-1.17370483e+002
,,,4.48000000e+007,-1.25223282e+002
,,,4.56000000e+007,-1.06518692e+002
,,,4.64000000e+007,-1.11657539e+002
,,,4.72000000e+007,-1.15750595e+002
,,,4.80000000e+007,-1.17273613e+002
,,,4.88000000e+007,-1.08197762e+002
,,,4.96000000e+007,-1.14351494e+002
,,,5.04000000e+007,-1.07232559e+002
,,,5.12000000e+007,-1.29627884e+002
,,,5.20000000e+007,-1.10511543e+002
,,,5.28000000e+007,-1.15206413e+002
,,,5.36000000e+007,-1.11586205e+002
,,,5.44000000e+007,-1.12384026e+002
,,,5.52000000e+007,-1.20091255e+002
,,,5.60000000e+007,-1.10125687e+002
,,,5.68000000e+007,-1.09857132e+002
,,,5.76000000e+007,-1.13506058e+002
,,,5.84000000e+007,-1.09053902e+002
,,,5.92000000e+007,-1.20099556e+002
,,,6.00000000e+007,-1.16603775e+002
,,,6.08000000e+007,-1.18167343e+002
,,,6.16000000e+007,-1.09904243e+002
,,,6.24000000e+007,-1.10091194e+002
,,,6.32000000e+007,-1.24511345e+002
,,,6.40000000e+007,-1.17080589e+002
,,,6.48000000e+007,-1.11311256e+002
,,,6.56000000e+007,-1.15902451e+002
,,,6.64000000e+007,-1.13764244e+002
,,,6.72000000e+007,-1.15023384e+002
,,,6.80000000e+007,-1.19498291e+002
,,,6.88000000e+007,-1.17993889e+002
,,,6.96000000e+007,-1.14978027e+002
,,,7.04000000e+007,-1.10332314e+002
,,,7.12000000e+007,-1.12697365e+002
,,,7.20000000e+007,-1.24533684e+002
,,,7.28000000e+007,-1.08762947e+002
,,,7.36000000e+007,-1.14857422e+002
,,,7.44000000e+007,-1.23838867e+002
,,,7.52000000e+007,-1.13806633e+002
,,,7.60000000e+007,-1.25675385e+002
,,,7.68000000e+007,-1.12924278e+002
,,,7.76000000e+007,-1.11538521e+002
,,,7.84000000e+007,-1.11095604e+002
,,,7.92000000e+007,-1.20752693e+002
,,,8.00000000e+007,-1.19392975e+002
,,,8.08000000e+007,-1.13578911e+002
,,,8.16000000e+007,-1.14369293e+002
,,,8.24000000e+007,-1.22836792e+002
,,,8.32000000e+007,-1.13023155e+002
,,,8.40000000e+007,-1.18672005e+002
,,,8.48000000e+007,-1.21390373e+002
,,,8.56000000e+007,-1.11571915e+002
,,,8.64000000e+007,-1.11591248e+002
,,,8.72000000e+007,-1.24875671e+002
,,,8.80000000e+007,-1.29986359e+002
,,,8.88000000e+007,-1.13542709e+002
,,,8.96000000e+007,-1.11322296e+002
,,,9.04000000e+007,-1.18048233e+002
,,,9.12000000e+007,-1.17577354e+002
,,,9.20000000e+007,-1.17508224e+002
,,,9.28000000e+007,-1.02403687e+002
,,,9.36000000e+007,-1.05902100e+002
,,,9.44000000e+007,-1.07081909e+002
,,,9.52000000e+007,-1.19227188e+002
,,,9.60000000e+007,-1.17190178e+002
,,,9.68000000e+007,-1.07621025e+002
,,,9.76000000e+007,-1.08664398e+002
,,,9.84000000e+007,-1.11595490e+002
,,,9.92000000e+007,-1.09651741e+002
,,,1.00000000e+008,-1.08117676e+002
,,,1.00800000e+008,-1.08041840e+002
,,,1.01600000e+008,-1.13891777e+002
,,,1.02400000e+008,-1.10159592e+002
,,,1.03200000e+008,-1.06161926e+002
,,,1.04000000e+008,-1.20065918e+002
,,,1.04800000e+008,-1.16037300e+002
,,,1.05600000e+008,-1.08608345e+002
,,,1.06400000e+008,-1.07740677e+002
,,,1.07200000e+008,-1.11867241e+002
,,,1.08000000e+008,-1.17824242e+002
,,,1.08800000e+008,-1.16036797e+002
,,,1.09600000e+008,-1.31914841e+002
,,,1.10400000e+008,-1.16070656e+002
,,,1.11200000e+008,-1.15068741e+002
,,,1.12000000e+008,-1.07561417e+002
,,,1.12800000e+008,-1.08344887e+002
,,,1.13600000e+008,-1.07360283e+002
,,,1.14400000e+008,-1.21309616e+002
,,,1.15200000e+008,-1.15046875e+002
,,,1.16000000e+008,-1.14532547e+002
,,,1.16800000e+008,-1.12110100e+002
,,,1.17600000e+008,-1.24898056e+002
,,,1.18400000e+008,-1.09910980e+002
,,,1.19200000e+008,-1.19807686e+002
,,,1.20000000e+008,-1.18883263e+002
,,,1.20800000e+008,-1.20718216e+002
,,,1.21600000e+008,-1.12339188e+002
,,,1.22400000e+008,-1.20593864e+002
,,,1.23200000e+008,-1.24049675e+002
,,,1.24000000e+008,-1.21544090e+002
,,,1.24800000e+008,-1.15792694e+002
,,,1.25600000e+008,-1.25330238e+002
,,,1.26400000e+008,-1.25206619e+002
,,,1.27200000e+008,-1.34905563e+002
,,,1.28000000e+008,-1.24294090e+002
,,,1.28800000e+008,-1.12481682e+002
,,,1.29600000e+008,-1.06111580e+002
,,,1.30400000e+008,-1.03674446e+002
,,,1.31200000e+008,-1.01246674e+002
,,,1.32000000e+008,-1.03322098e+002
,,,1.32800000e+008,-1.06839233e+002
,,,1.33600000e+008,-1.19746109e+002
,,,1.34400000e+008,-1.10639305e+002
,,,1.35200000e+008,-1.10571358e+002
,,,1.36000000e+008,-1.11873604e+002
,,,1.36800000e+008,-1.19246330e+002
,,,1.37600000e+008,-1.13084198e+002
,,,1.38400000e+008,-1.13656136e+002
,,,1.39200000e+008,-1.19532539e+002
,,,1.40000000e+008,-1.11938835e+002
,,,1.40800000e+008,-1.14169724e+002
,,,1.41600000e+008,-1.18003418e+002
,,,1.42400000e+008,-1.14200478e+002
,,,1.43200000e+008,-1.20304581e+002
,,,1.44000000e+008,-1.20044449e+002
,,,1.44800000e+008,-1.18752716e+002
,,,1.45600000e+008,-1.11032372e+002
,,,1.46400000e+008,-1.09953072e+002
,,,1.47200000e+008,-1.08587257e+002
,,,1.48000000e+008,-1.06464294e+002
,,,1.48800000e+008,-1.06093178e+002
,,,1.49600000e+008,-1.06599640e+002
,,,1.50400000e+008,-1.06434708e+002
,,,1.51200000e+008,-1.06597145e+002
,,,1.52000000e+008,-1.05106277e+002
,,,1.52800000e+008,-1.05432678e+002
,,,1.53600000e+008,-1.05870819e+002
,,,1.54400000e+008,-1.15806976e+002
,,,1.55200000e+008,-1.14923813e+002
,,,1.56000000e+008,-1.07575294e+002
,,,1.56800000e+008,-1.06110245e+002
,,,1.57600000e+008,-1.04759659e+002
,,,1.58400000e+008,-1.02249184e+002
,,,1.59200000e+008,-1.00848549e+002
,,,1.60000000e+008,-1.02154480e+002
,,,1.60800000e+008,-1.05751839e+002
,,,1.61600000e+008,-1.05832993e+002
,,,1.62400000e+008,-1.05482872e+002
,,,1.63200000e+008,-1.06156586e+002
,,,1.64000000e+008,-1.09446030e+002
,,,1.64800000e+008,-1.03170647e+002
,,,1.65600000e+008,-9.87971039e+001
,,,1.66400000e+008,-9.77614746e+001
,,,1.67200000e+008,-9.92360001e+001
,,,1.68000000e+008,-9.90696259e+001
,,,1.68800000e+008,-9.92230453e+001
,,,1.69600000e+008,-9.90871964e+001
,,,1.70400000e+008,-1.02283264e+002
,,,1.71200000e+008,-1.04142845e+002
,,,1.72000000e+008,-1.01299416e+002
,,,1.72800000e+008,-1.02761963e+002
,,,1.73600000e+008,-1.03359192e+002
,,,1.74400000e+008,-9.83123474e+001
,,,1.75200000e+008,-9.68393326e+001
,,,1.76000000e+008,-9.77287979e+001
,,,1.76800000e+008,-9.53807983e+001
,,,1.77600000e+008,-9.58235245e+001
,,,1.78400000e+008,-9.65384750e+001
,,,1.79200000e+008,-9.73738022e+001
,,,1.80000000e+008,-9.50422363e+001
,,,1.80800000e+008,-9.24594345e+001
,,,1.81600000e+008,-9.11870041e+001
,,,1.82400000e+008,-8.93001251e+001
,,,1.83200000e+008,-8.74282150e+001
,,,1.84000000e+008,-8.63434906e+001
,,,1.84800000e+008,-8.65623703e+001
,,,1.85600000e+008,-8.81428528e+001
,,,1.86400000e+008,-9.10621567e+001
,,,1.87200000e+008,-9.57448883e+001
,,,1.88000000e+008,-9.76362915e+001
,,,1.88800000e+008,-9.80651169e+001
,,,1.89600000e+008,-1.00527283e+002
,,,1.90400000e+008,-1.03804756e+002
,,,1.91200000e+008,-9.53203125e+001
,,,1.92000000e+008,-9.21105270e+001
,,,1.92800000e+008,-9.12123337e+001
,,,1.93600000e+008,-9.12810135e+001
,,,1.94400000e+008,-9.10128250e+001
,,,1.95200000e+008,-9.15082550e+001
,,,1.96000000e+008,-9.22685013e+001
,,,1.96800000e+008,-9.22320251e+001
,,,1.97600000e+008,-9.17396011e+001
,,,1.98400000e+008,-9.20705185e+001
,,,1.99200000e+008,-9.02399368e+001
,,,2.00000000e+008,-8.90884399e+001
,,,2.00800000e+008,-8.90418854e+001
,,,2.01600000e+008,-8.95614395e+001
,,,2.02400000e+008,-9.18029633e+001
,,,2.03200000e+008,-9.23543396e+001
,,,2.04000000e+008,-9.54532471e+001
,,,2.04800000e+008,-9.27240982e+001
,,,2.05600000e+008,-9.94875565e+001
,,,2.06400000e+008,-9.41188278e+001
,,,2.07200000e+008,-1.07517120e+002
,,,2.08000000e+008,-1.03919708e+002
,,,2.08800000e+008,-9.58953705e+001
,,,2.09600000e+008,-1.09571152e+002
,,,2.10400000e+008,-1.01086403e+002
,,,2.11200000e+008,-1.00717941e+002
,,,2.12000000e+008,-9.66633987e+001
,,,2.12800000e+008,-9.17136002e+001
,,,2.13600000e+008,-8.85004501e+001
,,,2.14400000e+008,-8.64465561e+001
,,,2.15200000e+008,-8.63221664e+001
,,,2.16000000e+008,-8.63071671e+001
,,,2.16800000e+008,-8.61658020e+001
,,,2.17600000e+008,-8.65192719e+001
,,,2.18400000e+008,-8.70805664e+001
,,,2.19200000e+008,-8.88737030e+001
,,,2.20000000e+008,-9.05423126e+001
,,,2.20800000e+008,-9.35363007e+001
,,,2.21600000e+008,-9.31405563e+001
,,,2.22400000e+008,-8.95125275e+001
,,,2.23200000e+008,-8.70612640e+001
,,,2.24000000e+008,-8.62396851e+001
,,,2.24800000e+008,-8.50776901e+001
,,,2.25600000e+008,-8.46412277e+001
,,,2.26400000e+008,-8.47859421e+001
,,,2.27200000e+008,-8.74518890e+001
,,,2.28000000e+008,-9.13536453e+001
,,,2.28800000e+008,-9.08636856e+001
,,,2.29600000e+008,-9.02113113e+001
,,,2.30400000e+008,-9.25375137e+001
,,,2.31200000e+008,-8.98011169e+001
,,,2.32000000e+008,-8.50228043e+001
,,,2.32800000e+008,-8.21161652e+001
,,,2.33600000e+008,-8.15730515e+001
,,,2.34400000e+008,-8.24547729e+001
,,,2.35200000e+008,-8.47397461e+001
,,,2.36000000e+008,-8.83083801e+001
,,,2.36800000e+008,-8.94860229e+001
,,,2.37600000e+008,-8.82233963e+001
,,,2.38400000e+008,-8.68247147e+001
,,,2.39200000e+008,-8.55645676e+001
,,,2.40000000e+008,-8.58963699e+001
,,,2.40800000e+008,-8.57343750e+001
,,,2.41600000e+008,-8.75537567e+001
,,,2.42400000e+008,-8.78405991e+001
,,,2.43200000e+008,-8.76947479e+001
,,,2.44000000e+008,-8.77467957e+001
,,,2.44800000e+008,-8.96705856e+001
,,,2.45600000e+008,-9.52469406e+001
,,,2.46400000e+008,-9.17278442e+001
,,,2.47200000e+008,-8.44921265e+001
,,,2.48000000e+008,-8.16120529e+001
,,,2.48800000e+008,-8.10203247e+001
,,,2.49600000e+008,-8.23672104e+001
,,,2.50400000e+008,-8.32042770e+001
,,,2.51200000e+008,-8.25172272e+001
,,,2.52000000e+008,-8.21959763e+001
,,,2.52800000e+008,-8.39212723e+001
,,,2.53600000e+008,-8.86199112e+001
,,,2.54400000e+008,-8.87243958e+001
,,,2.55200000e+008,-8.40932693e+001
,,,2.56000000e+008,-8.22608109e+001
,,,2.56800000e+008,-8.24690781e+001
,,,2.57600000e+008,-8.39479828e+001
,,,2.58400000e+008,-8.45903931e+001
,,,2.59200000e+008,-8.48409500e+001
,,,2.60000000e+008,-8.65702896e+001
,,,2.60800000e+008,-8.63679428e+001
,,,2.61600000e+008,-8.24486160e+001
,,,2.62400000e+008,-8.00948639e+001
,,,2.63200000e+008,-7.98561478e+001
,,,2.64000000e+008,-8.10389938e+001
,,,2.64800000e+008,-8.23605881e+001
,,,2.65600000e+008,-8.16477432e+001
,,,2.66400000e+008,-8.05055847e+001
,,,2.67200000e+008,-8.03252640e+001
,,,2.68000000e+008,-8.16509094e+001
,,,2.68800000e+008,-8.28601913e+001
,,,2.69600000e+008,-8.22897415e+001
,,,2.70400000e+008,-8.20312347e+001
,,,2.71200000e+008,-8.31714401e+001
,,,2.72000000e+008,-8.25922470e+001
,,,2.72800000e+008,-8.04509888e+001
,,,2.73600000e+008,-7.98629379e+001
,,,2.74400000e+008,-8.05150299e+001
,,,2.75200000e+008,-7.92632217e+001
,,,2.76000000e+008,-7.66593323e+001
,,,2.76800000e+008,-7.53599472e+001
,,,2.77600000e+008,-7.55287552e+001
,,,2.78400000e+008,-7.62515717e+001
,,,2.79200000e+008,-7.64056549e+001
,,,2.80000000e+008,-7.63453827e+001
,,,2.80800000e+008,-7.69127731e+001
,,,2.81600000e+008,-7.84969864e+001
,,,2.82400000e+008,-8.18172836e+001
,,,2.83200000e+008,-8.77882767e+001
,,,2.84000000e+008,-1.05511505e+002
,,,2.84800000e+008,-8.76028214e+001
,,,2.85600000e+008,-8.26581879e+001
,,,2.86400000e+008,-8.08884888e+001
,,,2.87200000e+008,-8.11399155e+001
,,,2.88000000e+008,-8.18205261e+001
,,,2.88800000e+008,-8.09813766e+001
,,,2.89600000e+008,-7.97463226e+001
,,,2.90400000e+008,-7.87980576e+001
,,,2.91200000e+008,-7.71534119e+001
,,,2.92000000e+008,-7.59533539e+001
,,,2.92800000e+008,-7.59409561e+001
,,,2.93600000e+008,-7.73797989e+001
,,,2.94400000e+008,-7.87198181e+001
,,,2.95200000e+008,-7.80929108e+001
,,,2.96000000e+008,-7.73330994e+001
,,,2.96800000e+008,-7.73847198e+001
,,,2.97600000e+008,-7.74160156e+001
,,,2.98400000e+008,-7.72523804e+001
,,,2.99200000e+008,-7.72855301e+001
,,,3.00000000e+008,-7.75097275e+001
,,,3.00800000e+008,-7.80601730e+001
,,,3.01600000e+008,-7.92315292e+001
,,,3.02400000e+008,-8.15574112e+001
,,,3.03200000e+008,-8.32477493e+001
,,,3.04000000e+008,-8.18138657e+001
,,,3.04800000e+008,-8.08290558e+001
,,,3.05600000e+008,-8.14151688e+001
,,,3.06400000e+008,-8.28836594e+001
,,,3.07200000e+008,-8.31937943e+001
,,,3.08000000e+008,-8.09744415e+001
,,,3.08800000e+008,-8.00337982e+001
,,,3.09600000e+008,-8.20439224e+001
,,,3.10400000e+008,-8.83250809e+001
,,,3.11200000e+008,-8.52012787e+001
,,,3.12000000e+008,-8.04136810e+001
,,,3.12800000e+008,-7.94541626e+001
,,,3.13600000e+008,-8.10933609e+001
,,,3.14400000e+008,-8.13088913e+001
,,,3.15200000e+008,-7.90476761e+001
,,,3.16000000e+008,-7.80130234e+001
,,,3.16800000e+008,-7.85569153e+001
,,,3.17600000e+008,-8.03697739e+001
,,,3.18400000e+008,-8.26794815e+001
,,,3.19200000e+008,-8.37468491e+001
,,,3.20000000e+008,-8.24856491e+001
,,,3.20800000e+008,-8.01294632e+001
,,,3.21600000e+008,-7.84659348e+001
,,,3.22400000e+008,-7.84173737e+001
,,,3.23200000e+008,-8.00466232e+001
,,,3.24000000e+008,-8.24944839e+001
,,,3.24800000e+008,-8.31915970e+001
,,,3.25600000e+008,-8.25038986e+001
,,,3.26400000e+008,-8.08741608e+001
,,,3.27200000e+008,-7.85061340e+001
,,,3.28000000e+008,-7.71287308e+001
,,,3.28800000e+008,-7.69896011e+001
,,,3.29600000e+008,-7.68058853e+001
,,,3.30400000e+008,-7.55912857e+001
,,,3.31200000e+008,-7.50019302e+001
,,,3.32000000e+008,-7.63045807e+001
,,,3.32800000e+008,-7.98583527e+001
,,,3.33600000e+008,-8.24802094e+001
,,,3.34400000e+008,-8.03483047e+001
,,,3.35200000e+008,-7.89643707e+001
,,,3.36000000e+008,-7.85612335e+001
,,,3.36800000e+008,-7.81548004e+001
,,,3.37600000e+008,-7.85370255e+001
,,,3.38400000e+008,-7.95022507e+001
,,,3.39200000e+008,-7.99644470e+001
,,,3.40000000e+008,-7.98078690e+001
,,,3.40800000e+008,-7.94072495e+001
,,,3.41600000e+008,-7.84053421e+001
,,,3.42400000e+008,-7.74370499e+001
,,,3.43200000e+008,-7.73376083e+001
,,,3.44000000e+008,-7.83234482e+001
,,,3.44800000e+008,-7.90924683e+001
,,,3.45600000e+008,-7.86735229e+001
,,,3.46400000e+008,-7.76141510e+001
,,,3.47200000e+008,-7.67574539e+001
,,,3.48000000e+008,-7.63494949e+001
,,,3.48800000e+008,-7.69025116e+001
,,,3.49600000e+008,-7.79189606e+001
,,,3.50400000e+008,-7.78639526e+001
,,,3.51200000e+008,-7.67933197e+001
,,,3.52000000e+008,-7.66851578e+001
,,,3.52800000e+008,-7.81817093e+001
,,,3.53600000e+008,-8.11624603e+001
,,,3.54400000e+008,-8.35597839e+001
,,,3.55200000e+008,-8.47073669e+001
,,,3.56000000e+008,-8.76278763e+001
,,,3.56800000e+008,-9.28868103e+001
,,,3.57600000e+008,-8.89986191e+001
,,,3.58400000e+008,-8.45929871e+001
,,,3.59200000e+008,-8.29330597e+001
,,,3.60000000e+008,-8.30438385e+001
,,,3.60800000e+008,-8.53103638e+001
,,,3.61600000e+008,-9.12865982e+001
,,,3.62400000e+008,-9.57647934e+001
,,,3.63200000e+008,-9.01597824e+001
,,,3.64000000e+008,-9.00440674e+001
,,,3.64800000e+008,-9.61332855e+001
,,,3.65600000e+008,-1.00335106e+002
,,,3.66400000e+008,-9.18533859e+001
,,,3.67200000e+008,-9.01160126e+001
,,,3.68000000e+008,-8.96850510e+001
,,,3.68800000e+008,-8.97332993e+001
,,,3.69600000e+008,-9.13569641e+001
,,,3.70400000e+008,-9.65165787e+001
,,,3.71200000e+008,-1.00987663e+002
,,,3.72000000e+008,-9.54384842e+001
,,,3.72800000e+008,-9.49031601e+001
,,,3.73600000e+008,-9.47566452e+001
,,,3.74400000e+008,-9.44489288e+001
,,,3.75200000e+008,-9.77716599e+001
,,,3.76000000e+008,-1.07675194e+002
,,,3.76800000e+008,-9.51887283e+001
,,,3.77600000e+008,-9.34028778e+001
,,,3.78400000e+008,-9.63754730e+001
,,,3.79200000e+008,-9.55818024e+001
,,,3.80000000e+008,-8.80276642e+001
,,,3.80800000e+008,-8.41628418e+001
,,,3.81600000e+008,-8.28683472e+001
,,,3.82400000e+008,-8.31820602e+001
,,,3.83200000e+008,-8.53016510e+001
,,,3.84000000e+008,-8.73966751e+001
,,,3.84800000e+008,-8.52059708e+001
,,,3.85600000e+008,-8.28152771e+001
,,,3.86400000e+008,-8.18965149e+001
,,,3.87200000e+008,-8.26058807e+001
,,,3.88000000e+008,-8.36319504e+001
,,,3.88800000e+008,-8.32276688e+001
,,,3.89600000e+008,-8.26885223e+001
,,,3.90400000e+008,-8.31624146e+001
,,,3.91200000e+008,-8.48752060e+001
,,,3.92000000e+008,-8.59050674e+001
,,,3.92800000e+008,-8.54490814e+001
,,,3.93600000e+008,-8.39954910e+001
,,,3.94400000e+008,-8.17293777e+001
,,,3.95200000e+008,-7.99782562e+001
,,,3.96000000e+008,-7.93633575e+001
,,,3.96800000e+008,-7.97586288e+001
,,,3.97600000e+008,-7.98072662e+001
,,,3.98400000e+008,-7.91285019e+001
,,,3.99200000e+008,-7.88154373e+001
,,,4.00000000e+008,-7.85731125e+001
,,,4.00800000e+008,-7.85996552e+001
,,,4.01600000e+008,-7.93298111e+001
,,,4.02400000e+008,-8.02809067e+001
,,,4.03200000e+008,-7.94894028e+001
,,,4.04000000e+008,-7.82821732e+001
,,,4.04800000e+008,-7.83270645e+001
,,,4.05600000e+008,-8.00758286e+001
,,,4.06400000e+008,-8.14684372e+001
,,,4.07200000e+008,-8.10559158e+001
,,,4.08000000e+008,-8.02284775e+001
,,,4.08800000e+008,-7.97227173e+001
,,,4.09600000e+008,-7.91687469e+001
,,,4.10400000e+008,-7.97084885e+001
,,,4.11200000e+008,-8.16487808e+001
,,,4.12000000e+008,-8.40132980e+001
,,,4.12800000e+008,-8.33105011e+001
,,,4.13600000e+008,-8.26957397e+001
,,,4.14400000e+008,-8.29407730e+001
,,,4.15200000e+008,-8.18915939e+001
,,,4.16000000e+008,-8.00585480e+001
,,,4.16800000e+008,-7.94419327e+001
,,,4.17600000e+008,-7.96732483e+001
,,,4.18400000e+008,-8.01995697e+001
,,,4.19200000e+008,-8.02686768e+001
,,,4.20000000e+008,-8.07675247e+001
,,,4.20800000e+008,-8.20855331e+001
,,,4.21600000e+008,-8.40605927e+001
,,,4.22400000e+008,-8.49723663e+001
,,,4.23200000e+008,-8.50904465e+001
,,,4.24000000e+008,-8.55655136e+001
,,,4.24800000e+008,-8.63345871e+001
,,,4.25600000e+008,-8.53636322e+001
,,,4.26400000e+008,-8.44939346e+001
,,,4.27200000e+008,-8.42263489e+001
,,,4.28000000e+008,-8.47969742e+001
,,,4.28800000e+008,-8.51534424e+001
,,,4.29600000e+008,-8.69098892e+001
,,,4.30400000e+008,-9.05632706e+001
,,,4.31200000e+008,-9.49238663e+001
,,,4.32000000e+008,-9.38191681e+001
,,,4.32800000e+008,-9.22115555e+001
,,,4.33600000e+008,-8.86846085e+001
,,,4.34400000e+008,-8.69817505e+001
,,,4.35200000e+008,-8.68198471e+001
,,,4.36000000e+008,-8.79500427e+001
,,,4.36800000e+008,-8.71744003e+001
,,,4.37600000e+008,-8.64980469e+001
,,,4.38400000e+008,-8.57785034e+001
,,,4.39200000e+008,-8.63067245e+001
,,,4.40000000e+008,-8.72597427e+001
