Data/20220819/UCLA_to_R2A_VPOL_E_NEG90_01_Math1.csv

"Record Length",3200,"Points",0.00000000e+000,-9.26076126e+000
"Sample Interval",7.81250000e+005,Hz,7.81250000e+005,-1.49580212e+001
"Trigger Point",0,"Samples",1.56250000e+006,-1.72531357e+001
"Trigger Time",0.00000000e+000,Hz,2.34375000e+006,-2.17728100e+001
"",,,3.12500000e+006,-3.13607388e+001
"Horizontal Offset",0.00000000e+000,Hz,3.90625000e+006,-3.61022987e+001
,,,4.68750000e+006,-2.82503853e+001
,,,5.46875000e+006,-2.79173851e+001
,,,6.25000000e+006,-3.21621590e+001
,,,7.03125000e+006,-4.89321060e+001
,,,7.81250000e+006,-3.62694473e+001
,,,8.59375000e+006,-3.20357971e+001
,,,9.37500000e+006,-3.32521553e+001
,,,1.01562500e+007,-3.97790947e+001
,,,1.09375000e+007,-4.66828766e+001
,,,1.17187500e+007,-3.66285896e+001
,,,1.25000000e+007,-3.55495148e+001
,,,1.32812500e+007,-3.77633171e+001
,,,1.40625000e+007,-5.06568604e+001
,,,1.48437500e+007,-4.41498299e+001
,,,1.56250000e+007,-3.74906464e+001
,,,1.64062500e+007,-3.77616463e+001
,,,1.71875000e+007,-4.30503502e+001
,,,1.79687500e+007,-5.87423859e+001
,,,1.87500000e+007,-4.14228516e+001
,,,1.95312500e+007,-3.92053032e+001
,,,2.03125000e+007,-4.12335777e+001
,,,2.10937500e+007,-4.95508080e+001
,,,2.18750000e+007,-4.97694817e+001
,,,2.26562500e+007,-4.12851334e+001
,,,2.34375000e+007,-4.03495140e+001
,,,2.42187500e+007,-4.47738800e+001
,,,2.50000000e+007,-6.15348663e+001
,,,2.57812500e+007,-4.45582314e+001
,,,2.65625000e+007,-4.09954796e+001
,,,2.73437500e+007,-4.28820267e+001
,,,2.81250000e+007,-5.14750481e+001
,,,2.89062500e+007,-5.23495369e+001
,,,2.96875000e+007,-4.36318932e+001
,,,3.04687500e+007,-4.27927055e+001
,,,3.12500000e+007,-4.61602592e+001
,,,3.20312500e+007,-6.43994598e+001
,,,3.28125000e+007,-4.73858681e+001
,,,3.35937500e+007,-4.46611710e+001
,,,3.43750000e+007,-4.58536224e+001
,,,3.51562500e+007,-4.97717247e+001
,,,3.59375000e+007,-5.89179459e+001
,,,3.67187500e+007,-4.77632904e+001
,,,3.75000000e+007,-4.38369713e+001
,,,3.82812500e+007,-4.71238708e+001
,,,3.90625000e+007,-5.97534943e+001
,,,3.98437500e+007,-5.06616936e+001
,,,4.06250000e+007,-4.67214127e+001
,,,4.14062500e+007,-4.52136459e+001
,,,4.21875000e+007,-5.11132660e+001
,,,4.29687500e+007,-6.46924133e+001
,,,4.37500000e+007,-4.86226349e+001
,,,4.45312500e+007,-4.61105957e+001
,,,4.53125000e+007,-4.78983498e+001
,,,4.60937500e+007,-5.64700508e+001
,,,4.68750000e+007,-5.39688911e+001
,,,4.76562500e+007,-4.73363075e+001
,,,4.84375000e+007,-4.76744347e+001
,,,4.92187500e+007,-5.15436287e+001
,,,5.00000000e+007,-7.72299881e+001
,,,5.07812500e+007,-5.21221313e+001
,,,5.15625000e+007,-4.73440895e+001
,,,5.23437500e+007,-4.83269081e+001
,,,5.31250000e+007,-5.61805000e+001
,,,5.39062500e+007,-5.47544708e+001
,,,5.46875000e+007,-4.95543518e+001
,,,5.54687500e+007,-4.86744385e+001
,,,5.62500000e+007,-5.20998154e+001
,,,5.70312500e+007,-7.16626968e+001
,,,5.78125000e+007,-5.47417755e+001
,,,5.85937500e+007,-5.01151123e+001
,,,5.93750000e+007,-4.86899872e+001
,,,6.01562500e+007,-5.32390938e+001
,,,6.09375000e+007,-5.71832008e+001
,,,6.17187500e+007,-5.18948059e+001
,,,6.25000000e+007,-5.02179222e+001
,,,6.32812500e+007,-5.02164154e+001
,,,6.40625000e+007,-6.15017166e+001
,,,6.48437500e+007,-5.47162857e+001
,,,6.56250000e+007,-5.03237267e+001
,,,6.64062500e+007,-5.06887054e+001
,,,6.71875000e+007,-5.90989876e+001
,,,6.79687500e+007,-6.83994598e+001
,,,6.87500000e+007,-5.39571609e+001
,,,6.95312500e+007,-5.13401527e+001
,,,7.03125000e+007,-5.10754471e+001
,,,7.10937500e+007,-5.98813858e+001
,,,7.18750000e+007,-5.98061142e+001
,,,7.26562500e+007,-5.24689178e+001
,,,7.34375000e+007,-4.96540565e+001
,,,7.42187500e+007,-5.61787262e+001
,,,7.50000000e+007,-6.28588295e+001
,,,7.57812500e+007,-5.30732117e+001
,,,7.65625000e+007,-5.27991829e+001
,,,7.73437500e+007,-5.09700050e+001
,,,7.81250000e+007,-5.78279724e+001
,,,7.89062500e+007,-6.79301910e+001
,,,7.96875000e+007,-5.34875603e+001
,,,8.04687500e+007,-4.91556740e+001
,,,8.12500000e+007,-5.57277527e+001
,,,8.20312500e+007,-6.62903976e+001
,,,8.28125000e+007,-5.64972687e+001
,,,8.35937500e+007,-5.14982262e+001
,,,8.43750000e+007,-5.21094742e+001
,,,8.51562500e+007,-5.82975693e+001
,,,8.59375000e+007,-5.79509888e+001
,,,8.67187500e+007,-5.45741806e+001
,,,8.75000000e+007,-5.46277008e+001
,,,8.82812500e+007,-5.32716713e+001
,,,8.90625000e+007,-6.24327278e+001
,,,8.98437500e+007,-5.82859573e+001
,,,9.06250000e+007,-5.38880424e+001
,,,9.14062500e+007,-5.39777336e+001
,,,9.21875000e+007,-5.63247375e+001
,,,9.29687500e+007,-6.40696640e+001
,,,9.37500000e+007,-6.17321472e+001
,,,9.45312500e+007,-5.01851120e+001
,,,9.53125000e+007,-5.49816017e+001
,,,9.60937500e+007,-6.61338272e+001
,,,9.68750000e+007,-5.95728645e+001
,,,9.76562500e+007,-5.28951836e+001
,,,9.84375000e+007,-5.63677216e+001
,,,9.92187500e+007,-5.28240471e+001
,,,1.00000000e+008,-6.15718613e+001
,,,1.00781250e+008,-5.96226692e+001
,,,1.01562500e+008,-5.11229057e+001
,,,1.02343750e+008,-5.23927765e+001
,,,1.03125000e+008,-6.60208817e+001
,,,1.03906250e+008,-6.44940033e+001
,,,1.04687500e+008,-5.31740761e+001
,,,1.05468750e+008,-5.65357170e+001
,,,1.06250000e+008,-5.45056114e+001
,,,1.07031250e+008,-6.58637390e+001
,,,1.07812500e+008,-6.17376633e+001
,,,1.08593750e+008,-5.15084991e+001
,,,1.09375000e+008,-6.05569038e+001
,,,1.10156250e+008,-5.83534012e+001
,,,1.10937500e+008,-6.22823906e+001
,,,1.11718750e+008,-5.85830383e+001
,,,1.12500000e+008,-6.00102425e+001
,,,1.13281250e+008,-5.07592278e+001
,,,1.14062500e+008,-5.84293976e+001
,,,1.14843750e+008,-5.81970901e+001
,,,1.15625000e+008,-5.60338516e+001
,,,1.16406250e+008,-5.36536369e+001
,,,1.17187500e+008,-5.97759171e+001
,,,1.17968750e+008,-8.11078796e+001
,,,1.18750000e+008,-6.07622414e+001
,,,1.19531250e+008,-5.29654922e+001
,,,1.20312500e+008,-5.90337563e+001
,,,1.21093750e+008,-5.98026161e+001
,,,1.21875000e+008,-6.12709160e+001
,,,1.22656250e+008,-5.58783798e+001
,,,1.23437500e+008,-5.59795837e+001
,,,1.24218750e+008,-5.50942879e+001
,,,1.25000000e+008,-7.24385986e+001
,,,1.25781250e+008,-5.84737549e+001
,,,1.26562500e+008,-5.63365974e+001
,,,1.27343750e+008,-5.23771820e+001
,,,1.28125000e+008,-5.76614075e+001
,,,1.28906250e+008,-6.31998787e+001
,,,1.29687500e+008,-4.96419678e+001
,,,1.30468750e+008,-4.86033592e+001
,,,1.31250000e+008,-5.58873940e+001
,,,1.32031250e+008,-5.89214897e+001
,,,1.32812500e+008,-6.50150070e+001
,,,1.33593750e+008,-5.19997215e+001
,,,1.34375000e+008,-5.93454781e+001
,,,1.35156250e+008,-5.83484077e+001
,,,1.35937500e+008,-8.18469925e+001
,,,1.36718750e+008,-5.42471619e+001
,,,1.37500000e+008,-5.56288605e+001
,,,1.38281250e+008,-5.87093201e+001
,,,1.39062500e+008,-6.68674698e+001
,,,1.39843750e+008,-7.44628448e+001
,,,1.40625000e+008,-5.69547005e+001
,,,1.41406250e+008,-5.48822975e+001
,,,1.42187500e+008,-6.21293716e+001
,,,1.42968750e+008,-6.50274429e+001
,,,1.43750000e+008,-5.62065430e+001
,,,1.44531250e+008,-5.68690414e+001
,,,1.45312500e+008,-5.55886993e+001
,,,1.46093750e+008,-5.94515648e+001
,,,1.46875000e+008,-5.85244980e+001
,,,1.47656250e+008,-5.47536125e+001
,,,1.48437500e+008,-5.40906181e+001
,,,1.49218750e+008,-5.94306221e+001
,,,1.50000000e+008,-5.16672249e+001
,,,1.50781250e+008,-5.35106506e+001
,,,1.51562500e+008,-5.57400246e+001
,,,1.52343750e+008,-5.40336800e+001
,,,1.53125000e+008,-6.66070480e+001
,,,1.53906250e+008,-6.40171890e+001
,,,1.54687500e+008,-5.74492226e+001
,,,1.55468750e+008,-5.80576057e+001
,,,1.56250000e+008,-6.32264633e+001
,,,1.57031250e+008,-5.55456314e+001
,,,1.57812500e+008,-6.03435669e+001
,,,1.58593750e+008,-5.78567581e+001
,,,1.59375000e+008,-5.13565063e+001
,,,1.60156250e+008,-5.34988441e+001
,,,1.60937500e+008,-5.73307381e+001
,,,1.61718750e+008,-6.39530449e+001
,,,1.62500000e+008,-4.66001205e+001
,,,1.63281250e+008,-5.21551666e+001
,,,1.64062500e+008,-5.32678757e+001
,,,1.64843750e+008,-7.33556061e+001
,,,1.65625000e+008,-4.88551254e+001
,,,1.66406250e+008,-4.79231529e+001
,,,1.67187500e+008,-4.30404053e+001
,,,1.67968750e+008,-4.24735031e+001
,,,1.68750000e+008,-4.37650146e+001
,,,1.69531250e+008,-4.78196449e+001
,,,1.70312500e+008,-5.12557220e+001
,,,1.71093750e+008,-4.76016045e+001
,,,1.71875000e+008,-4.79651070e+001
,,,1.72656250e+008,-5.20962334e+001
,,,1.73437500e+008,-4.47102356e+001
,,,1.74218750e+008,-4.42878113e+001
,,,1.75000000e+008,-4.65328026e+001
,,,1.75781250e+008,-4.88449783e+001
,,,1.76562500e+008,-4.70389137e+001
,,,1.77343750e+008,-4.54091339e+001
,,,1.78125000e+008,-5.42975388e+001
,,,1.78906250e+008,-5.05710793e+001
,,,1.79687500e+008,-4.32162781e+001
,,,1.80468750e+008,-4.41979141e+001
,,,1.81250000e+008,-4.33189392e+001
,,,1.82031250e+008,-4.15423279e+001
,,,1.82812500e+008,-4.13687515e+001
,,,1.83593750e+008,-4.19005280e+001
,,,1.84375000e+008,-4.35662918e+001
,,,1.85156250e+008,-4.14417267e+001
,,,1.85937500e+008,-4.22316475e+001
,,,1.86718750e+008,-4.22684784e+001
,,,1.87500000e+008,-4.77420044e+001
,,,1.88281250e+008,-4.61639557e+001
,,,1.89062500e+008,-5.05700073e+001
,,,1.89843750e+008,-4.90059471e+001
,,,1.90625000e+008,-4.90073586e+001
,,,1.91406250e+008,-4.79442635e+001
,,,1.92187500e+008,-4.98180084e+001
,,,1.92968750e+008,-6.25907631e+001
,,,1.93750000e+008,-5.14217720e+001
,,,1.94531250e+008,-5.15511017e+001
,,,1.95312500e+008,-4.93288651e+001
,,,1.96093750e+008,-4.75077896e+001
,,,1.96875000e+008,-5.05965958e+001
,,,1.97656250e+008,-4.75049934e+001
,,,1.98437500e+008,-5.40940666e+001
,,,1.99218750e+008,-6.31882782e+001
,,,2.00000000e+008,-4.80663605e+001
,,,2.00781250e+008,-4.57692604e+001
,,,2.01562500e+008,-4.27988434e+001
,,,2.02343750e+008,-4.84885483e+001
,,,2.03125000e+008,-4.42175102e+001
,,,2.03906250e+008,-4.93309364e+001
,,,2.04687500e+008,-4.47939110e+001
,,,2.05468750e+008,-4.42124138e+001
,,,2.06250000e+008,-4.27326965e+001
,,,2.07031250e+008,-4.21979675e+001
,,,2.07812500e+008,-4.37118835e+001
,,,2.08593750e+008,-4.31119156e+001
,,,2.09375000e+008,-4.12685547e+001
,,,2.10156250e+008,-4.14257431e+001
,,,2.10937500e+008,-4.45391159e+001
,,,2.11718750e+008,-5.28176460e+001
,,,2.12500000e+008,-5.91577377e+001
,,,2.13281250e+008,-5.41038857e+001
,,,2.14062500e+008,-4.95253334e+001
,,,2.14843750e+008,-5.06286850e+001
,,,2.15625000e+008,-4.84228554e+001
,,,2.16406250e+008,-5.31523361e+001
,,,2.17187500e+008,-5.38830833e+001
,,,2.17968750e+008,-5.45209007e+001
,,,2.18750000e+008,-5.39020157e+001
,,,2.19531250e+008,-5.31694031e+001
,,,2.20312500e+008,-5.06708870e+001
,,,2.21093750e+008,-4.62670746e+001
,,,2.21875000e+008,-4.58235092e+001
,,,2.22656250e+008,-4.57021141e+001
,,,2.23437500e+008,-5.81271172e+001
,,,2.24218750e+008,-5.32106552e+001
,,,2.25000000e+008,-4.50742302e+001
,,,2.25781250e+008,-4.62596016e+001
,,,2.26562500e+008,-4.64710922e+001
,,,2.27343750e+008,-6.87432175e+001
,,,2.28125000e+008,-5.28057022e+001
,,,2.28906250e+008,-5.69814186e+001
,,,2.29687500e+008,-4.32763405e+001
,,,2.30468750e+008,-4.03224182e+001
,,,2.31250000e+008,-3.86864510e+001
,,,2.32031250e+008,-3.78894958e+001
,,,2.32812500e+008,-3.78844872e+001
,,,2.33593750e+008,-3.83024559e+001
,,,2.34375000e+008,-4.17794495e+001
,,,2.35156250e+008,-3.76747894e+001
,,,2.35937500e+008,-3.61212349e+001
,,,2.36718750e+008,-3.57100945e+001
,,,2.37500000e+008,-3.70158539e+001
,,,2.38281250e+008,-3.52250061e+001
,,,2.39062500e+008,-3.29852600e+001
,,,2.39843750e+008,-3.28469086e+001
,,,2.40625000e+008,-3.39413948e+001
,,,2.41406250e+008,-3.58395081e+001
,,,2.42187500e+008,-3.50689468e+001
,,,2.42968750e+008,-3.34998589e+001
,,,2.43750000e+008,-3.23156204e+001
,,,2.44531250e+008,-3.15884666e+001
,,,2.45312500e+008,-3.16949310e+001
,,,2.46093750e+008,-3.39105606e+001
,,,2.46875000e+008,-3.46747398e+001
,,,2.47656250e+008,-3.33375053e+001
,,,2.48437500e+008,-3.35531006e+001
,,,2.49218750e+008,-3.56253548e+001
,,,2.50000000e+008,-3.85713043e+001
,,,2.50781250e+008,-3.78065872e+001
,,,2.51562500e+008,-3.87876892e+001
,,,2.52343750e+008,-4.25385361e+001
,,,2.53125000e+008,-3.95117722e+001
,,,2.53906250e+008,-3.50308075e+001
,,,2.54687500e+008,-3.38456116e+001
,,,2.55468750e+008,-3.28580933e+001
,,,2.56250000e+008,-3.38711967e+001
,,,2.57031250e+008,-3.55309258e+001
,,,2.57812500e+008,-3.78027420e+001
,,,2.58593750e+008,-3.85776291e+001
,,,2.59375000e+008,-3.85806198e+001
,,,2.60156250e+008,-3.54315147e+001
,,,2.60937500e+008,-3.35999641e+001
,,,2.61718750e+008,-3.19910774e+001
,,,2.62500000e+008,-3.33122101e+001
,,,2.63281250e+008,-3.57267342e+001
,,,2.64062500e+008,-3.72209320e+001
,,,2.64843750e+008,-3.62203674e+001
,,,2.65625000e+008,-3.68986740e+001
,,,2.66406250e+008,-3.89068871e+001
,,,2.67187500e+008,-4.21293068e+001
,,,2.67968750e+008,-3.73774796e+001
,,,2.68750000e+008,-3.46543274e+001
,,,2.69531250e+008,-3.28802032e+001
,,,2.70312500e+008,-3.38507462e+001
,,,2.71093750e+008,-3.49815598e+001
,,,2.71875000e+008,-3.62455826e+001
,,,2.72656250e+008,-3.63581657e+001
,,,2.73437500e+008,-3.75182343e+001
,,,2.74218750e+008,-3.43289948e+001
,,,2.75000000e+008,-3.38366051e+001
,,,2.75781250e+008,-3.29474525e+001
,,,2.76562500e+008,-3.53550644e+001
,,,2.77343750e+008,-3.67304840e+001
,,,2.78125000e+008,-3.57945251e+001
,,,2.78906250e+008,-3.57615509e+001
,,,2.79687500e+008,-3.90579491e+001
,,,2.80468750e+008,-3.54645004e+001
,,,2.81250000e+008,-3.23053513e+001
,,,2.82031250e+008,-3.06344852e+001
,,,2.82812500e+008,-2.94294167e+001
,,,2.83593750e+008,-2.88669167e+001
,,,2.84375000e+008,-2.87756290e+001
,,,2.85156250e+008,-2.99720345e+001
,,,2.85937500e+008,-3.09246883e+001
,,,2.86718750e+008,-3.08093414e+001
,,,2.87500000e+008,-3.15603409e+001
,,,2.88281250e+008,-3.12940941e+001
,,,2.89062500e+008,-3.09646034e+001
,,,2.89843750e+008,-3.09044170e+001
,,,2.90625000e+008,-3.19350319e+001
,,,2.91406250e+008,-3.16171341e+001
,,,2.92187500e+008,-3.07484322e+001
,,,2.92968750e+008,-2.94046593e+001
,,,2.93750000e+008,-3.01018314e+001
,,,2.94531250e+008,-3.12571583e+001
,,,2.95312500e+008,-3.38663177e+001
,,,2.96093750e+008,-3.69181938e+001
,,,2.96875000e+008,-3.89733543e+001
,,,2.97656250e+008,-3.55256805e+001
,,,2.98437500e+008,-3.32196121e+001
,,,2.99218750e+008,-3.22144394e+001
,,,3.00000000e+008,-3.23839912e+001
,,,3.00781250e+008,-3.14165096e+001
,,,3.01562500e+008,-3.12284203e+001
,,,3.02343750e+008,-3.22964859e+001
,,,3.03125000e+008,-3.53210983e+001
,,,3.03906250e+008,-3.80238838e+001
,,,3.04687500e+008,-3.62659454e+001
,,,3.05468750e+008,-3.39286423e+001
,,,3.06250000e+008,-3.39115753e+001
,,,3.07031250e+008,-3.34176140e+001
,,,3.07812500e+008,-3.28021584e+001
,,,3.08593750e+008,-3.37478447e+001
,,,3.09375000e+008,-3.58512344e+001
,,,3.10156250e+008,-3.92506714e+001
,,,3.10937500e+008,-4.35428505e+001
,,,3.11718750e+008,-3.92892761e+001
,,,3.12500000e+008,-3.54557915e+001
,,,3.13281250e+008,-3.38890762e+001
,,,3.14062500e+008,-3.45303154e+001
,,,3.14843750e+008,-3.84077492e+001
,,,3.15625000e+008,-3.94804230e+001
,,,3.16406250e+008,-3.54586487e+001
,,,3.17187500e+008,-3.46265564e+001
,,,3.17968750e+008,-3.40689888e+001
,,,3.18750000e+008,-3.28776283e+001
,,,3.19531250e+008,-3.14541245e+001
,,,3.20312500e+008,-3.14812679e+001
,,,3.21093750e+008,-3.21690712e+001
,,,3.21875000e+008,-3.38669930e+001
,,,3.22656250e+008,-3.55234337e+001
,,,3.23437500e+008,-3.69989624e+001
,,,3.24218750e+008,-3.57660866e+001
,,,3.25000000e+008,-3.61688843e+001
,,,3.25781250e+008,-3.79738007e+001
,,,3.26562500e+008,-4.26501656e+001
,,,3.27343750e+008,-3.85112305e+001
,,,3.28125000e+008,-3.56082268e+001
,,,3.28906250e+008,-3.45330429e+001
,,,3.29687500e+008,-3.56819305e+001
,,,3.30468750e+008,-3.55180016e+001
,,,3.31250000e+008,-3.58039398e+001
,,,3.32031250e+008,-3.63552818e+001
,,,3.32812500e+008,-3.60457687e+001
,,,3.33593750e+008,-3.45448837e+001
,,,3.34375000e+008,-3.43711014e+001
,,,3.35156250e+008,-3.56056213e+001
,,,3.35937500e+008,-3.81669044e+001
,,,3.36718750e+008,-4.05625076e+001
,,,3.37500000e+008,-4.53357239e+001
,,,3.38281250e+008,-4.87227631e+001
,,,3.39062500e+008,-4.88041420e+001
,,,3.39843750e+008,-4.58305168e+001
,,,3.40625000e+008,-4.66808968e+001
,,,3.41406250e+008,-4.93261909e+001
,,,3.42187500e+008,-4.77861557e+001
,,,3.42968750e+008,-6.87807617e+001
,,,3.43750000e+008,-4.23888283e+001
,,,3.44531250e+008,-3.56606293e+001
,,,3.45312500e+008,-3.25159531e+001
,,,3.46093750e+008,-3.18304825e+001
,,,3.46875000e+008,-3.29236336e+001
,,,3.47656250e+008,-3.56412926e+001
,,,3.48437500e+008,-3.78465271e+001
,,,3.49218750e+008,-3.86303329e+001
,,,3.50000000e+008,-3.67114258e+001
,,,3.50781250e+008,-3.41174431e+001
,,,3.51562500e+008,-3.19947014e+001
,,,3.52343750e+008,-3.18013306e+001
,,,3.53125000e+008,-3.31602707e+001
,,,3.53906250e+008,-3.61942329e+001
,,,3.54687500e+008,-3.80758133e+001
,,,3.55468750e+008,-3.76065254e+001
,,,3.56250000e+008,-3.66614227e+001
,,,3.57031250e+008,-3.72771759e+001
,,,3.57812500e+008,-3.72738228e+001
,,,3.58593750e+008,-3.65409050e+001
,,,3.59375000e+008,-3.39711456e+001
,,,3.60156250e+008,-3.27855911e+001
,,,3.60937500e+008,-3.23080025e+001
,,,3.61718750e+008,-3.31012039e+001
,,,3.62500000e+008,-3.50326385e+001
,,,3.63281250e+008,-3.74342613e+001
,,,3.64062500e+008,-3.49838982e+001
,,,3.64843750e+008,-3.21884499e+001
,,,3.65625000e+008,-3.05838757e+001
,,,3.66406250e+008,-3.12897816e+001
,,,3.67187500e+008,-3.40583572e+001
,,,3.67968750e+008,-4.08951149e+001
,,,3.68750000e+008,-5.09159622e+001
,,,3.69531250e+008,-4.11619949e+001
,,,3.70312500e+008,-3.66684875e+001
,,,3.71093750e+008,-3.48717041e+001
,,,3.71875000e+008,-3.25706558e+001
,,,3.72656250e+008,-3.20797005e+001
,,,3.73437500e+008,-3.18668919e+001
,,,3.74218750e+008,-3.37346115e+001
,,,3.75000000e+008,-3.52292557e+001
,,,3.75781250e+008,-3.74464798e+001
,,,3.76562500e+008,-3.81786842e+001
,,,3.77343750e+008,-3.80265617e+001
,,,3.78125000e+008,-3.71064148e+001
,,,3.78906250e+008,-3.75979767e+001
,,,3.79687500e+008,-3.84471550e+001
,,,3.80468750e+008,-3.74685822e+001
,,,3.81250000e+008,-3.53604889e+001
,,,3.82031250e+008,-3.62695122e+001
,,,3.82812500e+008,-3.97514267e+001
,,,3.83593750e+008,-4.60600433e+001
,,,3.84375000e+008,-4.14120903e+001
,,,3.85156250e+008,-3.85481796e+001
,,,3.85937500e+008,-3.56898613e+001
,,,3.86718750e+008,-3.40653152e+001
,,,3.87500000e+008,-3.36492577e+001
,,,3.88281250e+008,-3.56503563e+001
,,,3.89062500e+008,-3.59026985e+001
,,,3.89843750e+008,-3.45306129e+001
,,,3.90625000e+008,-3.33224831e+001
,,,3.91406250e+008,-3.41401901e+001
,,,3.92187500e+008,-3.53134079e+001
,,,3.92968750e+008,-3.76324883e+001
,,,3.93750000e+008,-3.97567253e+001
,,,3.94531250e+008,-3.98908081e+001
,,,3.95312500e+008,-3.62845345e+001
,,,3.96093750e+008,-3.49954071e+001
,,,3.96875000e+008,-3.50078316e+001
,,,3.97656250e+008,-3.59138374e+001
,,,3.98437500e+008,-3.70487289e+001
,,,3.99218750e+008,-3.99208908e+001
,,,4.00000000e+008,-4.09722748e+001
,,,4.00781250e+008,-3.84888039e+001
,,,4.01562500e+008,-3.59182777e+001
,,,4.02343750e+008,-3.52572212e+001
,,,4.03125000e+008,-3.47395973e+001
,,,4.03906250e+008,-3.42943573e+001
,,,4.04687500e+008,-3.34114609e+001
,,,4.05468750e+008,-3.42982330e+001
,,,4.06250000e+008,-3.63668060e+001
,,,4.07031250e+008,-3.99771194e+001
,,,4.07812500e+008,-4.10167580e+001
,,,4.08593750e+008,-4.07651901e+001
,,,4.09375000e+008,-3.95529709e+001
,,,4.10156250e+008,-3.86254807e+001
,,,4.10937500e+008,-3.80645332e+001
,,,4.11718750e+008,-3.97940331e+001
,,,4.12500000e+008,-4.32613411e+001
,,,4.13281250e+008,-4.08096771e+001
,,,4.14062500e+008,-3.66808968e+001
,,,4.14843750e+008,-3.49683418e+001
,,,4.15625000e+008,-3.47869377e+001
,,,4.16406250e+008,-3.45344009e+001
,,,4.17187500e+008,-3.35367966e+001
,,,4.17968750e+008,-3.32982292e+001
,,,4.18750000e+008,-3.35895233e+001
,,,4.19531250e+008,-3.55591583e+001
,,,4.20312500e+008,-3.73585281e+001
,,,4.21093750e+008,-3.64114571e+001
,,,4.21875000e+008,-3.35114021e+001
,,,4.22656250e+008,-3.13947945e+001
,,,4.23437500e+008,-3.05338440e+001
,,,4.24218750e+008,-3.13589458e+001
,,,4.25000000e+008,-3.23141251e+001
,,,4.25781250e+008,-3.39510040e+001
,,,4.26562500e+008,-3.52475395e+001
,,,4.27343750e+008,-3.68420830e+001
,,,4.28125000e+008,-3.65920639e+001
,,,4.28906250e+008,-3.61798477e+001
,,,4.29687500e+008,-3.63546028e+001
