Data/20220819/UCLA_to_R2B_VPOL_E_NEG20_01_Math2.csv

"Record Length",3125,"Points",0.00000000e+000,-7.32193375e+001
"Sample Interval",8.00000000e+005,Hz,8.00000000e+005,-7.97416992e+001
"Trigger Point",0,"Samples",1.60000000e+006,-8.16320190e+001
"Trigger Time",0.00000000e+000,Hz,2.40000000e+006,-8.56151657e+001
"",,,3.20000000e+006,-9.20687714e+001
"Horizontal Offset",0.00000000e+000,Hz,4.00000000e+006,-1.09233551e+002
,,,4.80000000e+006,-9.55366516e+001
,,,5.60000000e+006,-9.22029724e+001
,,,6.40000000e+006,-9.33548126e+001
,,,7.20000000e+006,-9.88506546e+001
,,,8.00000000e+006,-1.17143799e+002
,,,8.80000000e+006,-1.01711174e+002
,,,9.60000000e+006,-9.72190170e+001
,,,1.04000000e+007,-9.72645340e+001
,,,1.12000000e+007,-1.02038132e+002
,,,1.20000000e+007,-1.16969322e+002
,,,1.28000000e+007,-1.02434563e+002
,,,1.36000000e+007,-1.01480759e+002
,,,1.44000000e+007,-1.02315018e+002
,,,1.52000000e+007,-1.03463043e+002
,,,1.60000000e+007,-1.12019783e+002
,,,1.68000000e+007,-1.06062790e+002
,,,1.76000000e+007,-1.00068451e+002
,,,1.84000000e+007,-1.00282646e+002
,,,1.92000000e+007,-1.05419121e+002
,,,2.00000000e+007,-1.13320999e+002
,,,2.08000000e+007,-1.04434898e+002
,,,2.16000000e+007,-1.07086189e+002
,,,2.24000000e+007,-1.06513992e+002
,,,2.32000000e+007,-1.04419670e+002
,,,2.40000000e+007,-1.12283249e+002
,,,2.48000000e+007,-1.06843330e+002
,,,2.56000000e+007,-1.04317261e+002
,,,2.64000000e+007,-1.05950912e+002
,,,2.72000000e+007,-1.10458717e+002
,,,2.80000000e+007,-1.18197372e+002
,,,2.88000000e+007,-1.10794769e+002
,,,2.96000000e+007,-1.04981247e+002
,,,3.04000000e+007,-1.08753952e+002
,,,3.12000000e+007,-1.10499046e+002
,,,3.20000000e+007,-1.15530296e+002
,,,3.28000000e+007,-1.11144852e+002
,,,3.36000000e+007,-1.13047417e+002
,,,3.44000000e+007,-1.10315941e+002
,,,3.52000000e+007,-1.10637878e+002
,,,3.60000000e+007,-1.09837784e+002
,,,3.68000000e+007,-1.11838524e+002
,,,3.76000000e+007,-1.04442322e+002
,,,3.84000000e+007,-1.06117096e+002
,,,3.92000000e+007,-1.11013878e+002
,,,4.00000000e+007,-1.13892853e+002
,,,4.08000000e+007,-1.10871887e+002
,,,4.16000000e+007,-1.17566315e+002
,,,4.24000000e+007,-1.12924812e+002
,,,4.32000000e+007,-1.09203117e+002
,,,4.40000000e+007,-1.12982872e+002
,,,4.48000000e+007,-1.14523804e+002
,,,4.56000000e+007,-1.07045555e+002
,,,4.64000000e+007,-1.11323410e+002
,,,4.72000000e+007,-1.13942444e+002
,,,4.80000000e+007,-1.29562164e+002
,,,4.88000000e+007,-1.16469154e+002
,,,4.96000000e+007,-1.09051323e+002
,,,5.04000000e+007,-1.09182014e+002
,,,5.12000000e+007,-1.20464569e+002
,,,5.20000000e+007,-1.24469002e+002
,,,5.28000000e+007,-1.14425598e+002
,,,5.36000000e+007,-1.13330429e+002
,,,5.44000000e+007,-1.15831223e+002
,,,5.52000000e+007,-1.13389160e+002
,,,5.60000000e+007,-1.13331741e+002
,,,5.68000000e+007,-1.14418922e+002
,,,5.76000000e+007,-1.09301102e+002
,,,5.84000000e+007,-1.08641991e+002
,,,5.92000000e+007,-1.18570152e+002
,,,6.00000000e+007,-1.24540726e+002
,,,6.08000000e+007,-1.15270920e+002
,,,6.16000000e+007,-1.11693588e+002
,,,6.24000000e+007,-1.17511566e+002
,,,6.32000000e+007,-1.14343002e+002
,,,6.40000000e+007,-1.28296967e+002
,,,6.48000000e+007,-1.17074875e+002
,,,6.56000000e+007,-1.14002960e+002
,,,6.64000000e+007,-1.14311127e+002
,,,6.72000000e+007,-1.16041763e+002
,,,6.80000000e+007,-1.20337593e+002
,,,6.88000000e+007,-1.21066360e+002
,,,6.96000000e+007,-1.12054947e+002
,,,7.04000000e+007,-1.10025558e+002
,,,7.12000000e+007,-1.19192039e+002
,,,7.20000000e+007,-1.38434616e+002
,,,7.28000000e+007,-1.14438431e+002
,,,7.36000000e+007,-1.14984291e+002
,,,7.44000000e+007,-1.15871483e+002
,,,7.52000000e+007,-1.14368996e+002
,,,7.60000000e+007,-1.28304504e+002
,,,7.68000000e+007,-1.21181183e+002
,,,7.76000000e+007,-1.11895790e+002
,,,7.84000000e+007,-1.16373901e+002
,,,7.92000000e+007,-1.15359230e+002
,,,8.00000000e+007,-1.23733063e+002
,,,8.08000000e+007,-1.20936935e+002
,,,8.16000000e+007,-1.16450577e+002
,,,8.24000000e+007,-1.16535103e+002
,,,8.32000000e+007,-1.16777893e+002
,,,8.40000000e+007,-1.23077309e+002
,,,8.48000000e+007,-1.18314972e+002
,,,8.56000000e+007,-1.15355392e+002
,,,8.64000000e+007,-1.13571953e+002
,,,8.72000000e+007,-1.13398071e+002
,,,8.80000000e+007,-1.24147614e+002
,,,8.88000000e+007,-1.18884094e+002
,,,8.96000000e+007,-1.13750107e+002
,,,9.04000000e+007,-1.14035477e+002
,,,9.12000000e+007,-1.14088898e+002
,,,9.20000000e+007,-1.17256477e+002
,,,9.28000000e+007,-1.12182320e+002
,,,9.36000000e+007,-1.12165337e+002
,,,9.44000000e+007,-1.15595680e+002
,,,9.52000000e+007,-1.11174667e+002
,,,9.60000000e+007,-1.04376938e+002
,,,9.68000000e+007,-1.03564720e+002
,,,9.76000000e+007,-1.15841721e+002
,,,9.84000000e+007,-1.13078270e+002
,,,9.92000000e+007,-1.09385796e+002
,,,1.00000000e+008,-1.04369835e+002
,,,1.00800000e+008,-1.15207771e+002
,,,1.01600000e+008,-1.17196182e+002
,,,1.02400000e+008,-1.10813660e+002
,,,1.03200000e+008,-1.18337433e+002
,,,1.04000000e+008,-1.15271339e+002
,,,1.04800000e+008,-1.24402977e+002
,,,1.05600000e+008,-1.22331131e+002
,,,1.06400000e+008,-1.14771996e+002
,,,1.07200000e+008,-1.14363884e+002
,,,1.08000000e+008,-1.12775749e+002
,,,1.08800000e+008,-1.20831596e+002
,,,1.09600000e+008,-1.20662643e+002
,,,1.10400000e+008,-1.16144157e+002
,,,1.11200000e+008,-1.22448105e+002
,,,1.12000000e+008,-1.20744919e+002
,,,1.12800000e+008,-1.17085388e+002
,,,1.13600000e+008,-1.13128716e+002
,,,1.14400000e+008,-1.31301056e+002
,,,1.15200000e+008,-1.16347336e+002
,,,1.16000000e+008,-1.16899239e+002
,,,1.16800000e+008,-1.17293640e+002
,,,1.17600000e+008,-1.34145355e+002
,,,1.18400000e+008,-1.16921066e+002
,,,1.19200000e+008,-1.15585289e+002
,,,1.20000000e+008,-1.21418526e+002
,,,1.20800000e+008,-1.22154488e+002
,,,1.21600000e+008,-1.15797539e+002
,,,1.22400000e+008,-1.23003357e+002
,,,1.23200000e+008,-1.26143250e+002
,,,1.24000000e+008,-1.21980537e+002
,,,1.24800000e+008,-1.22992050e+002
,,,1.25600000e+008,-1.24795937e+002
,,,1.26400000e+008,-1.17028130e+002
,,,1.27200000e+008,-1.25710739e+002
,,,1.28000000e+008,-1.12421906e+002
,,,1.28800000e+008,-1.11884895e+002
,,,1.29600000e+008,-1.16997360e+002
,,,1.30400000e+008,-1.17677322e+002
,,,1.31200000e+008,-1.18392014e+002
,,,1.32000000e+008,-1.13012177e+002
,,,1.32800000e+008,-1.17141190e+002
,,,1.33600000e+008,-1.16606812e+002
,,,1.34400000e+008,-1.17809334e+002
,,,1.35200000e+008,-1.22375053e+002
,,,1.36000000e+008,-1.22505760e+002
,,,1.36800000e+008,-1.21717926e+002
,,,1.37600000e+008,-1.13231133e+002
,,,1.38400000e+008,-1.27937355e+002
,,,1.39200000e+008,-1.12222679e+002
,,,1.40000000e+008,-1.11797157e+002
,,,1.40800000e+008,-1.10250519e+002
,,,1.41600000e+008,-1.15185936e+002
,,,1.42400000e+008,-1.11965378e+002
,,,1.43200000e+008,-1.10212372e+002
,,,1.44000000e+008,-1.14423409e+002
,,,1.44800000e+008,-1.14951805e+002
,,,1.45600000e+008,-1.04870079e+002
,,,1.46400000e+008,-1.04839203e+002
,,,1.47200000e+008,-1.03133522e+002
,,,1.48000000e+008,-1.00945305e+002
,,,1.48800000e+008,-9.90345688e+001
,,,1.49600000e+008,-9.82056198e+001
,,,1.50400000e+008,-9.88078461e+001
,,,1.51200000e+008,-9.93452988e+001
,,,1.52000000e+008,-1.02044197e+002
,,,1.52800000e+008,-1.06659950e+002
,,,1.53600000e+008,-1.12733482e+002
,,,1.54400000e+008,-1.07338257e+002
,,,1.55200000e+008,-1.08675552e+002
,,,1.56000000e+008,-1.14701843e+002
,,,1.56800000e+008,-1.10376549e+002
,,,1.57600000e+008,-1.06223030e+002
,,,1.58400000e+008,-1.19503159e+002
,,,1.59200000e+008,-1.25710815e+002
,,,1.60000000e+008,-1.17727982e+002
,,,1.60800000e+008,-1.13965195e+002
,,,1.61600000e+008,-1.08591148e+002
,,,1.62400000e+008,-1.04569077e+002
,,,1.63200000e+008,-1.08887360e+002
,,,1.64000000e+008,-1.04123070e+002
,,,1.64800000e+008,-9.52887726e+001
,,,1.65600000e+008,-9.17288437e+001
,,,1.66400000e+008,-8.99231644e+001
,,,1.67200000e+008,-9.10864410e+001
,,,1.68000000e+008,-9.34384232e+001
,,,1.68800000e+008,-1.00507164e+002
,,,1.69600000e+008,-1.07503403e+002
,,,1.70400000e+008,-1.07778008e+002
,,,1.71200000e+008,-1.11638100e+002
,,,1.72000000e+008,-1.11867050e+002
,,,1.72800000e+008,-1.11955620e+002
,,,1.73600000e+008,-1.08980217e+002
,,,1.74400000e+008,-1.05096436e+002
,,,1.75200000e+008,-1.05136848e+002
,,,1.76000000e+008,-1.03834831e+002
,,,1.76800000e+008,-1.07062050e+002
,,,1.77600000e+008,-1.02937737e+002
,,,1.78400000e+008,-1.00838921e+002
,,,1.79200000e+008,-1.13875504e+002
,,,1.80000000e+008,-1.01375549e+002
,,,1.80800000e+008,-1.02470779e+002
,,,1.81600000e+008,-1.02362114e+002
,,,1.82400000e+008,-9.86272354e+001
,,,1.83200000e+008,-9.40621338e+001
,,,1.84000000e+008,-9.33234406e+001
,,,1.84800000e+008,-9.32676849e+001
,,,1.85600000e+008,-9.40611801e+001
,,,1.86400000e+008,-9.36123962e+001
,,,1.87200000e+008,-9.36625137e+001
,,,1.88000000e+008,-9.41041870e+001
,,,1.88800000e+008,-9.47925339e+001
,,,1.89600000e+008,-9.50057755e+001
,,,1.90400000e+008,-9.49251709e+001
,,,1.91200000e+008,-9.47199402e+001
,,,1.92000000e+008,-9.62291489e+001
,,,1.92800000e+008,-9.89539185e+001
,,,1.93600000e+008,-1.06665436e+002
,,,1.94400000e+008,-1.08044418e+002
,,,1.95200000e+008,-1.17671013e+002
,,,1.96000000e+008,-1.04547462e+002
,,,1.96800000e+008,-9.97592163e+001
,,,1.97600000e+008,-9.74563522e+001
,,,1.98400000e+008,-9.90367432e+001
,,,1.99200000e+008,-1.04015488e+002
,,,2.00000000e+008,-1.05954979e+002
,,,2.00800000e+008,-9.62473221e+001
,,,2.01600000e+008,-9.26377029e+001
,,,2.02400000e+008,-9.14041214e+001
,,,2.03200000e+008,-9.34057922e+001
,,,2.04000000e+008,-9.75208588e+001
,,,2.04800000e+008,-9.49041367e+001
,,,2.05600000e+008,-9.05915298e+001
,,,2.06400000e+008,-8.85813217e+001
,,,2.07200000e+008,-8.78476563e+001
,,,2.08000000e+008,-9.18171768e+001
,,,2.08800000e+008,-9.65826721e+001
,,,2.09600000e+008,-9.21615067e+001
,,,2.10400000e+008,-8.91729355e+001
,,,2.11200000e+008,-8.87623978e+001
,,,2.12000000e+008,-8.99152603e+001
,,,2.12800000e+008,-8.97097855e+001
,,,2.13600000e+008,-8.95904160e+001
,,,2.14400000e+008,-9.19630356e+001
,,,2.15200000e+008,-9.87922592e+001
,,,2.16000000e+008,-9.15794601e+001
,,,2.16800000e+008,-8.87605362e+001
,,,2.17600000e+008,-8.96756668e+001
,,,2.18400000e+008,-9.36334991e+001
,,,2.19200000e+008,-9.73385162e+001
,,,2.20000000e+008,-1.02205414e+002
,,,2.20800000e+008,-9.46692200e+001
,,,2.21600000e+008,-8.79090195e+001
,,,2.22400000e+008,-8.54016113e+001
,,,2.23200000e+008,-8.58038940e+001
,,,2.24000000e+008,-8.78691025e+001
,,,2.24800000e+008,-8.68836288e+001
,,,2.25600000e+008,-8.44467010e+001
,,,2.26400000e+008,-8.44983521e+001
,,,2.27200000e+008,-8.64052200e+001
,,,2.28000000e+008,-8.76202850e+001
,,,2.28800000e+008,-8.57040710e+001
,,,2.29600000e+008,-8.53635330e+001
,,,2.30400000e+008,-8.71534271e+001
,,,2.31200000e+008,-9.12137680e+001
,,,2.32000000e+008,-9.02826843e+001
,,,2.32800000e+008,-8.82234421e+001
,,,2.33600000e+008,-8.81312408e+001
,,,2.34400000e+008,-8.81566086e+001
,,,2.35200000e+008,-8.58702698e+001
,,,2.36000000e+008,-8.40631409e+001
,,,2.36800000e+008,-8.37484970e+001
,,,2.37600000e+008,-8.45993729e+001
,,,2.38400000e+008,-8.65330200e+001
,,,2.39200000e+008,-8.92558289e+001
,,,2.40000000e+008,-8.75843658e+001
,,,2.40800000e+008,-8.39626312e+001
,,,2.41600000e+008,-8.23777084e+001
,,,2.42400000e+008,-8.31793137e+001
,,,2.43200000e+008,-8.47817230e+001
,,,2.44000000e+008,-8.43330688e+001
,,,2.44800000e+008,-8.30622787e+001
,,,2.45600000e+008,-8.36460571e+001
,,,2.46400000e+008,-8.59720764e+001
,,,2.47200000e+008,-8.77841721e+001
,,,2.48000000e+008,-8.73170166e+001
,,,2.48800000e+008,-8.72115402e+001
,,,2.49600000e+008,-8.81306229e+001
,,,2.50400000e+008,-8.76049500e+001
,,,2.51200000e+008,-8.66912537e+001
,,,2.52000000e+008,-8.66860123e+001
,,,2.52800000e+008,-8.63943024e+001
,,,2.53600000e+008,-8.53314590e+001
,,,2.54400000e+008,-8.58806915e+001
,,,2.55200000e+008,-8.99581528e+001
,,,2.56000000e+008,-9.97181549e+001
,,,2.56800000e+008,-8.99647217e+001
,,,2.57600000e+008,-8.70472412e+001
,,,2.58400000e+008,-8.66126099e+001
,,,2.59200000e+008,-8.52889557e+001
,,,2.60000000e+008,-8.34026184e+001
,,,2.60800000e+008,-8.25175858e+001
,,,2.61600000e+008,-8.24950943e+001
,,,2.62400000e+008,-8.30911484e+001
,,,2.63200000e+008,-8.54222260e+001
,,,2.64000000e+008,-9.21970673e+001
,,,2.64800000e+008,-9.01809464e+001
,,,2.65600000e+008,-8.58439713e+001
,,,2.66400000e+008,-8.68307343e+001
,,,2.67200000e+008,-9.42333145e+001
,,,2.68000000e+008,-8.82816544e+001
,,,2.68800000e+008,-8.37949371e+001
,,,2.69600000e+008,-8.26834564e+001
,,,2.70400000e+008,-8.21227417e+001
,,,2.71200000e+008,-8.12330017e+001
,,,2.72000000e+008,-8.07714920e+001
,,,2.72800000e+008,-8.05970230e+001
,,,2.73600000e+008,-8.06707458e+001
,,,2.74400000e+008,-8.11558151e+001
,,,2.75200000e+008,-8.37312393e+001
,,,2.76000000e+008,-8.42516708e+001
,,,2.76800000e+008,-8.19259338e+001
,,,2.77600000e+008,-8.17610168e+001
,,,2.78400000e+008,-8.37042313e+001
,,,2.79200000e+008,-8.37422791e+001
,,,2.80000000e+008,-8.12107315e+001
,,,2.80800000e+008,-7.98195190e+001
,,,2.81600000e+008,-8.10489120e+001
,,,2.82400000e+008,-8.17380600e+001
,,,2.83200000e+008,-8.16968079e+001
,,,2.84000000e+008,-8.19351273e+001
,,,2.84800000e+008,-8.36797867e+001
,,,2.85600000e+008,-8.69369354e+001
,,,2.86400000e+008,-9.26411133e+001
,,,2.87200000e+008,-9.42527084e+001
,,,2.88000000e+008,-8.74238052e+001
,,,2.88800000e+008,-8.49059143e+001
,,,2.89600000e+008,-8.69970245e+001
,,,2.90400000e+008,-9.45246124e+001
,,,2.91200000e+008,-9.60745239e+001
,,,2.92000000e+008,-9.00130081e+001
,,,2.92800000e+008,-8.90248489e+001
,,,2.93600000e+008,-9.02603607e+001
,,,2.94400000e+008,-9.03206482e+001
,,,2.95200000e+008,-8.84886627e+001
,,,2.96000000e+008,-8.60674896e+001
,,,2.96800000e+008,-8.47678757e+001
,,,2.97600000e+008,-8.58811722e+001
,,,2.98400000e+008,-8.66392593e+001
,,,2.99200000e+008,-8.44703522e+001
,,,3.00000000e+008,-8.17823334e+001
,,,3.00800000e+008,-8.10899887e+001
,,,3.01600000e+008,-8.28128433e+001
,,,3.02400000e+008,-8.66506882e+001
,,,3.03200000e+008,-8.75755157e+001
,,,3.04000000e+008,-8.48612518e+001
,,,3.04800000e+008,-8.51861801e+001
,,,3.05600000e+008,-8.92382889e+001
,,,3.06400000e+008,-8.93107300e+001
,,,3.07200000e+008,-8.67917862e+001
,,,3.08000000e+008,-8.76035843e+001
,,,3.08800000e+008,-8.92442322e+001
,,,3.09600000e+008,-8.59893188e+001
,,,3.10400000e+008,-8.36534576e+001
,,,3.11200000e+008,-8.39659958e+001
,,,3.12000000e+008,-8.49288406e+001
,,,3.12800000e+008,-8.25775299e+001
,,,3.13600000e+008,-8.10529480e+001
,,,3.14400000e+008,-8.11105652e+001
,,,3.15200000e+008,-8.25339432e+001
,,,3.16000000e+008,-8.49324265e+001
,,,3.16800000e+008,-8.74910812e+001
,,,3.17600000e+008,-9.01749268e+001
,,,3.18400000e+008,-8.69009399e+001
,,,3.19200000e+008,-8.26627808e+001
,,,3.20000000e+008,-8.06363754e+001
,,,3.20800000e+008,-7.96306458e+001
,,,3.21600000e+008,-7.97610474e+001
,,,3.22400000e+008,-8.07399597e+001
,,,3.23200000e+008,-8.12719879e+001
,,,3.24000000e+008,-8.15560455e+001
,,,3.24800000e+008,-8.14317780e+001
,,,3.25600000e+008,-8.10062332e+001
,,,3.26400000e+008,-8.12825546e+001
,,,3.27200000e+008,-8.22298126e+001
,,,3.28000000e+008,-8.42367630e+001
,,,3.28800000e+008,-8.49508820e+001
,,,3.29600000e+008,-8.30348892e+001
,,,3.30400000e+008,-8.33215866e+001
,,,3.31200000e+008,-8.81111603e+001
,,,3.32000000e+008,-9.12670746e+001
,,,3.32800000e+008,-8.23007050e+001
,,,3.33600000e+008,-7.87518082e+001
,,,3.34400000e+008,-7.76406784e+001
,,,3.35200000e+008,-7.77268753e+001
,,,3.36000000e+008,-7.80414276e+001
,,,3.36800000e+008,-7.86985626e+001
,,,3.37600000e+008,-7.94982986e+001
,,,3.38400000e+008,-8.00212936e+001
,,,3.39200000e+008,-8.03672104e+001
,,,3.40000000e+008,-8.16170044e+001
,,,3.40800000e+008,-8.40105743e+001
,,,3.41600000e+008,-8.40787201e+001
,,,3.42400000e+008,-8.14609070e+001
,,,3.43200000e+008,-7.87919846e+001
,,,3.44000000e+008,-7.63565521e+001
,,,3.44800000e+008,-7.48680878e+001
,,,3.45600000e+008,-7.47623444e+001
,,,3.46400000e+008,-7.60083694e+001
,,,3.47200000e+008,-7.74588165e+001
,,,3.48000000e+008,-7.79165344e+001
,,,3.48800000e+008,-7.85694733e+001
,,,3.49600000e+008,-8.11041183e+001
,,,3.50400000e+008,-8.45633774e+001
,,,3.51200000e+008,-8.41299896e+001
,,,3.52000000e+008,-8.24336395e+001
,,,3.52800000e+008,-8.17896194e+001
,,,3.53600000e+008,-8.22805099e+001
,,,3.54400000e+008,-8.48243408e+001
,,,3.55200000e+008,-9.51730804e+001
,,,3.56000000e+008,-9.03760986e+001
,,,3.56800000e+008,-8.38256073e+001
,,,3.57600000e+008,-8.28284073e+001
,,,3.58400000e+008,-8.46967621e+001
,,,3.59200000e+008,-8.77804108e+001
,,,3.60000000e+008,-9.05603333e+001
,,,3.60800000e+008,-9.10431900e+001
,,,3.61600000e+008,-8.59738617e+001
,,,3.62400000e+008,-8.31739273e+001
,,,3.63200000e+008,-8.36473389e+001
,,,3.64000000e+008,-8.76039124e+001
,,,3.64800000e+008,-8.65239334e+001
,,,3.65600000e+008,-8.24362030e+001
,,,3.66400000e+008,-8.11579666e+001
,,,3.67200000e+008,-8.14458466e+001
,,,3.68000000e+008,-8.14215622e+001
,,,3.68800000e+008,-8.13324661e+001
,,,3.69600000e+008,-8.21732101e+001
,,,3.70400000e+008,-8.52465744e+001
,,,3.71200000e+008,-9.08271866e+001
,,,3.72000000e+008,-9.67063980e+001
,,,3.72800000e+008,-9.79441452e+001
,,,3.73600000e+008,-1.07608292e+002
,,,3.74400000e+008,-1.00139000e+002
,,,3.75200000e+008,-9.26167221e+001
,,,3.76000000e+008,-8.91239548e+001
,,,3.76800000e+008,-8.65101547e+001
,,,3.77600000e+008,-8.48297958e+001
,,,3.78400000e+008,-8.47245712e+001
,,,3.79200000e+008,-8.66639404e+001
,,,3.80000000e+008,-8.95207443e+001
,,,3.80800000e+008,-8.72036743e+001
,,,3.81600000e+008,-8.41889343e+001
,,,3.82400000e+008,-8.31552277e+001
,,,3.83200000e+008,-8.29594116e+001
,,,3.84000000e+008,-8.25492706e+001
,,,3.84800000e+008,-8.23674850e+001
,,,3.85600000e+008,-8.39449921e+001
,,,3.86400000e+008,-8.87995377e+001
,,,3.87200000e+008,-1.13122124e+002
,,,3.88000000e+008,-9.12252121e+001
,,,3.88800000e+008,-8.74862213e+001
,,,3.89600000e+008,-8.62839661e+001
,,,3.90400000e+008,-8.51295242e+001
,,,3.91200000e+008,-8.37818909e+001
,,,3.92000000e+008,-8.30998764e+001
,,,3.92800000e+008,-8.29858932e+001
,,,3.93600000e+008,-8.31662598e+001
,,,3.94400000e+008,-8.34899216e+001
,,,3.95200000e+008,-8.40449905e+001
,,,3.96000000e+008,-8.49285583e+001
,,,3.96800000e+008,-8.59370575e+001
,,,3.97600000e+008,-8.69745407e+001
,,,3.98400000e+008,-8.74710999e+001
,,,3.99200000e+008,-8.81121902e+001
,,,4.00000000e+008,-8.88291092e+001
,,,4.00800000e+008,-8.72985687e+001
,,,4.01600000e+008,-8.39999008e+001
,,,4.02400000e+008,-8.20423737e+001
,,,4.03200000e+008,-8.13115845e+001
,,,4.04000000e+008,-8.16507645e+001
,,,4.04800000e+008,-8.21342316e+001
,,,4.05600000e+008,-8.24312744e+001
,,,4.06400000e+008,-8.24340973e+001
,,,4.07200000e+008,-8.17599106e+001
,,,4.08000000e+008,-8.06475983e+001
,,,4.08800000e+008,-8.03503418e+001
,,,4.09600000e+008,-8.12740936e+001
,,,4.10400000e+008,-8.22320938e+001
,,,4.11200000e+008,-8.12173615e+001
,,,4.12000000e+008,-7.97562027e+001
,,,4.12800000e+008,-7.90847626e+001
,,,4.13600000e+008,-7.87222366e+001
,,,4.14400000e+008,-7.78171310e+001
,,,4.15200000e+008,-7.71156235e+001
,,,4.16000000e+008,-7.74136810e+001
,,,4.16800000e+008,-7.87938004e+001
,,,4.17600000e+008,-8.07667007e+001
,,,4.18400000e+008,-8.20817947e+001
,,,4.19200000e+008,-8.25316925e+001
,,,4.20000000e+008,-8.24817734e+001
,,,4.20800000e+008,-8.19446869e+001
,,,4.21600000e+008,-8.15174179e+001
,,,4.22400000e+008,-8.11912689e+001
,,,4.23200000e+008,-8.15687485e+001
,,,4.24000000e+008,-8.27640762e+001
,,,4.24800000e+008,-8.43239746e+001
,,,4.25600000e+008,-8.45639267e+001
,,,4.26400000e+008,-8.35657196e+001
,,,4.27200000e+008,-8.24674683e+001
,,,4.28000000e+008,-8.10949783e+001
,,,4.28800000e+008,-7.99256821e+001
,,,4.29600000e+008,-7.95240479e+001
,,,4.30400000e+008,-8.02186890e+001
,,,4.31200000e+008,-8.11881714e+001
,,,4.32000000e+008,-8.17903748e+001
,,,4.32800000e+008,-8.23037872e+001
,,,4.33600000e+008,-8.28858185e+001
,,,4.34400000e+008,-8.29215393e+001
,,,4.35200000e+008,-8.29325104e+001
,,,4.36000000e+008,-8.36379242e+001
,,,4.36800000e+008,-8.51055603e+001
,,,4.37600000e+008,-8.59736023e+001
,,,4.38400000e+008,-8.79297256e+001
,,,4.39200000e+008,-8.97863922e+001
,,,4.40000000e+008,-8.92702332e+001
