Data/20220819/UCLA_to_R2B_VPOL_E_70_01_Math1.csv

"Record Length",3200,"Points",0.00000000e+000,-1.02258310e+001
"Sample Interval",7.81250000e+005,Hz,7.81250000e+005,-1.59421186e+001
"Trigger Point",0,"Samples",1.56250000e+006,-1.82143517e+001
"Trigger Time",0.00000000e+000,Hz,2.34375000e+006,-2.26953602e+001
"",,,3.12500000e+006,-3.22541199e+001
"Horizontal Offset",0.00000000e+000,Hz,3.90625000e+006,-3.68558540e+001
,,,4.68750000e+006,-2.92350655e+001
,,,5.46875000e+006,-2.89199715e+001
,,,6.25000000e+006,-3.29266624e+001
,,,7.03125000e+006,-5.28932915e+001
,,,7.81250000e+006,-3.75519905e+001
,,,8.59375000e+006,-3.30895538e+001
,,,9.37500000e+006,-3.45166512e+001
,,,1.01562500e+007,-4.05212898e+001
,,,1.09375000e+007,-4.99384995e+001
,,,1.17187500e+007,-3.76322250e+001
,,,1.25000000e+007,-3.63536720e+001
,,,1.32812500e+007,-3.89178505e+001
,,,1.40625000e+007,-5.01791840e+001
,,,1.48437500e+007,-4.45003166e+001
,,,1.56250000e+007,-3.93012314e+001
,,,1.64062500e+007,-3.83256302e+001
,,,1.71875000e+007,-4.33197517e+001
,,,1.79687500e+007,-5.55197029e+001
,,,1.87500000e+007,-4.32578545e+001
,,,1.95312500e+007,-3.99759178e+001
,,,2.03125000e+007,-4.21817627e+001
,,,2.10937500e+007,-4.97648659e+001
,,,2.18750000e+007,-5.06889763e+001
,,,2.26562500e+007,-4.29519691e+001
,,,2.34375000e+007,-4.09265747e+001
,,,2.42187500e+007,-4.49877815e+001
,,,2.50000000e+007,-6.56070175e+001
,,,2.57812500e+007,-4.63265762e+001
,,,2.65625000e+007,-4.22416420e+001
,,,2.73437500e+007,-4.40556374e+001
,,,2.81250000e+007,-5.04337082e+001
,,,2.89062500e+007,-5.38369408e+001
,,,2.96875000e+007,-4.45829735e+001
,,,3.04687500e+007,-4.38205261e+001
,,,3.12500000e+007,-4.82276115e+001
,,,3.20312500e+007,-5.78683395e+001
,,,3.28125000e+007,-5.05466042e+001
,,,3.35937500e+007,-4.44153671e+001
,,,3.43750000e+007,-4.50367813e+001
,,,3.51562500e+007,-5.32345734e+001
,,,3.59375000e+007,-6.05361557e+001
,,,3.67187500e+007,-4.79809914e+001
,,,3.75000000e+007,-4.54806175e+001
,,,3.82812500e+007,-4.83990784e+001
,,,3.90625000e+007,-5.81142426e+001
,,,3.98437500e+007,-5.66244316e+001
,,,4.06250000e+007,-4.62865524e+001
,,,4.14062500e+007,-4.60812225e+001
,,,4.21875000e+007,-5.10306282e+001
,,,4.29687500e+007,-6.50323563e+001
,,,4.37500000e+007,-4.94855194e+001
,,,4.45312500e+007,-4.67849197e+001
,,,4.53125000e+007,-4.94609947e+001
,,,4.60937500e+007,-5.48876953e+001
,,,4.68750000e+007,-5.67391853e+001
,,,4.76562500e+007,-4.67970848e+001
,,,4.84375000e+007,-4.95168686e+001
,,,4.92187500e+007,-5.07654457e+001
,,,5.00000000e+007,-6.29495811e+001
,,,5.07812500e+007,-5.33160629e+001
,,,5.15625000e+007,-4.98215294e+001
,,,5.23437500e+007,-4.94009819e+001
,,,5.31250000e+007,-5.76500397e+001
,,,5.39062500e+007,-6.33913536e+001
,,,5.46875000e+007,-5.19761848e+001
,,,5.54687500e+007,-4.94320869e+001
,,,5.62500000e+007,-4.96670265e+001
,,,5.70312500e+007,-6.23468590e+001
,,,5.78125000e+007,-5.42989845e+001
,,,5.85937500e+007,-5.01244469e+001
,,,5.93750000e+007,-5.00262794e+001
,,,6.01562500e+007,-5.34547119e+001
,,,6.09375000e+007,-6.42998428e+001
,,,6.17187500e+007,-5.12945099e+001
,,,6.25000000e+007,-4.91319122e+001
,,,6.32812500e+007,-5.21528130e+001
,,,6.40625000e+007,-7.19472046e+001
,,,6.48437500e+007,-5.98495445e+001
,,,6.56250000e+007,-5.13903542e+001
,,,6.64062500e+007,-5.25572815e+001
,,,6.71875000e+007,-5.55461693e+001
,,,6.79687500e+007,-7.73606567e+001
,,,6.87500000e+007,-5.68613014e+001
,,,6.95312500e+007,-5.07109604e+001
,,,7.03125000e+007,-5.25983734e+001
,,,7.10937500e+007,-5.78772736e+001
,,,7.18750000e+007,-5.98804970e+001
,,,7.26562500e+007,-5.35778465e+001
,,,7.34375000e+007,-5.16550827e+001
,,,7.42187500e+007,-5.61699219e+001
,,,7.50000000e+007,-6.16197090e+001
,,,7.57812500e+007,-5.63586540e+001
,,,7.65625000e+007,-5.37115364e+001
,,,7.73437500e+007,-5.06274605e+001
,,,7.81250000e+007,-5.73360291e+001
,,,7.89062500e+007,-6.73820114e+001
,,,7.96875000e+007,-5.16903267e+001
,,,8.04687500e+007,-5.36790237e+001
,,,8.12500000e+007,-5.25730896e+001
,,,8.20312500e+007,-6.75088501e+001
,,,8.28125000e+007,-5.70739708e+001
,,,8.35937500e+007,-5.21126518e+001
,,,8.43750000e+007,-5.51795387e+001
,,,8.51562500e+007,-5.70585594e+001
,,,8.59375000e+007,-6.64911041e+001
,,,8.67187500e+007,-6.07700615e+001
,,,8.75000000e+007,-5.18560333e+001
,,,8.82812500e+007,-5.61899300e+001
,,,8.90625000e+007,-5.84545975e+001
,,,8.98437500e+007,-5.94127197e+001
,,,9.06250000e+007,-5.26271591e+001
,,,9.14062500e+007,-5.28571320e+001
,,,9.21875000e+007,-5.71782341e+001
,,,9.29687500e+007,-6.68448563e+001
,,,9.37500000e+007,-5.52041397e+001
,,,9.45312500e+007,-5.29202042e+001
,,,9.53125000e+007,-5.95907288e+001
,,,9.60937500e+007,-5.94438591e+001
,,,9.68750000e+007,-6.85658417e+001
,,,9.76562500e+007,-5.67568359e+001
,,,9.84375000e+007,-5.03015747e+001
,,,9.92187500e+007,-6.03322678e+001
,,,1.00000000e+008,-5.59415245e+001
,,,1.00781250e+008,-5.49353752e+001
,,,1.01562500e+008,-5.15710678e+001
,,,1.02343750e+008,-5.36127625e+001
,,,1.03125000e+008,-5.71396408e+001
,,,1.03906250e+008,-5.58296127e+001
,,,1.04687500e+008,-5.39862671e+001
,,,1.05468750e+008,-5.45572815e+001
,,,1.06250000e+008,-6.74620819e+001
,,,1.07031250e+008,-5.81658783e+001
,,,1.07812500e+008,-6.51486435e+001
,,,1.08593750e+008,-5.38030663e+001
,,,1.09375000e+008,-5.40530891e+001
,,,1.10156250e+008,-5.83992958e+001
,,,1.10937500e+008,-6.57050323e+001
,,,1.11718750e+008,-5.64066391e+001
,,,1.12500000e+008,-6.00294380e+001
,,,1.13281250e+008,-5.50000725e+001
,,,1.14062500e+008,-5.66535950e+001
,,,1.14843750e+008,-5.99281387e+001
,,,1.15625000e+008,-6.20754280e+001
,,,1.16406250e+008,-5.23461533e+001
,,,1.17187500e+008,-5.95358467e+001
,,,1.17968750e+008,-7.67388916e+001
,,,1.18750000e+008,-6.26093140e+001
,,,1.19531250e+008,-5.27131538e+001
,,,1.20312500e+008,-6.05657692e+001
,,,1.21093750e+008,-6.13502464e+001
,,,1.21875000e+008,-7.43688431e+001
,,,1.22656250e+008,-5.95620918e+001
,,,1.23437500e+008,-5.47710304e+001
,,,1.24218750e+008,-5.52839661e+001
,,,1.25000000e+008,-6.59370499e+001
,,,1.25781250e+008,-5.89637604e+001
,,,1.26562500e+008,-5.43764000e+001
,,,1.27343750e+008,-6.10735207e+001
,,,1.28125000e+008,-6.22408218e+001
,,,1.28906250e+008,-6.20600243e+001
,,,1.29687500e+008,-5.37809982e+001
,,,1.30468750e+008,-5.10662575e+001
,,,1.31250000e+008,-6.47190704e+001
,,,1.32031250e+008,-5.56076927e+001
,,,1.32812500e+008,-5.99188232e+001
,,,1.33593750e+008,-5.51360741e+001
,,,1.34375000e+008,-6.38157463e+001
,,,1.35156250e+008,-5.32907219e+001
,,,1.35937500e+008,-5.95247269e+001
,,,1.36718750e+008,-6.44638519e+001
,,,1.37500000e+008,-5.71283035e+001
,,,1.38281250e+008,-5.48930054e+001
,,,1.39062500e+008,-6.64565735e+001
,,,1.39843750e+008,-7.19405441e+001
,,,1.40625000e+008,-5.74362144e+001
,,,1.41406250e+008,-5.95989342e+001
,,,1.42187500e+008,-5.61329002e+001
,,,1.42968750e+008,-6.84167709e+001
,,,1.43750000e+008,-5.96559906e+001
,,,1.44531250e+008,-6.64969330e+001
,,,1.45312500e+008,-5.38559990e+001
,,,1.46093750e+008,-5.35636787e+001
,,,1.46875000e+008,-4.88464813e+001
,,,1.47656250e+008,-4.90803680e+001
,,,1.48437500e+008,-4.31022720e+001
,,,1.49218750e+008,-4.20281181e+001
,,,1.50000000e+008,-4.41825752e+001
,,,1.50781250e+008,-4.61190300e+001
,,,1.51562500e+008,-5.09229889e+001
,,,1.52343750e+008,-4.94478264e+001
,,,1.53125000e+008,-5.56078911e+001
,,,1.53906250e+008,-5.95936890e+001
,,,1.54687500e+008,-5.30243034e+001
,,,1.55468750e+008,-5.04346466e+001
,,,1.56250000e+008,-6.12485085e+001
,,,1.57031250e+008,-5.34786682e+001
,,,1.57812500e+008,-5.46325111e+001
,,,1.58593750e+008,-5.27220116e+001
,,,1.59375000e+008,-5.55937271e+001
,,,1.60156250e+008,-5.26890831e+001
,,,1.60937500e+008,-5.65945892e+001
,,,1.61718750e+008,-5.91425056e+001
,,,1.62500000e+008,-5.12963219e+001
,,,1.63281250e+008,-5.23830490e+001
,,,1.64062500e+008,-6.16713371e+001
,,,1.64843750e+008,-6.00728874e+001
,,,1.65625000e+008,-4.70040359e+001
,,,1.66406250e+008,-4.62496796e+001
,,,1.67187500e+008,-4.34852905e+001
,,,1.67968750e+008,-4.27458725e+001
,,,1.68750000e+008,-4.59382095e+001
,,,1.69531250e+008,-5.58106422e+001
,,,1.70312500e+008,-4.71167717e+001
,,,1.71093750e+008,-4.44601555e+001
,,,1.71875000e+008,-4.56276855e+001
,,,1.72656250e+008,-4.94875221e+001
,,,1.73437500e+008,-5.13139114e+001
,,,1.74218750e+008,-4.95930977e+001
,,,1.75000000e+008,-5.06266022e+001
,,,1.75781250e+008,-5.22849960e+001
,,,1.76562500e+008,-4.61738930e+001
,,,1.77343750e+008,-4.74593964e+001
,,,1.78125000e+008,-4.69341240e+001
,,,1.78906250e+008,-4.87054787e+001
,,,1.79687500e+008,-4.40115471e+001
,,,1.80468750e+008,-4.52571640e+001
,,,1.81250000e+008,-4.18417969e+001
,,,1.82031250e+008,-4.38185310e+001
,,,1.82812500e+008,-4.65213203e+001
,,,1.83593750e+008,-4.82461395e+001
,,,1.84375000e+008,-4.02218056e+001
,,,1.85156250e+008,-3.96993027e+001
,,,1.85937500e+008,-3.88308487e+001
,,,1.86718750e+008,-4.17711906e+001
,,,1.87500000e+008,-4.19162941e+001
,,,1.88281250e+008,-4.24887238e+001
,,,1.89062500e+008,-4.05178185e+001
,,,1.89843750e+008,-4.04988670e+001
,,,1.90625000e+008,-4.10516701e+001
,,,1.91406250e+008,-4.33683586e+001
,,,1.92187500e+008,-4.17010193e+001
,,,1.92968750e+008,-4.03545074e+001
,,,1.93750000e+008,-3.94467583e+001
,,,1.94531250e+008,-4.18216171e+001
,,,1.95312500e+008,-4.02665100e+001
,,,1.96093750e+008,-4.01942749e+001
,,,1.96875000e+008,-3.95468788e+001
,,,1.97656250e+008,-4.17671585e+001
,,,1.98437500e+008,-4.24056854e+001
,,,1.99218750e+008,-4.27816353e+001
,,,2.00000000e+008,-4.20762329e+001
,,,2.00781250e+008,-4.32343445e+001
,,,2.01562500e+008,-4.36117210e+001
,,,2.02343750e+008,-5.13762436e+001
,,,2.03125000e+008,-5.69040527e+001
,,,2.03906250e+008,-5.56644058e+001
,,,2.04687500e+008,-4.98646812e+001
,,,2.05468750e+008,-4.46399193e+001
,,,2.06250000e+008,-3.97213974e+001
,,,2.07031250e+008,-4.12917404e+001
,,,2.07812500e+008,-4.17479973e+001
,,,2.08593750e+008,-4.38111343e+001
,,,2.09375000e+008,-4.53264923e+001
,,,2.10156250e+008,-4.56942787e+001
,,,2.10937500e+008,-4.05985641e+001
,,,2.11718750e+008,-4.01380615e+001
,,,2.12500000e+008,-3.96520119e+001
,,,2.13281250e+008,-4.32648773e+001
,,,2.14062500e+008,-4.15726929e+001
,,,2.14843750e+008,-3.98362236e+001
,,,2.15625000e+008,-3.80387306e+001
,,,2.16406250e+008,-3.85166283e+001
,,,2.17187500e+008,-3.75683022e+001
,,,2.17968750e+008,-4.09233208e+001
,,,2.18750000e+008,-4.27134743e+001
,,,2.19531250e+008,-4.04813194e+001
,,,2.20312500e+008,-3.83122520e+001
,,,2.21093750e+008,-4.14358978e+001
,,,2.21875000e+008,-4.18431702e+001
,,,2.22656250e+008,-3.96342735e+001
,,,2.23437500e+008,-3.70506210e+001
,,,2.24218750e+008,-3.63184662e+001
,,,2.25000000e+008,-3.47686043e+001
,,,2.25781250e+008,-3.52856636e+001
,,,2.26562500e+008,-3.74738579e+001
,,,2.27343750e+008,-4.23584366e+001
,,,2.28125000e+008,-4.11099777e+001
,,,2.28906250e+008,-3.88944969e+001
,,,2.29687500e+008,-3.64976921e+001
,,,2.30468750e+008,-3.64138069e+001
,,,2.31250000e+008,-3.67192230e+001
,,,2.32031250e+008,-4.09150772e+001
,,,2.32812500e+008,-4.23935051e+001
,,,2.33593750e+008,-3.93301392e+001
,,,2.34375000e+008,-3.84219360e+001
,,,2.35156250e+008,-4.33568077e+001
,,,2.35937500e+008,-4.39629517e+001
,,,2.36718750e+008,-3.85134201e+001
,,,2.37500000e+008,-3.77331123e+001
,,,2.38281250e+008,-3.73722229e+001
,,,2.39062500e+008,-3.78155632e+001
,,,2.39843750e+008,-3.74043732e+001
,,,2.40625000e+008,-3.83354454e+001
,,,2.41406250e+008,-3.69511757e+001
,,,2.42187500e+008,-3.49707184e+001
,,,2.42968750e+008,-3.34637108e+001
,,,2.43750000e+008,-3.36009407e+001
,,,2.44531250e+008,-3.30520210e+001
,,,2.45312500e+008,-3.29509621e+001
,,,2.46093750e+008,-3.30075798e+001
,,,2.46875000e+008,-3.32049828e+001
,,,2.47656250e+008,-3.35332527e+001
,,,2.48437500e+008,-3.44580956e+001
,,,2.49218750e+008,-3.39418411e+001
,,,2.50000000e+008,-3.28941460e+001
,,,2.50781250e+008,-3.10538502e+001
,,,2.51562500e+008,-3.01859818e+001
,,,2.52343750e+008,-2.99617176e+001
,,,2.53125000e+008,-3.06480732e+001
,,,2.53906250e+008,-3.08263607e+001
,,,2.54687500e+008,-3.05572071e+001
,,,2.55468750e+008,-3.12960777e+001
,,,2.56250000e+008,-3.38069572e+001
,,,2.57031250e+008,-3.28393974e+001
,,,2.57812500e+008,-2.98019733e+001
,,,2.58593750e+008,-2.87653294e+001
,,,2.59375000e+008,-3.02215805e+001
,,,2.60156250e+008,-3.21354179e+001
,,,2.60937500e+008,-3.15373707e+001
,,,2.61718750e+008,-3.02762871e+001
,,,2.62500000e+008,-3.04589901e+001
,,,2.63281250e+008,-3.04113312e+001
,,,2.64062500e+008,-3.01906242e+001
,,,2.64843750e+008,-3.04112606e+001
,,,2.65625000e+008,-3.18881016e+001
,,,2.66406250e+008,-3.35577087e+001
,,,2.67187500e+008,-3.58338661e+001
,,,2.67968750e+008,-3.51149635e+001
,,,2.68750000e+008,-3.23935394e+001
,,,2.69531250e+008,-3.08993244e+001
,,,2.70312500e+008,-3.14780903e+001
,,,2.71093750e+008,-3.22052345e+001
,,,2.71875000e+008,-3.24975739e+001
,,,2.72656250e+008,-3.31984062e+001
,,,2.73437500e+008,-3.28496704e+001
,,,2.74218750e+008,-3.06042881e+001
,,,2.75000000e+008,-2.94658623e+001
,,,2.75781250e+008,-2.96142521e+001
,,,2.76562500e+008,-3.12983761e+001
,,,2.77343750e+008,-3.29167824e+001
,,,2.78125000e+008,-3.58145027e+001
,,,2.78906250e+008,-4.09894714e+001
,,,2.79687500e+008,-3.66107979e+001
,,,2.80468750e+008,-3.17232246e+001
,,,2.81250000e+008,-3.13065529e+001
,,,2.82031250e+008,-3.17168465e+001
,,,2.82812500e+008,-3.25554733e+001
,,,2.83593750e+008,-3.23958054e+001
,,,2.84375000e+008,-3.39985237e+001
,,,2.85156250e+008,-3.56435928e+001
,,,2.85937500e+008,-3.71868019e+001
,,,2.86718750e+008,-3.67058258e+001
,,,2.87500000e+008,-3.53275299e+001
,,,2.88281250e+008,-3.20765877e+001
,,,2.89062500e+008,-3.09537907e+001
,,,2.89843750e+008,-3.11931019e+001
,,,2.90625000e+008,-3.26924019e+001
,,,2.91406250e+008,-3.25559425e+001
,,,2.92187500e+008,-3.26648445e+001
,,,2.92968750e+008,-3.27656250e+001
,,,2.93750000e+008,-3.29919930e+001
,,,2.94531250e+008,-3.30869637e+001
,,,2.95312500e+008,-3.33544617e+001
,,,2.96093750e+008,-3.20114708e+001
,,,2.96875000e+008,-3.13839149e+001
,,,2.97656250e+008,-3.09697552e+001
,,,2.98437500e+008,-3.09618015e+001
,,,2.99218750e+008,-3.05816460e+001
,,,3.00000000e+008,-3.07895184e+001
,,,3.00781250e+008,-3.07915878e+001
,,,3.01562500e+008,-3.03653240e+001
,,,3.02343750e+008,-2.89940071e+001
,,,3.03125000e+008,-2.84713001e+001
,,,3.03906250e+008,-2.76749496e+001
,,,3.04687500e+008,-2.72892075e+001
,,,3.05468750e+008,-2.72465687e+001
,,,3.06250000e+008,-2.81380444e+001
,,,3.07031250e+008,-2.93987350e+001
,,,3.07812500e+008,-3.07357292e+001
,,,3.08593750e+008,-3.19131203e+001
,,,3.09375000e+008,-3.46634178e+001
,,,3.10156250e+008,-3.45762177e+001
,,,3.10937500e+008,-3.42451973e+001
,,,3.11718750e+008,-3.43514557e+001
,,,3.12500000e+008,-3.47470207e+001
,,,3.13281250e+008,-3.32438774e+001
,,,3.14062500e+008,-3.38552437e+001
,,,3.14843750e+008,-3.43378296e+001
,,,3.15625000e+008,-3.36820068e+001
,,,3.16406250e+008,-3.24067993e+001
,,,3.17187500e+008,-3.27636909e+001
,,,3.17968750e+008,-3.37500153e+001
,,,3.18750000e+008,-3.43021469e+001
,,,3.19531250e+008,-3.33224220e+001
,,,3.20312500e+008,-3.33172264e+001
,,,3.21093750e+008,-3.37407036e+001
,,,3.21875000e+008,-3.55371666e+001
,,,3.22656250e+008,-3.75515404e+001
,,,3.23437500e+008,-3.68490829e+001
,,,3.24218750e+008,-3.32580833e+001
,,,3.25000000e+008,-3.12063046e+001
,,,3.25781250e+008,-3.07654285e+001
,,,3.26562500e+008,-3.18208942e+001
,,,3.27343750e+008,-3.25232391e+001
,,,3.28125000e+008,-3.25291481e+001
,,,3.28906250e+008,-3.27997551e+001
,,,3.29687500e+008,-3.53665009e+001
,,,3.30468750e+008,-3.82844467e+001
,,,3.31250000e+008,-3.76153755e+001
,,,3.32031250e+008,-3.63343048e+001
,,,3.32812500e+008,-3.95251007e+001
,,,3.33593750e+008,-4.11535339e+001
,,,3.34375000e+008,-3.51797409e+001
,,,3.35156250e+008,-3.33917198e+001
,,,3.35937500e+008,-3.45511856e+001
,,,3.36718750e+008,-3.76881790e+001
,,,3.37500000e+008,-3.63348999e+001
,,,3.38281250e+008,-3.49774780e+001
,,,3.39062500e+008,-3.45896568e+001
,,,3.39843750e+008,-3.63187943e+001
,,,3.40625000e+008,-3.77443542e+001
,,,3.41406250e+008,-3.95427704e+001
,,,3.42187500e+008,-3.69543533e+001
,,,3.42968750e+008,-3.39091110e+001
,,,3.43750000e+008,-3.15993614e+001
,,,3.44531250e+008,-3.03415699e+001
,,,3.45312500e+008,-2.81608429e+001
,,,3.46093750e+008,-2.66031284e+001
,,,3.46875000e+008,-2.59038620e+001
,,,3.47656250e+008,-2.64180298e+001
,,,3.48437500e+008,-2.68925304e+001
,,,3.49218750e+008,-2.69128571e+001
,,,3.50000000e+008,-2.65904350e+001
,,,3.50781250e+008,-2.71612396e+001
,,,3.51562500e+008,-2.90250797e+001
,,,3.52343750e+008,-3.11707802e+001
,,,3.53125000e+008,-3.13162594e+001
,,,3.53906250e+008,-3.07793980e+001
,,,3.54687500e+008,-3.03661518e+001
,,,3.55468750e+008,-3.08150749e+001
,,,3.56250000e+008,-3.12020226e+001
,,,3.57031250e+008,-3.27801857e+001
,,,3.57812500e+008,-3.45195923e+001
,,,3.58593750e+008,-3.57679787e+001
,,,3.59375000e+008,-3.35670547e+001
,,,3.60156250e+008,-3.22201653e+001
,,,3.60937500e+008,-3.16321468e+001
,,,3.61718750e+008,-3.34540672e+001
,,,3.62500000e+008,-3.56722336e+001
,,,3.63281250e+008,-3.55967865e+001
,,,3.64062500e+008,-3.35367699e+001
,,,3.64843750e+008,-3.31787682e+001
,,,3.65625000e+008,-3.20436592e+001
,,,3.66406250e+008,-3.03753128e+001
,,,3.67187500e+008,-2.88252602e+001
,,,3.67968750e+008,-2.94999561e+001
,,,3.68750000e+008,-3.12782459e+001
,,,3.69531250e+008,-3.24123573e+001
,,,3.70312500e+008,-3.10210018e+001
,,,3.71093750e+008,-3.10469608e+001
,,,3.71875000e+008,-3.24876328e+001
,,,3.72656250e+008,-3.57642708e+001
,,,3.73437500e+008,-3.74893532e+001
,,,3.74218750e+008,-3.74386940e+001
,,,3.75000000e+008,-3.53745308e+001
,,,3.75781250e+008,-3.38881874e+001
,,,3.76562500e+008,-3.30831337e+001
,,,3.77343750e+008,-3.25634003e+001
,,,3.78125000e+008,-3.10368710e+001
,,,3.78906250e+008,-3.06324539e+001
,,,3.79687500e+008,-3.11093559e+001
,,,3.80468750e+008,-3.18781300e+001
,,,3.81250000e+008,-3.12107754e+001
,,,3.82031250e+008,-3.13166409e+001
,,,3.82812500e+008,-3.13014164e+001
,,,3.83593750e+008,-3.19779015e+001
,,,3.84375000e+008,-3.07792969e+001
,,,3.85156250e+008,-3.03724918e+001
,,,3.85937500e+008,-3.05229626e+001
,,,3.86718750e+008,-3.11441422e+001
,,,3.87500000e+008,-3.05679741e+001
,,,3.88281250e+008,-3.00085030e+001
,,,3.89062500e+008,-3.02263031e+001
,,,3.89843750e+008,-3.22474022e+001
,,,3.90625000e+008,-3.50620995e+001
,,,3.91406250e+008,-3.52308540e+001
,,,3.92187500e+008,-3.38403664e+001
,,,3.92968750e+008,-3.39132805e+001
,,,3.93750000e+008,-3.39636192e+001
,,,3.94531250e+008,-3.38770523e+001
,,,3.95312500e+008,-3.30595894e+001
,,,3.96093750e+008,-3.27703629e+001
,,,3.96875000e+008,-3.14434814e+001
,,,3.97656250e+008,-3.07560291e+001
,,,3.98437500e+008,-3.09278984e+001
,,,3.99218750e+008,-3.20948982e+001
,,,4.00000000e+008,-3.23122215e+001
,,,4.00781250e+008,-3.23428688e+001
,,,4.01562500e+008,-3.25916138e+001
,,,4.02343750e+008,-3.29843407e+001
,,,4.03125000e+008,-3.33530922e+001
,,,4.03906250e+008,-3.39797440e+001
,,,4.04687500e+008,-3.49129829e+001
,,,4.05468750e+008,-3.69372673e+001
,,,4.06250000e+008,-3.86239510e+001
,,,4.07031250e+008,-4.01804085e+001
,,,4.07812500e+008,-4.00847816e+001
,,,4.08593750e+008,-3.95759239e+001
,,,4.09375000e+008,-3.98399200e+001
,,,4.10156250e+008,-3.95717735e+001
,,,4.10937500e+008,-3.74046631e+001
,,,4.11718750e+008,-3.62817802e+001
,,,4.12500000e+008,-3.81160507e+001
,,,4.13281250e+008,-4.35671082e+001
,,,4.14062500e+008,-4.17262878e+001
,,,4.14843750e+008,-3.53888626e+001
,,,4.15625000e+008,-3.33243599e+001
,,,4.16406250e+008,-3.29722977e+001
,,,4.17187500e+008,-3.42537804e+001
,,,4.17968750e+008,-3.40457001e+001
,,,4.18750000e+008,-3.37884407e+001
,,,4.19531250e+008,-3.37914391e+001
,,,4.20312500e+008,-3.53582001e+001
,,,4.21093750e+008,-3.83735199e+001
,,,4.21875000e+008,-4.02390327e+001
,,,4.22656250e+008,-3.84730568e+001
,,,4.23437500e+008,-3.76128387e+001
,,,4.24218750e+008,-3.64377556e+001
,,,4.25000000e+008,-3.78818588e+001
,,,4.25781250e+008,-3.83563690e+001
,,,4.26562500e+008,-4.17433357e+001
,,,4.27343750e+008,-4.18110695e+001
,,,4.28125000e+008,-4.04906845e+001
,,,4.28906250e+008,-3.75339012e+001
,,,4.29687500e+008,-3.77564583e+001
