Data/20220819/UCLA_to_R2B_VPOL_E_60_01_Ch2.csv

"Record Length",5000,"Points",-1.00800000e-007,-5.12499559e-005
"Sample Interval",2.00000000e-010,s,-1.00600000e-007,-8.15624573e-005
"Trigger Point",504,"Samples",-1.00400000e-007,-8.84374576e-005
"Trigger Time",0.00000000e+000,s,-1.00200000e-007,-1.74999543e-005
"",,,-1.00000000e-007,6.71875498e-005
"Horizontal Offset",-1.00800000e-007,s,-9.98000000e-008,1.21875052e-004
,,,-9.96000000e-008,1.34687553e-004
,,,-9.94000000e-008,9.87500513e-005
,,,-9.92000000e-008,3.68750483e-005
,,,-9.90000000e-008,-3.43745360e-006
,,,-9.88000000e-008,-1.18749540e-005
,,,-9.86000000e-008,-3.21874550e-005
,,,-9.84000000e-008,-3.40624551e-005
,,,-9.82000000e-008,9.37546611e-007
,,,-9.80000000e-008,1.56250473e-005
,,,-9.78000000e-008,4.46875487e-005
,,,-9.76000000e-008,7.59375502e-005
,,,-9.74000000e-008,4.84375489e-005
,,,-9.72000000e-008,-2.49995355e-006
,,,-9.70000000e-008,-2.09374544e-005
,,,-9.68000000e-008,-5.31245369e-006
,,,-9.66000000e-008,-6.24953464e-007
,,,-9.64000000e-008,1.25000472e-005
,,,-9.62000000e-008,2.18750476e-005
,,,-9.60000000e-008,-3.12495358e-006
,,,-9.58000000e-008,3.03125480e-005
,,,-9.56000000e-008,5.06250490e-005
,,,-9.54000000e-008,5.43750491e-005
,,,-9.52000000e-008,3.62500483e-005
,,,-9.50000000e-008,2.43750477e-005
,,,-9.48000000e-008,-2.49995355e-006
,,,-9.46000000e-008,2.56250478e-005
,,,-9.44000000e-008,3.09375480e-005
,,,-9.42000000e-008,4.40625487e-005
,,,-9.40000000e-008,3.21875481e-005
,,,-9.38000000e-008,4.84375489e-005
,,,-9.36000000e-008,2.78125479e-005
,,,-9.34000000e-008,9.68754703e-006
,,,-9.32000000e-008,1.46875473e-005
,,,-9.30000000e-008,3.43754673e-006
,,,-9.28000000e-008,-5.31245369e-006
,,,-9.26000000e-008,1.46875473e-005
,,,-9.24000000e-008,3.62500483e-005
,,,-9.22000000e-008,4.15625485e-005
,,,-9.20000000e-008,2.81250479e-005
,,,-9.18000000e-008,1.00000470e-005
,,,-9.16000000e-008,1.28125472e-005
,,,-9.14000000e-008,2.06250475e-005
,,,-9.12000000e-008,3.03125480e-005
,,,-9.10000000e-008,2.12500476e-005
,,,-9.08000000e-008,-1.40624541e-005
,,,-9.06000000e-008,-1.87499543e-005
,,,-9.04000000e-008,3.68750483e-005
,,,-9.02000000e-008,6.84375498e-005
,,,-9.00000000e-008,8.46875506e-005
,,,-8.98000000e-008,9.25000510e-005
,,,-8.96000000e-008,2.96875480e-005
,,,-8.94000000e-008,-1.24999540e-005
,,,-8.92000000e-008,-4.49999556e-005
,,,-8.90000000e-008,-7.12499568e-005
,,,-8.88000000e-008,-7.15624568e-005
,,,-8.86000000e-008,3.12546581e-007
,,,-8.84000000e-008,5.65625493e-005
,,,-8.82000000e-008,1.38437553e-004
,,,-8.80000000e-008,1.41875053e-004
,,,-8.78000000e-008,9.50000511e-005
,,,-8.76000000e-008,-3.90624553e-005
,,,-8.74000000e-008,-1.25937459e-004
,,,-8.72000000e-008,-1.33437460e-004
,,,-8.70000000e-008,-5.81249562e-005
,,,-8.68000000e-008,3.62500483e-005
,,,-8.66000000e-008,1.22812552e-004
,,,-8.64000000e-008,1.29062553e-004
,,,-8.62000000e-008,1.32187553e-004
,,,-8.60000000e-008,9.12500509e-005
,,,-8.58000000e-008,1.46875473e-005
,,,-8.56000000e-008,-7.65624571e-005
,,,-8.54000000e-008,-1.00624958e-004
,,,-8.52000000e-008,-7.06249568e-005
,,,-8.50000000e-008,4.21875486e-005
,,,-8.48000000e-008,9.84375512e-005
,,,-8.46000000e-008,1.49687554e-004
,,,-8.44000000e-008,1.21562552e-004
,,,-8.42000000e-008,4.96875489e-005
,,,-8.40000000e-008,-1.99999544e-005
,,,-8.38000000e-008,-6.68749566e-005
,,,-8.36000000e-008,-5.62499561e-005
,,,-8.34000000e-008,-3.40624551e-005
,,,-8.32000000e-008,1.68750474e-005
,,,-8.30000000e-008,4.87500489e-005
,,,-8.28000000e-008,7.78125503e-005
,,,-8.26000000e-008,5.31250491e-005
,,,-8.24000000e-008,4.68754679e-006
,,,-8.22000000e-008,-2.34374545e-005
,,,-8.20000000e-008,-1.37499541e-005
,,,-8.18000000e-008,2.12500476e-005
,,,-8.16000000e-008,7.21875500e-005
,,,-8.14000000e-008,7.68750502e-005
,,,-8.12000000e-008,2.84375479e-005
,,,-8.10000000e-008,-7.81245380e-006
,,,-8.08000000e-008,-3.28124550e-005
,,,-8.06000000e-008,1.28125472e-005
,,,-8.04000000e-008,6.96875499e-005
,,,-8.02000000e-008,8.81250508e-005
,,,-8.00000000e-008,1.07187552e-004
,,,-7.98000000e-008,6.12500495e-005
,,,-7.96000000e-008,-1.31249541e-005
,,,-7.94000000e-008,-6.46874565e-005
,,,-7.92000000e-008,-5.87499562e-005
,,,-7.90000000e-008,-3.84374553e-005
,,,-7.88000000e-008,2.43750477e-005
,,,-7.86000000e-008,1.22187552e-004
,,,-7.84000000e-008,1.54687554e-004
,,,-7.82000000e-008,1.30937553e-004
,,,-7.80000000e-008,2.62500478e-005
,,,-7.78000000e-008,-9.18749578e-005
,,,-7.76000000e-008,-1.44687460e-004
,,,-7.74000000e-008,-1.11874959e-004
,,,-7.72000000e-008,-2.34374545e-005
,,,-7.70000000e-008,6.00000494e-005
,,,-7.68000000e-008,1.37500053e-004
,,,-7.66000000e-008,1.79062555e-004
,,,-7.64000000e-008,1.54062554e-004
,,,-7.62000000e-008,7.28125500e-005
,,,-7.60000000e-008,-5.59374561e-005
,,,-7.58000000e-008,-1.72812462e-004
,,,-7.56000000e-008,-1.66874961e-004
,,,-7.54000000e-008,-7.78124571e-005
,,,-7.52000000e-008,4.65625488e-005
,,,-7.50000000e-008,1.83125055e-004
,,,-7.48000000e-008,2.26562557e-004
,,,-7.46000000e-008,1.86562555e-004
,,,-7.44000000e-008,9.12500509e-005
,,,-7.42000000e-008,-3.87499553e-005
,,,-7.40000000e-008,-1.11249959e-004
,,,-7.38000000e-008,-1.44999960e-004
,,,-7.36000000e-008,-1.05937458e-004
,,,-7.34000000e-008,-1.68749542e-005
,,,-7.32000000e-008,5.90625494e-005
,,,-7.30000000e-008,1.45312553e-004
,,,-7.28000000e-008,1.61562554e-004
,,,-7.26000000e-008,1.08125052e-004
,,,-7.24000000e-008,4.15625485e-005
,,,-7.22000000e-008,-3.84374553e-005
,,,-7.20000000e-008,-8.34374574e-005
,,,-7.18000000e-008,-9.37499579e-005
,,,-7.16000000e-008,-5.15624559e-005
,,,-7.14000000e-008,-1.46874541e-005
,,,-7.12000000e-008,4.06250485e-005
,,,-7.10000000e-008,1.37812553e-004
,,,-7.08000000e-008,1.85000055e-004
,,,-7.06000000e-008,1.68125055e-004
,,,-7.04000000e-008,7.90625503e-005
,,,-7.02000000e-008,-4.81249557e-005
,,,-7.00000000e-008,-1.22499959e-004
,,,-6.98000000e-008,-1.01874958e-004
,,,-6.96000000e-008,-2.81249548e-005
,,,-6.94000000e-008,4.68750488e-005
,,,-6.92000000e-008,1.38437553e-004
,,,-6.90000000e-008,1.59375054e-004
,,,-6.88000000e-008,1.48437554e-004
,,,-6.86000000e-008,3.68750483e-005
,,,-6.84000000e-008,-4.03124553e-005
,,,-6.82000000e-008,-1.15624959e-004
,,,-6.80000000e-008,-1.24374959e-004
,,,-6.78000000e-008,-3.68749552e-005
,,,-6.76000000e-008,5.56250492e-005
,,,-6.74000000e-008,1.01875051e-004
,,,-6.72000000e-008,1.37812553e-004
,,,-6.70000000e-008,8.21875505e-005
,,,-6.68000000e-008,4.28125486e-005
,,,-6.66000000e-008,7.18754691e-006
,,,-6.64000000e-008,-5.28124559e-005
,,,-6.62000000e-008,-6.53124565e-005
,,,-6.60000000e-008,-4.21874554e-005
,,,-6.58000000e-008,2.93750480e-005
,,,-6.56000000e-008,6.81250498e-005
,,,-6.54000000e-008,1.08437552e-004
,,,-6.52000000e-008,1.10937552e-004
,,,-6.50000000e-008,6.93750499e-005
,,,-6.48000000e-008,1.31250472e-005
,,,-6.46000000e-008,-4.34374555e-005
,,,-6.44000000e-008,-5.65624561e-005
,,,-6.42000000e-008,-4.56249556e-005
,,,-6.40000000e-008,8.43754697e-006
,,,-6.38000000e-008,4.12500485e-005
,,,-6.36000000e-008,5.53125492e-005
,,,-6.34000000e-008,8.56250506e-005
,,,-6.32000000e-008,8.28125505e-005
,,,-6.30000000e-008,2.65625478e-005
,,,-6.28000000e-008,1.53125473e-005
,,,-6.26000000e-008,-1.56245351e-006
,,,-6.24000000e-008,-3.53124551e-005
,,,-6.22000000e-008,-2.62499547e-005
,,,-6.20000000e-008,-5.93745372e-006
,,,-6.18000000e-008,-4.68745366e-006
,,,-6.16000000e-008,4.25000486e-005
,,,-6.14000000e-008,1.04375052e-004
,,,-6.12000000e-008,1.40937553e-004
,,,-6.10000000e-008,1.30937553e-004
,,,-6.08000000e-008,7.56250502e-005
,,,-6.06000000e-008,-4.53124556e-005
,,,-6.04000000e-008,-1.19374959e-004
,,,-6.02000000e-008,-9.18749578e-005
,,,-6.00000000e-008,-1.12499540e-005
,,,-5.98000000e-008,5.81250493e-005
,,,-5.96000000e-008,1.18125052e-004
,,,-5.94000000e-008,1.51562554e-004
,,,-5.92000000e-008,1.22187552e-004
,,,-5.90000000e-008,4.21875486e-005
,,,-5.88000000e-008,-2.21874545e-005
,,,-5.86000000e-008,-1.07187459e-004
,,,-5.84000000e-008,-1.29062460e-004
,,,-5.82000000e-008,-7.43749570e-005
,,,-5.80000000e-008,6.56254688e-006
,,,-5.78000000e-008,7.71875502e-005
,,,-5.76000000e-008,1.51875054e-004
,,,-5.74000000e-008,1.40312553e-004
,,,-5.72000000e-008,8.90625508e-005
,,,-5.70000000e-008,4.53125487e-005
,,,-5.68000000e-008,-1.37499541e-005
,,,-5.66000000e-008,-6.84374567e-005
,,,-5.64000000e-008,-9.06249577e-005
,,,-5.62000000e-008,-5.21874559e-005
,,,-5.60000000e-008,2.62500478e-005
,,,-5.58000000e-008,1.38125053e-004
,,,-5.56000000e-008,1.74062555e-004
,,,-5.54000000e-008,1.10937552e-004
,,,-5.52000000e-008,2.65625478e-005
,,,-5.50000000e-008,-7.09374568e-005
,,,-5.48000000e-008,-1.20937459e-004
,,,-5.46000000e-008,-9.18749578e-005
,,,-5.44000000e-008,-1.74999543e-005
,,,-5.42000000e-008,5.40625491e-005
,,,-5.40000000e-008,9.43750510e-005
,,,-5.38000000e-008,1.14375052e-004
,,,-5.36000000e-008,7.46875501e-005
,,,-5.34000000e-008,2.43750477e-005
,,,-5.32000000e-008,-3.40624551e-005
,,,-5.30000000e-008,-8.03124572e-005
,,,-5.28000000e-008,-4.93749558e-005
,,,-5.26000000e-008,-1.28124540e-005
,,,-5.24000000e-008,5.59375492e-005
,,,-5.22000000e-008,1.04375052e-004
,,,-5.20000000e-008,1.24062552e-004
,,,-5.18000000e-008,1.16562552e-004
,,,-5.16000000e-008,8.03125504e-005
,,,-5.14000000e-008,-1.78124543e-005
,,,-5.12000000e-008,-9.09374578e-005
,,,-5.10000000e-008,-1.21874959e-004
,,,-5.08000000e-008,-7.78124571e-005
,,,-5.06000000e-008,4.50000487e-005
,,,-5.04000000e-008,1.78750055e-004
,,,-5.02000000e-008,2.07500056e-004
,,,-5.00000000e-008,1.75312555e-004
,,,-4.98000000e-008,3.31250481e-005
,,,-4.96000000e-008,-9.15624578e-005
,,,-4.94000000e-008,-1.59374961e-004
,,,-4.92000000e-008,-1.44062460e-004
,,,-4.90000000e-008,-8.28124574e-005
,,,-4.88000000e-008,2.75000479e-005
,,,-4.86000000e-008,1.43437553e-004
,,,-4.84000000e-008,1.99375056e-004
,,,-4.82000000e-008,1.59687554e-004
,,,-4.80000000e-008,7.59375502e-005
,,,-4.78000000e-008,-5.49999560e-005
,,,-4.76000000e-008,-1.26874959e-004
,,,-4.74000000e-008,-1.30937460e-004
,,,-4.72000000e-008,-6.34374564e-005
,,,-4.70000000e-008,1.03125471e-005
,,,-4.68000000e-008,1.11250052e-004
,,,-4.66000000e-008,1.64687554e-004
,,,-4.64000000e-008,1.71562555e-004
,,,-4.62000000e-008,1.24062552e-004
,,,-4.60000000e-008,4.84375489e-005
,,,-4.58000000e-008,-6.28124564e-005
,,,-4.56000000e-008,-1.23124959e-004
,,,-4.54000000e-008,-9.84374581e-005
,,,-4.52000000e-008,-3.68749552e-005
,,,-4.50000000e-008,8.75000507e-005
,,,-4.48000000e-008,1.32500053e-004
,,,-4.46000000e-008,1.25312553e-004
,,,-4.44000000e-008,6.50000497e-005
,,,-4.42000000e-008,2.12500476e-005
,,,-4.40000000e-008,-3.37499550e-005
,,,-4.38000000e-008,-7.31249569e-005
,,,-4.36000000e-008,-2.56249547e-005
,,,-4.34000000e-008,-3.15624549e-005
,,,-4.32000000e-008,5.93754685e-006
,,,-4.30000000e-008,5.90625494e-005
,,,-4.28000000e-008,6.96875499e-005
,,,-4.26000000e-008,7.12500500e-005
,,,-4.24000000e-008,6.03125494e-005
,,,-4.22000000e-008,5.09375490e-005
,,,-4.20000000e-008,1.65625474e-005
,,,-4.18000000e-008,-3.12453449e-007
,,,-4.16000000e-008,-3.59374551e-005
,,,-4.14000000e-008,-3.43749551e-005
,,,-4.12000000e-008,-1.06249539e-005
,,,-4.10000000e-008,3.18750481e-005
,,,-4.08000000e-008,1.40625053e-004
,,,-4.06000000e-008,1.50000054e-004
,,,-4.04000000e-008,1.11875052e-004
,,,-4.02000000e-008,2.78125479e-005
,,,-4.00000000e-008,-5.37499560e-005
,,,-3.98000000e-008,-9.62499580e-005
,,,-3.96000000e-008,-1.07812459e-004
,,,-3.94000000e-008,-6.99999568e-005
,,,-3.92000000e-008,2.31250477e-005
,,,-3.90000000e-008,8.21875505e-005
,,,-3.88000000e-008,1.50937554e-004
,,,-3.86000000e-008,1.59687554e-004
,,,-3.84000000e-008,9.68750512e-005
,,,-3.82000000e-008,-2.43749546e-005
,,,-3.80000000e-008,-1.20312459e-004
,,,-3.78000000e-008,-1.40624960e-004
,,,-3.76000000e-008,-1.29687460e-004
,,,-3.74000000e-008,4.65661288e-011
,,,-3.72000000e-008,1.13437552e-004
,,,-3.70000000e-008,1.96875056e-004
,,,-3.68000000e-008,2.17187557e-004
,,,-3.66000000e-008,1.73750055e-004
,,,-3.64000000e-008,3.96875485e-005
,,,-3.62000000e-008,-9.15624578e-005
,,,-3.60000000e-008,-1.75937462e-004
,,,-3.58000000e-008,-1.69687461e-004
,,,-3.56000000e-008,-5.21874559e-005
,,,-3.54000000e-008,9.09375509e-005
,,,-3.52000000e-008,1.95312556e-004
,,,-3.50000000e-008,2.16875057e-004
,,,-3.48000000e-008,1.68125055e-004
,,,-3.46000000e-008,4.56250487e-005
,,,-3.44000000e-008,-6.12499563e-005
,,,-3.42000000e-008,-1.35312460e-004
,,,-3.40000000e-008,-1.73437462e-004
,,,-3.38000000e-008,-1.17187459e-004
,,,-3.36000000e-008,1.21875471e-005
,,,-3.34000000e-008,1.01562551e-004
,,,-3.32000000e-008,1.86562555e-004
,,,-3.30000000e-008,1.81562555e-004
,,,-3.28000000e-008,1.04062552e-004
,,,-3.26000000e-008,1.12500471e-005
,,,-3.24000000e-008,-5.81249562e-005
,,,-3.22000000e-008,-8.74999576e-005
,,,-3.20000000e-008,-6.43749565e-005
,,,-3.18000000e-008,-8.43745383e-006
,,,-3.16000000e-008,4.31250486e-005
,,,-3.14000000e-008,7.28125500e-005
,,,-3.12000000e-008,1.27187553e-004
,,,-3.10000000e-008,1.11875052e-004
,,,-3.08000000e-008,8.28125505e-005
,,,-3.06000000e-008,2.50004668e-006
,,,-3.04000000e-008,-7.21874569e-005
,,,-3.02000000e-008,-7.15624568e-005
,,,-3.00000000e-008,-5.74999562e-005
,,,-2.98000000e-008,-5.31245369e-006
,,,-2.96000000e-008,4.59375487e-005
,,,-2.94000000e-008,5.34375491e-005
,,,-2.92000000e-008,8.43750506e-005
,,,-2.90000000e-008,1.08125052e-004
,,,-2.88000000e-008,5.53125492e-005
,,,-2.86000000e-008,2.50004668e-006
,,,-2.84000000e-008,-4.84374557e-005
,,,-2.82000000e-008,-7.31249569e-005
,,,-2.80000000e-008,-3.65624552e-005
,,,-2.78000000e-008,3.09375480e-005
,,,-2.76000000e-008,1.04375052e-004
,,,-2.74000000e-008,1.13437552e-004
,,,-2.72000000e-008,1.12812552e-004
,,,-2.70000000e-008,7.06250499e-005
,,,-2.68000000e-008,9.68754703e-006
,,,-2.66000000e-008,-2.46874546e-005
,,,-2.64000000e-008,-6.28124564e-005
,,,-2.62000000e-008,-7.15624568e-005
,,,-2.60000000e-008,-2.12499544e-005
,,,-2.58000000e-008,7.37500501e-005
,,,-2.56000000e-008,1.21250052e-004
,,,-2.54000000e-008,1.36250053e-004
,,,-2.52000000e-008,9.21875509e-005
,,,-2.50000000e-008,9.37504701e-006
,,,-2.48000000e-008,-7.12499568e-005
,,,-2.46000000e-008,-9.09374578e-005
,,,-2.44000000e-008,-7.68749571e-005
,,,-2.42000000e-008,-3.65624552e-005
,,,-2.40000000e-008,5.56250492e-005
,,,-2.38000000e-008,1.24375052e-004
,,,-2.36000000e-008,1.60312554e-004
,,,-2.34000000e-008,1.35312553e-004
,,,-2.32000000e-008,4.87500489e-005
,,,-2.30000000e-008,-3.09374549e-005
,,,-2.28000000e-008,-9.96874582e-005
,,,-2.26000000e-008,-7.53124570e-005
,,,-2.24000000e-008,-2.81249548e-005
,,,-2.22000000e-008,5.37500491e-005
,,,-2.20000000e-008,1.52187554e-004
,,,-2.18000000e-008,1.50937554e-004
,,,-2.16000000e-008,1.27500053e-004
,,,-2.14000000e-008,8.78125507e-005
,,,-2.12000000e-008,3.75004674e-006
,,,-2.10000000e-008,-8.62499575e-005
,,,-2.08000000e-008,-1.17812459e-004
,,,-2.06000000e-008,-9.37499579e-005
,,,-2.04000000e-008,9.68754703e-006
,,,-2.02000000e-008,9.59375511e-005
,,,-2.00000000e-008,1.43750053e-004
,,,-1.98000000e-008,1.04062552e-004
,,,-1.96000000e-008,5.18750490e-005
,,,-1.94000000e-008,1.15625471e-005
,,,-1.92000000e-008,-5.49999560e-005
,,,-1.90000000e-008,-7.09374568e-005
,,,-1.88000000e-008,-4.99999558e-005
,,,-1.86000000e-008,-5.93745372e-006
,,,-1.84000000e-008,7.59375502e-005
,,,-1.82000000e-008,1.19062552e-004
,,,-1.80000000e-008,9.21875509e-005
,,,-1.78000000e-008,2.75000479e-005
,,,-1.76000000e-008,-7.18745378e-006
,,,-1.74000000e-008,-4.34374555e-005
,,,-1.72000000e-008,-9.99995391e-006
,,,-1.70000000e-008,3.28125481e-005
,,,-1.68000000e-008,5.87500494e-005
,,,-1.66000000e-008,5.84375493e-005
,,,-1.64000000e-008,7.25000500e-005
,,,-1.62000000e-008,5.06250490e-005
,,,-1.60000000e-008,1.78125474e-005
,,,-1.58000000e-008,-1.90624543e-005
,,,-1.56000000e-008,-2.90624548e-005
,,,-1.54000000e-008,-6.03124563e-005
,,,-1.52000000e-008,4.37504677e-006
,,,-1.50000000e-008,5.03125490e-005
,,,-1.48000000e-008,8.68750507e-005
,,,-1.46000000e-008,7.15625500e-005
,,,-1.44000000e-008,2.59375478e-005
,,,-1.42000000e-008,-1.03124539e-005
,,,-1.40000000e-008,-3.31249550e-005
,,,-1.38000000e-008,-2.74999547e-005
,,,-1.36000000e-008,-9.68745389e-006
,,,-1.34000000e-008,1.56254664e-006
,,,-1.32000000e-008,4.71875488e-005
,,,-1.30000000e-008,5.25000491e-005
,,,-1.28000000e-008,7.93750503e-005
,,,-1.26000000e-008,6.71875498e-005
,,,-1.24000000e-008,5.81250493e-005
,,,-1.22000000e-008,1.65625474e-005
,,,-1.20000000e-008,6.25046596e-007
,,,-1.18000000e-008,2.84375479e-005
,,,-1.16000000e-008,2.09375476e-005
,,,-1.14000000e-008,-4.68745366e-006
,,,-1.12000000e-008,-9.37453478e-007
,,,-1.10000000e-008,-1.49999541e-005
,,,-1.08000000e-008,2.03125475e-005
,,,-1.06000000e-008,7.53125501e-005
,,,-1.04000000e-008,9.18750509e-005
,,,-1.02000000e-008,6.50000497e-005
,,,-1.00000000e-008,3.31250481e-005
,,,-9.80000000e-009,-4.59374556e-005
,,,-9.60000000e-009,-5.03124558e-005
,,,-9.40000000e-009,-8.62499575e-005
,,,-9.20000000e-009,-4.09374554e-005
,,,-9.00000000e-009,1.03125471e-005
,,,-8.80000000e-009,5.81250493e-005
,,,-8.60000000e-009,1.22812552e-004
,,,-8.40000000e-009,1.15625052e-004
,,,-8.20000000e-009,7.65625502e-005
,,,-8.00000000e-009,-2.49995355e-006
,,,-7.80000000e-009,-6.65624566e-005
,,,-7.60000000e-009,-8.15624573e-005
,,,-7.40000000e-009,-6.43749565e-005
,,,-7.20000000e-009,2.18750476e-005
,,,-7.00000000e-009,6.25000495e-005
,,,-6.80000000e-009,9.84375512e-005
,,,-6.60000000e-009,1.28437553e-004
,,,-6.40000000e-009,8.56250506e-005
,,,-6.20000000e-009,3.62500483e-005
,,,-6.00000000e-009,-3.90624553e-005
,,,-5.80000000e-009,-1.06562458e-004
,,,-5.60000000e-009,-1.05312458e-004
,,,-5.40000000e-009,-5.78124562e-005
,,,-5.20000000e-009,2.59375478e-005
,,,-5.00000000e-009,7.53125501e-005
,,,-4.80000000e-009,9.21875509e-005
,,,-4.60000000e-009,6.03125494e-005
,,,-4.40000000e-009,6.25004686e-006
,,,-4.20000000e-009,-3.46874551e-005
,,,-4.00000000e-009,-5.74999562e-005
,,,-3.80000000e-009,-8.96874577e-005
,,,-3.60000000e-009,-4.24999555e-005
,,,-3.40000000e-009,2.81254670e-006
,,,-3.20000000e-009,6.59375497e-005
,,,-3.00000000e-009,8.62500507e-005
,,,-2.80000000e-009,6.84375498e-005
,,,-2.60000000e-009,1.65625474e-005
,,,-2.40000000e-009,-1.68749542e-005
,,,-2.20000000e-009,-6.46874565e-005
,,,-2.00000000e-009,-3.96874553e-005
,,,-1.80000000e-009,-3.90624553e-005
,,,-1.60000000e-009,1.87504666e-006
,,,-1.40000000e-009,2.28125476e-005
,,,-1.20000000e-009,5.43750491e-005
,,,-1.00000000e-009,6.65625497e-005
,,,-8.00000000e-010,4.31250486e-005
,,,-6.00000000e-010,-1.56245351e-006
,,,-4.00000000e-010,-5.65624561e-005
,,,-2.00000000e-010,-8.74999576e-005
,,,0.00000000e+000,-7.09374568e-005
,,,2.00000000e-010,-2.62499547e-005
,,,4.00000000e-010,1.37500472e-005
,,,6.00000000e-010,3.03125480e-005
,,,8.00000000e-010,4.81250489e-005
,,,1.00000000e-009,5.90625494e-005
,,,1.20000000e-009,4.53125487e-005
,,,1.40000000e-009,4.28125486e-005
,,,1.60000000e-009,-2.12499544e-005
,,,1.80000000e-009,-7.34374569e-005
,,,2.00000000e-009,-6.84374567e-005
,,,2.20000000e-009,-3.71874552e-005
,,,2.40000000e-009,4.65661288e-011
,,,2.60000000e-009,4.46875487e-005
,,,2.80000000e-009,5.28125491e-005
,,,3.00000000e-009,7.03125499e-005
,,,3.20000000e-009,8.68750507e-005
,,,3.40000000e-009,4.65625488e-005
,,,3.60000000e-009,-2.46874546e-005
,,,3.80000000e-009,-7.56249570e-005
,,,4.00000000e-009,-8.71874576e-005
,,,4.20000000e-009,-6.71874566e-005
,,,4.40000000e-009,7.81254694e-006
,,,4.60000000e-009,9.09375509e-005
,,,4.80000000e-009,8.93750508e-005
,,,5.00000000e-009,9.68750512e-005
,,,5.20000000e-009,8.25000505e-005
,,,5.40000000e-009,2.06250475e-005
,,,5.60000000e-009,-2.65624547e-005
,,,5.80000000e-009,-5.84374562e-005
,,,6.00000000e-009,-6.68749566e-005
,,,6.20000000e-009,-4.12499554e-005
,,,6.40000000e-009,2.37500477e-005
,,,6.60000000e-009,1.00625051e-004
,,,6.80000000e-009,1.03125051e-004
,,,7.00000000e-009,1.06250052e-004
,,,7.20000000e-009,6.96875499e-005
,,,7.40000000e-009,1.40625472e-005
,,,7.60000000e-009,-1.03124539e-005
,,,7.80000000e-009,-3.56249551e-005
,,,8.00000000e-009,-4.65624556e-005
,,,8.20000000e-009,-1.87499543e-005
