Data/20220819/UCLA_to_R2A_VPOL_E_NEG40_01_Math1.csv

"Record Length",3200,"Points",0.00000000e+000,-9.15166378e+000
"Sample Interval",7.81250000e+005,Hz,7.81250000e+005,-1.48582525e+001
"Trigger Point",0,"Samples",1.56250000e+006,-1.71526451e+001
"Trigger Time",0.00000000e+000,Hz,2.34375000e+006,-2.15705967e+001
"",,,3.12500000e+006,-3.13142090e+001
"Horizontal Offset",0.00000000e+000,Hz,3.90625000e+006,-3.58304939e+001
,,,4.68750000e+006,-2.80604630e+001
,,,5.46875000e+006,-2.76679363e+001
,,,6.25000000e+006,-3.23683624e+001
,,,7.03125000e+006,-5.10424538e+001
,,,7.81250000e+006,-3.62604332e+001
,,,8.59375000e+006,-3.21750603e+001
,,,9.37500000e+006,-3.31876793e+001
,,,1.01562500e+007,-4.03365479e+001
,,,1.09375000e+007,-5.01432343e+001
,,,1.17187500e+007,-3.64722519e+001
,,,1.25000000e+007,-3.50131378e+001
,,,1.32812500e+007,-3.82004776e+001
,,,1.40625000e+007,-4.94479370e+001
,,,1.48437500e+007,-4.36351776e+001
,,,1.56250000e+007,-3.77458000e+001
,,,1.64062500e+007,-3.73559608e+001
,,,1.71875000e+007,-4.25351791e+001
,,,1.79687500e+007,-5.42312622e+001
,,,1.87500000e+007,-4.18849335e+001
,,,1.95312500e+007,-3.88456345e+001
,,,2.03125000e+007,-4.07684555e+001
,,,2.10937500e+007,-5.01484680e+001
,,,2.18750000e+007,-4.78584938e+001
,,,2.26562500e+007,-4.09089661e+001
,,,2.34375000e+007,-4.04694519e+001
,,,2.42187500e+007,-4.63557968e+001
,,,2.50000000e+007,-7.78549042e+001
,,,2.57812500e+007,-4.56212082e+001
,,,2.65625000e+007,-4.20985603e+001
,,,2.73437500e+007,-4.30886803e+001
,,,2.81250000e+007,-4.88370667e+001
,,,2.89062500e+007,-5.09900665e+001
,,,2.96875000e+007,-4.52131729e+001
,,,3.04687500e+007,-4.23726501e+001
,,,3.12500000e+007,-4.63415451e+001
,,,3.20312500e+007,-5.96104774e+001
,,,3.28125000e+007,-4.83399925e+001
,,,3.35937500e+007,-4.37175102e+001
,,,3.43750000e+007,-4.48687363e+001
,,,3.51562500e+007,-5.10986252e+001
,,,3.59375000e+007,-6.27633858e+001
,,,3.67187500e+007,-4.65262756e+001
,,,3.75000000e+007,-4.39381752e+001
,,,3.82812500e+007,-4.75433884e+001
,,,3.90625000e+007,-5.67470932e+001
,,,3.98437500e+007,-4.97066917e+001
,,,4.06250000e+007,-4.68463173e+001
,,,4.14062500e+007,-4.62366753e+001
,,,4.21875000e+007,-4.89357719e+001
,,,4.29687500e+007,-6.07045937e+001
,,,4.37500000e+007,-5.01342812e+001
,,,4.45312500e+007,-4.54648552e+001
,,,4.53125000e+007,-4.74584274e+001
,,,4.60937500e+007,-5.98187943e+001
,,,4.68750000e+007,-5.63217697e+001
,,,4.76562500e+007,-4.74996681e+001
,,,4.84375000e+007,-4.66493263e+001
,,,4.92187500e+007,-5.08405457e+001
,,,5.00000000e+007,-6.84548874e+001
,,,5.07812500e+007,-4.91843987e+001
,,,5.15625000e+007,-4.80211678e+001
,,,5.23437500e+007,-4.80240822e+001
,,,5.31250000e+007,-5.73857880e+001
,,,5.39062500e+007,-5.62681656e+001
,,,5.46875000e+007,-4.90414047e+001
,,,5.54687500e+007,-5.00344849e+001
,,,5.62500000e+007,-5.12722816e+001
,,,5.70312500e+007,-5.75598412e+001
,,,5.78125000e+007,-5.37326775e+001
,,,5.85937500e+007,-4.93051109e+001
,,,5.93750000e+007,-4.82037163e+001
,,,6.01562500e+007,-5.39717293e+001
,,,6.09375000e+007,-6.52617111e+001
,,,6.17187500e+007,-4.93482475e+001
,,,6.25000000e+007,-5.07900124e+001
,,,6.32812500e+007,-5.00293694e+001
,,,6.40625000e+007,-5.86575546e+001
,,,6.48437500e+007,-5.40240822e+001
,,,6.56250000e+007,-5.00425186e+001
,,,6.64062500e+007,-4.84348488e+001
,,,6.71875000e+007,-5.78368263e+001
,,,6.79687500e+007,-7.68276596e+001
,,,6.87500000e+007,-5.10868645e+001
,,,6.95312500e+007,-5.01857834e+001
,,,7.03125000e+007,-5.24848328e+001
,,,7.10937500e+007,-5.78753853e+001
,,,7.18750000e+007,-5.99423103e+001
,,,7.26562500e+007,-4.99925728e+001
,,,7.34375000e+007,-4.98771133e+001
,,,7.42187500e+007,-5.46807556e+001
,,,7.50000000e+007,-6.37964630e+001
,,,7.57812500e+007,-5.37400818e+001
,,,7.65625000e+007,-5.14134521e+001
,,,7.73437500e+007,-5.06363220e+001
,,,7.81250000e+007,-7.78069153e+001
,,,7.89062500e+007,-7.76367416e+001
,,,7.96875000e+007,-5.09840584e+001
,,,8.04687500e+007,-5.12843246e+001
,,,8.12500000e+007,-5.51884499e+001
,,,8.20312500e+007,-6.76903839e+001
,,,8.28125000e+007,-5.50546532e+001
,,,8.35937500e+007,-5.29848824e+001
,,,8.43750000e+007,-5.16178017e+001
,,,8.51562500e+007,-5.83581581e+001
,,,8.59375000e+007,-6.11267509e+001
,,,8.67187500e+007,-5.47236977e+001
,,,8.75000000e+007,-5.14234352e+001
,,,8.82812500e+007,-5.74220047e+001
,,,8.90625000e+007,-6.03167458e+001
,,,8.98437500e+007,-6.06100311e+001
,,,9.06250000e+007,-5.29561272e+001
,,,9.14062500e+007,-5.04423141e+001
,,,9.21875000e+007,-6.13253517e+001
,,,9.29687500e+007,-6.30932808e+001
,,,9.37500000e+007,-5.45522041e+001
,,,9.45312500e+007,-5.34846001e+001
,,,9.53125000e+007,-5.51507988e+001
,,,9.60937500e+007,-5.74300804e+001
,,,9.68750000e+007,-7.46357117e+001
,,,9.76562500e+007,-5.24486008e+001
,,,9.84375000e+007,-5.04719696e+001
,,,9.92187500e+007,-5.74558449e+001
,,,1.00000000e+008,-5.89807129e+001
,,,1.00781250e+008,-5.93217545e+001
,,,1.01562500e+008,-5.61452751e+001
,,,1.02343750e+008,-5.26695175e+001
,,,1.03125000e+008,-6.03785095e+001
,,,1.03906250e+008,-6.19202766e+001
,,,1.04687500e+008,-5.78797951e+001
,,,1.05468750e+008,-5.32807655e+001
,,,1.06250000e+008,-5.45818062e+001
,,,1.07031250e+008,-7.11025391e+001
,,,1.07812500e+008,-7.46790009e+001
,,,1.08593750e+008,-5.30716553e+001
,,,1.09375000e+008,-5.37847977e+001
,,,1.10156250e+008,-5.55237885e+001
,,,1.10937500e+008,-5.86138916e+001
,,,1.11718750e+008,-5.26769562e+001
,,,1.12500000e+008,-6.79234695e+001
,,,1.13281250e+008,-4.89172020e+001
,,,1.14062500e+008,-6.74518814e+001
,,,1.14843750e+008,-5.48957520e+001
,,,1.15625000e+008,-5.71850700e+001
,,,1.16406250e+008,-5.22717667e+001
,,,1.17187500e+008,-5.62546196e+001
,,,1.17968750e+008,-6.42062225e+001
,,,1.18750000e+008,-6.14731331e+001
,,,1.19531250e+008,-5.22400093e+001
,,,1.20312500e+008,-5.59299011e+001
,,,1.21093750e+008,-5.83942528e+001
,,,1.21875000e+008,-5.97561913e+001
,,,1.22656250e+008,-5.74900017e+001
,,,1.23437500e+008,-5.55889282e+001
,,,1.24218750e+008,-5.44043846e+001
,,,1.25000000e+008,-6.23603859e+001
,,,1.25781250e+008,-5.64510345e+001
,,,1.26562500e+008,-5.33782310e+001
,,,1.27343750e+008,-5.15966415e+001
,,,1.28125000e+008,-7.04741135e+001
,,,1.28906250e+008,-5.58956604e+001
,,,1.29687500e+008,-4.83341980e+001
,,,1.30468750e+008,-4.61164131e+001
,,,1.31250000e+008,-5.21261597e+001
,,,1.32031250e+008,-5.20261536e+001
,,,1.32812500e+008,-5.53290977e+001
,,,1.33593750e+008,-5.07862587e+001
,,,1.34375000e+008,-7.00285187e+001
,,,1.35156250e+008,-5.61042900e+001
,,,1.35937500e+008,-6.19259987e+001
,,,1.36718750e+008,-5.76245422e+001
,,,1.37500000e+008,-5.92516975e+001
,,,1.38281250e+008,-5.35082817e+001
,,,1.39062500e+008,-6.49353333e+001
,,,1.39843750e+008,-6.08451385e+001
,,,1.40625000e+008,-5.98493652e+001
,,,1.41406250e+008,-5.16445313e+001
,,,1.42187500e+008,-6.04826469e+001
,,,1.42968750e+008,-6.27202034e+001
,,,1.43750000e+008,-5.46120338e+001
,,,1.44531250e+008,-5.89100418e+001
,,,1.45312500e+008,-5.03579597e+001
,,,1.46093750e+008,-5.74993744e+001
,,,1.46875000e+008,-5.36853523e+001
,,,1.47656250e+008,-5.15494919e+001
,,,1.48437500e+008,-4.25323105e+001
,,,1.49218750e+008,-4.20124741e+001
,,,1.50000000e+008,-4.19758492e+001
,,,1.50781250e+008,-4.46460915e+001
,,,1.51562500e+008,-4.98244400e+001
,,,1.52343750e+008,-4.97863426e+001
,,,1.53125000e+008,-5.46846199e+001
,,,1.53906250e+008,-5.51838036e+001
,,,1.54687500e+008,-4.84156456e+001
,,,1.55468750e+008,-5.27275963e+001
,,,1.56250000e+008,-5.24265060e+001
,,,1.57031250e+008,-5.24043503e+001
,,,1.57812500e+008,-5.01526909e+001
,,,1.58593750e+008,-6.94590530e+001
,,,1.59375000e+008,-5.15851784e+001
,,,1.60156250e+008,-5.20736198e+001
,,,1.60937500e+008,-5.00597191e+001
,,,1.61718750e+008,-5.38902092e+001
,,,1.62500000e+008,-4.52746315e+001
,,,1.63281250e+008,-5.04651756e+001
,,,1.64062500e+008,-4.74157219e+001
,,,1.64843750e+008,-4.34199524e+001
,,,1.65625000e+008,-3.90979424e+001
,,,1.66406250e+008,-3.77137299e+001
,,,1.67187500e+008,-3.72022858e+001
,,,1.67968750e+008,-3.86778641e+001
,,,1.68750000e+008,-4.03697739e+001
,,,1.69531250e+008,-4.37976189e+001
,,,1.70312500e+008,-4.18012123e+001
,,,1.71093750e+008,-4.28616219e+001
,,,1.71875000e+008,-4.31693192e+001
,,,1.72656250e+008,-4.60597382e+001
,,,1.73437500e+008,-4.30449028e+001
,,,1.74218750e+008,-4.39804764e+001
,,,1.75000000e+008,-4.45377350e+001
,,,1.75781250e+008,-4.70979729e+001
,,,1.76562500e+008,-4.79601326e+001
,,,1.77343750e+008,-5.39413185e+001
,,,1.78125000e+008,-5.10888062e+001
,,,1.78906250e+008,-5.13193130e+001
,,,1.79687500e+008,-4.68305359e+001
,,,1.80468750e+008,-4.58527412e+001
,,,1.81250000e+008,-4.22567558e+001
,,,1.82031250e+008,-4.28293343e+001
,,,1.82812500e+008,-4.29356880e+001
,,,1.83593750e+008,-4.42420044e+001
,,,1.84375000e+008,-4.20685425e+001
,,,1.85156250e+008,-4.82872658e+001
,,,1.85937500e+008,-5.42169991e+001
,,,1.86718750e+008,-4.76665802e+001
,,,1.87500000e+008,-4.37867165e+001
,,,1.88281250e+008,-4.38901749e+001
,,,1.89062500e+008,-4.24015427e+001
,,,1.89843750e+008,-4.33388290e+001
,,,1.90625000e+008,-4.42583466e+001
,,,1.91406250e+008,-4.37644234e+001
,,,1.92187500e+008,-3.98039703e+001
,,,1.92968750e+008,-3.84972916e+001
,,,1.93750000e+008,-3.74577827e+001
,,,1.94531250e+008,-3.92767906e+001
,,,1.95312500e+008,-3.97811279e+001
,,,1.96093750e+008,-3.95532990e+001
,,,1.96875000e+008,-3.78847313e+001
,,,1.97656250e+008,-3.66542969e+001
,,,1.98437500e+008,-3.69853897e+001
,,,1.99218750e+008,-3.83736610e+001
,,,2.00000000e+008,-3.71977463e+001
,,,2.00781250e+008,-3.73890991e+001
,,,2.01562500e+008,-3.69111443e+001
,,,2.02343750e+008,-3.81297188e+001
,,,2.03125000e+008,-3.86145477e+001
,,,2.03906250e+008,-4.02321358e+001
,,,2.04687500e+008,-4.09188538e+001
,,,2.05468750e+008,-3.82466927e+001
,,,2.06250000e+008,-3.62240181e+001
,,,2.07031250e+008,-3.71267014e+001
,,,2.07812500e+008,-3.67014084e+001
,,,2.08593750e+008,-3.77176514e+001
,,,2.09375000e+008,-4.06424713e+001
,,,2.10156250e+008,-4.04779587e+001
,,,2.10937500e+008,-3.79265022e+001
,,,2.11718750e+008,-3.57931862e+001
,,,2.12500000e+008,-3.54390717e+001
,,,2.13281250e+008,-3.61006165e+001
,,,2.14062500e+008,-3.65477982e+001
,,,2.14843750e+008,-3.62000160e+001
,,,2.15625000e+008,-3.58786964e+001
,,,2.16406250e+008,-3.41719093e+001
,,,2.17187500e+008,-3.28709106e+001
,,,2.17968750e+008,-3.22888145e+001
,,,2.18750000e+008,-3.25793419e+001
,,,2.19531250e+008,-3.35599861e+001
,,,2.20312500e+008,-3.53836555e+001
,,,2.21093750e+008,-3.44772682e+001
,,,2.21875000e+008,-3.32000580e+001
,,,2.22656250e+008,-3.27303619e+001
,,,2.23437500e+008,-3.36489182e+001
,,,2.24218750e+008,-3.23327980e+001
,,,2.25000000e+008,-3.07455616e+001
,,,2.25781250e+008,-3.00958710e+001
,,,2.26562500e+008,-3.04200897e+001
,,,2.27343750e+008,-2.97997513e+001
,,,2.28125000e+008,-3.01148129e+001
,,,2.28906250e+008,-3.03710308e+001
,,,2.29687500e+008,-3.17292080e+001
,,,2.30468750e+008,-3.13773346e+001
,,,2.31250000e+008,-3.04911327e+001
,,,2.32031250e+008,-2.93839054e+001
,,,2.32812500e+008,-2.93231449e+001
,,,2.33593750e+008,-2.93933792e+001
,,,2.34375000e+008,-3.02441120e+001
,,,2.35156250e+008,-2.94808788e+001
,,,2.35937500e+008,-2.86918125e+001
,,,2.36718750e+008,-2.81977158e+001
,,,2.37500000e+008,-2.75077000e+001
,,,2.38281250e+008,-2.64053135e+001
,,,2.39062500e+008,-2.62663689e+001
,,,2.39843750e+008,-2.71369228e+001
,,,2.40625000e+008,-2.77818642e+001
,,,2.41406250e+008,-2.68128586e+001
,,,2.42187500e+008,-2.75480499e+001
,,,2.42968750e+008,-2.92856960e+001
,,,2.43750000e+008,-3.05968246e+001
,,,2.44531250e+008,-2.93241901e+001
,,,2.45312500e+008,-2.94064903e+001
,,,2.46093750e+008,-2.86697502e+001
,,,2.46875000e+008,-2.75769005e+001
,,,2.47656250e+008,-2.69037247e+001
,,,2.48437500e+008,-2.79724598e+001
,,,2.49218750e+008,-2.79488926e+001
,,,2.50000000e+008,-2.73044834e+001
,,,2.50781250e+008,-2.72819080e+001
,,,2.51562500e+008,-2.86041412e+001
,,,2.52343750e+008,-2.74505901e+001
,,,2.53125000e+008,-2.60852127e+001
,,,2.53906250e+008,-2.54666615e+001
,,,2.54687500e+008,-2.59426270e+001
,,,2.55468750e+008,-2.60482349e+001
,,,2.56250000e+008,-2.60918941e+001
,,,2.57031250e+008,-2.60656433e+001
,,,2.57812500e+008,-2.56902332e+001
,,,2.58593750e+008,-2.45350494e+001
,,,2.59375000e+008,-2.36180553e+001
,,,2.60156250e+008,-2.30018005e+001
,,,2.60937500e+008,-2.30275116e+001
,,,2.61718750e+008,-2.34897499e+001
,,,2.62500000e+008,-2.44765148e+001
,,,2.63281250e+008,-2.45818939e+001
,,,2.64062500e+008,-2.41390800e+001
,,,2.64843750e+008,-2.39096279e+001
,,,2.65625000e+008,-2.47033615e+001
,,,2.66406250e+008,-2.49370098e+001
,,,2.67187500e+008,-2.44277420e+001
,,,2.67968750e+008,-2.40264111e+001
,,,2.68750000e+008,-2.45734615e+001
,,,2.69531250e+008,-2.49123001e+001
,,,2.70312500e+008,-2.40172825e+001
,,,2.71093750e+008,-2.26663055e+001
,,,2.71875000e+008,-2.21039219e+001
,,,2.72656250e+008,-2.20939102e+001
,,,2.73437500e+008,-2.22694092e+001
,,,2.74218750e+008,-2.19385834e+001
,,,2.75000000e+008,-2.23661270e+001
,,,2.75781250e+008,-2.32946091e+001
,,,2.76562500e+008,-2.40261097e+001
,,,2.77343750e+008,-2.38828468e+001
,,,2.78125000e+008,-2.33825035e+001
,,,2.78906250e+008,-2.28178978e+001
,,,2.79687500e+008,-2.19750366e+001
,,,2.80468750e+008,-2.19243641e+001
,,,2.81250000e+008,-2.23166313e+001
,,,2.82031250e+008,-2.28257713e+001
,,,2.82812500e+008,-2.32492867e+001
,,,2.83593750e+008,-2.34408321e+001
,,,2.84375000e+008,-2.38247032e+001
,,,2.85156250e+008,-2.35090828e+001
,,,2.85937500e+008,-2.31257668e+001
,,,2.86718750e+008,-2.30707855e+001
,,,2.87500000e+008,-2.38353329e+001
,,,2.88281250e+008,-2.42499523e+001
,,,2.89062500e+008,-2.38947258e+001
,,,2.89843750e+008,-2.35848293e+001
,,,2.90625000e+008,-2.37513828e+001
,,,2.91406250e+008,-2.41439972e+001
,,,2.92187500e+008,-2.46927280e+001
,,,2.92968750e+008,-2.51223698e+001
,,,2.93750000e+008,-2.56246452e+001
,,,2.94531250e+008,-2.62483063e+001
,,,2.95312500e+008,-2.71986599e+001
,,,2.96093750e+008,-2.79329319e+001
,,,2.96875000e+008,-2.85171185e+001
,,,2.97656250e+008,-2.87779388e+001
,,,2.98437500e+008,-2.84002113e+001
,,,2.99218750e+008,-2.69326572e+001
,,,3.00000000e+008,-2.52432842e+001
,,,3.00781250e+008,-2.42185993e+001
,,,3.01562500e+008,-2.34079018e+001
,,,3.02343750e+008,-2.27310753e+001
,,,3.03125000e+008,-2.25581799e+001
,,,3.03906250e+008,-2.26973610e+001
,,,3.04687500e+008,-2.27604008e+001
,,,3.05468750e+008,-2.28769245e+001
,,,3.06250000e+008,-2.30298729e+001
,,,3.07031250e+008,-2.35312157e+001
,,,3.07812500e+008,-2.39094715e+001
,,,3.08593750e+008,-2.37052250e+001
,,,3.09375000e+008,-2.33068504e+001
,,,3.10156250e+008,-2.26566219e+001
,,,3.10937500e+008,-2.21859436e+001
,,,3.11718750e+008,-2.26723728e+001
,,,3.12500000e+008,-2.30587139e+001
,,,3.13281250e+008,-2.27016544e+001
,,,3.14062500e+008,-2.23396206e+001
,,,3.14843750e+008,-2.29554558e+001
,,,3.15625000e+008,-2.52115459e+001
,,,3.16406250e+008,-2.77083282e+001
,,,3.17187500e+008,-2.74360104e+001
,,,3.17968750e+008,-2.63667641e+001
,,,3.18750000e+008,-2.49195118e+001
,,,3.19531250e+008,-2.42511959e+001
,,,3.20312500e+008,-2.42213230e+001
,,,3.21093750e+008,-2.49924488e+001
,,,3.21875000e+008,-2.48628273e+001
,,,3.22656250e+008,-2.49205379e+001
,,,3.23437500e+008,-2.54448776e+001
,,,3.24218750e+008,-2.72650623e+001
,,,3.25000000e+008,-2.69456940e+001
,,,3.25781250e+008,-2.57029419e+001
,,,3.26562500e+008,-2.44830437e+001
,,,3.27343750e+008,-2.39781094e+001
,,,3.28125000e+008,-2.42653942e+001
,,,3.28906250e+008,-2.60018730e+001
,,,3.29687500e+008,-2.75802174e+001
,,,3.30468750e+008,-2.63981628e+001
,,,3.31250000e+008,-2.49080830e+001
,,,3.32031250e+008,-2.46988544e+001
,,,3.32812500e+008,-2.46036129e+001
,,,3.33593750e+008,-2.38310413e+001
,,,3.34375000e+008,-2.30903091e+001
,,,3.35156250e+008,-2.36420841e+001
,,,3.35937500e+008,-2.40381889e+001
,,,3.36718750e+008,-2.46355095e+001
,,,3.37500000e+008,-2.55678482e+001
,,,3.38281250e+008,-2.65265713e+001
,,,3.39062500e+008,-2.59267693e+001
,,,3.39843750e+008,-2.48235207e+001
,,,3.40625000e+008,-2.44793797e+001
,,,3.41406250e+008,-2.47120609e+001
,,,3.42187500e+008,-2.43765984e+001
,,,3.42968750e+008,-2.41221390e+001
,,,3.43750000e+008,-2.31243763e+001
,,,3.44531250e+008,-2.14131012e+001
,,,3.45312500e+008,-1.99736385e+001
,,,3.46093750e+008,-1.93021049e+001
,,,3.46875000e+008,-1.94965992e+001
,,,3.47656250e+008,-2.01048622e+001
,,,3.48437500e+008,-2.06224728e+001
,,,3.49218750e+008,-2.10565701e+001
,,,3.50000000e+008,-2.12633438e+001
,,,3.50781250e+008,-2.17863808e+001
,,,3.51562500e+008,-2.26294937e+001
,,,3.52343750e+008,-2.34331055e+001
,,,3.53125000e+008,-2.38567524e+001
,,,3.53906250e+008,-2.46658649e+001
,,,3.54687500e+008,-2.54651947e+001
,,,3.55468750e+008,-2.59154797e+001
,,,3.56250000e+008,-2.54719200e+001
,,,3.57031250e+008,-2.50633907e+001
,,,3.57812500e+008,-2.49555950e+001
,,,3.58593750e+008,-2.46721878e+001
,,,3.59375000e+008,-2.42682838e+001
,,,3.60156250e+008,-2.42237644e+001
,,,3.60937500e+008,-2.40592422e+001
,,,3.61718750e+008,-2.41499100e+001
,,,3.62500000e+008,-2.41453571e+001
,,,3.63281250e+008,-2.41110783e+001
,,,3.64062500e+008,-2.47647724e+001
,,,3.64843750e+008,-2.56217766e+001
,,,3.65625000e+008,-2.51335812e+001
,,,3.66406250e+008,-2.37751217e+001
,,,3.67187500e+008,-2.27899914e+001
,,,3.67968750e+008,-2.26795139e+001
,,,3.68750000e+008,-2.30899754e+001
,,,3.69531250e+008,-2.35714970e+001
,,,3.70312500e+008,-2.42413445e+001
,,,3.71093750e+008,-2.53836880e+001
,,,3.71875000e+008,-2.65417233e+001
,,,3.72656250e+008,-2.69651890e+001
,,,3.73437500e+008,-2.65132332e+001
,,,3.74218750e+008,-2.57278099e+001
,,,3.75000000e+008,-2.58162327e+001
,,,3.75781250e+008,-2.58868694e+001
,,,3.76562500e+008,-2.64119663e+001
,,,3.77343750e+008,-2.70969162e+001
,,,3.78125000e+008,-2.85992699e+001
,,,3.78906250e+008,-2.83342400e+001
,,,3.79687500e+008,-2.56999683e+001
,,,3.80468750e+008,-2.32467346e+001
,,,3.81250000e+008,-2.23107262e+001
,,,3.82031250e+008,-2.18383274e+001
,,,3.82812500e+008,-2.14829807e+001
,,,3.83593750e+008,-2.09123116e+001
,,,3.84375000e+008,-2.08055115e+001
,,,3.85156250e+008,-2.11345997e+001
,,,3.85937500e+008,-2.16036358e+001
,,,3.86718750e+008,-2.17157631e+001
,,,3.87500000e+008,-2.20378609e+001
,,,3.88281250e+008,-2.22257118e+001
,,,3.89062500e+008,-2.24469700e+001
,,,3.89843750e+008,-2.22801151e+001
,,,3.90625000e+008,-2.26019192e+001
,,,3.91406250e+008,-2.30359898e+001
,,,3.92187500e+008,-2.34863758e+001
,,,3.92968750e+008,-2.32858067e+001
,,,3.93750000e+008,-2.32190075e+001
,,,3.94531250e+008,-2.35114269e+001
,,,3.95312500e+008,-2.41918468e+001
,,,3.96093750e+008,-2.39503365e+001
,,,3.96875000e+008,-2.31497173e+001
,,,3.97656250e+008,-2.21066017e+001
,,,3.98437500e+008,-2.15757580e+001
,,,3.99218750e+008,-2.11675243e+001
,,,4.00000000e+008,-2.10083122e+001
,,,4.00781250e+008,-2.09196815e+001
,,,4.01562500e+008,-2.10097275e+001
,,,4.02343750e+008,-2.12436771e+001
,,,4.03125000e+008,-2.17283249e+001
,,,4.03906250e+008,-2.20425415e+001
,,,4.04687500e+008,-2.25250282e+001
,,,4.05468750e+008,-2.27592278e+001
,,,4.06250000e+008,-2.30454826e+001
,,,4.07031250e+008,-2.30216484e+001
,,,4.07812500e+008,-2.32253590e+001
,,,4.08593750e+008,-2.34917412e+001
,,,4.09375000e+008,-2.36218166e+001
,,,4.10156250e+008,-2.34132977e+001
,,,4.10937500e+008,-2.38723621e+001
,,,4.11718750e+008,-2.40846081e+001
,,,4.12500000e+008,-2.41182041e+001
,,,4.13281250e+008,-2.35365772e+001
,,,4.14062500e+008,-2.35647259e+001
,,,4.14843750e+008,-2.36534042e+001
,,,4.15625000e+008,-2.35340481e+001
,,,4.16406250e+008,-2.31800461e+001
,,,4.17187500e+008,-2.30685978e+001
,,,4.17968750e+008,-2.34508724e+001
,,,4.18750000e+008,-2.37991962e+001
,,,4.19531250e+008,-2.36639271e+001
,,,4.20312500e+008,-2.33142700e+001
,,,4.21093750e+008,-2.32697449e+001
,,,4.21875000e+008,-2.36867123e+001
,,,4.22656250e+008,-2.40782337e+001
,,,4.23437500e+008,-2.42839279e+001
,,,4.24218750e+008,-2.42002258e+001
,,,4.25000000e+008,-2.45048695e+001
,,,4.25781250e+008,-2.47366848e+001
,,,4.26562500e+008,-2.47516766e+001
,,,4.27343750e+008,-2.49005833e+001
,,,4.28125000e+008,-2.46557922e+001
,,,4.28906250e+008,-2.45850067e+001
,,,4.29687500e+008,-2.42582951e+001
