Data/20220819/UCLA_to_R2A_VPOL_E_80_01_Math1.csv

"Record Length",3200,"Points",0.00000000e+000,-1.00513926e+001
"Sample Interval",7.81250000e+005,Hz,7.81250000e+005,-1.57602949e+001
"Trigger Point",0,"Samples",1.56250000e+006,-1.80565643e+001
"Trigger Time",0.00000000e+000,Hz,2.34375000e+006,-2.24521084e+001
"",,,3.12500000e+006,-3.22526550e+001
"Horizontal Offset",0.00000000e+000,Hz,3.90625000e+006,-3.66855736e+001
,,,4.68750000e+006,-2.89949341e+001
,,,5.46875000e+006,-2.87085896e+001
,,,6.25000000e+006,-3.30268326e+001
,,,7.03125000e+006,-5.00068169e+001
,,,7.81250000e+006,-3.67610779e+001
,,,8.59375000e+006,-3.30170860e+001
,,,9.37500000e+006,-3.40422630e+001
,,,1.01562500e+007,-4.08034096e+001
,,,1.09375000e+007,-4.73397598e+001
,,,1.17187500e+007,-3.79965324e+001
,,,1.25000000e+007,-3.57487450e+001
,,,1.32812500e+007,-3.90513420e+001
,,,1.40625000e+007,-5.21912346e+001
,,,1.48437500e+007,-4.45641823e+001
,,,1.56250000e+007,-3.89222717e+001
,,,1.64062500e+007,-3.86027260e+001
,,,1.71875000e+007,-4.36259270e+001
,,,1.79687500e+007,-5.95697021e+001
,,,1.87500000e+007,-4.35112190e+001
,,,1.95312500e+007,-3.95145874e+001
,,,2.03125000e+007,-4.07975311e+001
,,,2.10937500e+007,-5.20265579e+001
,,,2.18750000e+007,-4.74474373e+001
,,,2.26562500e+007,-4.26550636e+001
,,,2.34375000e+007,-4.16077003e+001
,,,2.42187500e+007,-4.59302368e+001
,,,2.50000000e+007,-6.03805428e+001
,,,2.57812500e+007,-4.60316353e+001
,,,2.65625000e+007,-4.28816147e+001
,,,2.73437500e+007,-4.31200218e+001
,,,2.81250000e+007,-5.08426628e+001
,,,2.89062500e+007,-5.38310013e+001
,,,2.96875000e+007,-4.46284904e+001
,,,3.04687500e+007,-4.34922829e+001
,,,3.12500000e+007,-4.67472191e+001
,,,3.20312500e+007,-6.91563339e+001
,,,3.28125000e+007,-4.96593704e+001
,,,3.35937500e+007,-4.48270035e+001
,,,3.43750000e+007,-4.53081131e+001
,,,3.51562500e+007,-5.14018364e+001
,,,3.59375000e+007,-6.29133987e+001
,,,3.67187500e+007,-4.69193764e+001
,,,3.75000000e+007,-4.50530930e+001
,,,3.82812500e+007,-4.74859543e+001
,,,3.90625000e+007,-6.03950005e+001
,,,3.98437500e+007,-5.01227379e+001
,,,4.06250000e+007,-4.70201416e+001
,,,4.14062500e+007,-4.85744934e+001
,,,4.21875000e+007,-4.98808060e+001
,,,4.29687500e+007,-6.80860901e+001
,,,4.37500000e+007,-4.99678001e+001
,,,4.45312500e+007,-4.68244247e+001
,,,4.53125000e+007,-4.82772560e+001
,,,4.60937500e+007,-5.51456146e+001
,,,4.68750000e+007,-5.39507294e+001
,,,4.76562500e+007,-4.98881569e+001
,,,4.84375000e+007,-4.55621948e+001
,,,4.92187500e+007,-5.17887764e+001
,,,5.00000000e+007,-6.43300552e+001
,,,5.07812500e+007,-5.25523605e+001
,,,5.15625000e+007,-4.72510414e+001
,,,5.23437500e+007,-4.92337265e+001
,,,5.31250000e+007,-5.91318626e+001
,,,5.39062500e+007,-6.00310783e+001
,,,5.46875000e+007,-4.89311562e+001
,,,5.54687500e+007,-4.96596451e+001
,,,5.62500000e+007,-5.09328423e+001
,,,5.70312500e+007,-6.88491669e+001
,,,5.78125000e+007,-5.42994270e+001
,,,5.85937500e+007,-4.91771393e+001
,,,5.93750000e+007,-5.09973907e+001
,,,6.01562500e+007,-5.62386246e+001
,,,6.09375000e+007,-6.15961609e+001
,,,6.17187500e+007,-5.14662437e+001
,,,6.25000000e+007,-4.99236679e+001
,,,6.32812500e+007,-5.08644638e+001
,,,6.40625000e+007,-7.68889313e+001
,,,6.48437500e+007,-5.76540565e+001
,,,6.56250000e+007,-5.03034248e+001
,,,6.64062500e+007,-5.00749855e+001
,,,6.71875000e+007,-5.49968872e+001
,,,6.79687500e+007,-6.05604553e+001
,,,6.87500000e+007,-5.21598167e+001
,,,6.95312500e+007,-5.07493057e+001
,,,7.03125000e+007,-5.61487083e+001
,,,7.10937500e+007,-5.92807922e+001
,,,7.18750000e+007,-5.63658104e+001
,,,7.26562500e+007,-5.29691658e+001
,,,7.34375000e+007,-5.10608597e+001
,,,7.42187500e+007,-5.84530640e+001
,,,7.50000000e+007,-7.02074203e+001
,,,7.57812500e+007,-5.91195526e+001
,,,7.65625000e+007,-5.09442444e+001
,,,7.73437500e+007,-5.56351624e+001
,,,7.81250000e+007,-5.54345703e+001
,,,7.89062500e+007,-5.85254936e+001
,,,7.96875000e+007,-5.42258034e+001
,,,8.04687500e+007,-5.18874092e+001
,,,8.12500000e+007,-5.73471642e+001
,,,8.20312500e+007,-6.11047630e+001
,,,8.28125000e+007,-5.78609543e+001
,,,8.35937500e+007,-5.06631203e+001
,,,8.43750000e+007,-5.41602020e+001
,,,8.51562500e+007,-6.00941086e+001
,,,8.59375000e+007,-6.21875267e+001
,,,8.67187500e+007,-5.48751602e+001
,,,8.75000000e+007,-5.26504440e+001
,,,8.82812500e+007,-5.70413475e+001
,,,8.90625000e+007,-6.79126892e+001
,,,8.98437500e+007,-6.08075485e+001
,,,9.06250000e+007,-5.53113022e+001
,,,9.14062500e+007,-5.47852707e+001
,,,9.21875000e+007,-5.62735252e+001
,,,9.29687500e+007,-6.13015556e+001
,,,9.37500000e+007,-5.65191689e+001
,,,9.45312500e+007,-5.79251099e+001
,,,9.53125000e+007,-5.04798965e+001
,,,9.60937500e+007,-6.32944756e+001
,,,9.68750000e+007,-5.91940994e+001
,,,9.76562500e+007,-5.61192017e+001
,,,9.84375000e+007,-5.57536469e+001
,,,9.92187500e+007,-5.71785431e+001
,,,1.00000000e+008,-7.24235077e+001
,,,1.00781250e+008,-6.00898705e+001
,,,1.01562500e+008,-5.58423119e+001
,,,1.02343750e+008,-5.39998283e+001
,,,1.03125000e+008,-5.63250694e+001
,,,1.03906250e+008,-5.61439095e+001
,,,1.04687500e+008,-5.64931679e+001
,,,1.05468750e+008,-5.46458206e+001
,,,1.06250000e+008,-6.21389427e+001
,,,1.07031250e+008,-6.46085510e+001
,,,1.07812500e+008,-6.22410088e+001
,,,1.08593750e+008,-5.71683350e+001
,,,1.09375000e+008,-5.46502304e+001
,,,1.10156250e+008,-5.56225090e+001
,,,1.10937500e+008,-6.14360275e+001
,,,1.11718750e+008,-5.82883072e+001
,,,1.12500000e+008,-5.67677612e+001
,,,1.13281250e+008,-5.35972824e+001
,,,1.14062500e+008,-5.78954697e+001
,,,1.14843750e+008,-5.82691536e+001
,,,1.15625000e+008,-5.86731758e+001
,,,1.16406250e+008,-5.40048714e+001
,,,1.17187500e+008,-5.62681618e+001
,,,1.17968750e+008,-6.98189545e+001
,,,1.18750000e+008,-5.53964996e+001
,,,1.19531250e+008,-5.48184128e+001
,,,1.20312500e+008,-5.55504150e+001
,,,1.21093750e+008,-6.44529572e+001
,,,1.21875000e+008,-5.93969383e+001
,,,1.22656250e+008,-5.48520279e+001
,,,1.23437500e+008,-5.93401680e+001
,,,1.24218750e+008,-6.10999413e+001
,,,1.25000000e+008,-6.38572121e+001
,,,1.25781250e+008,-6.68762436e+001
,,,1.26562500e+008,-5.68226471e+001
,,,1.27343750e+008,-5.31722755e+001
,,,1.28125000e+008,-7.38231735e+001
,,,1.28906250e+008,-6.17490158e+001
,,,1.29687500e+008,-5.53541870e+001
,,,1.30468750e+008,-4.85173531e+001
,,,1.31250000e+008,-5.37050018e+001
,,,1.32031250e+008,-5.52301064e+001
,,,1.32812500e+008,-5.87902985e+001
,,,1.33593750e+008,-5.26787415e+001
,,,1.34375000e+008,-5.81188469e+001
,,,1.35156250e+008,-5.75527725e+001
,,,1.35937500e+008,-6.12709236e+001
,,,1.36718750e+008,-5.62875862e+001
,,,1.37500000e+008,-6.01891327e+001
,,,1.38281250e+008,-6.14550285e+001
,,,1.39062500e+008,-6.05460854e+001
,,,1.39843750e+008,-5.86857605e+001
,,,1.40625000e+008,-5.89115601e+001
,,,1.41406250e+008,-5.66380234e+001
,,,1.42187500e+008,-5.75313835e+001
,,,1.42968750e+008,-6.38167458e+001
,,,1.43750000e+008,-5.53695335e+001
,,,1.44531250e+008,-5.80532799e+001
,,,1.45312500e+008,-5.10132446e+001
,,,1.46093750e+008,-5.23641624e+001
,,,1.46875000e+008,-4.87192993e+001
,,,1.47656250e+008,-5.18894730e+001
,,,1.48437500e+008,-4.61602631e+001
,,,1.49218750e+008,-4.44775848e+001
,,,1.50000000e+008,-4.53066330e+001
,,,1.50781250e+008,-4.83286095e+001
,,,1.51562500e+008,-5.53442574e+001
,,,1.52343750e+008,-5.17482948e+001
,,,1.53125000e+008,-6.42878342e+001
,,,1.53906250e+008,-5.97363701e+001
,,,1.54687500e+008,-5.38454056e+001
,,,1.55468750e+008,-5.29388657e+001
,,,1.56250000e+008,-6.59254379e+001
,,,1.57031250e+008,-5.60953674e+001
,,,1.57812500e+008,-5.39151154e+001
,,,1.58593750e+008,-5.70695572e+001
,,,1.59375000e+008,-5.51445198e+001
,,,1.60156250e+008,-5.53957558e+001
,,,1.60937500e+008,-5.43741035e+001
,,,1.61718750e+008,-5.78819199e+001
,,,1.62500000e+008,-5.71685753e+001
,,,1.63281250e+008,-5.69371758e+001
,,,1.64062500e+008,-6.67016525e+001
,,,1.64843750e+008,-6.45171967e+001
,,,1.65625000e+008,-5.10591087e+001
,,,1.66406250e+008,-5.28775139e+001
,,,1.67187500e+008,-4.68801117e+001
,,,1.67968750e+008,-4.90481453e+001
,,,1.68750000e+008,-4.91469765e+001
,,,1.69531250e+008,-5.87122459e+001
,,,1.70312500e+008,-5.31151466e+001
,,,1.71093750e+008,-4.81949196e+001
,,,1.71875000e+008,-4.84179993e+001
,,,1.72656250e+008,-5.34622040e+001
,,,1.73437500e+008,-5.12225838e+001
,,,1.74218750e+008,-5.41149979e+001
,,,1.75000000e+008,-5.37769470e+001
,,,1.75781250e+008,-5.54621315e+001
,,,1.76562500e+008,-4.65526886e+001
,,,1.77343750e+008,-5.17157021e+001
,,,1.78125000e+008,-4.84200974e+001
,,,1.78906250e+008,-5.00218468e+001
,,,1.79687500e+008,-4.49847107e+001
,,,1.80468750e+008,-4.54561348e+001
,,,1.81250000e+008,-4.34295540e+001
,,,1.82031250e+008,-4.54711304e+001
,,,1.82812500e+008,-4.78212242e+001
,,,1.83593750e+008,-4.60793228e+001
,,,1.84375000e+008,-4.06440582e+001
,,,1.85156250e+008,-3.97748337e+001
,,,1.85937500e+008,-3.98902969e+001
,,,1.86718750e+008,-4.25727386e+001
,,,1.87500000e+008,-4.45446091e+001
,,,1.88281250e+008,-4.52997475e+001
,,,1.89062500e+008,-4.22730331e+001
,,,1.89843750e+008,-4.27181320e+001
,,,1.90625000e+008,-4.25948982e+001
,,,1.91406250e+008,-4.59367828e+001
,,,1.92187500e+008,-4.15046692e+001
,,,1.92968750e+008,-4.01269646e+001
,,,1.93750000e+008,-3.95614624e+001
,,,1.94531250e+008,-4.11407623e+001
,,,1.95312500e+008,-3.83284569e+001
,,,1.96093750e+008,-3.81405602e+001
,,,1.96875000e+008,-3.72978058e+001
,,,1.97656250e+008,-3.93576736e+001
,,,1.98437500e+008,-4.03318520e+001
,,,1.99218750e+008,-4.11349220e+001
,,,2.00000000e+008,-3.94301033e+001
,,,2.00781250e+008,-3.88777885e+001
,,,2.01562500e+008,-3.86361046e+001
,,,2.02343750e+008,-4.11155777e+001
,,,2.03125000e+008,-4.41205711e+001
,,,2.03906250e+008,-4.38355217e+001
,,,2.04687500e+008,-4.33535843e+001
,,,2.05468750e+008,-4.78665009e+001
,,,2.06250000e+008,-4.46359520e+001
,,,2.07031250e+008,-4.45485306e+001
,,,2.07812500e+008,-4.15204201e+001
,,,2.08593750e+008,-4.13478470e+001
,,,2.09375000e+008,-3.98190842e+001
,,,2.10156250e+008,-4.77168884e+001
,,,2.10937500e+008,-4.95186272e+001
,,,2.11718750e+008,-4.70232010e+001
,,,2.12500000e+008,-4.35984879e+001
,,,2.13281250e+008,-4.92664871e+001
,,,2.14062500e+008,-5.22257233e+001
,,,2.14843750e+008,-4.96510391e+001
,,,2.15625000e+008,-4.48501892e+001
,,,2.16406250e+008,-4.44021912e+001
,,,2.17187500e+008,-4.08496437e+001
,,,2.17968750e+008,-4.22850723e+001
,,,2.18750000e+008,-4.49053001e+001
,,,2.19531250e+008,-5.48720207e+001
,,,2.20312500e+008,-5.10156860e+001
,,,2.21093750e+008,-5.47840118e+001
,,,2.21875000e+008,-5.69830017e+001
,,,2.22656250e+008,-4.49634018e+001
,,,2.23437500e+008,-4.11079140e+001
,,,2.24218750e+008,-3.98945427e+001
,,,2.25000000e+008,-3.77347107e+001
,,,2.25781250e+008,-3.82999573e+001
,,,2.26562500e+008,-4.09041100e+001
,,,2.27343750e+008,-4.71872864e+001
,,,2.28125000e+008,-4.53965225e+001
,,,2.28906250e+008,-4.11106491e+001
,,,2.29687500e+008,-3.93138123e+001
,,,2.30468750e+008,-3.81667862e+001
,,,2.31250000e+008,-3.76981888e+001
,,,2.32031250e+008,-4.13100891e+001
,,,2.32812500e+008,-4.74979210e+001
,,,2.33593750e+008,-4.57093468e+001
,,,2.34375000e+008,-4.07597160e+001
,,,2.35156250e+008,-4.09859772e+001
,,,2.35937500e+008,-4.34868393e+001
,,,2.36718750e+008,-4.61834335e+001
,,,2.37500000e+008,-4.31724625e+001
,,,2.38281250e+008,-4.54165726e+001
,,,2.39062500e+008,-4.76235046e+001
,,,2.39843750e+008,-5.72768745e+001
,,,2.40625000e+008,-5.16440010e+001
,,,2.41406250e+008,-4.41013565e+001
,,,2.42187500e+008,-4.11382523e+001
,,,2.42968750e+008,-3.94415970e+001
,,,2.43750000e+008,-4.13974609e+001
,,,2.44531250e+008,-4.10967255e+001
,,,2.45312500e+008,-4.17660789e+001
,,,2.46093750e+008,-4.02581253e+001
,,,2.46875000e+008,-4.06703110e+001
,,,2.47656250e+008,-3.97401199e+001
,,,2.48437500e+008,-3.83064384e+001
,,,2.49218750e+008,-3.55267029e+001
,,,2.50000000e+008,-3.38459358e+001
,,,2.50781250e+008,-3.20964432e+001
,,,2.51562500e+008,-3.15307941e+001
,,,2.52343750e+008,-3.12843018e+001
,,,2.53125000e+008,-3.18681889e+001
,,,2.53906250e+008,-3.15400219e+001
,,,2.54687500e+008,-3.13978786e+001
,,,2.55468750e+008,-3.21697807e+001
,,,2.56250000e+008,-3.37959976e+001
,,,2.57031250e+008,-3.21140099e+001
,,,2.57812500e+008,-2.94049282e+001
,,,2.58593750e+008,-2.83005524e+001
,,,2.59375000e+008,-2.94942932e+001
,,,2.60156250e+008,-3.12630444e+001
,,,2.60937500e+008,-3.23902245e+001
,,,2.61718750e+008,-3.15141850e+001
,,,2.62500000e+008,-3.18729763e+001
,,,2.63281250e+008,-3.23334846e+001
,,,2.64062500e+008,-3.30039978e+001
,,,2.64843750e+008,-3.28319893e+001
,,,2.65625000e+008,-3.30770073e+001
,,,2.66406250e+008,-3.43000946e+001
,,,2.67187500e+008,-3.84024582e+001
,,,2.67968750e+008,-3.93011894e+001
,,,2.68750000e+008,-3.51146736e+001
,,,2.69531250e+008,-3.23401566e+001
,,,2.70312500e+008,-3.19070625e+001
,,,2.71093750e+008,-3.17671375e+001
,,,2.71875000e+008,-3.15016956e+001
,,,2.72656250e+008,-3.14200420e+001
,,,2.73437500e+008,-3.15033398e+001
,,,2.74218750e+008,-2.98097382e+001
,,,2.75000000e+008,-2.92102966e+001
,,,2.75781250e+008,-2.93366432e+001
,,,2.76562500e+008,-3.05842266e+001
,,,2.77343750e+008,-3.18667374e+001
,,,2.78125000e+008,-3.37255287e+001
,,,2.78906250e+008,-3.81101608e+001
,,,2.79687500e+008,-4.32148628e+001
,,,2.80468750e+008,-3.62608833e+001
,,,2.81250000e+008,-3.44200287e+001
,,,2.82031250e+008,-3.38019753e+001
,,,2.82812500e+008,-3.42448502e+001
,,,2.83593750e+008,-3.34735870e+001
,,,2.84375000e+008,-3.44567070e+001
,,,2.85156250e+008,-3.53815765e+001
,,,2.85937500e+008,-3.79304390e+001
,,,2.86718750e+008,-4.04176064e+001
,,,2.87500000e+008,-4.28580742e+001
,,,2.88281250e+008,-3.70028763e+001
,,,2.89062500e+008,-3.44349747e+001
,,,2.89843750e+008,-3.40300102e+001
,,,2.90625000e+008,-3.54326897e+001
,,,2.91406250e+008,-3.51447296e+001
,,,2.92187500e+008,-3.45827866e+001
,,,2.92968750e+008,-3.33533592e+001
,,,2.93750000e+008,-3.28035011e+001
,,,2.94531250e+008,-3.24530563e+001
,,,2.95312500e+008,-3.41554947e+001
,,,2.96093750e+008,-3.35496368e+001
,,,2.96875000e+008,-3.25362740e+001
,,,2.97656250e+008,-3.16205502e+001
,,,2.98437500e+008,-3.26609726e+001
,,,2.99218750e+008,-3.21630096e+001
,,,3.00000000e+008,-3.24447708e+001
,,,3.00781250e+008,-3.21311684e+001
,,,3.01562500e+008,-3.15759392e+001
,,,3.02343750e+008,-2.93556499e+001
,,,3.03125000e+008,-2.81242199e+001
,,,3.03906250e+008,-2.68546848e+001
,,,3.04687500e+008,-2.65678864e+001
,,,3.05468750e+008,-2.61880589e+001
,,,3.06250000e+008,-2.67269382e+001
,,,3.07031250e+008,-2.72275448e+001
,,,3.07812500e+008,-2.81976089e+001
,,,3.08593750e+008,-2.82434425e+001
,,,3.09375000e+008,-2.88258553e+001
,,,3.10156250e+008,-2.88802738e+001
,,,3.10937500e+008,-2.97231636e+001
,,,3.11718750e+008,-3.04521980e+001
,,,3.12500000e+008,-3.22802544e+001
,,,3.13281250e+008,-3.33943291e+001
,,,3.14062500e+008,-3.47929840e+001
,,,3.14843750e+008,-3.62263641e+001
,,,3.15625000e+008,-3.71045380e+001
,,,3.16406250e+008,-3.49483109e+001
,,,3.17187500e+008,-3.43153954e+001
,,,3.17968750e+008,-3.55774078e+001
,,,3.18750000e+008,-3.75586128e+001
,,,3.19531250e+008,-3.49705772e+001
,,,3.20312500e+008,-3.47080803e+001
,,,3.21093750e+008,-3.59522171e+001
,,,3.21875000e+008,-3.71559944e+001
,,,3.22656250e+008,-3.85534363e+001
,,,3.23437500e+008,-4.24865875e+001
,,,3.24218750e+008,-4.08892593e+001
,,,3.25000000e+008,-3.60683479e+001
,,,3.25781250e+008,-3.37612076e+001
,,,3.26562500e+008,-3.40896530e+001
,,,3.27343750e+008,-3.37041130e+001
,,,3.28125000e+008,-3.21637459e+001
,,,3.28906250e+008,-3.04942989e+001
,,,3.29687500e+008,-3.06585388e+001
,,,3.30468750e+008,-3.18933811e+001
,,,3.31250000e+008,-3.53763313e+001
,,,3.32031250e+008,-3.85105705e+001
,,,3.32812500e+008,-3.97856941e+001
,,,3.33593750e+008,-3.92719002e+001
,,,3.34375000e+008,-4.13095169e+001
,,,3.35156250e+008,-4.40662842e+001
,,,3.35937500e+008,-4.69359283e+001
,,,3.36718750e+008,-4.48059654e+001
,,,3.37500000e+008,-4.26630783e+001
,,,3.38281250e+008,-4.20021019e+001
,,,3.39062500e+008,-4.32202950e+001
,,,3.39843750e+008,-4.78590240e+001
,,,3.40625000e+008,-4.59483643e+001
,,,3.41406250e+008,-4.16339912e+001
,,,3.42187500e+008,-3.80301819e+001
,,,3.42968750e+008,-3.49851952e+001
,,,3.43750000e+008,-3.30310593e+001
,,,3.44531250e+008,-3.19912872e+001
,,,3.45312500e+008,-3.06707573e+001
,,,3.46093750e+008,-2.96327477e+001
,,,3.46875000e+008,-2.89433231e+001
,,,3.47656250e+008,-2.96132984e+001
,,,3.48437500e+008,-3.01695137e+001
,,,3.49218750e+008,-2.98765469e+001
,,,3.50000000e+008,-2.86865864e+001
,,,3.50781250e+008,-2.89883804e+001
,,,3.51562500e+008,-3.03892670e+001
,,,3.52343750e+008,-3.22484970e+001
,,,3.53125000e+008,-3.19398460e+001
,,,3.53906250e+008,-3.15373898e+001
,,,3.54687500e+008,-3.10118313e+001
,,,3.55468750e+008,-3.14608040e+001
,,,3.56250000e+008,-3.14661217e+001
,,,3.57031250e+008,-3.19394207e+001
,,,3.57812500e+008,-3.31573448e+001
,,,3.58593750e+008,-3.52785492e+001
,,,3.59375000e+008,-3.48672791e+001
,,,3.60156250e+008,-3.38242149e+001
,,,3.60937500e+008,-3.23899841e+001
,,,3.61718750e+008,-3.24576187e+001
,,,3.62500000e+008,-3.43262672e+001
,,,3.63281250e+008,-3.66577072e+001
,,,3.64062500e+008,-3.49430237e+001
,,,3.64843750e+008,-3.41653519e+001
,,,3.65625000e+008,-3.58445358e+001
,,,3.66406250e+008,-3.87578773e+001
,,,3.67187500e+008,-3.53339119e+001
,,,3.67968750e+008,-3.36311646e+001
,,,3.68750000e+008,-3.51141701e+001
,,,3.69531250e+008,-3.99632339e+001
,,,3.70312500e+008,-3.89532433e+001
,,,3.71093750e+008,-3.62268715e+001
,,,3.71875000e+008,-3.63179131e+001
,,,3.72656250e+008,-3.94183388e+001
,,,3.73437500e+008,-4.19520149e+001
,,,3.74218750e+008,-4.42012672e+001
,,,3.75000000e+008,-4.39281502e+001
,,,3.75781250e+008,-4.14429588e+001
,,,3.76562500e+008,-3.81524811e+001
,,,3.77343750e+008,-3.80910645e+001
,,,3.78125000e+008,-3.54511528e+001
,,,3.78906250e+008,-3.37429276e+001
,,,3.79687500e+008,-3.33489456e+001
,,,3.80468750e+008,-3.35583572e+001
,,,3.81250000e+008,-3.31628532e+001
,,,3.82031250e+008,-3.31917229e+001
,,,3.82812500e+008,-3.37718010e+001
,,,3.83593750e+008,-3.48823814e+001
,,,3.84375000e+008,-3.40515099e+001
,,,3.85156250e+008,-3.34712906e+001
,,,3.85937500e+008,-3.32355042e+001
,,,3.86718750e+008,-3.36668739e+001
,,,3.87500000e+008,-3.30997238e+001
,,,3.88281250e+008,-3.23125343e+001
,,,3.89062500e+008,-3.21175499e+001
,,,3.89843750e+008,-3.35861320e+001
,,,3.90625000e+008,-3.56378174e+001
,,,3.91406250e+008,-3.84403152e+001
,,,3.92187500e+008,-3.77748108e+001
,,,3.92968750e+008,-3.72301559e+001
,,,3.93750000e+008,-3.71141014e+001
,,,3.94531250e+008,-3.85700226e+001
,,,3.95312500e+008,-3.99010506e+001
,,,3.96093750e+008,-4.09778557e+001
,,,3.96875000e+008,-3.90101547e+001
,,,3.97656250e+008,-3.59312477e+001
,,,3.98437500e+008,-3.49674835e+001
,,,3.99218750e+008,-3.56977844e+001
,,,4.00000000e+008,-3.78293114e+001
,,,4.00781250e+008,-3.86184387e+001
,,,4.01562500e+008,-3.80608826e+001
,,,4.02343750e+008,-3.83822861e+001
,,,4.03125000e+008,-3.75078278e+001
,,,4.03906250e+008,-3.71825638e+001
,,,4.04687500e+008,-3.71658554e+001
,,,4.05468750e+008,-3.88836250e+001
,,,4.06250000e+008,-4.08654022e+001
,,,4.07031250e+008,-4.15597954e+001
,,,4.07812500e+008,-3.92347908e+001
,,,4.08593750e+008,-4.09460793e+001
,,,4.09375000e+008,-4.18272781e+001
,,,4.10156250e+008,-4.35259209e+001
,,,4.10937500e+008,-4.28838768e+001
,,,4.11718750e+008,-3.82131882e+001
,,,4.12500000e+008,-3.76526146e+001
,,,4.13281250e+008,-3.92136421e+001
,,,4.14062500e+008,-4.67428246e+001
,,,4.14843750e+008,-5.03129692e+001
,,,4.15625000e+008,-4.24361191e+001
,,,4.16406250e+008,-4.08726959e+001
,,,4.17187500e+008,-4.43276825e+001
,,,4.17968750e+008,-4.40055580e+001
,,,4.18750000e+008,-4.10171967e+001
,,,4.19531250e+008,-3.78734093e+001
,,,4.20312500e+008,-3.85696640e+001
,,,4.21093750e+008,-3.90950775e+001
,,,4.21875000e+008,-4.10966606e+001
,,,4.22656250e+008,-3.93709679e+001
,,,4.23437500e+008,-3.81350327e+001
,,,4.24218750e+008,-3.64228973e+001
,,,4.25000000e+008,-3.63662415e+001
,,,4.25781250e+008,-3.56035652e+001
,,,4.26562500e+008,-3.67972488e+001
,,,4.27343750e+008,-3.78140869e+001
,,,4.28125000e+008,-3.93322945e+001
,,,4.28906250e+008,-3.72331810e+001
,,,4.29687500e+008,-3.54274750e+001
