Data/20220819/UCLA_to_R2B_VPOL_E_80_01_Ch2.csv

"Record Length",5000,"Points",-1.00800000e-007,6.03125494e-005
"Sample Interval",2.00000000e-010,s,-1.00600000e-007,7.62500502e-005
"Trigger Point",504,"Samples",-1.00400000e-007,3.65625483e-005
"Trigger Time",0.00000000e+000,s,-1.00200000e-007,-2.28124545e-005
"",,,-1.00000000e-007,-1.07187459e-004
"Horizontal Offset",-1.00800000e-007,s,-9.98000000e-008,-1.06249958e-004
,,,-9.96000000e-008,-5.03124558e-005
,,,-9.94000000e-008,4.96875489e-005
,,,-9.92000000e-008,1.49687554e-004
,,,-9.90000000e-008,1.65312554e-004
,,,-9.88000000e-008,1.01250051e-004
,,,-9.86000000e-008,-5.71874562e-005
,,,-9.84000000e-008,-1.55937461e-004
,,,-9.82000000e-008,-1.89687462e-004
,,,-9.80000000e-008,-1.23437459e-004
,,,-9.78000000e-008,2.15625476e-005
,,,-9.76000000e-008,1.60937554e-004
,,,-9.74000000e-008,1.95937556e-004
,,,-9.72000000e-008,1.30625053e-004
,,,-9.70000000e-008,2.37500477e-005
,,,-9.68000000e-008,-1.14999959e-004
,,,-9.66000000e-008,-1.78749962e-004
,,,-9.64000000e-008,-1.67812461e-004
,,,-9.62000000e-008,-6.99999568e-005
,,,-9.60000000e-008,6.90625498e-005
,,,-9.58000000e-008,1.69375055e-004
,,,-9.56000000e-008,1.62500054e-004
,,,-9.54000000e-008,6.31250496e-005
,,,-9.52000000e-008,-3.93749553e-005
,,,-9.50000000e-008,-1.26562459e-004
,,,-9.48000000e-008,-1.13749959e-004
,,,-9.46000000e-008,-7.40624570e-005
,,,-9.44000000e-008,1.03125471e-005
,,,-9.42000000e-008,5.12500490e-005
,,,-9.40000000e-008,7.75000502e-005
,,,-9.38000000e-008,7.46875501e-005
,,,-9.36000000e-008,3.96875485e-005
,,,-9.34000000e-008,-4.12499554e-005
,,,-9.32000000e-008,-6.78124567e-005
,,,-9.30000000e-008,-8.46874575e-005
,,,-9.28000000e-008,-2.90624548e-005
,,,-9.26000000e-008,3.53125482e-005
,,,-9.24000000e-008,4.25000486e-005
,,,-9.22000000e-008,3.09375480e-005
,,,-9.20000000e-008,-1.24995349e-006
,,,-9.18000000e-008,-3.18749549e-005
,,,-9.16000000e-008,-3.71874552e-005
,,,-9.14000000e-008,-2.15624545e-005
,,,-9.12000000e-008,2.12500476e-005
,,,-9.10000000e-008,1.87504666e-006
,,,-9.08000000e-008,-1.28124540e-005
,,,-9.06000000e-008,-3.87499553e-005
,,,-9.04000000e-008,-5.03124558e-005
,,,-9.02000000e-008,1.53125473e-005
,,,-9.00000000e-008,7.53125501e-005
,,,-8.98000000e-008,7.09375499e-005
,,,-8.96000000e-008,7.75000502e-005
,,,-8.94000000e-008,2.15625476e-005
,,,-8.92000000e-008,-6.65624566e-005
,,,-8.90000000e-008,-9.62499580e-005
,,,-8.88000000e-008,-1.04687458e-004
,,,-8.86000000e-008,-2.34374545e-005
,,,-8.84000000e-008,7.96875504e-005
,,,-8.82000000e-008,1.62812554e-004
,,,-8.80000000e-008,1.50000054e-004
,,,-8.78000000e-008,5.37500491e-005
,,,-8.76000000e-008,-7.90624572e-005
,,,-8.74000000e-008,-1.76249962e-004
,,,-8.72000000e-008,-1.56562461e-004
,,,-8.70000000e-008,-6.56249566e-005
,,,-8.68000000e-008,9.43750510e-005
,,,-8.66000000e-008,1.53437554e-004
,,,-8.64000000e-008,1.48437554e-004
,,,-8.62000000e-008,8.96875508e-005
,,,-8.60000000e-008,-1.81249543e-005
,,,-8.58000000e-008,-1.43749960e-004
,,,-8.56000000e-008,-1.58124961e-004
,,,-8.54000000e-008,-1.23124959e-004
,,,-8.52000000e-008,-2.12499544e-005
,,,-8.50000000e-008,1.22500052e-004
,,,-8.48000000e-008,1.38437553e-004
,,,-8.46000000e-008,1.13125052e-004
,,,-8.44000000e-008,5.34375491e-005
,,,-8.42000000e-008,-3.12499549e-005
,,,-8.40000000e-008,-6.62499566e-005
,,,-8.38000000e-008,-9.59374580e-005
,,,-8.36000000e-008,-8.24999574e-005
,,,-8.34000000e-008,-1.40624541e-005
,,,-8.32000000e-008,5.53125492e-005
,,,-8.30000000e-008,9.25000510e-005
,,,-8.28000000e-008,6.06250494e-005
,,,-8.26000000e-008,3.90625484e-005
,,,-8.24000000e-008,-4.99995367e-006
,,,-8.22000000e-008,-5.87499562e-005
,,,-8.20000000e-008,-1.96874544e-005
,,,-8.18000000e-008,-1.74999543e-005
,,,-8.16000000e-008,-2.74999547e-005
,,,-8.14000000e-008,-1.84374543e-005
,,,-8.12000000e-008,-6.03124563e-005
,,,-8.10000000e-008,-4.87499557e-005
,,,-8.08000000e-008,1.06250471e-005
,,,-8.06000000e-008,7.37500501e-005
,,,-8.04000000e-008,1.15000052e-004
,,,-8.02000000e-008,7.53125501e-005
,,,-8.00000000e-008,-1.03124539e-005
,,,-7.98000000e-008,-9.53124580e-005
,,,-7.96000000e-008,-1.60312461e-004
,,,-7.94000000e-008,-1.38124960e-004
,,,-7.92000000e-008,-7.68749571e-005
,,,-7.90000000e-008,7.65625502e-005
,,,-7.88000000e-008,2.03125056e-004
,,,-7.86000000e-008,2.13750057e-004
,,,-7.84000000e-008,1.48125054e-004
,,,-7.82000000e-008,-1.06249539e-005
,,,-7.80000000e-008,-1.74687462e-004
,,,-7.78000000e-008,-2.29999964e-004
,,,-7.76000000e-008,-1.71249962e-004
,,,-7.74000000e-008,-2.87499548e-005
,,,-7.72000000e-008,1.40625053e-004
,,,-7.70000000e-008,2.13437557e-004
,,,-7.68000000e-008,1.81875055e-004
,,,-7.66000000e-008,7.62500502e-005
,,,-7.64000000e-008,-3.43749551e-005
,,,-7.62000000e-008,-1.54999961e-004
,,,-7.60000000e-008,-1.82499962e-004
,,,-7.58000000e-008,-1.47187460e-004
,,,-7.56000000e-008,-7.78124571e-005
,,,-7.54000000e-008,7.59375502e-005
,,,-7.52000000e-008,1.49687554e-004
,,,-7.50000000e-008,1.62500054e-004
,,,-7.48000000e-008,1.44375053e-004
,,,-7.46000000e-008,2.40625477e-005
,,,-7.44000000e-008,-6.40624565e-005
,,,-7.42000000e-008,-1.34999960e-004
,,,-7.40000000e-008,-1.57499961e-004
,,,-7.38000000e-008,-1.19374959e-004
,,,-7.36000000e-008,-8.43745383e-006
,,,-7.34000000e-008,9.31250510e-005
,,,-7.32000000e-008,1.36875053e-004
,,,-7.30000000e-008,1.61250054e-004
,,,-7.28000000e-008,1.02500051e-004
,,,-7.26000000e-008,-3.15624549e-005
,,,-7.24000000e-008,-9.24999578e-005
,,,-7.22000000e-008,-1.81562462e-004
,,,-7.20000000e-008,-2.08749963e-004
,,,-7.18000000e-008,-1.04999958e-004
,,,-7.16000000e-008,-7.81245380e-006
,,,-7.14000000e-008,1.33125053e-004
,,,-7.12000000e-008,2.25000057e-004
,,,-7.10000000e-008,1.85937555e-004
,,,-7.08000000e-008,9.00000508e-005
,,,-7.06000000e-008,-7.84374572e-005
,,,-7.04000000e-008,-2.04687463e-004
,,,-7.02000000e-008,-2.23749964e-004
,,,-7.00000000e-008,-1.89999962e-004
,,,-6.98000000e-008,-3.06249549e-005
,,,-6.96000000e-008,1.07187552e-004
,,,-6.94000000e-008,2.00312556e-004
,,,-6.92000000e-008,2.43125058e-004
,,,-6.90000000e-008,1.19687552e-004
,,,-6.88000000e-008,-2.71874547e-005
,,,-6.86000000e-008,-1.78437462e-004
,,,-6.84000000e-008,-2.58124966e-004
,,,-6.82000000e-008,-1.82499962e-004
,,,-6.80000000e-008,-5.87499562e-005
,,,-6.78000000e-008,1.16562552e-004
,,,-6.76000000e-008,2.03437556e-004
,,,-6.74000000e-008,1.77187555e-004
,,,-6.72000000e-008,7.59375502e-005
,,,-6.70000000e-008,-2.93749548e-005
,,,-6.68000000e-008,-9.15624578e-005
,,,-6.66000000e-008,-1.20937459e-004
,,,-6.64000000e-008,-1.05624958e-004
,,,-6.62000000e-008,-5.84374562e-005
,,,-6.60000000e-008,-4.99995367e-006
,,,-6.58000000e-008,5.96875494e-005
,,,-6.56000000e-008,1.00000051e-004
,,,-6.54000000e-008,1.06875052e-004
,,,-6.52000000e-008,6.96875499e-005
,,,-6.50000000e-008,1.15625471e-005
,,,-6.48000000e-008,-2.68749547e-005
,,,-6.46000000e-008,-6.15624564e-005
,,,-6.44000000e-008,-8.93749577e-005
,,,-6.42000000e-008,-8.37499574e-005
,,,-6.40000000e-008,-7.56249570e-005
,,,-6.38000000e-008,3.25000481e-005
,,,-6.36000000e-008,1.12812552e-004
,,,-6.34000000e-008,1.23750052e-004
,,,-6.32000000e-008,1.02812551e-004
,,,-6.30000000e-008,1.65625474e-005
,,,-6.28000000e-008,-8.37499574e-005
,,,-6.26000000e-008,-1.12187459e-004
,,,-6.24000000e-008,-1.37187460e-004
,,,-6.22000000e-008,-8.74999576e-005
,,,-6.20000000e-008,1.06250471e-005
,,,-6.18000000e-008,7.12500500e-005
,,,-6.16000000e-008,1.19375052e-004
,,,-6.14000000e-008,1.23125052e-004
,,,-6.12000000e-008,7.53125501e-005
,,,-6.10000000e-008,-5.31245369e-006
,,,-6.08000000e-008,-8.15624573e-005
,,,-6.06000000e-008,-1.19374959e-004
,,,-6.04000000e-008,-1.18437459e-004
,,,-6.02000000e-008,-4.24999555e-005
,,,-6.00000000e-008,4.34375486e-005
,,,-5.98000000e-008,1.16875052e-004
,,,-5.96000000e-008,1.48437554e-004
,,,-5.94000000e-008,9.62500511e-005
,,,-5.92000000e-008,6.87504689e-006
,,,-5.90000000e-008,-8.37499574e-005
,,,-5.88000000e-008,-1.30312460e-004
,,,-5.86000000e-008,-1.15312459e-004
,,,-5.84000000e-008,-5.15624559e-005
,,,-5.82000000e-008,3.90625484e-005
,,,-5.80000000e-008,8.65625507e-005
,,,-5.78000000e-008,1.00312551e-004
,,,-5.76000000e-008,7.96875504e-005
,,,-5.74000000e-008,2.34375477e-005
,,,-5.72000000e-008,-5.18749559e-005
,,,-5.70000000e-008,-8.03124572e-005
,,,-5.68000000e-008,-8.96874577e-005
,,,-5.66000000e-008,-8.21874573e-005
,,,-5.64000000e-008,-1.74999543e-005
,,,-5.62000000e-008,5.06250490e-005
,,,-5.60000000e-008,1.28437553e-004
,,,-5.58000000e-008,1.47500054e-004
,,,-5.56000000e-008,9.12500509e-005
,,,-5.54000000e-008,-3.18749549e-005
,,,-5.52000000e-008,-1.12812459e-004
,,,-5.50000000e-008,-1.45312460e-004
,,,-5.48000000e-008,-1.21562459e-004
,,,-5.46000000e-008,-4.84374557e-005
,,,-5.44000000e-008,8.25000505e-005
,,,-5.42000000e-008,1.53437554e-004
,,,-5.40000000e-008,1.72500055e-004
,,,-5.38000000e-008,9.46875511e-005
,,,-5.36000000e-008,-4.49999556e-005
,,,-5.34000000e-008,-1.61249961e-004
,,,-5.32000000e-008,-1.80624962e-004
,,,-5.30000000e-008,-9.87499581e-005
,,,-5.28000000e-008,2.71875479e-005
,,,-5.26000000e-008,1.33125053e-004
,,,-5.24000000e-008,1.40312553e-004
,,,-5.22000000e-008,5.40625491e-005
,,,-5.20000000e-008,-3.78124552e-005
,,,-5.18000000e-008,-1.14999959e-004
,,,-5.16000000e-008,-1.10312459e-004
,,,-5.14000000e-008,-5.99999563e-005
,,,-5.12000000e-008,1.31250472e-005
,,,-5.10000000e-008,6.12500495e-005
,,,-5.08000000e-008,1.13750052e-004
,,,-5.06000000e-008,6.40625496e-005
,,,-5.04000000e-008,2.81254670e-006
,,,-5.02000000e-008,-5.31249560e-005
,,,-5.00000000e-008,-1.13437459e-004
,,,-4.98000000e-008,-8.40624574e-005
,,,-4.96000000e-008,-2.96874548e-005
,,,-4.94000000e-008,5.25000491e-005
,,,-4.92000000e-008,1.03125051e-004
,,,-4.90000000e-008,9.03125509e-005
,,,-4.88000000e-008,1.56250473e-005
,,,-4.86000000e-008,-7.21874569e-005
,,,-4.84000000e-008,-1.05624958e-004
,,,-4.82000000e-008,-9.18749578e-005
,,,-4.80000000e-008,-4.28124555e-005
,,,-4.78000000e-008,5.43750491e-005
,,,-4.76000000e-008,1.09375052e-004
,,,-4.74000000e-008,9.28125510e-005
,,,-4.72000000e-008,4.15625485e-005
,,,-4.70000000e-008,-4.43749555e-005
,,,-4.68000000e-008,-1.17499959e-004
,,,-4.66000000e-008,-1.01874958e-004
,,,-4.64000000e-008,-6.18749564e-005
,,,-4.62000000e-008,4.53125487e-005
,,,-4.60000000e-008,1.08750052e-004
,,,-4.58000000e-008,9.62500511e-005
,,,-4.56000000e-008,5.21875490e-005
,,,-4.54000000e-008,-3.59374551e-005
,,,-4.52000000e-008,-7.31249569e-005
,,,-4.50000000e-008,-8.40624574e-005
,,,-4.48000000e-008,-5.09374559e-005
,,,-4.46000000e-008,2.09375476e-005
,,,-4.44000000e-008,8.59375506e-005
,,,-4.42000000e-008,8.43750506e-005
,,,-4.40000000e-008,1.28125472e-005
,,,-4.38000000e-008,-4.93749558e-005
,,,-4.36000000e-008,-7.21874569e-005
,,,-4.34000000e-008,-3.74999552e-005
,,,-4.32000000e-008,1.68750474e-005
,,,-4.30000000e-008,3.09375480e-005
,,,-4.28000000e-008,3.31250481e-005
,,,-4.26000000e-008,2.75000479e-005
,,,-4.24000000e-008,8.43754697e-006
,,,-4.22000000e-008,3.75004674e-006
,,,-4.20000000e-008,-1.59374542e-005
,,,-4.18000000e-008,-3.09374549e-005
,,,-4.16000000e-008,-3.06249549e-005
,,,-4.14000000e-008,2.18754667e-006
,,,-4.12000000e-008,3.00000480e-005
,,,-4.10000000e-008,5.62500492e-005
,,,-4.08000000e-008,4.56250487e-005
,,,-4.06000000e-008,2.90625479e-005
,,,-4.04000000e-008,-2.68749547e-005
,,,-4.02000000e-008,-4.15624554e-005
,,,-4.00000000e-008,-4.90624558e-005
,,,-3.98000000e-008,-3.74999552e-005
,,,-3.96000000e-008,3.12504671e-006
,,,-3.94000000e-008,3.75000483e-005
,,,-3.92000000e-008,4.96875489e-005
,,,-3.90000000e-008,8.71875507e-005
,,,-3.88000000e-008,5.46875492e-005
,,,-3.86000000e-008,4.68754679e-006
,,,-3.84000000e-008,-6.87499567e-005
,,,-3.82000000e-008,-1.11249959e-004
,,,-3.80000000e-008,-8.62499575e-005
,,,-3.78000000e-008,-1.84374543e-005
,,,-3.76000000e-008,6.81250498e-005
,,,-3.74000000e-008,1.18750052e-004
,,,-3.72000000e-008,1.05000052e-004
,,,-3.70000000e-008,5.65625493e-005
,,,-3.68000000e-008,-2.03124544e-005
,,,-3.66000000e-008,-9.87499581e-005
,,,-3.64000000e-008,-1.47812460e-004
,,,-3.62000000e-008,-1.37499960e-004
,,,-3.60000000e-008,-4.93749558e-005
,,,-3.58000000e-008,4.96875489e-005
,,,-3.56000000e-008,1.62187554e-004
,,,-3.54000000e-008,1.96875056e-004
,,,-3.52000000e-008,1.10625052e-004
,,,-3.50000000e-008,-5.93749563e-005
,,,-3.48000000e-008,-2.07812463e-004
,,,-3.46000000e-008,-2.29062464e-004
,,,-3.44000000e-008,-1.62187461e-004
,,,-3.42000000e-008,-2.56249547e-005
,,,-3.40000000e-008,1.64062554e-004
,,,-3.38000000e-008,2.56250059e-004
,,,-3.36000000e-008,2.27500057e-004
,,,-3.34000000e-008,8.81250508e-005
,,,-3.32000000e-008,-1.43749960e-004
,,,-3.30000000e-008,-2.47499965e-004
,,,-3.28000000e-008,-2.32499964e-004
,,,-3.26000000e-008,-9.65624580e-005
,,,-3.24000000e-008,9.56250511e-005
,,,-3.22000000e-008,2.47187558e-004
,,,-3.20000000e-008,2.50625058e-004
,,,-3.18000000e-008,1.47187554e-004
,,,-3.16000000e-008,3.12546581e-007
,,,-3.14000000e-008,-1.61249961e-004
,,,-3.12000000e-008,-2.08749963e-004
,,,-3.10000000e-008,-1.38124960e-004
,,,-3.08000000e-008,-2.09374544e-005
,,,-3.06000000e-008,8.93750508e-005
,,,-3.04000000e-008,1.74375055e-004
,,,-3.02000000e-008,1.34375053e-004
,,,-3.00000000e-008,2.43750477e-005
,,,-2.98000000e-008,-5.43749560e-005
,,,-2.96000000e-008,-1.23124959e-004
,,,-2.94000000e-008,-1.15312459e-004
,,,-2.92000000e-008,-2.15624545e-005
,,,-2.90000000e-008,5.09375490e-005
,,,-2.88000000e-008,5.81250493e-005
,,,-2.86000000e-008,3.65625483e-005
,,,-2.84000000e-008,2.25000476e-005
,,,-2.82000000e-008,-3.28124550e-005
,,,-2.80000000e-008,-4.46874556e-005
,,,-2.78000000e-008,-2.93749548e-005
,,,-2.76000000e-008,-5.37499560e-005
,,,-2.74000000e-008,1.34375472e-005
,,,-2.72000000e-008,7.87500503e-005
,,,-2.70000000e-008,5.28125491e-005
,,,-2.68000000e-008,1.81250474e-005
,,,-2.66000000e-008,-5.28124559e-005
,,,-2.64000000e-008,-1.19687459e-004
,,,-2.62000000e-008,-9.03124577e-005
,,,-2.60000000e-008,-2.31249545e-005
,,,-2.58000000e-008,7.31250500e-005
,,,-2.56000000e-008,1.19687552e-004
,,,-2.54000000e-008,6.75000498e-005
,,,-2.52000000e-008,-2.46874546e-005
,,,-2.50000000e-008,-8.37499574e-005
,,,-2.48000000e-008,-1.01874958e-004
,,,-2.46000000e-008,-8.21874573e-005
,,,-2.44000000e-008,-2.46874546e-005
,,,-2.42000000e-008,5.59375492e-005
,,,-2.40000000e-008,9.21875509e-005
,,,-2.38000000e-008,9.78125512e-005
,,,-2.36000000e-008,4.65625488e-005
,,,-2.34000000e-008,-5.09374559e-005
,,,-2.32000000e-008,-8.37499574e-005
,,,-2.30000000e-008,-9.34374579e-005
,,,-2.28000000e-008,-3.28124550e-005
,,,-2.26000000e-008,5.46875492e-005
,,,-2.24000000e-008,1.07187552e-004
,,,-2.22000000e-008,7.46875501e-005
,,,-2.20000000e-008,5.18750490e-005
,,,-2.18000000e-008,6.56254688e-006
,,,-2.16000000e-008,-1.21874540e-005
,,,-2.14000000e-008,-4.21874554e-005
,,,-2.12000000e-008,-4.62499556e-005
,,,-2.10000000e-008,-5.93749563e-005
,,,-2.08000000e-008,-3.37499550e-005
,,,-2.06000000e-008,4.96875489e-005
,,,-2.04000000e-008,9.25000510e-005
,,,-2.02000000e-008,9.40625510e-005
,,,-2.00000000e-008,9.21875509e-005
,,,-1.98000000e-008,-1.56245351e-006
,,,-1.96000000e-008,-8.53124575e-005
,,,-1.94000000e-008,-1.15624959e-004
,,,-1.92000000e-008,-1.15937459e-004
,,,-1.90000000e-008,-5.49999560e-005
,,,-1.88000000e-008,5.50000492e-005
,,,-1.86000000e-008,1.13125052e-004
,,,-1.84000000e-008,1.44375053e-004
,,,-1.82000000e-008,7.50000501e-005
,,,-1.80000000e-008,-3.09374549e-005
,,,-1.78000000e-008,-1.39374960e-004
,,,-1.76000000e-008,-1.49062461e-004
,,,-1.74000000e-008,-9.68749580e-005
,,,-1.72000000e-008,-2.03124544e-005
,,,-1.70000000e-008,6.81250498e-005
,,,-1.68000000e-008,1.29062553e-004
,,,-1.66000000e-008,1.08125052e-004
,,,-1.64000000e-008,7.18750500e-005
,,,-1.62000000e-008,-1.06249539e-005
,,,-1.60000000e-008,-9.28124578e-005
,,,-1.58000000e-008,-1.36562460e-004
,,,-1.56000000e-008,-1.18749959e-004
,,,-1.54000000e-008,-4.53124556e-005
,,,-1.52000000e-008,2.81250479e-005
,,,-1.50000000e-008,1.37500053e-004
,,,-1.48000000e-008,1.43437553e-004
,,,-1.46000000e-008,7.56250502e-005
,,,-1.44000000e-008,-8.12495382e-006
,,,-1.42000000e-008,-9.18749578e-005
,,,-1.40000000e-008,-1.23124959e-004
,,,-1.38000000e-008,-9.87499581e-005
,,,-1.36000000e-008,-6.56249566e-005
,,,-1.34000000e-008,2.78125479e-005
,,,-1.32000000e-008,1.17812552e-004
,,,-1.30000000e-008,1.53125054e-004
,,,-1.28000000e-008,8.78125507e-005
,,,-1.26000000e-008,2.18754667e-006
,,,-1.24000000e-008,-8.56249575e-005
,,,-1.22000000e-008,-1.02812458e-004
,,,-1.20000000e-008,-5.21874559e-005
,,,-1.18000000e-008,1.06250471e-005
,,,-1.16000000e-008,2.18750476e-005
,,,-1.14000000e-008,5.18750490e-005
,,,-1.12000000e-008,3.03125480e-005
,,,-1.10000000e-008,3.59375483e-005
,,,-1.08000000e-008,6.12500495e-005
,,,-1.06000000e-008,3.12500481e-005
,,,-1.04000000e-008,3.75004674e-006
,,,-1.02000000e-008,-5.93749563e-005
,,,-1.00000000e-008,-9.71874581e-005
,,,-9.80000000e-009,-7.99999572e-005
,,,-9.60000000e-009,-9.68745389e-006
,,,-9.40000000e-009,7.71875502e-005
,,,-9.20000000e-009,9.50000511e-005
,,,-9.00000000e-009,1.04375052e-004
,,,-8.80000000e-009,7.93750503e-005
,,,-8.60000000e-009,-4.90624558e-005
,,,-8.40000000e-009,-1.14999959e-004
,,,-8.20000000e-009,-1.74687462e-004
,,,-8.00000000e-009,-1.42187460e-004
,,,-7.80000000e-009,-2.43749546e-005
,,,-7.60000000e-009,8.40625506e-005
,,,-7.40000000e-009,1.24687552e-004
,,,-7.20000000e-009,1.34062553e-004
,,,-7.00000000e-009,2.28125476e-005
,,,-6.80000000e-009,-7.15624568e-005
,,,-6.60000000e-009,-1.23124959e-004
,,,-6.40000000e-009,-1.41562460e-004
,,,-6.20000000e-009,-9.40624579e-005
,,,-6.00000000e-009,-9.68745389e-006
,,,-5.80000000e-009,5.31250491e-005
,,,-5.60000000e-009,6.81250498e-005
,,,-5.40000000e-009,8.96875508e-005
,,,-5.20000000e-009,5.37500491e-005
,,,-5.00000000e-009,-3.28124550e-005
,,,-4.80000000e-009,-9.46874579e-005
,,,-4.60000000e-009,-1.31562460e-004
,,,-4.40000000e-009,-1.29687460e-004
,,,-4.20000000e-009,-5.06249558e-005
,,,-4.00000000e-009,2.34375477e-005
,,,-3.80000000e-009,8.40625506e-005
,,,-3.60000000e-009,1.11875052e-004
,,,-3.40000000e-009,8.00000504e-005
,,,-3.20000000e-009,-3.12453449e-007
,,,-3.00000000e-009,-8.90624577e-005
,,,-2.80000000e-009,-1.34999960e-004
,,,-2.60000000e-009,-8.74999576e-005
,,,-2.40000000e-009,-6.03124563e-005
,,,-2.20000000e-009,8.12504695e-006
,,,-2.00000000e-009,3.34375482e-005
,,,-1.80000000e-009,2.59375478e-005
,,,-1.60000000e-009,3.75004674e-006
,,,-1.40000000e-009,1.75000474e-005
,,,-1.20000000e-009,1.93750475e-005
,,,-1.00000000e-009,1.56250473e-005
,,,-8.00000000e-010,-2.06249544e-005
,,,-6.00000000e-010,-7.18749568e-005
,,,-4.00000000e-010,-8.56249575e-005
,,,-2.00000000e-010,-6.24999564e-005
,,,0.00000000e+000,-2.37499546e-005
,,,2.00000000e-010,2.37500477e-005
,,,4.00000000e-010,1.11875052e-004
,,,6.00000000e-010,1.20000052e-004
,,,8.00000000e-010,6.18750495e-005
,,,1.00000000e-009,6.56254688e-006
,,,1.20000000e-009,-9.99999582e-005
,,,1.40000000e-009,-1.67812461e-004
,,,1.60000000e-009,-1.28749960e-004
,,,1.80000000e-009,-3.49999551e-005
,,,2.00000000e-009,5.31250491e-005
,,,2.20000000e-009,1.20000052e-004
,,,2.40000000e-009,1.20000052e-004
,,,2.60000000e-009,4.71875488e-005
,,,2.80000000e-009,-2.31249545e-005
,,,3.00000000e-009,-8.40624574e-005
,,,3.20000000e-009,-1.25937459e-004
,,,3.40000000e-009,-1.19687459e-004
,,,3.60000000e-009,-9.96874582e-005
,,,3.80000000e-009,-4.24999555e-005
,,,4.00000000e-009,6.00000494e-005
,,,4.20000000e-009,1.38125053e-004
,,,4.40000000e-009,1.77187555e-004
,,,4.60000000e-009,1.19062552e-004
,,,4.80000000e-009,-1.12499540e-005
,,,5.00000000e-009,-1.62187461e-004
,,,5.20000000e-009,-2.33437465e-004
,,,5.40000000e-009,-1.83749962e-004
,,,5.60000000e-009,-4.78124557e-005
,,,5.80000000e-009,9.40625510e-005
,,,6.00000000e-009,2.28125057e-004
,,,6.20000000e-009,2.33750058e-004
,,,6.40000000e-009,1.30000053e-004
,,,6.60000000e-009,-6.87495376e-006
,,,6.80000000e-009,-1.48437460e-004
,,,7.00000000e-009,-2.20624964e-004
,,,7.20000000e-009,-1.81874962e-004
,,,7.40000000e-009,-3.18749549e-005
,,,7.60000000e-009,6.53125497e-005
,,,7.80000000e-009,1.70625055e-004
