Data/20220819/UCLA_to_R2B_VPOL_E_50_01_Math1.csv

"Record Length",3200,"Points",0.00000000e+000,-1.03243752e+001
"Sample Interval",7.81250000e+005,Hz,7.81250000e+005,-1.60579529e+001
"Trigger Point",0,"Samples",1.56250000e+006,-1.83004379e+001
"Trigger Time",0.00000000e+000,Hz,2.34375000e+006,-2.27259769e+001
"",,,3.12500000e+006,-3.24475822e+001
"Horizontal Offset",0.00000000e+000,Hz,3.90625000e+006,-3.68309174e+001
,,,4.68750000e+006,-2.92754707e+001
,,,5.46875000e+006,-2.90276165e+001
,,,6.25000000e+006,-3.31670990e+001
,,,7.03125000e+006,-5.28113174e+001
,,,7.81250000e+006,-3.75747490e+001
,,,8.59375000e+006,-3.33188858e+001
,,,9.37500000e+006,-3.43842888e+001
,,,1.01562500e+007,-4.09959183e+001
,,,1.09375000e+007,-5.10382385e+001
,,,1.17187500e+007,-3.76608315e+001
,,,1.25000000e+007,-3.61855316e+001
,,,1.32812500e+007,-3.89673233e+001
,,,1.40625000e+007,-5.21034088e+001
,,,1.48437500e+007,-4.49883156e+001
,,,1.56250000e+007,-3.87869110e+001
,,,1.64062500e+007,-3.89545860e+001
,,,1.71875000e+007,-4.39406395e+001
,,,1.79687500e+007,-5.95787163e+001
,,,1.87500000e+007,-4.30835381e+001
,,,1.95312500e+007,-4.02387390e+001
,,,2.03125000e+007,-4.23801422e+001
,,,2.10937500e+007,-4.98866348e+001
,,,2.18750000e+007,-5.18409348e+001
,,,2.26562500e+007,-4.19328270e+001
,,,2.34375000e+007,-4.13762856e+001
,,,2.42187500e+007,-4.60843849e+001
,,,2.50000000e+007,-6.43877487e+001
,,,2.57812500e+007,-4.57962303e+001
,,,2.65625000e+007,-4.31123924e+001
,,,2.73437500e+007,-4.47579308e+001
,,,2.81250000e+007,-4.83129044e+001
,,,2.89062500e+007,-5.29706001e+001
,,,2.96875000e+007,-4.52996941e+001
,,,3.04687500e+007,-4.42595940e+001
,,,3.12500000e+007,-4.64788017e+001
,,,3.20312500e+007,-5.99618645e+001
,,,3.28125000e+007,-5.09709663e+001
,,,3.35937500e+007,-4.44263000e+001
,,,3.43750000e+007,-4.47743111e+001
,,,3.51562500e+007,-5.07373695e+001
,,,3.59375000e+007,-5.75212669e+001
,,,3.67187500e+007,-4.69659843e+001
,,,3.75000000e+007,-4.57441635e+001
,,,3.82812500e+007,-4.83176346e+001
,,,3.90625000e+007,-5.88033447e+001
,,,3.98437500e+007,-5.21499062e+001
,,,4.06250000e+007,-4.75580215e+001
,,,4.14062500e+007,-4.68333435e+001
,,,4.21875000e+007,-5.07134171e+001
,,,4.29687500e+007,-7.26841583e+001
,,,4.37500000e+007,-4.92308426e+001
,,,4.45312500e+007,-4.65087013e+001
,,,4.53125000e+007,-5.02153740e+001
,,,4.60937500e+007,-5.37740059e+001
,,,4.68750000e+007,-5.39425125e+001
,,,4.76562500e+007,-4.96525230e+001
,,,4.84375000e+007,-4.83584862e+001
,,,4.92187500e+007,-5.06340866e+001
,,,5.00000000e+007,-6.78718109e+001
,,,5.07812500e+007,-5.15043602e+001
,,,5.15625000e+007,-4.80007057e+001
,,,5.23437500e+007,-4.97189331e+001
,,,5.31250000e+007,-5.69566231e+001
,,,5.39062500e+007,-5.96922569e+001
,,,5.46875000e+007,-5.05435791e+001
,,,5.54687500e+007,-4.88979683e+001
,,,5.62500000e+007,-5.27250061e+001
,,,5.70312500e+007,-6.21748848e+001
,,,5.78125000e+007,-5.30189781e+001
,,,5.85937500e+007,-4.96359482e+001
,,,5.93750000e+007,-5.13500481e+001
,,,6.01562500e+007,-5.30977821e+001
,,,6.09375000e+007,-5.77488518e+001
,,,6.17187500e+007,-5.12828026e+001
,,,6.25000000e+007,-5.17054939e+001
,,,6.32812500e+007,-5.32412605e+001
,,,6.40625000e+007,-5.71521797e+001
,,,6.48437500e+007,-5.72197075e+001
,,,6.56250000e+007,-5.10368729e+001
,,,6.64062500e+007,-5.02052612e+001
,,,6.71875000e+007,-5.48887444e+001
,,,6.79687500e+007,-7.09039612e+001
,,,6.87500000e+007,-5.33477898e+001
,,,6.95312500e+007,-5.12023277e+001
,,,7.03125000e+007,-5.11056709e+001
,,,7.10937500e+007,-6.41287231e+001
,,,7.18750000e+007,-5.60187454e+001
,,,7.26562500e+007,-5.59935646e+001
,,,7.34375000e+007,-5.20973129e+001
,,,7.42187500e+007,-5.68668938e+001
,,,7.50000000e+007,-7.01924133e+001
,,,7.57812500e+007,-5.90502815e+001
,,,7.65625000e+007,-5.20169754e+001
,,,7.73437500e+007,-5.45548286e+001
,,,7.81250000e+007,-5.46964722e+001
,,,7.89062500e+007,-6.12558823e+001
,,,7.96875000e+007,-5.38286629e+001
,,,8.04687500e+007,-5.48713570e+001
,,,8.12500000e+007,-5.41206894e+001
,,,8.20312500e+007,-5.69034843e+001
,,,8.28125000e+007,-6.04216194e+001
,,,8.35937500e+007,-5.11108971e+001
,,,8.43750000e+007,-5.03811531e+001
,,,8.51562500e+007,-6.00214462e+001
,,,8.59375000e+007,-6.03078423e+001
,,,8.67187500e+007,-5.42357674e+001
,,,8.75000000e+007,-5.32728271e+001
,,,8.82812500e+007,-5.69669342e+001
,,,8.90625000e+007,-5.93134804e+001
,,,8.98437500e+007,-5.89548111e+001
,,,9.06250000e+007,-5.36300354e+001
,,,9.14062500e+007,-5.46737213e+001
,,,9.21875000e+007,-5.60118828e+001
,,,9.29687500e+007,-7.68443527e+001
,,,9.37500000e+007,-5.91398659e+001
,,,9.45312500e+007,-5.62422180e+001
,,,9.53125000e+007,-4.94960670e+001
,,,9.60937500e+007,-6.13115921e+001
,,,9.68750000e+007,-5.69668579e+001
,,,9.76562500e+007,-5.98673935e+001
,,,9.84375000e+007,-5.43243561e+001
,,,9.92187500e+007,-5.04849434e+001
,,,1.00000000e+008,-6.11064606e+001
,,,1.00781250e+008,-5.00304184e+001
,,,1.01562500e+008,-5.47603874e+001
,,,1.02343750e+008,-5.32989540e+001
,,,1.03125000e+008,-6.20265579e+001
,,,1.03906250e+008,-5.92487793e+001
,,,1.04687500e+008,-5.32210693e+001
,,,1.05468750e+008,-5.70892487e+001
,,,1.06250000e+008,-5.70190659e+001
,,,1.07031250e+008,-6.72103577e+001
,,,1.07812500e+008,-6.80446243e+001
,,,1.08593750e+008,-5.27767181e+001
,,,1.09375000e+008,-5.38455811e+001
,,,1.10156250e+008,-6.05306702e+001
,,,1.10937500e+008,-5.83990707e+001
,,,1.11718750e+008,-5.69307671e+001
,,,1.12500000e+008,-6.07442207e+001
,,,1.13281250e+008,-5.33988037e+001
,,,1.14062500e+008,-5.80150299e+001
,,,1.14843750e+008,-5.82023087e+001
,,,1.15625000e+008,-6.24840240e+001
,,,1.16406250e+008,-5.18096466e+001
,,,1.17187500e+008,-5.54818573e+001
,,,1.17968750e+008,-6.19959908e+001
,,,1.18750000e+008,-6.34543877e+001
,,,1.19531250e+008,-5.14293022e+001
,,,1.20312500e+008,-5.99984894e+001
,,,1.21093750e+008,-7.28698959e+001
,,,1.21875000e+008,-6.11608086e+001
,,,1.22656250e+008,-5.89315796e+001
,,,1.23437500e+008,-5.91254349e+001
,,,1.24218750e+008,-5.59723930e+001
,,,1.25000000e+008,-6.13352852e+001
,,,1.25781250e+008,-6.94265823e+001
,,,1.26562500e+008,-5.81397934e+001
,,,1.27343750e+008,-5.25127831e+001
,,,1.28125000e+008,-7.48510513e+001
,,,1.28906250e+008,-5.88208656e+001
,,,1.29687500e+008,-4.89081573e+001
,,,1.30468750e+008,-4.82758179e+001
,,,1.31250000e+008,-5.53146744e+001
,,,1.32031250e+008,-5.28002281e+001
,,,1.32812500e+008,-6.01777534e+001
,,,1.33593750e+008,-5.26082573e+001
,,,1.34375000e+008,-6.10676346e+001
,,,1.35156250e+008,-5.57974815e+001
,,,1.35937500e+008,-5.86385231e+001
,,,1.36718750e+008,-5.92457848e+001
,,,1.37500000e+008,-6.04431000e+001
,,,1.38281250e+008,-5.79102058e+001
,,,1.39062500e+008,-5.99870186e+001
,,,1.39843750e+008,-6.49980240e+001
,,,1.40625000e+008,-5.36953964e+001
,,,1.41406250e+008,-5.84999695e+001
,,,1.42187500e+008,-6.53741837e+001
,,,1.42968750e+008,-6.90673294e+001
,,,1.43750000e+008,-7.19955673e+001
,,,1.44531250e+008,-5.86503448e+001
,,,1.45312500e+008,-5.14429054e+001
,,,1.46093750e+008,-5.89857178e+001
,,,1.46875000e+008,-5.16042290e+001
,,,1.47656250e+008,-4.84530945e+001
,,,1.48437500e+008,-4.21999779e+001
,,,1.49218750e+008,-4.16574593e+001
,,,1.50000000e+008,-4.32241821e+001
,,,1.50781250e+008,-4.56549873e+001
,,,1.51562500e+008,-4.97143974e+001
,,,1.52343750e+008,-5.06233673e+001
,,,1.53125000e+008,-5.94588814e+001
,,,1.53906250e+008,-5.76707077e+001
,,,1.54687500e+008,-5.16993790e+001
,,,1.55468750e+008,-5.25922050e+001
,,,1.56250000e+008,-6.07585831e+001
,,,1.57031250e+008,-5.63995705e+001
,,,1.57812500e+008,-5.86191711e+001
,,,1.58593750e+008,-5.98524094e+001
,,,1.59375000e+008,-5.32338181e+001
,,,1.60156250e+008,-5.49715538e+001
,,,1.60937500e+008,-5.48427963e+001
,,,1.61718750e+008,-6.89192429e+001
,,,1.62500000e+008,-5.04909859e+001
,,,1.63281250e+008,-6.44495773e+001
,,,1.64062500e+008,-5.09681664e+001
,,,1.64843750e+008,-4.43338051e+001
,,,1.65625000e+008,-4.01087837e+001
,,,1.66406250e+008,-3.86117249e+001
,,,1.67187500e+008,-3.70771217e+001
,,,1.67968750e+008,-3.92536850e+001
,,,1.68750000e+008,-4.14080124e+001
,,,1.69531250e+008,-4.65116844e+001
,,,1.70312500e+008,-4.10485916e+001
,,,1.71093750e+008,-4.10340462e+001
,,,1.71875000e+008,-4.27681732e+001
,,,1.72656250e+008,-4.74789810e+001
,,,1.73437500e+008,-4.46994743e+001
,,,1.74218750e+008,-4.76603508e+001
,,,1.75000000e+008,-4.98197403e+001
,,,1.75781250e+008,-5.10774307e+001
,,,1.76562500e+008,-4.38089867e+001
,,,1.77343750e+008,-4.55383606e+001
,,,1.78125000e+008,-4.44350166e+001
,,,1.78906250e+008,-4.43003426e+001
,,,1.79687500e+008,-4.19653702e+001
,,,1.80468750e+008,-4.09351845e+001
,,,1.81250000e+008,-3.84938202e+001
,,,1.82031250e+008,-3.97838440e+001
,,,1.82812500e+008,-4.16038742e+001
,,,1.83593750e+008,-3.97208519e+001
,,,1.84375000e+008,-3.59858742e+001
,,,1.85156250e+008,-3.54978104e+001
,,,1.85937500e+008,-3.57425652e+001
,,,1.86718750e+008,-3.81278572e+001
,,,1.87500000e+008,-3.83758926e+001
,,,1.88281250e+008,-3.88533058e+001
,,,1.89062500e+008,-3.79460945e+001
,,,1.89843750e+008,-3.87644196e+001
,,,1.90625000e+008,-3.92363853e+001
,,,1.91406250e+008,-4.13443375e+001
,,,1.92187500e+008,-3.86194077e+001
,,,1.92968750e+008,-3.83523140e+001
,,,1.93750000e+008,-3.78365707e+001
,,,1.94531250e+008,-3.99678688e+001
,,,1.95312500e+008,-3.85717087e+001
,,,1.96093750e+008,-3.87413597e+001
,,,1.96875000e+008,-3.90353355e+001
,,,1.97656250e+008,-4.13835297e+001
,,,1.98437500e+008,-4.18165894e+001
,,,1.99218750e+008,-4.29122238e+001
,,,2.00000000e+008,-4.24932480e+001
,,,2.00781250e+008,-4.50048637e+001
,,,2.01562500e+008,-4.79329453e+001
,,,2.02343750e+008,-4.96431656e+001
,,,2.03125000e+008,-4.52451897e+001
,,,2.03906250e+008,-4.49725876e+001
,,,2.04687500e+008,-4.27163811e+001
,,,2.05468750e+008,-3.91876793e+001
,,,2.06250000e+008,-3.63629112e+001
,,,2.07031250e+008,-3.60425529e+001
,,,2.07812500e+008,-3.69096527e+001
,,,2.08593750e+008,-3.74224052e+001
,,,2.09375000e+008,-3.83714256e+001
,,,2.10156250e+008,-3.74124832e+001
,,,2.10937500e+008,-3.57514229e+001
,,,2.11718750e+008,-3.63499031e+001
,,,2.12500000e+008,-3.69769325e+001
,,,2.13281250e+008,-3.82095070e+001
,,,2.14062500e+008,-3.75996552e+001
,,,2.14843750e+008,-3.73627052e+001
,,,2.15625000e+008,-3.56978874e+001
,,,2.16406250e+008,-3.45583572e+001
,,,2.17187500e+008,-3.45999718e+001
,,,2.17968750e+008,-3.62904053e+001
,,,2.18750000e+008,-3.61496315e+001
,,,2.19531250e+008,-3.41991844e+001
,,,2.20312500e+008,-3.43510475e+001
,,,2.21093750e+008,-3.67324371e+001
,,,2.21875000e+008,-3.88060188e+001
,,,2.22656250e+008,-3.67057495e+001
,,,2.23437500e+008,-3.50843010e+001
,,,2.24218750e+008,-3.41034508e+001
,,,2.25000000e+008,-3.30629959e+001
,,,2.25781250e+008,-3.24703522e+001
,,,2.26562500e+008,-3.38355293e+001
,,,2.27343750e+008,-3.51036072e+001
,,,2.28125000e+008,-3.37312050e+001
,,,2.28906250e+008,-3.19615459e+001
,,,2.29687500e+008,-3.11039562e+001
,,,2.30468750e+008,-3.13716679e+001
,,,2.31250000e+008,-3.31702461e+001
,,,2.32031250e+008,-3.56082726e+001
,,,2.32812500e+008,-3.51133118e+001
,,,2.33593750e+008,-3.38194275e+001
,,,2.34375000e+008,-3.52154350e+001
,,,2.35156250e+008,-3.79154930e+001
,,,2.35937500e+008,-3.53355026e+001
,,,2.36718750e+008,-3.17522221e+001
,,,2.37500000e+008,-3.14417362e+001
,,,2.38281250e+008,-3.11744137e+001
,,,2.39062500e+008,-3.14460068e+001
,,,2.39843750e+008,-3.06737976e+001
,,,2.40625000e+008,-3.07996292e+001
,,,2.41406250e+008,-3.00274391e+001
,,,2.42187500e+008,-2.92089405e+001
,,,2.42968750e+008,-2.89539528e+001
,,,2.43750000e+008,-2.90631866e+001
,,,2.44531250e+008,-2.88620796e+001
,,,2.45312500e+008,-2.93948097e+001
,,,2.46093750e+008,-3.05414391e+001
,,,2.46875000e+008,-3.16663361e+001
,,,2.47656250e+008,-3.20089455e+001
,,,2.48437500e+008,-3.25273743e+001
,,,2.49218750e+008,-3.22163429e+001
,,,2.50000000e+008,-3.12952518e+001
,,,2.50781250e+008,-2.95445404e+001
,,,2.51562500e+008,-2.88528538e+001
,,,2.52343750e+008,-2.87690277e+001
,,,2.53125000e+008,-2.93370228e+001
,,,2.53906250e+008,-2.91442947e+001
,,,2.54687500e+008,-2.93461876e+001
,,,2.55468750e+008,-3.00810490e+001
,,,2.56250000e+008,-3.14015942e+001
,,,2.57031250e+008,-2.96122303e+001
,,,2.57812500e+008,-2.83246231e+001
,,,2.58593750e+008,-2.85287704e+001
,,,2.59375000e+008,-2.88205147e+001
,,,2.60156250e+008,-2.71562538e+001
,,,2.60937500e+008,-2.60189724e+001
,,,2.61718750e+008,-2.55790253e+001
,,,2.62500000e+008,-2.57055798e+001
,,,2.63281250e+008,-2.53783741e+001
,,,2.64062500e+008,-2.59126053e+001
,,,2.64843750e+008,-2.72299938e+001
,,,2.65625000e+008,-2.95286541e+001
,,,2.66406250e+008,-2.96726723e+001
,,,2.67187500e+008,-2.87945805e+001
,,,2.67968750e+008,-2.76745586e+001
,,,2.68750000e+008,-2.78404121e+001
,,,2.69531250e+008,-2.83929482e+001
,,,2.70312500e+008,-2.95458984e+001
,,,2.71093750e+008,-2.95712147e+001
,,,2.71875000e+008,-2.96913624e+001
,,,2.72656250e+008,-2.89249897e+001
,,,2.73437500e+008,-2.74742546e+001
,,,2.74218750e+008,-2.58860531e+001
,,,2.75000000e+008,-2.58126945e+001
,,,2.75781250e+008,-2.65734653e+001
,,,2.76562500e+008,-2.73800468e+001
,,,2.77343750e+008,-2.75252247e+001
,,,2.78125000e+008,-2.84264774e+001
,,,2.78906250e+008,-2.88057995e+001
,,,2.79687500e+008,-2.79067554e+001
,,,2.80468750e+008,-2.68486328e+001
,,,2.81250000e+008,-2.74691200e+001
,,,2.82031250e+008,-2.85090294e+001
,,,2.82812500e+008,-2.97775536e+001
,,,2.83593750e+008,-3.02827263e+001
,,,2.84375000e+008,-3.13573341e+001
,,,2.85156250e+008,-3.09647064e+001
,,,2.85937500e+008,-3.02613811e+001
,,,2.86718750e+008,-2.98116589e+001
,,,2.87500000e+008,-2.92597713e+001
,,,2.88281250e+008,-2.80118084e+001
,,,2.89062500e+008,-2.72657051e+001
,,,2.89843750e+008,-2.72801151e+001
,,,2.90625000e+008,-2.76140766e+001
,,,2.91406250e+008,-2.71315956e+001
,,,2.92187500e+008,-2.68831348e+001
,,,2.92968750e+008,-2.73592396e+001
,,,2.93750000e+008,-2.80673103e+001
,,,2.94531250e+008,-2.76227360e+001
,,,2.95312500e+008,-2.66431713e+001
,,,2.96093750e+008,-2.59450188e+001
,,,2.96875000e+008,-2.57546444e+001
,,,2.97656250e+008,-2.56674728e+001
,,,2.98437500e+008,-2.54112358e+001
,,,2.99218750e+008,-2.54743538e+001
,,,3.00000000e+008,-2.58968449e+001
,,,3.00781250e+008,-2.59756012e+001
,,,3.01562500e+008,-2.54288635e+001
,,,3.02343750e+008,-2.53969326e+001
,,,3.03125000e+008,-2.54719696e+001
,,,3.03906250e+008,-2.53589191e+001
,,,3.04687500e+008,-2.51167507e+001
,,,3.05468750e+008,-2.56125240e+001
,,,3.06250000e+008,-2.67827301e+001
,,,3.07031250e+008,-2.80533619e+001
,,,3.07812500e+008,-2.92287025e+001
,,,3.08593750e+008,-3.00161953e+001
,,,3.09375000e+008,-2.84949303e+001
,,,3.10156250e+008,-2.68056431e+001
,,,3.10937500e+008,-2.59650154e+001
,,,3.11718750e+008,-2.59999371e+001
,,,3.12500000e+008,-2.58961010e+001
,,,3.13281250e+008,-2.60852203e+001
,,,3.14062500e+008,-2.57324982e+001
,,,3.14843750e+008,-2.50815411e+001
,,,3.15625000e+008,-2.43723660e+001
,,,3.16406250e+008,-2.48105240e+001
,,,3.17187500e+008,-2.59737263e+001
,,,3.17968750e+008,-2.66549587e+001
,,,3.18750000e+008,-2.63742313e+001
,,,3.19531250e+008,-2.66895123e+001
,,,3.20312500e+008,-2.64458809e+001
,,,3.21093750e+008,-2.64573956e+001
,,,3.21875000e+008,-2.66474724e+001
,,,3.22656250e+008,-2.73710003e+001
,,,3.23437500e+008,-2.75574799e+001
,,,3.24218750e+008,-2.73391457e+001
,,,3.25000000e+008,-2.69892845e+001
,,,3.25781250e+008,-2.69541416e+001
,,,3.26562500e+008,-2.66118717e+001
,,,3.27343750e+008,-2.66792507e+001
,,,3.28125000e+008,-2.60712395e+001
,,,3.28906250e+008,-2.52778912e+001
,,,3.29687500e+008,-2.42698402e+001
,,,3.30468750e+008,-2.41902885e+001
,,,3.31250000e+008,-2.46843948e+001
,,,3.32031250e+008,-2.62714195e+001
,,,3.32812500e+008,-2.76671925e+001
,,,3.33593750e+008,-2.71511059e+001
,,,3.34375000e+008,-2.55190010e+001
,,,3.35156250e+008,-2.50145569e+001
,,,3.35937500e+008,-2.53847256e+001
,,,3.36718750e+008,-2.59552555e+001
,,,3.37500000e+008,-2.60237503e+001
,,,3.38281250e+008,-2.68145351e+001
,,,3.39062500e+008,-2.79518719e+001
,,,3.39843750e+008,-2.93330269e+001
,,,3.40625000e+008,-2.92960777e+001
,,,3.41406250e+008,-2.90191078e+001
,,,3.42187500e+008,-2.79116497e+001
,,,3.42968750e+008,-2.69167652e+001
,,,3.43750000e+008,-2.60992832e+001
,,,3.44531250e+008,-2.50424919e+001
,,,3.45312500e+008,-2.34973202e+001
,,,3.46093750e+008,-2.24059410e+001
,,,3.46875000e+008,-2.19138489e+001
,,,3.47656250e+008,-2.20857983e+001
,,,3.48437500e+008,-2.24597263e+001
,,,3.49218750e+008,-2.30731773e+001
,,,3.50000000e+008,-2.36957493e+001
,,,3.50781250e+008,-2.51603451e+001
,,,3.51562500e+008,-2.70803986e+001
,,,3.52343750e+008,-2.99585514e+001
,,,3.53125000e+008,-3.04945431e+001
,,,3.53906250e+008,-2.92070885e+001
,,,3.54687500e+008,-2.82308960e+001
,,,3.55468750e+008,-2.82346764e+001
,,,3.56250000e+008,-2.88435974e+001
,,,3.57031250e+008,-2.99336109e+001
,,,3.57812500e+008,-2.98793240e+001
,,,3.58593750e+008,-2.83762646e+001
,,,3.59375000e+008,-2.73650398e+001
,,,3.60156250e+008,-2.78115044e+001
,,,3.60937500e+008,-2.93699150e+001
,,,3.61718750e+008,-2.96454697e+001
,,,3.62500000e+008,-2.80561390e+001
,,,3.63281250e+008,-2.68674965e+001
,,,3.64062500e+008,-2.66121101e+001
,,,3.64843750e+008,-2.61807327e+001
,,,3.65625000e+008,-2.55186806e+001
,,,3.66406250e+008,-2.50063572e+001
,,,3.67187500e+008,-2.50641708e+001
,,,3.67968750e+008,-2.55766106e+001
,,,3.68750000e+008,-2.60168686e+001
,,,3.69531250e+008,-2.63712521e+001
,,,3.70312500e+008,-2.71495380e+001
,,,3.71093750e+008,-2.83613033e+001
,,,3.71875000e+008,-2.96917343e+001
,,,3.72656250e+008,-2.98071957e+001
,,,3.73437500e+008,-2.86691360e+001
,,,3.74218750e+008,-2.73915825e+001
,,,3.75000000e+008,-2.69442444e+001
,,,3.75781250e+008,-2.70258636e+001
,,,3.76562500e+008,-2.73683147e+001
,,,3.77343750e+008,-2.71754131e+001
,,,3.78125000e+008,-2.75808182e+001
,,,3.78906250e+008,-2.78222580e+001
,,,3.79687500e+008,-2.74778881e+001
,,,3.80468750e+008,-2.62444782e+001
,,,3.81250000e+008,-2.51980515e+001
,,,3.82031250e+008,-2.46089134e+001
,,,3.82812500e+008,-2.45474625e+001
,,,3.83593750e+008,-2.43509655e+001
,,,3.84375000e+008,-2.43640976e+001
,,,3.85156250e+008,-2.42680302e+001
,,,3.85937500e+008,-2.44082203e+001
,,,3.86718750e+008,-2.42795906e+001
,,,3.87500000e+008,-2.42195988e+001
,,,3.88281250e+008,-2.43217831e+001
,,,3.89062500e+008,-2.50654793e+001
,,,3.89843750e+008,-2.61971970e+001
,,,3.90625000e+008,-2.68695145e+001
,,,3.91406250e+008,-2.66010876e+001
,,,3.92187500e+008,-2.70225830e+001
,,,3.92968750e+008,-2.76851654e+001
,,,3.93750000e+008,-2.79556198e+001
,,,3.94531250e+008,-2.72417336e+001
,,,3.95312500e+008,-2.68162384e+001
,,,3.96093750e+008,-2.65668201e+001
,,,3.96875000e+008,-2.67484074e+001
,,,3.97656250e+008,-2.75050907e+001
,,,3.98437500e+008,-2.92115593e+001
,,,3.99218750e+008,-3.01829948e+001
,,,4.00000000e+008,-3.03289528e+001
,,,4.00781250e+008,-3.01564789e+001
,,,4.01562500e+008,-3.12487793e+001
,,,4.02343750e+008,-3.21040878e+001
,,,4.03125000e+008,-3.27329407e+001
,,,4.03906250e+008,-3.31293945e+001
,,,4.04687500e+008,-3.43215981e+001
,,,4.05468750e+008,-3.37456932e+001
,,,4.06250000e+008,-3.31322060e+001
,,,4.07031250e+008,-3.14076805e+001
,,,4.07812500e+008,-3.04793720e+001
,,,4.08593750e+008,-3.03411980e+001
,,,4.09375000e+008,-3.07262096e+001
,,,4.10156250e+008,-3.04543018e+001
,,,4.10937500e+008,-3.00756302e+001
,,,4.11718750e+008,-2.95798206e+001
,,,4.12500000e+008,-2.89080410e+001
,,,4.13281250e+008,-2.75464516e+001
,,,4.14062500e+008,-2.64905853e+001
,,,4.14843750e+008,-2.62778397e+001
,,,4.15625000e+008,-2.65247116e+001
,,,4.16406250e+008,-2.70669308e+001
,,,4.17187500e+008,-2.75191841e+001
,,,4.17968750e+008,-2.80874729e+001
,,,4.18750000e+008,-2.87903709e+001
,,,4.19531250e+008,-2.94909706e+001
,,,4.20312500e+008,-3.01004963e+001
,,,4.21093750e+008,-3.06203518e+001
,,,4.21875000e+008,-2.99067383e+001
,,,4.22656250e+008,-2.91247482e+001
,,,4.23437500e+008,-2.84498787e+001
,,,4.24218750e+008,-2.83049240e+001
,,,4.25000000e+008,-2.83098545e+001
,,,4.25781250e+008,-2.85434647e+001
,,,4.26562500e+008,-2.82575588e+001
,,,4.27343750e+008,-2.72689285e+001
,,,4.28125000e+008,-2.65926037e+001
,,,4.28906250e+008,-2.66661453e+001
,,,4.29687500e+008,-2.66835537e+001
