Data/20220819/UCLA_to_R2A_VPOL_E_70_01_Ch2.csv

"Record Length",5000,"Points",-1.00800000e-007,-1.80624962e-004
"Sample Interval",2.00000000e-010,s,-1.00600000e-007,-1.04374958e-004
"Trigger Point",504,"Samples",-1.00400000e-007,-2.34374545e-005
"Trigger Time",0.00000000e+000,s,-1.00200000e-007,3.84375484e-005
"",,,-1.00000000e-007,1.04687552e-004
"Horizontal Offset",-1.00800000e-007,s,-9.98000000e-008,6.75000498e-005
,,,-9.96000000e-008,-2.40624546e-005
,,,-9.94000000e-008,-1.18749959e-004
,,,-9.92000000e-008,-2.21874964e-004
,,,-9.90000000e-008,-2.51874965e-004
,,,-9.88000000e-008,-1.59687461e-004
,,,-9.86000000e-008,-5.06249558e-005
,,,-9.84000000e-008,9.46875511e-005
,,,-9.82000000e-008,1.50625054e-004
,,,-9.80000000e-008,9.06250509e-005
,,,-9.78000000e-008,-2.18749545e-005
,,,-9.76000000e-008,-1.51874961e-004
,,,-9.74000000e-008,-2.05937463e-004
,,,-9.72000000e-008,-1.96249963e-004
,,,-9.70000000e-008,-1.04374958e-004
,,,-9.68000000e-008,1.18750471e-005
,,,-9.66000000e-008,8.71875507e-005
,,,-9.64000000e-008,5.96875494e-005
,,,-9.62000000e-008,3.12500481e-005
,,,-9.60000000e-008,-4.74999557e-005
,,,-9.58000000e-008,-9.68749580e-005
,,,-9.56000000e-008,-1.05937458e-004
,,,-9.54000000e-008,-1.10312459e-004
,,,-9.52000000e-008,-9.96874582e-005
,,,-9.50000000e-008,-6.21874564e-005
,,,-9.48000000e-008,-5.12499559e-005
,,,-9.46000000e-008,-3.53124551e-005
,,,-9.44000000e-008,1.46875473e-005
,,,-9.42000000e-008,-1.34374541e-005
,,,-9.40000000e-008,1.21875471e-005
,,,-9.38000000e-008,-1.34374541e-005
,,,-9.36000000e-008,-8.37499574e-005
,,,-9.34000000e-008,-1.07499959e-004
,,,-9.32000000e-008,-1.28124960e-004
,,,-9.30000000e-008,-1.27187459e-004
,,,-9.28000000e-008,-5.09374559e-005
,,,-9.26000000e-008,8.43754697e-006
,,,-9.24000000e-008,4.43750487e-005
,,,-9.22000000e-008,7.65625502e-005
,,,-9.20000000e-008,5.18750490e-005
,,,-9.18000000e-008,2.81254670e-006
,,,-9.16000000e-008,-1.14374959e-004
,,,-9.14000000e-008,-1.89999962e-004
,,,-9.12000000e-008,-2.11249963e-004
,,,-9.10000000e-008,-1.37812460e-004
,,,-9.08000000e-008,-3.28124550e-005
,,,-9.06000000e-008,9.21875509e-005
,,,-9.04000000e-008,1.38750053e-004
,,,-9.02000000e-008,7.15625500e-005
,,,-9.00000000e-008,-2.81249548e-005
,,,-8.98000000e-008,-1.60312461e-004
,,,-8.96000000e-008,-2.50312465e-004
,,,-8.94000000e-008,-2.13749964e-004
,,,-8.92000000e-008,-1.31874960e-004
,,,-8.90000000e-008,6.56254688e-006
,,,-8.88000000e-008,1.44375053e-004
,,,-8.86000000e-008,1.31250053e-004
,,,-8.84000000e-008,6.43750496e-005
,,,-8.82000000e-008,-7.06249568e-005
,,,-8.80000000e-008,-2.04374963e-004
,,,-8.78000000e-008,-1.98749963e-004
,,,-8.76000000e-008,-1.67187461e-004
,,,-8.74000000e-008,-3.81249552e-005
,,,-8.72000000e-008,7.28125500e-005
,,,-8.70000000e-008,7.15625500e-005
,,,-8.68000000e-008,4.81250489e-005
,,,-8.66000000e-008,-3.65624552e-005
,,,-8.64000000e-008,-9.34374579e-005
,,,-8.62000000e-008,-1.32499960e-004
,,,-8.60000000e-008,-1.42499960e-004
,,,-8.58000000e-008,-1.10312459e-004
,,,-8.56000000e-008,-5.71874562e-005
,,,-8.54000000e-008,-1.59374542e-005
,,,-8.52000000e-008,2.68750478e-005
,,,-8.50000000e-008,-4.68745366e-006
,,,-8.48000000e-008,-1.40624541e-005
,,,-8.46000000e-008,-6.18749564e-005
,,,-8.44000000e-008,-9.62499580e-005
,,,-8.42000000e-008,-8.71874576e-005
,,,-8.40000000e-008,-9.28124578e-005
,,,-8.38000000e-008,-8.87499576e-005
,,,-8.36000000e-008,-6.56249566e-005
,,,-8.34000000e-008,-1.78124543e-005
,,,-8.32000000e-008,2.93750480e-005
,,,-8.30000000e-008,2.00000475e-005
,,,-8.28000000e-008,-6.24995373e-006
,,,-8.26000000e-008,-4.37499555e-005
,,,-8.24000000e-008,-9.46874579e-005
,,,-8.22000000e-008,-1.15624959e-004
,,,-8.20000000e-008,-1.00312458e-004
,,,-8.18000000e-008,-6.62499566e-005
,,,-8.16000000e-008,-3.09374549e-005
,,,-8.14000000e-008,2.18750476e-005
,,,-8.12000000e-008,2.50000478e-005
,,,-8.10000000e-008,8.12504695e-006
,,,-8.08000000e-008,-4.12499554e-005
,,,-8.06000000e-008,-1.13749959e-004
,,,-8.04000000e-008,-1.34687460e-004
,,,-8.02000000e-008,-1.56562461e-004
,,,-8.00000000e-008,-7.49999570e-005
,,,-7.98000000e-008,-1.87499543e-005
,,,-7.96000000e-008,2.50004668e-006
,,,-7.94000000e-008,5.34375491e-005
,,,-7.92000000e-008,1.50000473e-005
,,,-7.90000000e-008,-4.15624554e-005
,,,-7.88000000e-008,-7.96874572e-005
,,,-7.86000000e-008,-1.34687460e-004
,,,-7.84000000e-008,-1.29999960e-004
,,,-7.82000000e-008,-6.18749564e-005
,,,-7.80000000e-008,-2.06249544e-005
,,,-7.78000000e-008,-9.99995391e-006
,,,-7.76000000e-008,9.68754703e-006
,,,-7.74000000e-008,-4.90624558e-005
,,,-7.72000000e-008,-7.40624570e-005
,,,-7.70000000e-008,-7.18749568e-005
,,,-7.68000000e-008,-4.99999558e-005
,,,-7.66000000e-008,-5.03124558e-005
,,,-7.64000000e-008,-3.99999553e-005
,,,-7.62000000e-008,-8.65624575e-005
,,,-7.60000000e-008,-1.11249959e-004
,,,-7.58000000e-008,-9.99999582e-005
,,,-7.56000000e-008,-3.96874553e-005
,,,-7.54000000e-008,1.87504666e-006
,,,-7.52000000e-008,3.43750482e-005
,,,-7.50000000e-008,1.43750472e-005
,,,-7.48000000e-008,-4.24999555e-005
,,,-7.46000000e-008,-1.09374959e-004
,,,-7.44000000e-008,-1.57187461e-004
,,,-7.42000000e-008,-1.95624963e-004
,,,-7.40000000e-008,-1.14374959e-004
,,,-7.38000000e-008,-1.56245351e-006
,,,-7.36000000e-008,9.65625512e-005
,,,-7.34000000e-008,1.12500052e-004
,,,-7.32000000e-008,3.62500483e-005
,,,-7.30000000e-008,-7.81249571e-005
,,,-7.28000000e-008,-1.70312462e-004
,,,-7.26000000e-008,-2.31249964e-004
,,,-7.24000000e-008,-1.79374962e-004
,,,-7.22000000e-008,-4.12499554e-005
,,,-7.20000000e-008,6.65625497e-005
,,,-7.18000000e-008,1.55625054e-004
,,,-7.16000000e-008,1.14687552e-004
,,,-7.14000000e-008,3.28125481e-005
,,,-7.12000000e-008,-1.21874959e-004
,,,-7.10000000e-008,-2.39687465e-004
,,,-7.08000000e-008,-2.53124965e-004
,,,-7.06000000e-008,-1.75937462e-004
,,,-7.04000000e-008,-1.21874540e-005
,,,-7.02000000e-008,9.21875509e-005
,,,-7.00000000e-008,1.31250053e-004
,,,-6.98000000e-008,7.78125503e-005
,,,-6.96000000e-008,-2.37499546e-005
,,,-6.94000000e-008,-1.35937460e-004
,,,-6.92000000e-008,-1.98437463e-004
,,,-6.90000000e-008,-1.80312462e-004
,,,-6.88000000e-008,-9.40624579e-005
,,,-6.86000000e-008,1.62500473e-005
,,,-6.84000000e-008,6.84375498e-005
,,,-6.82000000e-008,8.09375504e-005
,,,-6.80000000e-008,2.56250478e-005
,,,-6.78000000e-008,-5.93749563e-005
,,,-6.76000000e-008,-1.17499959e-004
,,,-6.74000000e-008,-1.37187460e-004
,,,-6.72000000e-008,-1.14999959e-004
,,,-6.70000000e-008,-2.65624547e-005
,,,-6.68000000e-008,-8.12495382e-006
,,,-6.66000000e-008,-1.24995349e-006
,,,-6.64000000e-008,-2.84374548e-005
,,,-6.62000000e-008,-6.96874567e-005
,,,-6.60000000e-008,-6.06249563e-005
,,,-6.58000000e-008,-5.43749560e-005
,,,-6.56000000e-008,-6.56249566e-005
,,,-6.54000000e-008,-3.56249551e-005
,,,-6.52000000e-008,-7.46874570e-005
,,,-6.50000000e-008,-9.84374581e-005
,,,-6.48000000e-008,-9.21874578e-005
,,,-6.46000000e-008,-1.11874959e-004
,,,-6.44000000e-008,-8.71874576e-005
,,,-6.42000000e-008,1.46875473e-005
,,,-6.40000000e-008,6.96875499e-005
,,,-6.38000000e-008,6.31250496e-005
,,,-6.36000000e-008,-1.24995349e-006
,,,-6.34000000e-008,-1.22187459e-004
,,,-6.32000000e-008,-1.75312462e-004
,,,-6.30000000e-008,-1.85937462e-004
,,,-6.28000000e-008,-9.06249577e-005
,,,-6.26000000e-008,-5.93745372e-006
,,,-6.24000000e-008,7.65625502e-005
,,,-6.22000000e-008,9.09375509e-005
,,,-6.20000000e-008,4.75000488e-005
,,,-6.18000000e-008,-4.53124556e-005
,,,-6.16000000e-008,-1.11562459e-004
,,,-6.14000000e-008,-1.76874962e-004
,,,-6.12000000e-008,-1.97187463e-004
,,,-6.10000000e-008,-1.19687459e-004
,,,-6.08000000e-008,-3.71874552e-005
,,,-6.06000000e-008,8.43754697e-006
,,,-6.04000000e-008,4.87500489e-005
,,,-6.02000000e-008,4.53125487e-005
,,,-6.00000000e-008,-3.96874553e-005
,,,-5.98000000e-008,-9.59374580e-005
,,,-5.96000000e-008,-1.60624961e-004
,,,-5.94000000e-008,-1.66562461e-004
,,,-5.92000000e-008,-1.33437460e-004
,,,-5.90000000e-008,-3.24999550e-005
,,,-5.88000000e-008,6.25004686e-006
,,,-5.86000000e-008,3.21875481e-005
,,,-5.84000000e-008,3.87500484e-005
,,,-5.82000000e-008,-9.37453478e-007
,,,-5.80000000e-008,-6.21874564e-005
,,,-5.78000000e-008,-1.07187459e-004
,,,-5.76000000e-008,-1.06562458e-004
,,,-5.74000000e-008,-1.23437459e-004
,,,-5.72000000e-008,-6.28124564e-005
,,,-5.70000000e-008,-5.90624562e-005
,,,-5.68000000e-008,-4.37499555e-005
,,,-5.66000000e-008,-1.71874543e-005
,,,-5.64000000e-008,1.75000474e-005
,,,-5.62000000e-008,3.12504671e-006
,,,-5.60000000e-008,-1.90624543e-005
,,,-5.58000000e-008,-6.37499565e-005
,,,-5.56000000e-008,-1.49687461e-004
,,,-5.54000000e-008,-1.64374961e-004
,,,-5.52000000e-008,-1.39062460e-004
,,,-5.50000000e-008,-6.93749567e-005
,,,-5.48000000e-008,4.50000487e-005
,,,-5.46000000e-008,7.65625502e-005
,,,-5.44000000e-008,9.18750509e-005
,,,-5.42000000e-008,1.59375473e-005
,,,-5.40000000e-008,-8.43749574e-005
,,,-5.38000000e-008,-1.73749962e-004
,,,-5.36000000e-008,-2.07499963e-004
,,,-5.34000000e-008,-1.53124961e-004
,,,-5.32000000e-008,-1.59374542e-005
,,,-5.30000000e-008,4.00000485e-005
,,,-5.28000000e-008,8.71875507e-005
,,,-5.26000000e-008,6.12500495e-005
,,,-5.24000000e-008,-2.43749546e-005
,,,-5.22000000e-008,-1.01562458e-004
,,,-5.20000000e-008,-1.68437461e-004
,,,-5.18000000e-008,-1.63437461e-004
,,,-5.16000000e-008,-9.18749578e-005
,,,-5.14000000e-008,-2.37499546e-005
,,,-5.12000000e-008,2.09375476e-005
,,,-5.10000000e-008,2.87500479e-005
,,,-5.08000000e-008,2.56250478e-005
,,,-5.06000000e-008,-5.21874559e-005
,,,-5.04000000e-008,-1.03437458e-004
,,,-5.02000000e-008,-1.24374959e-004
,,,-5.00000000e-008,-1.23437459e-004
,,,-4.98000000e-008,-6.21874564e-005
,,,-4.96000000e-008,-2.53124546e-005
,,,-4.94000000e-008,-5.21874559e-005
,,,-4.92000000e-008,-2.31249545e-005
,,,-4.90000000e-008,-3.59374551e-005
,,,-4.88000000e-008,-6.09374563e-005
,,,-4.86000000e-008,-2.93749548e-005
,,,-4.84000000e-008,-6.40624565e-005
,,,-4.82000000e-008,-6.15624564e-005
,,,-4.80000000e-008,-4.49999556e-005
,,,-4.78000000e-008,-9.18749578e-005
,,,-4.76000000e-008,-6.28124564e-005
,,,-4.74000000e-008,-6.49999565e-005
,,,-4.72000000e-008,-6.46874565e-005
,,,-4.70000000e-008,-5.03124558e-005
,,,-4.68000000e-008,-4.43749555e-005
,,,-4.66000000e-008,-2.43749546e-005
,,,-4.64000000e-008,-1.43749541e-005
,,,-4.62000000e-008,-4.74999557e-005
,,,-4.60000000e-008,-9.28124578e-005
,,,-4.58000000e-008,-1.59687461e-004
,,,-4.56000000e-008,-1.13437459e-004
,,,-4.54000000e-008,-5.46874560e-005
,,,-4.52000000e-008,-2.18745354e-006
,,,-4.50000000e-008,3.46875482e-005
,,,-4.48000000e-008,3.37500482e-005
,,,-4.46000000e-008,-2.31249545e-005
,,,-4.44000000e-008,-8.15624573e-005
,,,-4.42000000e-008,-1.88124962e-004
,,,-4.40000000e-008,-1.99999963e-004
,,,-4.38000000e-008,-1.09062459e-004
,,,-4.36000000e-008,-2.06249544e-005
,,,-4.34000000e-008,8.68750507e-005
,,,-4.32000000e-008,1.14375052e-004
,,,-4.30000000e-008,1.43750472e-005
,,,-4.28000000e-008,-7.53124570e-005
,,,-4.26000000e-008,-1.68749961e-004
,,,-4.24000000e-008,-2.29374964e-004
,,,-4.22000000e-008,-1.51249961e-004
,,,-4.20000000e-008,-3.53124551e-005
,,,-4.18000000e-008,1.71875474e-005
,,,-4.16000000e-008,8.00000504e-005
,,,-4.14000000e-008,2.56250478e-005
,,,-4.12000000e-008,-5.56249561e-005
,,,-4.10000000e-008,-9.12499578e-005
,,,-4.08000000e-008,-1.38749960e-004
,,,-4.06000000e-008,-1.66249961e-004
,,,-4.04000000e-008,-1.21874959e-004
,,,-4.02000000e-008,-3.90624553e-005
,,,-4.00000000e-008,6.25046596e-007
,,,-3.98000000e-008,1.93750475e-005
,,,-3.96000000e-008,1.46875473e-005
,,,-3.94000000e-008,-4.40624555e-005
,,,-3.92000000e-008,-8.68749576e-005
,,,-3.90000000e-008,-1.12499959e-004
,,,-3.88000000e-008,-1.01562458e-004
,,,-3.86000000e-008,-6.78124567e-005
,,,-3.84000000e-008,1.87500475e-005
,,,-3.82000000e-008,2.40625477e-005
,,,-3.80000000e-008,7.18754691e-006
,,,-3.78000000e-008,-6.09374563e-005
,,,-3.76000000e-008,-1.30312460e-004
,,,-3.74000000e-008,-1.39374960e-004
,,,-3.72000000e-008,-8.68749576e-005
,,,-3.70000000e-008,-1.28124540e-005
,,,-3.68000000e-008,4.15625485e-005
,,,-3.66000000e-008,9.37504701e-006
,,,-3.64000000e-008,-6.46874565e-005
,,,-3.62000000e-008,-1.44687460e-004
,,,-3.60000000e-008,-1.72187462e-004
,,,-3.58000000e-008,-1.19062459e-004
,,,-3.56000000e-008,-2.65624547e-005
,,,-3.54000000e-008,5.31250491e-005
,,,-3.52000000e-008,7.00000499e-005
,,,-3.50000000e-008,5.93754685e-006
,,,-3.48000000e-008,-9.53124580e-005
,,,-3.46000000e-008,-1.65937461e-004
,,,-3.44000000e-008,-1.81562462e-004
,,,-3.42000000e-008,-1.06874959e-004
,,,-3.40000000e-008,-1.31249541e-005
,,,-3.38000000e-008,9.90625513e-005
,,,-3.36000000e-008,1.14375052e-004
,,,-3.34000000e-008,1.28125472e-005
,,,-3.32000000e-008,-7.59374570e-005
,,,-3.30000000e-008,-1.92499963e-004
,,,-3.28000000e-008,-2.32187464e-004
,,,-3.26000000e-008,-1.50937461e-004
,,,-3.24000000e-008,-5.21874559e-005
,,,-3.22000000e-008,4.75000488e-005
,,,-3.20000000e-008,7.06250499e-005
,,,-3.18000000e-008,3.87500484e-005
,,,-3.16000000e-008,-3.65624552e-005
,,,-3.14000000e-008,-1.10624959e-004
,,,-3.12000000e-008,-1.84374962e-004
,,,-3.10000000e-008,-2.06874963e-004
,,,-3.08000000e-008,-1.43124960e-004
,,,-3.06000000e-008,-9.37495388e-006
,,,-3.04000000e-008,4.68750488e-005
,,,-3.02000000e-008,4.96875489e-005
,,,-3.00000000e-008,1.93750475e-005
,,,-2.98000000e-008,-6.24999564e-005
,,,-2.96000000e-008,-1.36874960e-004
,,,-2.94000000e-008,-1.41249960e-004
,,,-2.92000000e-008,-1.27499959e-004
,,,-2.90000000e-008,-6.06249563e-005
,,,-2.88000000e-008,1.31250472e-005
,,,-2.86000000e-008,4.50000487e-005
,,,-2.84000000e-008,-1.81249543e-005
,,,-2.82000000e-008,-8.71874576e-005
,,,-2.80000000e-008,-1.14687459e-004
,,,-2.78000000e-008,-1.27187459e-004
,,,-2.76000000e-008,-6.34374564e-005
,,,-2.74000000e-008,-1.99999544e-005
,,,-2.72000000e-008,5.00004680e-006
,,,-2.70000000e-008,-2.03124544e-005
,,,-2.68000000e-008,-6.34374564e-005
,,,-2.66000000e-008,-1.32187460e-004
,,,-2.64000000e-008,-1.25312459e-004
,,,-2.62000000e-008,-7.28124569e-005
,,,-2.60000000e-008,1.12500471e-005
,,,-2.58000000e-008,3.96875485e-005
,,,-2.56000000e-008,2.03125475e-005
,,,-2.54000000e-008,-5.40624560e-005
,,,-2.52000000e-008,-1.50312461e-004
,,,-2.50000000e-008,-1.49062461e-004
,,,-2.48000000e-008,-1.29687460e-004
,,,-2.46000000e-008,-8.15624573e-005
,,,-2.44000000e-008,4.87500489e-005
,,,-2.42000000e-008,9.81250512e-005
,,,-2.40000000e-008,6.25000495e-005
,,,-2.38000000e-008,-2.71874547e-005
,,,-2.36000000e-008,-1.18749959e-004
,,,-2.34000000e-008,-1.88749962e-004
,,,-2.32000000e-008,-1.57187461e-004
,,,-2.30000000e-008,-6.93749567e-005
,,,-2.28000000e-008,5.62504683e-006
,,,-2.26000000e-008,6.59375497e-005
,,,-2.24000000e-008,4.81250489e-005
,,,-2.22000000e-008,-3.65624552e-005
,,,-2.20000000e-008,-5.40624560e-005
,,,-2.18000000e-008,-1.11874959e-004
,,,-2.16000000e-008,-1.30937460e-004
,,,-2.14000000e-008,-1.24062459e-004
,,,-2.12000000e-008,-8.90624577e-005
,,,-2.10000000e-008,-4.40624555e-005
,,,-2.08000000e-008,6.25046596e-007
,,,-2.06000000e-008,-3.12495358e-006
,,,-2.04000000e-008,-3.71874552e-005
,,,-2.02000000e-008,-6.96874567e-005
,,,-2.00000000e-008,-8.65624575e-005
,,,-1.98000000e-008,-8.81249576e-005
,,,-1.96000000e-008,-5.34374560e-005
,,,-1.94000000e-008,-5.49999560e-005
,,,-1.92000000e-008,-5.56249561e-005
,,,-1.90000000e-008,-6.31249564e-005
,,,-1.88000000e-008,-6.53124565e-005
,,,-1.86000000e-008,-9.21874578e-005
,,,-1.84000000e-008,-3.46874551e-005
,,,-1.82000000e-008,4.68754679e-006
,,,-1.80000000e-008,3.50000482e-005
,,,-1.78000000e-008,2.15625476e-005
,,,-1.76000000e-008,-7.15624568e-005
,,,-1.74000000e-008,-1.32499960e-004
,,,-1.72000000e-008,-1.89062462e-004
,,,-1.70000000e-008,-1.72187462e-004
,,,-1.68000000e-008,-5.71874562e-005
,,,-1.66000000e-008,4.81250489e-005
,,,-1.64000000e-008,1.50625054e-004
,,,-1.62000000e-008,1.22500052e-004
,,,-1.60000000e-008,-9.06245386e-006
,,,-1.58000000e-008,-1.65312461e-004
,,,-1.56000000e-008,-2.64062466e-004
,,,-1.54000000e-008,-2.34062465e-004
,,,-1.52000000e-008,-9.43749579e-005
,,,-1.50000000e-008,2.37500477e-005
,,,-1.48000000e-008,1.31875053e-004
,,,-1.46000000e-008,1.35312553e-004
,,,-1.44000000e-008,2.87500479e-005
,,,-1.42000000e-008,-9.68749580e-005
,,,-1.40000000e-008,-2.05937463e-004
,,,-1.38000000e-008,-2.15624964e-004
,,,-1.36000000e-008,-1.14687459e-004
,,,-1.34000000e-008,-1.71874543e-005
,,,-1.32000000e-008,8.96875508e-005
,,,-1.30000000e-008,9.96875513e-005
,,,-1.28000000e-008,4.68754679e-006
,,,-1.26000000e-008,-8.53124575e-005
,,,-1.24000000e-008,-1.65624961e-004
,,,-1.22000000e-008,-1.55937461e-004
,,,-1.20000000e-008,-9.96874582e-005
,,,-1.18000000e-008,-3.18749549e-005
,,,-1.16000000e-008,1.40625472e-005
,,,-1.14000000e-008,3.96875485e-005
,,,-1.12000000e-008,-1.56245351e-006
,,,-1.10000000e-008,-9.71874581e-005
,,,-1.08000000e-008,-1.36249960e-004
,,,-1.06000000e-008,-1.22499959e-004
,,,-1.04000000e-008,-7.31249569e-005
,,,-1.02000000e-008,-1.15624540e-005
,,,-1.00000000e-008,3.31250481e-005
,,,-9.80000000e-009,2.25000476e-005
,,,-9.60000000e-009,-5.71874562e-005
,,,-9.40000000e-009,-1.34374960e-004
,,,-9.20000000e-009,-1.86562462e-004
,,,-9.00000000e-009,-1.51874961e-004
,,,-8.80000000e-009,-6.28124564e-005
,,,-8.60000000e-009,3.31250481e-005
,,,-8.40000000e-009,8.12500504e-005
,,,-8.20000000e-009,6.25000495e-005
,,,-8.00000000e-009,-3.43749551e-005
,,,-7.80000000e-009,-1.48124960e-004
,,,-7.60000000e-009,-2.20624964e-004
,,,-7.40000000e-009,-2.29374964e-004
,,,-7.20000000e-009,-1.20312459e-004
,,,-7.00000000e-009,2.56250478e-005
,,,-6.80000000e-009,1.13125052e-004
,,,-6.60000000e-009,1.23437552e-004
,,,-6.40000000e-009,-1.40624541e-005
,,,-6.20000000e-009,-1.39062460e-004
,,,-6.00000000e-009,-2.52499965e-004
,,,-5.80000000e-009,-2.23437464e-004
,,,-5.60000000e-009,-1.05624958e-004
,,,-5.40000000e-009,-9.37453478e-007
,,,-5.20000000e-009,1.17500052e-004
,,,-5.00000000e-009,7.59375502e-005
,,,-4.80000000e-009,-3.40624551e-005
,,,-4.60000000e-009,-1.52187461e-004
,,,-4.40000000e-009,-2.04999963e-004
,,,-4.20000000e-009,-1.93749963e-004
,,,-4.00000000e-009,-1.16874959e-004
,,,-3.80000000e-009,-2.53124546e-005
,,,-3.60000000e-009,5.87500494e-005
,,,-3.40000000e-009,4.31250486e-005
,,,-3.20000000e-009,-6.18749564e-005
,,,-3.00000000e-009,-1.52812461e-004
,,,-2.80000000e-009,-2.24999964e-004
,,,-2.60000000e-009,-1.88124962e-004
,,,-2.40000000e-009,-1.09687459e-004
,,,-2.20000000e-009,-4.09374554e-005
,,,-2.00000000e-009,7.18754691e-006
,,,-1.80000000e-009,-3.12453449e-007
,,,-1.60000000e-009,-5.34374560e-005
,,,-1.40000000e-009,-9.87499581e-005
,,,-1.20000000e-009,-1.42812460e-004
,,,-1.00000000e-009,-1.21874959e-004
,,,-8.00000000e-010,-1.13437459e-004
,,,-6.00000000e-010,-7.59374570e-005
,,,-4.00000000e-010,-2.15624545e-005
,,,-2.00000000e-010,-1.49999541e-005
,,,0.00000000e+000,-3.68749552e-005
,,,2.00000000e-010,-8.28124574e-005
,,,4.00000000e-010,-1.32499960e-004
,,,6.00000000e-010,-1.46249960e-004
,,,8.00000000e-010,-1.05312458e-004
,,,1.00000000e-009,-6.96874567e-005
,,,1.20000000e-009,-6.34374564e-005
,,,1.40000000e-009,-3.78124552e-005
,,,1.60000000e-009,-2.49999546e-005
,,,1.80000000e-009,-5.37499560e-005
,,,2.00000000e-009,-5.99999563e-005
,,,2.20000000e-009,-7.93749572e-005
,,,2.40000000e-009,-9.59374580e-005
,,,2.60000000e-009,-7.40624570e-005
,,,2.80000000e-009,-6.56249566e-005
,,,3.00000000e-009,-5.53124561e-005
,,,3.20000000e-009,-6.18749564e-005
,,,3.40000000e-009,-6.93749567e-005
,,,3.60000000e-009,-6.71874566e-005
,,,3.80000000e-009,-5.78124562e-005
,,,4.00000000e-009,7.81254694e-006
,,,4.20000000e-009,-3.12495358e-006
,,,4.40000000e-009,-7.34374569e-005
,,,4.60000000e-009,-8.06249573e-005
,,,4.80000000e-009,-1.13749959e-004
,,,5.00000000e-009,-1.06562458e-004
,,,5.20000000e-009,-2.56249547e-005
,,,5.40000000e-009,-3.74995361e-006
,,,5.60000000e-009,1.78125474e-005
,,,5.80000000e-009,4.65625488e-005
,,,6.00000000e-009,-2.09374544e-005
,,,6.20000000e-009,-8.68749576e-005
,,,6.40000000e-009,-1.37812460e-004
,,,6.60000000e-009,-1.19374959e-004
,,,6.80000000e-009,-5.40624560e-005
,,,7.00000000e-009,-1.93749544e-005
,,,7.20000000e-009,1.40625472e-005
