Data/20220819/UCLA_to_R2B_VPOL_E_NEG10_01_Ch2.csv

"Record Length",5000,"Points",-1.00800000e-007,8.59375506e-005
"Sample Interval",2.00000000e-010,s,-1.00600000e-007,5.78125493e-005
"Trigger Point",504,"Samples",-1.00400000e-007,4.75000488e-005
"Trigger Time",0.00000000e+000,s,-1.00200000e-007,2.87500479e-005
"",,,-1.00000000e-007,3.03125480e-005
"Horizontal Offset",-1.00800000e-007,s,-9.98000000e-008,2.71875479e-005
,,,-9.96000000e-008,3.59375483e-005
,,,-9.94000000e-008,5.71875493e-005
,,,-9.92000000e-008,8.09375504e-005
,,,-9.90000000e-008,1.00000051e-004
,,,-9.88000000e-008,1.06562552e-004
,,,-9.86000000e-008,9.25000510e-005
,,,-9.84000000e-008,6.93750499e-005
,,,-9.82000000e-008,2.50000478e-005
,,,-9.80000000e-008,2.81254670e-006
,,,-9.78000000e-008,5.00004680e-006
,,,-9.76000000e-008,4.37500486e-005
,,,-9.74000000e-008,9.59375511e-005
,,,-9.72000000e-008,1.32187553e-004
,,,-9.70000000e-008,1.46875054e-004
,,,-9.68000000e-008,1.21875052e-004
,,,-9.66000000e-008,7.71875502e-005
,,,-9.64000000e-008,3.12500481e-005
,,,-9.62000000e-008,-2.43749546e-005
,,,-9.60000000e-008,-2.49995355e-006
,,,-9.58000000e-008,2.31250477e-005
,,,-9.56000000e-008,7.46875501e-005
,,,-9.54000000e-008,1.17187552e-004
,,,-9.52000000e-008,1.25937553e-004
,,,-9.50000000e-008,1.12500052e-004
,,,-9.48000000e-008,8.21875505e-005
,,,-9.46000000e-008,3.87500484e-005
,,,-9.44000000e-008,1.25004663e-006
,,,-9.42000000e-008,-1.96874544e-005
,,,-9.40000000e-008,8.12504695e-006
,,,-9.38000000e-008,5.21875490e-005
,,,-9.36000000e-008,1.05625052e-004
,,,-9.34000000e-008,1.42812553e-004
,,,-9.32000000e-008,1.37187553e-004
,,,-9.30000000e-008,1.09062552e-004
,,,-9.28000000e-008,6.25000495e-005
,,,-9.26000000e-008,4.06254676e-006
,,,-9.24000000e-008,-6.24995373e-006
,,,-9.22000000e-008,-1.31249541e-005
,,,-9.20000000e-008,2.65625478e-005
,,,-9.18000000e-008,7.53125501e-005
,,,-9.16000000e-008,9.90625513e-005
,,,-9.14000000e-008,1.40312553e-004
,,,-9.12000000e-008,1.13750052e-004
,,,-9.10000000e-008,7.81250503e-005
,,,-9.08000000e-008,5.56250492e-005
,,,-9.06000000e-008,3.12504671e-006
,,,-9.04000000e-008,-2.15624545e-005
,,,-9.02000000e-008,-1.24999540e-005
,,,-9.00000000e-008,9.06254700e-006
,,,-8.98000000e-008,6.62500497e-005
,,,-8.96000000e-008,1.06250052e-004
,,,-8.94000000e-008,1.56875054e-004
,,,-8.92000000e-008,1.63750054e-004
,,,-8.90000000e-008,1.08125052e-004
,,,-8.88000000e-008,4.31250486e-005
,,,-8.86000000e-008,-2.99999549e-005
,,,-8.84000000e-008,-6.34374564e-005
,,,-8.82000000e-008,-2.87499548e-005
,,,-8.80000000e-008,3.65625483e-005
,,,-8.78000000e-008,1.30937553e-004
,,,-8.76000000e-008,1.83750055e-004
,,,-8.74000000e-008,1.91250056e-004
,,,-8.72000000e-008,1.24062552e-004
,,,-8.70000000e-008,5.21875490e-005
,,,-8.68000000e-008,-3.40624551e-005
,,,-8.66000000e-008,-5.12499559e-005
,,,-8.64000000e-008,-4.53124556e-005
,,,-8.62000000e-008,1.40625472e-005
,,,-8.60000000e-008,9.34375510e-005
,,,-8.58000000e-008,1.60625054e-004
,,,-8.56000000e-008,1.93125056e-004
,,,-8.54000000e-008,1.50625054e-004
,,,-8.52000000e-008,9.28125510e-005
,,,-8.50000000e-008,2.12500476e-005
,,,-8.48000000e-008,-3.28124550e-005
,,,-8.46000000e-008,-4.34374555e-005
,,,-8.44000000e-008,3.75004674e-006
,,,-8.42000000e-008,6.34375496e-005
,,,-8.40000000e-008,1.25937553e-004
,,,-8.38000000e-008,1.58437554e-004
,,,-8.36000000e-008,1.60625054e-004
,,,-8.34000000e-008,1.10937552e-004
,,,-8.32000000e-008,6.21875495e-005
,,,-8.30000000e-008,9.06254700e-006
,,,-8.28000000e-008,-1.90624543e-005
,,,-8.26000000e-008,3.75004674e-006
,,,-8.24000000e-008,2.56250478e-005
,,,-8.22000000e-008,6.37500496e-005
,,,-8.20000000e-008,8.90625508e-005
,,,-8.18000000e-008,9.81250512e-005
,,,-8.16000000e-008,1.16250052e-004
,,,-8.14000000e-008,1.14687552e-004
,,,-8.12000000e-008,7.53125501e-005
,,,-8.10000000e-008,3.15625481e-005
,,,-8.08000000e-008,-1.31249541e-005
,,,-8.06000000e-008,-2.09374544e-005
,,,-8.04000000e-008,-8.74995385e-006
,,,-8.02000000e-008,5.40625491e-005
,,,-8.00000000e-008,1.02500051e-004
,,,-7.98000000e-008,1.46875054e-004
,,,-7.96000000e-008,1.62187554e-004
,,,-7.94000000e-008,1.23125052e-004
,,,-7.92000000e-008,6.68750497e-005
,,,-7.90000000e-008,-3.43745360e-006
,,,-7.88000000e-008,-4.62499556e-005
,,,-7.86000000e-008,-3.15624549e-005
,,,-7.84000000e-008,3.68750483e-005
,,,-7.82000000e-008,9.90625513e-005
,,,-7.80000000e-008,1.61562554e-004
,,,-7.78000000e-008,1.60625054e-004
,,,-7.76000000e-008,1.26875053e-004
,,,-7.74000000e-008,5.09375490e-005
,,,-7.72000000e-008,-6.24995373e-006
,,,-7.70000000e-008,-4.37499555e-005
,,,-7.68000000e-008,-2.74999547e-005
,,,-7.66000000e-008,7.18754691e-006
,,,-7.64000000e-008,8.43750506e-005
,,,-7.62000000e-008,1.25312553e-004
,,,-7.60000000e-008,1.48125054e-004
,,,-7.58000000e-008,1.22500052e-004
,,,-7.56000000e-008,7.31250500e-005
,,,-7.54000000e-008,1.15625471e-005
,,,-7.52000000e-008,-2.62499547e-005
,,,-7.50000000e-008,-7.18745378e-006
,,,-7.48000000e-008,2.59375478e-005
,,,-7.46000000e-008,7.84375503e-005
,,,-7.44000000e-008,1.00937551e-004
,,,-7.42000000e-008,1.15625052e-004
,,,-7.40000000e-008,1.24062552e-004
,,,-7.38000000e-008,9.71875512e-005
,,,-7.36000000e-008,8.00000504e-005
,,,-7.34000000e-008,5.21875490e-005
,,,-7.32000000e-008,2.06250475e-005
,,,-7.30000000e-008,1.50000473e-005
,,,-7.28000000e-008,1.87500475e-005
,,,-7.26000000e-008,4.50000487e-005
,,,-7.24000000e-008,7.28125500e-005
,,,-7.22000000e-008,9.59375511e-005
,,,-7.20000000e-008,1.25625053e-004
,,,-7.18000000e-008,1.20312552e-004
,,,-7.16000000e-008,8.37500505e-005
,,,-7.14000000e-008,3.84375484e-005
,,,-7.12000000e-008,-4.68745366e-006
,,,-7.10000000e-008,-3.87499553e-005
,,,-7.08000000e-008,-1.43749541e-005
,,,-7.06000000e-008,3.31250481e-005
,,,-7.04000000e-008,1.03125051e-004
,,,-7.02000000e-008,1.39687553e-004
,,,-7.00000000e-008,1.61562554e-004
,,,-6.98000000e-008,1.20937552e-004
,,,-6.96000000e-008,5.90625494e-005
,,,-6.94000000e-008,5.62504683e-006
,,,-6.92000000e-008,-3.87499553e-005
,,,-6.90000000e-008,-2.81249548e-005
,,,-6.88000000e-008,2.43750477e-005
,,,-6.86000000e-008,1.01875051e-004
,,,-6.84000000e-008,1.66562554e-004
,,,-6.82000000e-008,1.71875055e-004
,,,-6.80000000e-008,1.19375052e-004
,,,-6.78000000e-008,5.50000492e-005
,,,-6.76000000e-008,-8.43745383e-006
,,,-6.74000000e-008,-3.65624552e-005
,,,-6.72000000e-008,-1.12499540e-005
,,,-6.70000000e-008,4.43750487e-005
,,,-6.68000000e-008,9.71875512e-005
,,,-6.66000000e-008,1.07187552e-004
,,,-6.64000000e-008,1.18437552e-004
,,,-6.62000000e-008,6.56250497e-005
,,,-6.60000000e-008,3.87500484e-005
,,,-6.58000000e-008,2.31250477e-005
,,,-6.56000000e-008,3.00000480e-005
,,,-6.54000000e-008,5.00000489e-005
,,,-6.52000000e-008,6.78125498e-005
,,,-6.50000000e-008,7.15625500e-005
,,,-6.48000000e-008,7.09375499e-005
,,,-6.46000000e-008,6.34375496e-005
,,,-6.44000000e-008,7.59375502e-005
,,,-6.42000000e-008,8.46875506e-005
,,,-6.40000000e-008,8.71875507e-005
,,,-6.38000000e-008,9.00000508e-005
,,,-6.36000000e-008,7.75000502e-005
,,,-6.34000000e-008,5.31250491e-005
,,,-6.32000000e-008,3.12500481e-005
,,,-6.30000000e-008,3.46875482e-005
,,,-6.28000000e-008,4.06250485e-005
,,,-6.26000000e-008,5.65625493e-005
,,,-6.24000000e-008,7.62500502e-005
,,,-6.22000000e-008,9.68750512e-005
,,,-6.20000000e-008,1.01875051e-004
,,,-6.18000000e-008,7.56250502e-005
,,,-6.16000000e-008,5.68750493e-005
,,,-6.14000000e-008,1.65625474e-005
,,,-6.12000000e-008,1.43750472e-005
,,,-6.10000000e-008,2.59375478e-005
,,,-6.08000000e-008,6.31250496e-005
,,,-6.06000000e-008,9.56250511e-005
,,,-6.04000000e-008,1.16875052e-004
,,,-6.02000000e-008,1.16875052e-004
,,,-6.00000000e-008,6.43750496e-005
,,,-5.98000000e-008,3.78125484e-005
,,,-5.96000000e-008,2.18750476e-005
,,,-5.94000000e-008,1.96875475e-005
,,,-5.92000000e-008,4.68750488e-005
,,,-5.90000000e-008,7.40625501e-005
,,,-5.88000000e-008,1.06250052e-004
,,,-5.86000000e-008,1.10312552e-004
,,,-5.84000000e-008,8.43750506e-005
,,,-5.82000000e-008,3.37500482e-005
,,,-5.80000000e-008,2.31250477e-005
,,,-5.78000000e-008,2.21875476e-005
,,,-5.76000000e-008,5.12500490e-005
,,,-5.74000000e-008,7.03125499e-005
,,,-5.72000000e-008,7.96875504e-005
,,,-5.70000000e-008,7.65625502e-005
,,,-5.68000000e-008,4.43750487e-005
,,,-5.66000000e-008,4.34375486e-005
,,,-5.64000000e-008,3.50000482e-005
,,,-5.62000000e-008,3.75000483e-005
,,,-5.60000000e-008,5.03125490e-005
,,,-5.58000000e-008,5.78125493e-005
,,,-5.56000000e-008,6.50000497e-005
,,,-5.54000000e-008,8.59375506e-005
,,,-5.52000000e-008,6.87500498e-005
,,,-5.50000000e-008,9.00000508e-005
,,,-5.48000000e-008,5.87500494e-005
,,,-5.46000000e-008,7.62500502e-005
,,,-5.44000000e-008,6.87500498e-005
,,,-5.42000000e-008,5.43750491e-005
,,,-5.40000000e-008,5.21875490e-005
,,,-5.38000000e-008,3.90625484e-005
,,,-5.36000000e-008,6.65625497e-005
,,,-5.34000000e-008,8.93750508e-005
,,,-5.32000000e-008,1.07187552e-004
,,,-5.30000000e-008,1.08437552e-004
,,,-5.28000000e-008,8.81250508e-005
,,,-5.26000000e-008,3.62500483e-005
,,,-5.24000000e-008,8.75004698e-006
,,,-5.22000000e-008,-4.06245363e-006
,,,-5.20000000e-008,2.53125478e-005
,,,-5.18000000e-008,7.15625500e-005
,,,-5.16000000e-008,9.50000511e-005
,,,-5.14000000e-008,1.30312553e-004
,,,-5.12000000e-008,1.09062552e-004
,,,-5.10000000e-008,9.28125510e-005
,,,-5.08000000e-008,4.59375487e-005
,,,-5.06000000e-008,4.65661288e-011
,,,-5.04000000e-008,2.18754667e-006
,,,-5.02000000e-008,1.71875474e-005
,,,-5.00000000e-008,5.40625491e-005
,,,-4.98000000e-008,1.16562552e-004
,,,-4.96000000e-008,1.36562553e-004
,,,-4.94000000e-008,1.33125053e-004
,,,-4.92000000e-008,7.43750501e-005
,,,-4.90000000e-008,2.53125478e-005
,,,-4.88000000e-008,-4.68745366e-006
,,,-4.86000000e-008,-1.37499541e-005
,,,-4.84000000e-008,1.37500472e-005
,,,-4.82000000e-008,6.18750495e-005
,,,-4.80000000e-008,9.18750509e-005
,,,-4.78000000e-008,1.19375052e-004
,,,-4.76000000e-008,8.90625508e-005
,,,-4.74000000e-008,6.56250497e-005
,,,-4.72000000e-008,3.59375483e-005
,,,-4.70000000e-008,2.50000478e-005
,,,-4.68000000e-008,3.12500481e-005
,,,-4.66000000e-008,4.56250487e-005
,,,-4.64000000e-008,8.00000504e-005
,,,-4.62000000e-008,6.50000497e-005
,,,-4.60000000e-008,6.31250496e-005
,,,-4.58000000e-008,5.75000493e-005
,,,-4.56000000e-008,4.50000487e-005
,,,-4.54000000e-008,8.62500507e-005
,,,-4.52000000e-008,9.12500509e-005
,,,-4.50000000e-008,9.59375511e-005
,,,-4.48000000e-008,7.84375503e-005
,,,-4.46000000e-008,4.50000487e-005
,,,-4.44000000e-008,7.18754691e-006
,,,-4.42000000e-008,7.81254694e-006
,,,-4.40000000e-008,4.00000485e-005
,,,-4.38000000e-008,9.03125509e-005
,,,-4.36000000e-008,1.37500053e-004
,,,-4.34000000e-008,1.50000054e-004
,,,-4.32000000e-008,1.17500052e-004
,,,-4.30000000e-008,6.21875495e-005
,,,-4.28000000e-008,-1.56245351e-006
,,,-4.26000000e-008,-2.28124545e-005
,,,-4.24000000e-008,-1.99999544e-005
,,,-4.22000000e-008,2.75000479e-005
,,,-4.20000000e-008,1.12187552e-004
,,,-4.18000000e-008,1.72187555e-004
,,,-4.16000000e-008,1.79062555e-004
,,,-4.14000000e-008,1.42500053e-004
,,,-4.12000000e-008,6.46875496e-005
,,,-4.10000000e-008,-2.74999547e-005
,,,-4.08000000e-008,-5.49999560e-005
,,,-4.06000000e-008,-4.65624556e-005
,,,-4.04000000e-008,2.15625476e-005
,,,-4.02000000e-008,1.23750052e-004
,,,-4.00000000e-008,1.75000055e-004
,,,-3.98000000e-008,2.07187556e-004
,,,-3.96000000e-008,1.54375054e-004
,,,-3.94000000e-008,7.50000501e-005
,,,-3.92000000e-008,-2.03124544e-005
,,,-3.90000000e-008,-7.37499569e-005
,,,-3.88000000e-008,-4.99999558e-005
,,,-3.86000000e-008,-2.81245357e-006
,,,-3.84000000e-008,8.90625508e-005
,,,-3.82000000e-008,1.57812554e-004
,,,-3.80000000e-008,1.53750054e-004
,,,-3.78000000e-008,1.40625053e-004
,,,-3.76000000e-008,6.62500497e-005
,,,-3.74000000e-008,7.18754691e-006
,,,-3.72000000e-008,-3.21874550e-005
,,,-3.70000000e-008,-3.49999551e-005
,,,-3.68000000e-008,-1.34374541e-005
,,,-3.66000000e-008,5.06250490e-005
,,,-3.64000000e-008,8.56250506e-005
,,,-3.62000000e-008,1.32812553e-004
,,,-3.60000000e-008,1.46562554e-004
,,,-3.58000000e-008,1.18437552e-004
,,,-3.56000000e-008,9.18750509e-005
,,,-3.54000000e-008,2.65625478e-005
,,,-3.52000000e-008,6.87504689e-006
,,,-3.50000000e-008,-1.81249543e-005
,,,-3.48000000e-008,3.12504671e-006
,,,-3.46000000e-008,5.46875492e-005
,,,-3.44000000e-008,9.68750512e-005
,,,-3.42000000e-008,1.45000053e-004
,,,-3.40000000e-008,1.46875054e-004
,,,-3.38000000e-008,1.13437552e-004
,,,-3.36000000e-008,8.15625504e-005
,,,-3.34000000e-008,1.84375474e-005
,,,-3.32000000e-008,-4.37495364e-006
,,,-3.30000000e-008,-2.81245357e-006
,,,-3.28000000e-008,3.09375480e-005
,,,-3.26000000e-008,5.75000493e-005
,,,-3.24000000e-008,9.46875511e-005
,,,-3.22000000e-008,1.20000052e-004
,,,-3.20000000e-008,1.24375052e-004
,,,-3.18000000e-008,1.12500052e-004
,,,-3.16000000e-008,7.03125499e-005
,,,-3.14000000e-008,3.90625484e-005
,,,-3.12000000e-008,1.00000470e-005
,,,-3.10000000e-008,1.12500471e-005
,,,-3.08000000e-008,3.06250480e-005
,,,-3.06000000e-008,6.28125495e-005
,,,-3.04000000e-008,9.40625510e-005
,,,-3.02000000e-008,1.30937553e-004
,,,-3.00000000e-008,1.39375053e-004
,,,-2.98000000e-008,1.20000052e-004
,,,-2.96000000e-008,8.31250505e-005
,,,-2.94000000e-008,3.68750483e-005
,,,-2.92000000e-008,-7.49995379e-006
,,,-2.90000000e-008,-1.65624542e-005
,,,-2.88000000e-008,-1.09374540e-005
,,,-2.86000000e-008,3.65625483e-005
,,,-2.84000000e-008,8.40625506e-005
,,,-2.82000000e-008,1.21250052e-004
,,,-2.80000000e-008,1.35312553e-004
,,,-2.78000000e-008,1.10625052e-004
,,,-2.76000000e-008,5.40625491e-005
,,,-2.74000000e-008,-2.49995355e-006
,,,-2.72000000e-008,-6.03124563e-005
,,,-2.70000000e-008,-5.34374560e-005
,,,-2.68000000e-008,-1.59374542e-005
,,,-2.66000000e-008,7.93750503e-005
,,,-2.64000000e-008,1.49062554e-004
,,,-2.62000000e-008,1.97812556e-004
,,,-2.60000000e-008,1.45937553e-004
,,,-2.58000000e-008,8.65625507e-005
,,,-2.56000000e-008,1.09375471e-005
,,,-2.54000000e-008,-4.74999557e-005
,,,-2.52000000e-008,-2.71874547e-005
,,,-2.50000000e-008,1.53125473e-005
,,,-2.48000000e-008,9.53125511e-005
,,,-2.46000000e-008,1.42812553e-004
,,,-2.44000000e-008,1.63750054e-004
,,,-2.42000000e-008,1.33750053e-004
,,,-2.40000000e-008,6.90625498e-005
,,,-2.38000000e-008,1.40625472e-005
,,,-2.36000000e-008,-1.37499541e-005
,,,-2.34000000e-008,5.31254682e-006
,,,-2.32000000e-008,3.56250483e-005
,,,-2.30000000e-008,8.65625507e-005
,,,-2.28000000e-008,1.12812552e-004
,,,-2.26000000e-008,1.08750052e-004
,,,-2.24000000e-008,9.34375510e-005
,,,-2.22000000e-008,5.43750491e-005
,,,-2.20000000e-008,4.53125487e-005
,,,-2.18000000e-008,3.21875481e-005
,,,-2.16000000e-008,6.34375496e-005
,,,-2.14000000e-008,8.15625504e-005
,,,-2.12000000e-008,8.46875506e-005
,,,-2.10000000e-008,8.03125504e-005
,,,-2.08000000e-008,5.34375491e-005
,,,-2.06000000e-008,4.68750488e-005
,,,-2.04000000e-008,4.37500486e-005
,,,-2.02000000e-008,4.75000488e-005
,,,-2.00000000e-008,9.00000508e-005
,,,-1.98000000e-008,9.62500511e-005
,,,-1.96000000e-008,1.01250051e-004
,,,-1.94000000e-008,7.71875502e-005
,,,-1.92000000e-008,3.28125481e-005
,,,-1.90000000e-008,1.09375471e-005
,,,-1.88000000e-008,4.37504677e-006
,,,-1.86000000e-008,2.53125478e-005
,,,-1.84000000e-008,6.75000498e-005
,,,-1.82000000e-008,9.56250511e-005
,,,-1.80000000e-008,1.15312552e-004
,,,-1.78000000e-008,1.00625051e-004
,,,-1.76000000e-008,6.59375497e-005
,,,-1.74000000e-008,3.50000482e-005
,,,-1.72000000e-008,1.09375471e-005
,,,-1.70000000e-008,1.18750471e-005
,,,-1.68000000e-008,4.37500486e-005
,,,-1.66000000e-008,6.93750499e-005
,,,-1.64000000e-008,9.59375511e-005
,,,-1.62000000e-008,9.56250511e-005
,,,-1.60000000e-008,8.93750508e-005
,,,-1.58000000e-008,6.40625496e-005
,,,-1.56000000e-008,5.03125490e-005
,,,-1.54000000e-008,4.06250485e-005
,,,-1.52000000e-008,4.21875486e-005
,,,-1.50000000e-008,4.43750487e-005
,,,-1.48000000e-008,5.71875493e-005
,,,-1.46000000e-008,7.81250503e-005
,,,-1.44000000e-008,8.28125505e-005
,,,-1.42000000e-008,8.06250504e-005
,,,-1.40000000e-008,7.28125500e-005
,,,-1.38000000e-008,6.31250496e-005
,,,-1.36000000e-008,6.65625497e-005
,,,-1.34000000e-008,5.71875493e-005
,,,-1.32000000e-008,5.81250493e-005
,,,-1.30000000e-008,5.65625493e-005
,,,-1.28000000e-008,4.46875487e-005
,,,-1.26000000e-008,5.93750494e-005
,,,-1.24000000e-008,8.03125504e-005
,,,-1.22000000e-008,9.62500511e-005
,,,-1.20000000e-008,1.18437552e-004
,,,-1.18000000e-008,9.75000512e-005
,,,-1.16000000e-008,8.71875507e-005
,,,-1.14000000e-008,6.40625496e-005
,,,-1.12000000e-008,4.96875489e-005
,,,-1.10000000e-008,3.81250484e-005
,,,-1.08000000e-008,2.96875480e-005
,,,-1.06000000e-008,3.96875485e-005
,,,-1.04000000e-008,6.78125498e-005
,,,-1.02000000e-008,8.78125507e-005
,,,-1.00000000e-008,1.10000052e-004
,,,-9.80000000e-009,1.01562551e-004
,,,-9.60000000e-009,7.15625500e-005
,,,-9.40000000e-009,4.21875486e-005
,,,-9.20000000e-009,-8.74995385e-006
,,,-9.00000000e-009,-6.24953464e-007
,,,-8.80000000e-009,2.18754667e-006
,,,-8.60000000e-009,3.65625483e-005
,,,-8.40000000e-009,6.71875498e-005
,,,-8.20000000e-009,9.65625512e-005
,,,-8.00000000e-009,1.25000053e-004
,,,-7.80000000e-009,1.15625052e-004
,,,-7.60000000e-009,7.40625501e-005
,,,-7.40000000e-009,2.43750477e-005
,,,-7.20000000e-009,-3.40624551e-005
,,,-7.00000000e-009,-4.18749554e-005
,,,-6.80000000e-009,-9.06245386e-006
,,,-6.60000000e-009,5.65625493e-005
,,,-6.40000000e-009,1.14687552e-004
,,,-6.20000000e-009,1.48437554e-004
,,,-6.00000000e-009,1.48125054e-004
,,,-5.80000000e-009,8.68750507e-005
,,,-5.60000000e-009,2.87500479e-005
,,,-5.40000000e-009,-2.96874548e-005
,,,-5.20000000e-009,-5.12499559e-005
,,,-5.00000000e-009,-2.84374548e-005
,,,-4.80000000e-009,7.81254694e-006
,,,-4.60000000e-009,8.28125505e-005
,,,-4.40000000e-009,1.23750052e-004
,,,-4.20000000e-009,1.33750053e-004
,,,-4.00000000e-009,1.02187551e-004
,,,-3.80000000e-009,4.59375487e-005
,,,-3.60000000e-009,-1.43749541e-005
,,,-3.40000000e-009,-4.12499554e-005
,,,-3.20000000e-009,-4.37499555e-005
,,,-3.00000000e-009,1.75000474e-005
,,,-2.80000000e-009,6.71875498e-005
,,,-2.60000000e-009,1.04687552e-004
,,,-2.40000000e-009,1.18125052e-004
,,,-2.20000000e-009,1.05312552e-004
,,,-2.00000000e-009,7.21875500e-005
,,,-1.80000000e-009,3.53125482e-005
,,,-1.60000000e-009,-3.12453449e-007
,,,-1.40000000e-009,-1.87495352e-006
,,,-1.20000000e-009,1.21875471e-005
,,,-1.00000000e-009,4.25000486e-005
,,,-8.00000000e-010,5.34375491e-005
,,,-6.00000000e-010,5.81250493e-005
,,,-4.00000000e-010,5.25000491e-005
,,,-2.00000000e-010,6.62500497e-005
,,,0.00000000e+000,5.65625493e-005
,,,2.00000000e-010,4.96875489e-005
,,,4.00000000e-010,3.75000483e-005
,,,6.00000000e-010,6.56254688e-006
,,,8.00000000e-010,-1.34374541e-005
,,,1.00000000e-009,-3.18749549e-005
,,,1.20000000e-009,-1.53124542e-005
,,,1.40000000e-009,1.62500473e-005
,,,1.60000000e-009,7.53125501e-005
,,,1.80000000e-009,1.01875051e-004
,,,2.00000000e-009,1.01250051e-004
,,,2.20000000e-009,7.62500502e-005
,,,2.40000000e-009,1.78125474e-005
,,,2.60000000e-009,-1.53124542e-005
,,,2.80000000e-009,-1.87499543e-005
,,,3.00000000e-009,-8.74995385e-006
,,,3.20000000e-009,4.75000488e-005
,,,3.40000000e-009,8.59375506e-005
,,,3.60000000e-009,1.19687552e-004
,,,3.80000000e-009,1.24062552e-004
,,,4.00000000e-009,1.11562552e-004
,,,4.20000000e-009,6.12500495e-005
,,,4.40000000e-009,1.00000470e-005
,,,4.60000000e-009,-2.78124548e-005
,,,4.80000000e-009,-1.34374541e-005
,,,5.00000000e-009,2.12500476e-005
,,,5.20000000e-009,7.12500500e-005
,,,5.40000000e-009,1.13125052e-004
,,,5.60000000e-009,1.16875052e-004
,,,5.80000000e-009,1.13437552e-004
,,,6.00000000e-009,7.25000500e-005
,,,6.20000000e-009,3.40625482e-005
,,,6.40000000e-009,7.50004692e-006
,,,6.60000000e-009,1.71875474e-005
,,,6.80000000e-009,4.59375487e-005
,,,7.00000000e-009,7.62500502e-005
,,,7.20000000e-009,9.84375512e-005
,,,7.40000000e-009,1.24062552e-004
,,,7.60000000e-009,1.02812551e-004
,,,7.80000000e-009,9.34375510e-005
,,,8.00000000e-009,5.81250493e-005
,,,8.20000000e-009,5.00000489e-005
,,,8.40000000e-009,4.65625488e-005
,,,8.60000000e-009,3.03125480e-005
,,,8.80000000e-009,3.71875483e-005
,,,9.00000000e-009,7.84375503e-005
