Data/20220819/UCLA_to_R2B_VPOL_E_50_01_Ch2.csv

"Record Length",5000,"Points",-1.00800000e-007,1.58437554e-004
"Sample Interval",2.00000000e-010,s,-1.00600000e-007,7.46875501e-005
"Trigger Point",504,"Samples",-1.00400000e-007,-1.93749544e-005
"Trigger Time",0.00000000e+000,s,-1.00200000e-007,-8.78124576e-005
"",,,-1.00000000e-007,-8.28124574e-005
"Horizontal Offset",-1.00800000e-007,s,-9.98000000e-008,-1.34374541e-005
,,,-9.96000000e-008,1.04062552e-004
,,,-9.94000000e-008,1.87500055e-004
,,,-9.92000000e-008,2.06250056e-004
,,,-9.90000000e-008,1.31875053e-004
,,,-9.88000000e-008,6.87500498e-005
,,,-9.86000000e-008,-2.81249548e-005
,,,-9.84000000e-008,-8.28124574e-005
,,,-9.82000000e-008,-1.06874959e-004
,,,-9.80000000e-008,-6.90624567e-005
,,,-9.78000000e-008,3.62500483e-005
,,,-9.76000000e-008,1.61875054e-004
,,,-9.74000000e-008,1.98437556e-004
,,,-9.72000000e-008,1.65937554e-004
,,,-9.70000000e-008,6.06250494e-005
,,,-9.68000000e-008,-3.71874552e-005
,,,-9.66000000e-008,-9.37499579e-005
,,,-9.64000000e-008,-6.84374567e-005
,,,-9.62000000e-008,-4.99995367e-006
,,,-9.60000000e-008,3.12500481e-005
,,,-9.58000000e-008,7.25000500e-005
,,,-9.56000000e-008,1.30312553e-004
,,,-9.54000000e-008,1.58125054e-004
,,,-9.52000000e-008,1.68125055e-004
,,,-9.50000000e-008,1.22812552e-004
,,,-9.48000000e-008,4.53125487e-005
,,,-9.46000000e-008,-3.18749549e-005
,,,-9.44000000e-008,-7.56249570e-005
,,,-9.42000000e-008,-8.21874573e-005
,,,-9.40000000e-008,-3.12499549e-005
,,,-9.38000000e-008,5.06250490e-005
,,,-9.36000000e-008,1.36875053e-004
,,,-9.34000000e-008,1.83750055e-004
,,,-9.32000000e-008,1.85312555e-004
,,,-9.30000000e-008,9.21875509e-005
,,,-9.28000000e-008,-4.03124553e-005
,,,-9.26000000e-008,-1.30312460e-004
,,,-9.24000000e-008,-1.49062461e-004
,,,-9.22000000e-008,-8.37499574e-005
,,,-9.20000000e-008,2.81250479e-005
,,,-9.18000000e-008,1.16250052e-004
,,,-9.16000000e-008,1.67500055e-004
,,,-9.14000000e-008,1.58437554e-004
,,,-9.12000000e-008,1.14375052e-004
,,,-9.10000000e-008,5.78125493e-005
,,,-9.08000000e-008,3.12546581e-007
,,,-9.06000000e-008,-5.87499562e-005
,,,-9.04000000e-008,-7.90624572e-005
,,,-9.02000000e-008,-4.06249554e-005
,,,-9.00000000e-008,5.90625494e-005
,,,-8.98000000e-008,1.45937553e-004
,,,-8.96000000e-008,1.97187556e-004
,,,-8.94000000e-008,1.55625054e-004
,,,-8.92000000e-008,7.96875504e-005
,,,-8.90000000e-008,3.43754673e-006
,,,-8.88000000e-008,-7.15624568e-005
,,,-8.86000000e-008,-8.87499576e-005
,,,-8.84000000e-008,-5.90624562e-005
,,,-8.82000000e-008,5.31254682e-006
,,,-8.80000000e-008,1.12812552e-004
,,,-8.78000000e-008,1.95000056e-004
,,,-8.76000000e-008,1.96562556e-004
,,,-8.74000000e-008,9.37500510e-005
,,,-8.72000000e-008,6.25004686e-006
,,,-8.70000000e-008,-7.34374569e-005
,,,-8.68000000e-008,-7.43749570e-005
,,,-8.66000000e-008,-1.18749540e-005
,,,-8.64000000e-008,3.75000483e-005
,,,-8.62000000e-008,1.06875052e-004
,,,-8.60000000e-008,1.67187555e-004
,,,-8.58000000e-008,1.78750055e-004
,,,-8.56000000e-008,1.64375054e-004
,,,-8.54000000e-008,8.34375505e-005
,,,-8.52000000e-008,-3.12499549e-005
,,,-8.50000000e-008,-1.23749959e-004
,,,-8.48000000e-008,-1.43124960e-004
,,,-8.46000000e-008,-4.68749557e-005
,,,-8.44000000e-008,9.03125509e-005
,,,-8.42000000e-008,1.98437556e-004
,,,-8.40000000e-008,2.50000058e-004
,,,-8.38000000e-008,1.90312556e-004
,,,-8.36000000e-008,7.15625500e-005
,,,-8.34000000e-008,-6.49999565e-005
,,,-8.32000000e-008,-1.64062461e-004
,,,-8.30000000e-008,-1.52187461e-004
,,,-8.28000000e-008,-6.40624565e-005
,,,-8.26000000e-008,6.56250497e-005
,,,-8.24000000e-008,2.05625056e-004
,,,-8.22000000e-008,2.37187558e-004
,,,-8.20000000e-008,1.89687556e-004
,,,-8.18000000e-008,8.21875505e-005
,,,-8.16000000e-008,-3.06249549e-005
,,,-8.14000000e-008,-8.49999575e-005
,,,-8.12000000e-008,-8.65624575e-005
,,,-8.10000000e-008,-3.99999553e-005
,,,-8.08000000e-008,9.68754703e-006
,,,-8.06000000e-008,5.59375492e-005
,,,-8.04000000e-008,1.11250052e-004
,,,-8.02000000e-008,1.62500054e-004
,,,-8.00000000e-008,1.59375054e-004
,,,-7.98000000e-008,1.22812552e-004
,,,-7.96000000e-008,4.34375486e-005
,,,-7.94000000e-008,-3.09374549e-005
,,,-7.92000000e-008,-9.18749578e-005
,,,-7.90000000e-008,-1.12187459e-004
,,,-7.88000000e-008,-6.62499566e-005
,,,-7.86000000e-008,2.65625478e-005
,,,-7.84000000e-008,1.45625053e-004
,,,-7.82000000e-008,2.23437557e-004
,,,-7.80000000e-008,2.26562557e-004
,,,-7.78000000e-008,1.51562554e-004
,,,-7.76000000e-008,1.31250472e-005
,,,-7.74000000e-008,-8.90624577e-005
,,,-7.72000000e-008,-1.41249960e-004
,,,-7.70000000e-008,-1.05937458e-004
,,,-7.68000000e-008,5.93754685e-006
,,,-7.66000000e-008,1.27187553e-004
,,,-7.64000000e-008,2.19375057e-004
,,,-7.62000000e-008,2.63437559e-004
,,,-7.60000000e-008,2.16250057e-004
,,,-7.58000000e-008,8.53125506e-005
,,,-7.56000000e-008,-7.15624568e-005
,,,-7.54000000e-008,-1.77499962e-004
,,,-7.52000000e-008,-1.92812463e-004
,,,-7.50000000e-008,-7.24999569e-005
,,,-7.48000000e-008,1.00000051e-004
,,,-7.46000000e-008,2.69375059e-004
,,,-7.44000000e-008,3.04375061e-004
,,,-7.42000000e-008,2.35937558e-004
,,,-7.40000000e-008,3.81250484e-005
,,,-7.38000000e-008,-1.41874960e-004
,,,-7.36000000e-008,-2.13437464e-004
,,,-7.34000000e-008,-1.93124963e-004
,,,-7.32000000e-008,-3.28124550e-005
,,,-7.30000000e-008,1.30000053e-004
,,,-7.28000000e-008,2.73750060e-004
,,,-7.26000000e-008,2.95937561e-004
,,,-7.24000000e-008,1.94375056e-004
,,,-7.22000000e-008,5.03125490e-005
,,,-7.20000000e-008,-9.84374581e-005
,,,-7.18000000e-008,-1.60937461e-004
,,,-7.16000000e-008,-1.09062459e-004
,,,-7.14000000e-008,-2.31249545e-005
,,,-7.12000000e-008,8.78125507e-005
,,,-7.10000000e-008,1.80937555e-004
,,,-7.08000000e-008,2.05937556e-004
,,,-7.06000000e-008,2.12812557e-004
,,,-7.04000000e-008,1.30000053e-004
,,,-7.02000000e-008,3.09375480e-005
,,,-7.00000000e-008,-9.09374578e-005
,,,-6.98000000e-008,-1.51562461e-004
,,,-6.96000000e-008,-1.42499960e-004
,,,-6.94000000e-008,-6.24999564e-005
,,,-6.92000000e-008,8.03125504e-005
,,,-6.90000000e-008,2.06250056e-004
,,,-6.88000000e-008,2.46562558e-004
,,,-6.86000000e-008,2.19687557e-004
,,,-6.84000000e-008,9.65625512e-005
,,,-6.82000000e-008,-3.84374553e-005
,,,-6.80000000e-008,-1.31874960e-004
,,,-6.78000000e-008,-1.60937461e-004
,,,-6.76000000e-008,-6.74999566e-005
,,,-6.74000000e-008,3.68750483e-005
,,,-6.72000000e-008,1.46250054e-004
,,,-6.70000000e-008,2.26562557e-004
,,,-6.68000000e-008,2.20312557e-004
,,,-6.66000000e-008,1.98750056e-004
,,,-6.64000000e-008,9.96875513e-005
,,,-6.62000000e-008,-1.09374540e-005
,,,-6.60000000e-008,-8.21874573e-005
,,,-6.58000000e-008,-1.35312460e-004
,,,-6.56000000e-008,-6.28124564e-005
,,,-6.54000000e-008,4.28125486e-005
,,,-6.52000000e-008,1.44062553e-004
,,,-6.50000000e-008,2.33750058e-004
,,,-6.48000000e-008,2.14687557e-004
,,,-6.46000000e-008,1.29062553e-004
,,,-6.44000000e-008,1.62500473e-005
,,,-6.42000000e-008,-1.08437459e-004
,,,-6.40000000e-008,-1.38749960e-004
,,,-6.38000000e-008,-1.27499959e-004
,,,-6.36000000e-008,-3.43749551e-005
,,,-6.34000000e-008,9.59375511e-005
,,,-6.32000000e-008,1.71875055e-004
,,,-6.30000000e-008,1.94062556e-004
,,,-6.28000000e-008,1.40937553e-004
,,,-6.26000000e-008,5.00000489e-005
,,,-6.24000000e-008,-1.62499542e-005
,,,-6.22000000e-008,-6.24999564e-005
,,,-6.20000000e-008,-4.03124553e-005
,,,-6.18000000e-008,-1.71874543e-005
,,,-6.16000000e-008,1.84375474e-005
,,,-6.14000000e-008,1.08125052e-004
,,,-6.12000000e-008,1.57187554e-004
,,,-6.10000000e-008,2.06875056e-004
,,,-6.08000000e-008,1.90625056e-004
,,,-6.06000000e-008,8.25000505e-005
,,,-6.04000000e-008,-4.62499556e-005
,,,-6.02000000e-008,-1.49687461e-004
,,,-6.00000000e-008,-1.37812460e-004
,,,-5.98000000e-008,-5.49999560e-005
,,,-5.96000000e-008,8.84375508e-005
,,,-5.94000000e-008,1.98437556e-004
,,,-5.92000000e-008,2.34062558e-004
,,,-5.90000000e-008,1.91875056e-004
,,,-5.88000000e-008,7.34375501e-005
,,,-5.86000000e-008,-6.68749566e-005
,,,-5.84000000e-008,-1.62812461e-004
,,,-5.82000000e-008,-1.72187462e-004
,,,-5.80000000e-008,-5.46874560e-005
,,,-5.78000000e-008,1.00937551e-004
,,,-5.76000000e-008,2.11562557e-004
,,,-5.74000000e-008,2.67812559e-004
,,,-5.72000000e-008,2.03437556e-004
,,,-5.70000000e-008,8.50000506e-005
,,,-5.68000000e-008,-1.06249539e-005
,,,-5.66000000e-008,-1.00937458e-004
,,,-5.64000000e-008,-1.00312458e-004
,,,-5.62000000e-008,-7.49999570e-005
,,,-5.60000000e-008,1.65625474e-005
,,,-5.58000000e-008,1.35000053e-004
,,,-5.56000000e-008,2.25625057e-004
,,,-5.54000000e-008,2.53125059e-004
,,,-5.52000000e-008,1.75625055e-004
,,,-5.50000000e-008,3.28125481e-005
,,,-5.48000000e-008,-8.56249575e-005
,,,-5.46000000e-008,-1.54999961e-004
,,,-5.44000000e-008,-1.14999959e-004
,,,-5.42000000e-008,-1.90624543e-005
,,,-5.40000000e-008,6.46875496e-005
,,,-5.38000000e-008,1.65000054e-004
,,,-5.36000000e-008,1.86250055e-004
,,,-5.34000000e-008,1.78125055e-004
,,,-5.32000000e-008,1.26250053e-004
,,,-5.30000000e-008,8.12504695e-006
,,,-5.28000000e-008,-4.40624555e-005
,,,-5.26000000e-008,-8.43749574e-005
,,,-5.24000000e-008,-6.59374566e-005
,,,-5.22000000e-008,-1.81249543e-005
,,,-5.20000000e-008,2.21875476e-005
,,,-5.18000000e-008,1.02812551e-004
,,,-5.16000000e-008,1.63750054e-004
,,,-5.14000000e-008,1.74062555e-004
,,,-5.12000000e-008,1.73437555e-004
,,,-5.10000000e-008,6.12500495e-005
,,,-5.08000000e-008,-5.93749563e-005
,,,-5.06000000e-008,-1.40937460e-004
,,,-5.04000000e-008,-1.39687460e-004
,,,-5.02000000e-008,-3.62499552e-005
,,,-5.00000000e-008,9.31250510e-005
,,,-4.98000000e-008,1.99375056e-004
,,,-4.96000000e-008,2.13125057e-004
,,,-4.94000000e-008,1.52187554e-004
,,,-4.92000000e-008,4.75000488e-005
,,,-4.90000000e-008,-3.78124552e-005
,,,-4.88000000e-008,-8.99999577e-005
,,,-4.86000000e-008,-9.34374579e-005
,,,-4.84000000e-008,-2.87499548e-005
,,,-4.82000000e-008,6.62500497e-005
,,,-4.80000000e-008,1.54375054e-004
,,,-4.78000000e-008,1.98125056e-004
,,,-4.76000000e-008,1.55625054e-004
,,,-4.74000000e-008,7.53125501e-005
,,,-4.72000000e-008,-6.56245375e-006
,,,-4.70000000e-008,-5.34374560e-005
,,,-4.68000000e-008,-5.53124561e-005
,,,-4.66000000e-008,-1.12499540e-005
,,,-4.64000000e-008,1.68750474e-005
,,,-4.62000000e-008,9.28125510e-005
,,,-4.60000000e-008,1.70937555e-004
,,,-4.58000000e-008,1.67500055e-004
,,,-4.56000000e-008,1.30625053e-004
,,,-4.54000000e-008,2.03125475e-005
,,,-4.52000000e-008,-7.31249569e-005
,,,-4.50000000e-008,-9.65624580e-005
,,,-4.48000000e-008,-7.09374568e-005
,,,-4.46000000e-008,3.25000481e-005
,,,-4.44000000e-008,1.22812552e-004
,,,-4.42000000e-008,1.57187554e-004
,,,-4.40000000e-008,1.63437554e-004
,,,-4.38000000e-008,1.23750052e-004
,,,-4.36000000e-008,5.62500492e-005
,,,-4.34000000e-008,-4.68745366e-006
,,,-4.32000000e-008,-6.49999565e-005
,,,-4.30000000e-008,-8.06249573e-005
,,,-4.28000000e-008,-3.12499549e-005
,,,-4.26000000e-008,4.75000488e-005
,,,-4.24000000e-008,1.23125052e-004
,,,-4.22000000e-008,1.49375054e-004
,,,-4.20000000e-008,1.55625054e-004
,,,-4.18000000e-008,1.22500052e-004
,,,-4.16000000e-008,4.59375487e-005
,,,-4.14000000e-008,-1.99999544e-005
,,,-4.12000000e-008,-8.37499574e-005
,,,-4.10000000e-008,-9.53124580e-005
,,,-4.08000000e-008,-4.93749558e-005
,,,-4.06000000e-008,2.40625477e-005
,,,-4.04000000e-008,1.24062552e-004
,,,-4.02000000e-008,1.67812555e-004
,,,-4.00000000e-008,1.58437554e-004
,,,-3.98000000e-008,7.59375502e-005
,,,-3.96000000e-008,2.81254670e-006
,,,-3.94000000e-008,-4.15624554e-005
,,,-3.92000000e-008,-7.24999569e-005
,,,-3.90000000e-008,-3.56249551e-005
,,,-3.88000000e-008,-9.37453478e-007
,,,-3.86000000e-008,5.43750491e-005
,,,-3.84000000e-008,1.15000052e-004
,,,-3.82000000e-008,1.37187553e-004
,,,-3.80000000e-008,1.40625053e-004
,,,-3.78000000e-008,1.25312553e-004
,,,-3.76000000e-008,6.59375497e-005
,,,-3.74000000e-008,3.00000480e-005
,,,-3.72000000e-008,-1.18749540e-005
,,,-3.70000000e-008,-4.43749555e-005
,,,-3.68000000e-008,-2.28124545e-005
,,,-3.66000000e-008,1.75000474e-005
,,,-3.64000000e-008,1.00000051e-004
,,,-3.62000000e-008,1.73125055e-004
,,,-3.60000000e-008,1.72187555e-004
,,,-3.58000000e-008,1.43125053e-004
,,,-3.56000000e-008,4.81250489e-005
,,,-3.54000000e-008,-4.09374554e-005
,,,-3.52000000e-008,-8.78124576e-005
,,,-3.50000000e-008,-8.31249574e-005
,,,-3.48000000e-008,-2.93749548e-005
,,,-3.46000000e-008,2.59375478e-005
,,,-3.44000000e-008,1.23125052e-004
,,,-3.42000000e-008,1.64062554e-004
,,,-3.40000000e-008,1.41562553e-004
,,,-3.38000000e-008,1.12812552e-004
,,,-3.36000000e-008,9.06254700e-006
,,,-3.34000000e-008,-5.78124562e-005
,,,-3.32000000e-008,-6.87499567e-005
,,,-3.30000000e-008,-3.65624552e-005
,,,-3.28000000e-008,4.50000487e-005
,,,-3.26000000e-008,1.27812553e-004
,,,-3.24000000e-008,1.56562554e-004
,,,-3.22000000e-008,1.60000054e-004
,,,-3.20000000e-008,9.84375512e-005
,,,-3.18000000e-008,3.37500482e-005
,,,-3.16000000e-008,-4.62499556e-005
,,,-3.14000000e-008,-7.78124571e-005
,,,-3.12000000e-008,-5.65624561e-005
,,,-3.10000000e-008,7.18754691e-006
,,,-3.08000000e-008,1.00312551e-004
,,,-3.06000000e-008,1.46250054e-004
,,,-3.04000000e-008,1.34062553e-004
,,,-3.02000000e-008,8.00000504e-005
,,,-3.00000000e-008,4.06254676e-006
,,,-2.98000000e-008,-4.28124555e-005
,,,-2.96000000e-008,-6.12499563e-005
,,,-2.94000000e-008,-3.65624552e-005
,,,-2.92000000e-008,2.87500479e-005
,,,-2.90000000e-008,7.34375501e-005
,,,-2.88000000e-008,1.11875052e-004
,,,-2.86000000e-008,1.59687554e-004
,,,-2.84000000e-008,1.35312553e-004
,,,-2.82000000e-008,1.00312551e-004
,,,-2.80000000e-008,3.28125481e-005
,,,-2.78000000e-008,-1.28124540e-005
,,,-2.76000000e-008,-2.81249548e-005
,,,-2.74000000e-008,-1.15624540e-005
,,,-2.72000000e-008,4.15625485e-005
,,,-2.70000000e-008,7.25000500e-005
,,,-2.68000000e-008,1.28437553e-004
,,,-2.66000000e-008,1.52812554e-004
,,,-2.64000000e-008,1.38437553e-004
,,,-2.62000000e-008,9.18750509e-005
,,,-2.60000000e-008,2.50004668e-006
,,,-2.58000000e-008,-7.21874569e-005
,,,-2.56000000e-008,-6.03124563e-005
,,,-2.54000000e-008,-5.24999559e-005
,,,-2.52000000e-008,1.75000474e-005
,,,-2.50000000e-008,9.65625512e-005
,,,-2.48000000e-008,1.24375052e-004
,,,-2.46000000e-008,1.53125054e-004
,,,-2.44000000e-008,1.02500051e-004
,,,-2.42000000e-008,6.25000495e-005
,,,-2.40000000e-008,-9.37453478e-007
,,,-2.38000000e-008,-3.93749553e-005
,,,-2.36000000e-008,-2.03124544e-005
,,,-2.34000000e-008,-1.12499540e-005
,,,-2.32000000e-008,3.56250483e-005
,,,-2.30000000e-008,8.06250504e-005
,,,-2.28000000e-008,9.37500510e-005
,,,-2.26000000e-008,1.21562552e-004
,,,-2.24000000e-008,1.21562552e-004
,,,-2.22000000e-008,8.12500504e-005
,,,-2.20000000e-008,3.46875482e-005
,,,-2.18000000e-008,-4.12499554e-005
,,,-2.16000000e-008,-4.90624558e-005
,,,-2.14000000e-008,-2.21874545e-005
,,,-2.12000000e-008,1.28125472e-005
,,,-2.10000000e-008,8.50000506e-005
,,,-2.08000000e-008,1.15000052e-004
,,,-2.06000000e-008,1.23125052e-004
,,,-2.04000000e-008,8.15625504e-005
,,,-2.02000000e-008,3.78125484e-005
,,,-2.00000000e-008,3.12504671e-006
,,,-1.98000000e-008,-3.28124550e-005
,,,-1.96000000e-008,-2.53124546e-005
,,,-1.94000000e-008,9.06254700e-006
,,,-1.92000000e-008,3.93750484e-005
,,,-1.90000000e-008,1.33750053e-004
,,,-1.88000000e-008,1.17187552e-004
,,,-1.86000000e-008,9.50000511e-005
,,,-1.84000000e-008,6.12500495e-005
,,,-1.82000000e-008,6.56254688e-006
,,,-1.80000000e-008,1.56254664e-006
,,,-1.78000000e-008,1.06250471e-005
,,,-1.76000000e-008,2.12500476e-005
,,,-1.74000000e-008,4.28125486e-005
,,,-1.72000000e-008,6.78125498e-005
,,,-1.70000000e-008,1.25312553e-004
,,,-1.68000000e-008,1.27187553e-004
,,,-1.66000000e-008,8.37500505e-005
,,,-1.64000000e-008,1.43750472e-005
,,,-1.62000000e-008,-4.87499557e-005
,,,-1.60000000e-008,-4.37499555e-005
,,,-1.58000000e-008,-3.43745360e-006
,,,-1.56000000e-008,6.34375496e-005
,,,-1.54000000e-008,1.14375052e-004
,,,-1.52000000e-008,1.16250052e-004
,,,-1.50000000e-008,1.05937552e-004
,,,-1.48000000e-008,6.50000497e-005
,,,-1.46000000e-008,4.03125485e-005
,,,-1.44000000e-008,3.75004674e-006
,,,-1.42000000e-008,-4.84374557e-005
,,,-1.40000000e-008,-3.49999551e-005
,,,-1.38000000e-008,-3.43745360e-006
,,,-1.36000000e-008,6.40625496e-005
,,,-1.34000000e-008,1.31875053e-004
,,,-1.32000000e-008,1.36562553e-004
,,,-1.30000000e-008,1.20000052e-004
,,,-1.28000000e-008,6.65625497e-005
,,,-1.26000000e-008,-8.74995385e-006
,,,-1.24000000e-008,-5.03124558e-005
,,,-1.22000000e-008,-1.00624958e-004
,,,-1.20000000e-008,-8.12499573e-005
,,,-1.18000000e-008,1.34375472e-005
,,,-1.16000000e-008,1.10312552e-004
,,,-1.14000000e-008,2.05312556e-004
,,,-1.12000000e-008,1.95000056e-004
,,,-1.10000000e-008,1.05625052e-004
,,,-1.08000000e-008,-1.28124540e-005
,,,-1.06000000e-008,-1.02187458e-004
,,,-1.04000000e-008,-1.08749959e-004
,,,-1.02000000e-008,-5.12499559e-005
,,,-1.00000000e-008,3.68750483e-005
,,,-9.80000000e-009,1.21250052e-004
,,,-9.60000000e-009,1.59375054e-004
,,,-9.40000000e-009,1.52187554e-004
,,,-9.20000000e-009,1.09062552e-004
,,,-9.00000000e-009,2.31250477e-005
,,,-8.80000000e-009,-4.06249554e-005
,,,-8.60000000e-009,-7.96874572e-005
,,,-8.40000000e-009,-2.84374548e-005
,,,-8.20000000e-009,3.34375482e-005
,,,-8.00000000e-009,1.10000052e-004
,,,-7.80000000e-009,1.29062553e-004
,,,-7.60000000e-009,8.81250508e-005
,,,-7.40000000e-009,6.81250498e-005
,,,-7.20000000e-009,5.00000489e-005
,,,-7.00000000e-009,-2.18745354e-006
,,,-6.80000000e-009,-2.78124548e-005
,,,-6.60000000e-009,-3.68749552e-005
,,,-6.40000000e-009,-1.53124542e-005
,,,-6.20000000e-009,4.31250486e-005
,,,-6.00000000e-009,7.68750502e-005
,,,-5.80000000e-009,8.96875508e-005
,,,-5.60000000e-009,3.84375484e-005
,,,-5.40000000e-009,1.34375472e-005
,,,-5.20000000e-009,-1.90624543e-005
,,,-5.00000000e-009,-9.37495388e-006
,,,-4.80000000e-009,2.59375478e-005
,,,-4.60000000e-009,2.43750477e-005
,,,-4.40000000e-009,1.31250472e-005
,,,-4.20000000e-009,2.37500477e-005
,,,-4.00000000e-009,4.65625488e-005
,,,-3.80000000e-009,7.28125500e-005
,,,-3.60000000e-009,1.09687552e-004
,,,-3.40000000e-009,6.68750497e-005
,,,-3.20000000e-009,2.37500477e-005
,,,-3.00000000e-009,-2.87499548e-005
,,,-2.80000000e-009,-6.34374564e-005
,,,-2.60000000e-009,-4.90624558e-005
,,,-2.40000000e-009,-3.18749549e-005
,,,-2.20000000e-009,5.12500490e-005
,,,-2.00000000e-009,1.11250052e-004
,,,-1.80000000e-009,1.51250054e-004
,,,-1.60000000e-009,1.19062552e-004
,,,-1.40000000e-009,6.56254688e-006
,,,-1.20000000e-009,-1.07187459e-004
,,,-1.00000000e-009,-1.86249962e-004
,,,-8.00000000e-010,-1.46562460e-004
,,,-6.00000000e-010,-2.93749548e-005
,,,-4.00000000e-010,9.71875512e-005
,,,-2.00000000e-010,1.81875055e-004
,,,0.00000000e+000,1.72187555e-004
,,,2.00000000e-010,1.05000052e-004
,,,4.00000000e-010,4.09375485e-005
,,,6.00000000e-010,-4.93749558e-005
,,,8.00000000e-010,-9.24999578e-005
,,,1.00000000e-009,-8.87499576e-005
,,,1.20000000e-009,-5.21874559e-005
,,,1.40000000e-009,3.34375482e-005
,,,1.60000000e-009,1.16875052e-004
,,,1.80000000e-009,1.72187555e-004
,,,2.00000000e-009,1.42812553e-004
,,,2.20000000e-009,8.40625506e-005
,,,2.40000000e-009,4.84375489e-005
,,,2.60000000e-009,-2.31249545e-005
,,,2.80000000e-009,-6.03124563e-005
,,,3.00000000e-009,-7.12499568e-005
,,,3.20000000e-009,-6.24999564e-005
,,,3.40000000e-009,1.03125471e-005
,,,3.60000000e-009,8.87500508e-005
,,,3.80000000e-009,1.42812553e-004
,,,4.00000000e-009,1.42812553e-004
,,,4.20000000e-009,1.04687552e-004
,,,4.40000000e-009,5.12500490e-005
,,,4.60000000e-009,-1.87499543e-005
,,,4.80000000e-009,-3.87499553e-005
,,,5.00000000e-009,-4.03124553e-005
,,,5.20000000e-009,-4.31249555e-005
,,,5.40000000e-009,1.34375472e-005
,,,5.60000000e-009,9.21875509e-005
,,,5.80000000e-009,1.28750053e-004
,,,6.00000000e-009,1.72812555e-004
,,,6.20000000e-009,1.28125053e-004
,,,6.40000000e-009,4.34375486e-005
,,,6.60000000e-009,-3.46874551e-005
,,,6.80000000e-009,-7.84374572e-005
,,,7.00000000e-009,-6.74999566e-005
,,,7.20000000e-009,-2.81245357e-006
,,,7.40000000e-009,7.62500502e-005
,,,7.60000000e-009,1.51250054e-004
,,,7.80000000e-009,1.51250054e-004
,,,8.00000000e-009,1.08437552e-004
,,,8.20000000e-009,3.59375483e-005
