Data/20220819/UCLA_to_R2B_VPOL_E_90_01_Ch2.csv

"Record Length",5000,"Points",-1.00800000e-007,-1.70312462e-004
"Sample Interval",2.00000000e-010,s,-1.00600000e-007,-9.21874578e-005
"Trigger Point",504,"Samples",-1.00400000e-007,9.37546611e-007
"Trigger Time",0.00000000e+000,s,-1.00200000e-007,1.14375052e-004
"",,,-1.00000000e-007,1.64687554e-004
"Horizontal Offset",-1.00800000e-007,s,-9.98000000e-008,1.69062555e-004
,,,-9.96000000e-008,8.34375505e-005
,,,-9.94000000e-008,-1.62499542e-005
,,,-9.92000000e-008,-1.05624958e-004
,,,-9.90000000e-008,-1.22812459e-004
,,,-9.88000000e-008,-8.62499575e-005
,,,-9.86000000e-008,-1.53124542e-005
,,,-9.84000000e-008,5.12500490e-005
,,,-9.82000000e-008,8.31250505e-005
,,,-9.80000000e-008,1.12812552e-004
,,,-9.78000000e-008,8.71875507e-005
,,,-9.76000000e-008,6.31250496e-005
,,,-9.74000000e-008,-3.49999551e-005
,,,-9.72000000e-008,-7.06249568e-005
,,,-9.70000000e-008,-9.15624578e-005
,,,-9.68000000e-008,-5.78124562e-005
,,,-9.66000000e-008,-1.78124543e-005
,,,-9.64000000e-008,3.59375483e-005
,,,-9.62000000e-008,2.71875479e-005
,,,-9.60000000e-008,4.31250486e-005
,,,-9.58000000e-008,4.68750488e-005
,,,-9.56000000e-008,4.84375489e-005
,,,-9.54000000e-008,4.25000486e-005
,,,-9.52000000e-008,-1.09374540e-005
,,,-9.50000000e-008,-7.68749571e-005
,,,-9.48000000e-008,-1.11874959e-004
,,,-9.46000000e-008,-9.21874578e-005
,,,-9.44000000e-008,1.15625471e-005
,,,-9.42000000e-008,8.90625508e-005
,,,-9.40000000e-008,1.21250052e-004
,,,-9.38000000e-008,1.29687553e-004
,,,-9.36000000e-008,7.56250502e-005
,,,-9.34000000e-008,-1.03124539e-005
,,,-9.32000000e-008,-1.06562458e-004
,,,-9.30000000e-008,-1.79062462e-004
,,,-9.28000000e-008,-1.66874961e-004
,,,-9.26000000e-008,-4.87499557e-005
,,,-9.24000000e-008,1.09687552e-004
,,,-9.22000000e-008,1.63750054e-004
,,,-9.20000000e-008,1.22812552e-004
,,,-9.18000000e-008,2.37500477e-005
,,,-9.16000000e-008,-9.74999581e-005
,,,-9.14000000e-008,-1.33124960e-004
,,,-9.12000000e-008,-1.11249959e-004
,,,-9.10000000e-008,-6.78124567e-005
,,,-9.08000000e-008,3.43754673e-006
,,,-9.06000000e-008,6.75000498e-005
,,,-9.04000000e-008,9.78125512e-005
,,,-9.02000000e-008,6.71875498e-005
,,,-9.00000000e-008,6.53125497e-005
,,,-8.98000000e-008,-2.40624546e-005
,,,-8.96000000e-008,-8.06249573e-005
,,,-8.94000000e-008,-7.40624570e-005
,,,-8.92000000e-008,-3.49999551e-005
,,,-8.90000000e-008,9.06254700e-006
,,,-8.88000000e-008,7.09375499e-005
,,,-8.86000000e-008,5.46875492e-005
,,,-8.84000000e-008,5.15625490e-005
,,,-8.82000000e-008,3.53125482e-005
,,,-8.80000000e-008,7.50004692e-006
,,,-8.78000000e-008,-3.18749549e-005
,,,-8.76000000e-008,-7.15624568e-005
,,,-8.74000000e-008,-8.46874575e-005
,,,-8.72000000e-008,-3.62499552e-005
,,,-8.70000000e-008,4.59375487e-005
,,,-8.68000000e-008,9.90625513e-005
,,,-8.66000000e-008,5.62500492e-005
,,,-8.64000000e-008,2.75000479e-005
,,,-8.62000000e-008,-4.34374555e-005
,,,-8.60000000e-008,-6.90624567e-005
,,,-8.58000000e-008,-1.84374543e-005
,,,-8.56000000e-008,-3.71874552e-005
,,,-8.54000000e-008,-3.87499553e-005
,,,-8.52000000e-008,7.18754691e-006
,,,-8.50000000e-008,2.59375478e-005
,,,-8.48000000e-008,9.09375509e-005
,,,-8.46000000e-008,7.87500503e-005
,,,-8.44000000e-008,3.96875485e-005
,,,-8.42000000e-008,-2.12499544e-005
,,,-8.40000000e-008,-5.24999559e-005
,,,-8.38000000e-008,-7.90624572e-005
,,,-8.36000000e-008,-4.18749554e-005
,,,-8.34000000e-008,2.43750477e-005
,,,-8.32000000e-008,3.65625483e-005
,,,-8.30000000e-008,6.31250496e-005
,,,-8.28000000e-008,9.09375509e-005
,,,-8.26000000e-008,2.93750480e-005
,,,-8.24000000e-008,-7.81245380e-006
,,,-8.22000000e-008,-6.28124564e-005
,,,-8.20000000e-008,-1.03124958e-004
,,,-8.18000000e-008,-7.34374569e-005
,,,-8.16000000e-008,6.25046596e-007
,,,-8.14000000e-008,6.00000494e-005
,,,-8.12000000e-008,8.21875505e-005
,,,-8.10000000e-008,5.28125491e-005
,,,-8.08000000e-008,4.68754679e-006
,,,-8.06000000e-008,-3.78124552e-005
,,,-8.04000000e-008,-6.87495376e-006
,,,-8.02000000e-008,-2.15624545e-005
,,,-8.00000000e-008,-4.74999557e-005
,,,-7.98000000e-008,-2.59374547e-005
,,,-7.96000000e-008,-2.78124548e-005
,,,-7.94000000e-008,-5.93745372e-006
,,,-7.92000000e-008,7.09375499e-005
,,,-7.90000000e-008,7.46875501e-005
,,,-7.88000000e-008,8.65625507e-005
,,,-7.86000000e-008,6.87500498e-005
,,,-7.84000000e-008,4.68754679e-006
,,,-7.82000000e-008,-4.12499554e-005
,,,-7.80000000e-008,-8.65624575e-005
,,,-7.78000000e-008,-1.16562459e-004
,,,-7.76000000e-008,-6.93749567e-005
,,,-7.74000000e-008,4.90625489e-005
,,,-7.72000000e-008,1.52812554e-004
,,,-7.70000000e-008,1.42812553e-004
,,,-7.68000000e-008,9.50000511e-005
,,,-7.66000000e-008,-2.03124544e-005
,,,-7.64000000e-008,-1.11874959e-004
,,,-7.62000000e-008,-1.29687460e-004
,,,-7.60000000e-008,-1.43124960e-004
,,,-7.58000000e-008,-8.31249574e-005
,,,-7.56000000e-008,3.00000480e-005
,,,-7.54000000e-008,1.09375052e-004
,,,-7.52000000e-008,1.95000056e-004
,,,-7.50000000e-008,1.80625055e-004
,,,-7.48000000e-008,5.43750491e-005
,,,-7.46000000e-008,-9.62499580e-005
,,,-7.44000000e-008,-2.15937464e-004
,,,-7.42000000e-008,-2.21874964e-004
,,,-7.40000000e-008,-1.00937458e-004
,,,-7.38000000e-008,6.25000495e-005
,,,-7.36000000e-008,1.97500056e-004
,,,-7.34000000e-008,2.17187557e-004
,,,-7.32000000e-008,1.51562554e-004
,,,-7.30000000e-008,8.12504695e-006
,,,-7.28000000e-008,-1.11874959e-004
,,,-7.26000000e-008,-1.93749963e-004
,,,-7.24000000e-008,-2.21249964e-004
,,,-7.22000000e-008,-1.02812458e-004
,,,-7.20000000e-008,6.71875498e-005
,,,-7.18000000e-008,1.62187554e-004
,,,-7.16000000e-008,1.78125055e-004
,,,-7.14000000e-008,7.59375502e-005
,,,-7.12000000e-008,-5.06249558e-005
,,,-7.10000000e-008,-1.08437459e-004
,,,-7.08000000e-008,-1.09062459e-004
,,,-7.06000000e-008,-4.96874558e-005
,,,-7.04000000e-008,7.50004692e-006
,,,-7.02000000e-008,1.40625472e-005
,,,-7.00000000e-008,3.12500481e-005
,,,-6.98000000e-008,3.62500483e-005
,,,-6.96000000e-008,2.71875479e-005
,,,-6.94000000e-008,3.15625481e-005
,,,-6.92000000e-008,2.93750480e-005
,,,-6.90000000e-008,3.50000482e-005
,,,-6.88000000e-008,3.18750481e-005
,,,-6.86000000e-008,7.50004692e-006
,,,-6.84000000e-008,-1.65624542e-005
,,,-6.82000000e-008,-5.99999563e-005
,,,-6.80000000e-008,-5.96874563e-005
,,,-6.78000000e-008,-2.21874545e-005
,,,-6.76000000e-008,2.06250475e-005
,,,-6.74000000e-008,1.03437551e-004
,,,-6.72000000e-008,9.59375511e-005
,,,-6.70000000e-008,6.12500495e-005
,,,-6.68000000e-008,1.50000473e-005
,,,-6.66000000e-008,-5.31249560e-005
,,,-6.64000000e-008,-9.37499579e-005
,,,-6.62000000e-008,-9.59374580e-005
,,,-6.60000000e-008,-4.18749554e-005
,,,-6.58000000e-008,7.81254694e-006
,,,-6.56000000e-008,1.02500051e-004
,,,-6.54000000e-008,1.44375053e-004
,,,-6.52000000e-008,1.29687553e-004
,,,-6.50000000e-008,3.25000481e-005
,,,-6.48000000e-008,-6.37499565e-005
,,,-6.46000000e-008,-1.39374960e-004
,,,-6.44000000e-008,-1.06249958e-004
,,,-6.42000000e-008,-5.53124561e-005
,,,-6.40000000e-008,3.46875482e-005
,,,-6.38000000e-008,9.25000510e-005
,,,-6.36000000e-008,1.16250052e-004
,,,-6.34000000e-008,1.12500052e-004
,,,-6.32000000e-008,3.06250480e-005
,,,-6.30000000e-008,-7.03124568e-005
,,,-6.28000000e-008,-1.22812459e-004
,,,-6.26000000e-008,-1.48124960e-004
,,,-6.24000000e-008,-7.46874570e-005
,,,-6.22000000e-008,-6.87495376e-006
,,,-6.20000000e-008,7.50000501e-005
,,,-6.18000000e-008,1.10000052e-004
,,,-6.16000000e-008,6.62500497e-005
,,,-6.14000000e-008,4.00000485e-005
,,,-6.12000000e-008,-4.37495364e-006
,,,-6.10000000e-008,-4.12499554e-005
,,,-6.08000000e-008,-8.49999575e-005
,,,-6.06000000e-008,-1.17187459e-004
,,,-6.04000000e-008,-7.93749572e-005
,,,-6.02000000e-008,5.93754685e-006
,,,-6.00000000e-008,8.90625508e-005
,,,-5.98000000e-008,1.52187554e-004
,,,-5.96000000e-008,1.08125052e-004
,,,-5.94000000e-008,3.75004674e-006
,,,-5.92000000e-008,-8.40624574e-005
,,,-5.90000000e-008,-1.46562460e-004
,,,-5.88000000e-008,-1.39374960e-004
,,,-5.86000000e-008,-6.56249566e-005
,,,-5.84000000e-008,1.62500473e-005
,,,-5.82000000e-008,1.04687552e-004
,,,-5.80000000e-008,1.40312553e-004
,,,-5.78000000e-008,1.00937551e-004
,,,-5.76000000e-008,2.90625479e-005
,,,-5.74000000e-008,-7.37499569e-005
,,,-5.72000000e-008,-1.28124960e-004
,,,-5.70000000e-008,-1.35624960e-004
,,,-5.68000000e-008,-4.93749558e-005
,,,-5.66000000e-008,7.15625500e-005
,,,-5.64000000e-008,9.71875512e-005
,,,-5.62000000e-008,8.06250504e-005
,,,-5.60000000e-008,5.81250493e-005
,,,-5.58000000e-008,7.18754691e-006
,,,-5.56000000e-008,-5.62495370e-006
,,,-5.54000000e-008,-3.65624552e-005
,,,-5.52000000e-008,-4.37499555e-005
,,,-5.50000000e-008,-2.06249544e-005
,,,-5.48000000e-008,3.40625482e-005
,,,-5.46000000e-008,5.84375493e-005
,,,-5.44000000e-008,4.28125486e-005
,,,-5.42000000e-008,6.87504689e-006
,,,-5.40000000e-008,-1.24999540e-005
,,,-5.38000000e-008,-2.28124545e-005
,,,-5.36000000e-008,1.03125471e-005
,,,-5.34000000e-008,3.46875482e-005
,,,-5.32000000e-008,4.90625489e-005
,,,-5.30000000e-008,3.21875481e-005
,,,-5.28000000e-008,-1.59374542e-005
,,,-5.26000000e-008,-4.43749555e-005
,,,-5.24000000e-008,-6.09374563e-005
,,,-5.22000000e-008,-5.78124562e-005
,,,-5.20000000e-008,-9.99995391e-006
,,,-5.18000000e-008,4.12500485e-005
,,,-5.16000000e-008,1.07187552e-004
,,,-5.14000000e-008,7.75000502e-005
,,,-5.12000000e-008,1.12500471e-005
,,,-5.10000000e-008,-6.43749565e-005
,,,-5.08000000e-008,-1.48124960e-004
,,,-5.06000000e-008,-1.09999959e-004
,,,-5.04000000e-008,-2.40624546e-005
,,,-5.02000000e-008,5.75000493e-005
,,,-5.00000000e-008,1.39062553e-004
,,,-4.98000000e-008,1.17812552e-004
,,,-4.96000000e-008,5.65625493e-005
,,,-4.94000000e-008,-1.90624543e-005
,,,-4.92000000e-008,-1.34062460e-004
,,,-4.90000000e-008,-1.29687460e-004
,,,-4.88000000e-008,-1.02187458e-004
,,,-4.86000000e-008,-3.03124549e-005
,,,-4.84000000e-008,8.18750505e-005
,,,-4.82000000e-008,1.26875053e-004
,,,-4.80000000e-008,1.22500052e-004
,,,-4.78000000e-008,4.43750487e-005
,,,-4.76000000e-008,-9.09374578e-005
,,,-4.74000000e-008,-1.44999960e-004
,,,-4.72000000e-008,-1.12812459e-004
,,,-4.70000000e-008,-3.59374551e-005
,,,-4.68000000e-008,1.84375474e-005
,,,-4.66000000e-008,7.90625503e-005
,,,-4.64000000e-008,8.71875507e-005
,,,-4.62000000e-008,6.06250494e-005
,,,-4.60000000e-008,5.15625490e-005
,,,-4.58000000e-008,-2.93749548e-005
,,,-4.56000000e-008,-8.46874575e-005
,,,-4.54000000e-008,-9.28124578e-005
,,,-4.52000000e-008,-3.68749552e-005
,,,-4.50000000e-008,5.06250490e-005
,,,-4.48000000e-008,1.01250051e-004
,,,-4.46000000e-008,8.53125506e-005
,,,-4.44000000e-008,3.00000480e-005
,,,-4.42000000e-008,-4.68749557e-005
,,,-4.40000000e-008,-4.71874557e-005
,,,-4.38000000e-008,-4.90624558e-005
,,,-4.36000000e-008,-1.12499540e-005
,,,-4.34000000e-008,5.50000492e-005
,,,-4.32000000e-008,7.43750501e-005
,,,-4.30000000e-008,6.03125494e-005
,,,-4.28000000e-008,1.62500473e-005
,,,-4.26000000e-008,-7.06249568e-005
,,,-4.24000000e-008,-1.22499959e-004
,,,-4.22000000e-008,-9.99999582e-005
,,,-4.20000000e-008,-3.62499552e-005
,,,-4.18000000e-008,5.46875492e-005
,,,-4.16000000e-008,1.29687553e-004
,,,-4.14000000e-008,1.41562553e-004
,,,-4.12000000e-008,3.25000481e-005
,,,-4.10000000e-008,-5.59374561e-005
,,,-4.08000000e-008,-1.26249959e-004
,,,-4.06000000e-008,-1.34062460e-004
,,,-4.04000000e-008,-4.71874557e-005
,,,-4.02000000e-008,2.81250479e-005
,,,-4.00000000e-008,1.06250052e-004
,,,-3.98000000e-008,1.55000054e-004
,,,-3.96000000e-008,9.06250509e-005
,,,-3.94000000e-008,2.43750477e-005
,,,-3.92000000e-008,-6.65624566e-005
,,,-3.90000000e-008,-1.37812460e-004
,,,-3.88000000e-008,-1.38437460e-004
,,,-3.86000000e-008,-6.40624565e-005
,,,-3.84000000e-008,2.84375479e-005
,,,-3.82000000e-008,9.81250512e-005
,,,-3.80000000e-008,8.53125506e-005
,,,-3.78000000e-008,5.90625494e-005
,,,-3.76000000e-008,4.37504677e-006
,,,-3.74000000e-008,-5.18749559e-005
,,,-3.72000000e-008,-6.74999566e-005
,,,-3.70000000e-008,-9.84374581e-005
,,,-3.68000000e-008,-2.99999549e-005
,,,-3.66000000e-008,2.25000476e-005
,,,-3.64000000e-008,7.84375503e-005
,,,-3.62000000e-008,7.68750502e-005
,,,-3.60000000e-008,4.37504677e-006
,,,-3.58000000e-008,-4.93749558e-005
,,,-3.56000000e-008,-7.12499568e-005
,,,-3.54000000e-008,-8.43745383e-006
,,,-3.52000000e-008,3.53125482e-005
,,,-3.50000000e-008,6.59375497e-005
,,,-3.48000000e-008,3.50000482e-005
,,,-3.46000000e-008,-1.03124539e-005
,,,-3.44000000e-008,-3.62499552e-005
,,,-3.42000000e-008,-5.96874563e-005
,,,-3.40000000e-008,-3.90624553e-005
,,,-3.38000000e-008,3.12504671e-006
,,,-3.36000000e-008,3.37500482e-005
,,,-3.34000000e-008,8.09375504e-005
,,,-3.32000000e-008,6.40625496e-005
,,,-3.30000000e-008,1.50000473e-005
,,,-3.28000000e-008,-4.37499555e-005
,,,-3.26000000e-008,-1.11249959e-004
,,,-3.24000000e-008,-8.93749577e-005
,,,-3.22000000e-008,4.65661288e-011
,,,-3.20000000e-008,5.78125493e-005
,,,-3.18000000e-008,1.09062552e-004
,,,-3.16000000e-008,7.12500500e-005
,,,-3.14000000e-008,5.00004680e-006
,,,-3.12000000e-008,-2.49999546e-005
,,,-3.10000000e-008,-5.03124558e-005
,,,-3.08000000e-008,-3.62499552e-005
,,,-3.06000000e-008,-1.87499543e-005
,,,-3.04000000e-008,-1.40624541e-005
,,,-3.02000000e-008,-6.87495376e-006
,,,-3.00000000e-008,2.87500479e-005
,,,-2.98000000e-008,7.18750500e-005
,,,-2.96000000e-008,3.81250484e-005
,,,-2.94000000e-008,1.46875473e-005
,,,-2.92000000e-008,-9.37495388e-006
,,,-2.90000000e-008,-5.99999563e-005
,,,-2.88000000e-008,-4.59374556e-005
,,,-2.86000000e-008,-4.03124553e-005
,,,-2.84000000e-008,-2.59374547e-005
,,,-2.82000000e-008,4.21875486e-005
,,,-2.80000000e-008,5.75000493e-005
,,,-2.78000000e-008,8.43750506e-005
,,,-2.76000000e-008,8.93750508e-005
,,,-2.74000000e-008,1.18750471e-005
,,,-2.72000000e-008,-6.62499566e-005
,,,-2.70000000e-008,-1.07187459e-004
,,,-2.68000000e-008,-8.06249573e-005
,,,-2.66000000e-008,-2.62499547e-005
,,,-2.64000000e-008,5.46875492e-005
,,,-2.62000000e-008,9.81250512e-005
,,,-2.60000000e-008,8.59375506e-005
,,,-2.58000000e-008,7.40625501e-005
,,,-2.56000000e-008,2.71875479e-005
,,,-2.54000000e-008,-5.62499561e-005
,,,-2.52000000e-008,-1.13124959e-004
,,,-2.50000000e-008,-1.40624960e-004
,,,-2.48000000e-008,-7.09374568e-005
,,,-2.46000000e-008,5.62500492e-005
,,,-2.44000000e-008,1.50000054e-004
,,,-2.42000000e-008,1.59687554e-004
,,,-2.40000000e-008,1.10000052e-004
,,,-2.38000000e-008,-2.09374544e-005
,,,-2.36000000e-008,-1.34374960e-004
,,,-2.34000000e-008,-1.60624961e-004
,,,-2.32000000e-008,-1.20624959e-004
,,,-2.30000000e-008,-4.78124557e-005
,,,-2.28000000e-008,7.71875502e-005
,,,-2.26000000e-008,1.91875056e-004
,,,-2.24000000e-008,1.69375055e-004
,,,-2.22000000e-008,8.31250505e-005
,,,-2.20000000e-008,-6.87499567e-005
,,,-2.18000000e-008,-1.57499961e-004
,,,-2.16000000e-008,-1.24374959e-004
,,,-2.14000000e-008,-1.96874544e-005
,,,-2.12000000e-008,8.43750506e-005
,,,-2.10000000e-008,1.21875052e-004
,,,-2.08000000e-008,6.93750499e-005
,,,-2.06000000e-008,-1.68749542e-005
,,,-2.04000000e-008,-5.84374562e-005
,,,-2.02000000e-008,-4.28124555e-005
,,,-2.00000000e-008,2.50004668e-006
,,,-1.98000000e-008,6.56250497e-005
,,,-1.96000000e-008,6.12500495e-005
,,,-1.94000000e-008,3.93750484e-005
,,,-1.92000000e-008,-2.43749546e-005
,,,-1.90000000e-008,-7.74999571e-005
,,,-1.88000000e-008,-8.68749576e-005
,,,-1.86000000e-008,-6.84374567e-005
,,,-1.84000000e-008,-6.56245375e-006
,,,-1.82000000e-008,1.01875051e-004
,,,-1.80000000e-008,1.41250053e-004
,,,-1.78000000e-008,1.11875052e-004
,,,-1.76000000e-008,5.31254682e-006
,,,-1.74000000e-008,-1.19062459e-004
,,,-1.72000000e-008,-1.45312460e-004
,,,-1.70000000e-008,-1.00624958e-004
,,,-1.68000000e-008,-3.21874550e-005
,,,-1.66000000e-008,9.71875512e-005
,,,-1.64000000e-008,1.37812553e-004
,,,-1.62000000e-008,1.61562554e-004
,,,-1.60000000e-008,1.02500051e-004
,,,-1.58000000e-008,5.00004680e-006
,,,-1.56000000e-008,-9.15624578e-005
,,,-1.54000000e-008,-1.52812461e-004
,,,-1.52000000e-008,-1.34999960e-004
,,,-1.50000000e-008,-7.49995379e-006
,,,-1.48000000e-008,9.93750513e-005
,,,-1.46000000e-008,1.87500055e-004
,,,-1.44000000e-008,1.45625053e-004
,,,-1.42000000e-008,1.25000472e-005
,,,-1.40000000e-008,-9.43749579e-005
,,,-1.38000000e-008,-1.40312460e-004
,,,-1.36000000e-008,-1.06562458e-004
,,,-1.34000000e-008,-3.15624549e-005
,,,-1.32000000e-008,7.12500500e-005
,,,-1.30000000e-008,1.09687552e-004
,,,-1.28000000e-008,8.78125507e-005
,,,-1.26000000e-008,1.43750472e-005
,,,-1.24000000e-008,-5.84374562e-005
,,,-1.22000000e-008,-6.59374566e-005
,,,-1.20000000e-008,-5.12499559e-005
,,,-1.18000000e-008,3.28125481e-005
,,,-1.16000000e-008,9.28125510e-005
,,,-1.14000000e-008,7.90625503e-005
,,,-1.12000000e-008,1.21875471e-005
,,,-1.10000000e-008,-6.18749564e-005
,,,-1.08000000e-008,-1.04374958e-004
,,,-1.06000000e-008,-4.81249557e-005
,,,-1.04000000e-008,2.90625479e-005
,,,-1.02000000e-008,1.04375052e-004
,,,-1.00000000e-008,1.14062552e-004
,,,-9.80000000e-009,3.31250481e-005
,,,-9.60000000e-009,-3.46874551e-005
,,,-9.40000000e-009,-9.90624581e-005
,,,-9.20000000e-009,-1.10937459e-004
,,,-9.00000000e-009,-7.59374570e-005
,,,-8.80000000e-009,1.59375473e-005
,,,-8.60000000e-009,6.40625496e-005
,,,-8.40000000e-009,9.37500510e-005
,,,-8.20000000e-009,6.93750499e-005
,,,-8.00000000e-009,-2.18749545e-005
,,,-7.80000000e-009,-7.09374568e-005
,,,-7.60000000e-009,-1.08749959e-004
,,,-7.40000000e-009,-7.93749572e-005
,,,-7.20000000e-009,-1.71874543e-005
,,,-7.00000000e-009,3.81250484e-005
,,,-6.80000000e-009,6.28125495e-005
,,,-6.60000000e-009,5.43750491e-005
,,,-6.40000000e-009,4.96875489e-005
,,,-6.20000000e-009,9.68754703e-006
,,,-6.00000000e-009,-5.09374559e-005
,,,-5.80000000e-009,-1.00937458e-004
,,,-5.60000000e-009,-8.65624575e-005
,,,-5.40000000e-009,-2.21874545e-005
,,,-5.20000000e-009,3.28125481e-005
,,,-5.00000000e-009,8.68750507e-005
,,,-4.80000000e-009,2.43750477e-005
,,,-4.60000000e-009,-3.84374553e-005
,,,-4.40000000e-009,-8.12499573e-005
,,,-4.20000000e-009,-1.17187459e-004
,,,-4.00000000e-009,-5.09374559e-005
,,,-3.80000000e-009,1.56254664e-006
,,,-3.60000000e-009,3.09375480e-005
,,,-3.40000000e-009,2.12500476e-005
,,,-3.20000000e-009,-1.65624542e-005
,,,-3.00000000e-009,-4.03124553e-005
,,,-2.80000000e-009,-5.68749561e-005
,,,-2.60000000e-009,-5.87499562e-005
,,,-2.40000000e-009,-6.99999568e-005
,,,-2.20000000e-009,-1.87495352e-006
,,,-2.00000000e-009,4.25000486e-005
,,,-1.80000000e-009,2.87500479e-005
,,,-1.60000000e-009,8.12504695e-006
,,,-1.40000000e-009,-4.09374554e-005
,,,-1.20000000e-009,-5.81249562e-005
,,,-1.00000000e-009,-4.18749554e-005
,,,-8.00000000e-010,-8.74995385e-006
,,,-6.00000000e-010,8.75004698e-006
,,,-4.00000000e-010,-1.53124542e-005
,,,-2.00000000e-010,-3.40624551e-005
,,,0.00000000e+000,-2.87499548e-005
,,,2.00000000e-010,1.09375471e-005
,,,4.00000000e-010,5.34375491e-005
,,,6.00000000e-010,3.62500483e-005
,,,8.00000000e-010,6.56254688e-006
,,,1.00000000e-009,-3.37499550e-005
,,,1.20000000e-009,-1.05937458e-004
,,,1.40000000e-009,-1.11249959e-004
,,,1.60000000e-009,-8.78124576e-005
,,,1.80000000e-009,2.81254670e-006
,,,2.00000000e-009,6.84375498e-005
,,,2.20000000e-009,1.18437552e-004
,,,2.40000000e-009,8.93750508e-005
,,,2.60000000e-009,9.06254700e-006
,,,2.80000000e-009,-9.87499581e-005
,,,3.00000000e-009,-1.56874961e-004
,,,3.20000000e-009,-1.39062460e-004
,,,3.40000000e-009,-6.56245375e-006
,,,3.60000000e-009,8.56250506e-005
,,,3.80000000e-009,1.14062552e-004
,,,4.00000000e-009,9.50000511e-005
,,,4.20000000e-009,1.81250474e-005
,,,4.40000000e-009,-3.03124549e-005
,,,4.60000000e-009,-7.96874572e-005
,,,4.80000000e-009,-8.68749576e-005
,,,5.00000000e-009,-5.53124561e-005
,,,5.20000000e-009,4.06254676e-006
,,,5.40000000e-009,5.46875492e-005
,,,5.60000000e-009,6.40625496e-005
,,,5.80000000e-009,7.46875501e-005
,,,6.00000000e-009,5.31254682e-006
,,,6.20000000e-009,-4.09374554e-005
,,,6.40000000e-009,-6.09374563e-005
,,,6.60000000e-009,-2.46874546e-005
,,,6.80000000e-009,7.18754691e-006
,,,7.00000000e-009,1.65625474e-005
,,,7.20000000e-009,1.18750471e-005
,,,7.40000000e-009,2.46875477e-005
,,,7.60000000e-009,6.25046596e-007
,,,7.80000000e-009,-2.99999549e-005
,,,8.00000000e-009,-1.78124543e-005
