Data/20220819/UCLA_to_R2B_VPOL_E_NEG10_01_Math1.csv

"Record Length",3200,"Points",0.00000000e+000,-1.05365744e+001
"Sample Interval",7.81250000e+005,Hz,7.81250000e+005,-1.62601223e+001
"Trigger Point",0,"Samples",1.56250000e+006,-1.84994774e+001
"Trigger Time",0.00000000e+000,Hz,2.34375000e+006,-2.30038052e+001
"",,,3.12500000e+006,-3.25486069e+001
"Horizontal Offset",0.00000000e+000,Hz,3.90625000e+006,-3.70298233e+001
,,,4.68750000e+006,-2.94121571e+001
,,,5.46875000e+006,-2.91991959e+001
,,,6.25000000e+006,-3.36108780e+001
,,,7.03125000e+006,-5.09766808e+001
,,,7.81250000e+006,-3.72411880e+001
,,,8.59375000e+006,-3.36118317e+001
,,,9.37500000e+006,-3.47030106e+001
,,,1.01562500e+007,-4.09269829e+001
,,,1.09375000e+007,-4.91714172e+001
,,,1.17187500e+007,-3.80427628e+001
,,,1.25000000e+007,-3.64789925e+001
,,,1.32812500e+007,-3.92904129e+001
,,,1.40625000e+007,-5.06807823e+001
,,,1.48437500e+007,-4.48402061e+001
,,,1.56250000e+007,-3.93287926e+001
,,,1.64062500e+007,-3.83869438e+001
,,,1.71875000e+007,-4.38588905e+001
,,,1.79687500e+007,-5.76961060e+001
,,,1.87500000e+007,-4.16931992e+001
,,,1.95312500e+007,-4.06034050e+001
,,,2.03125000e+007,-4.28107414e+001
,,,2.10937500e+007,-5.14631538e+001
,,,2.18750000e+007,-5.02347870e+001
,,,2.26562500e+007,-4.31754074e+001
,,,2.34375000e+007,-4.07865944e+001
,,,2.42187500e+007,-4.70161934e+001
,,,2.50000000e+007,-6.72504349e+001
,,,2.57812500e+007,-4.70228233e+001
,,,2.65625000e+007,-4.29002571e+001
,,,2.73437500e+007,-4.40971222e+001
,,,2.81250000e+007,-4.90575867e+001
,,,2.89062500e+007,-4.96841888e+001
,,,2.96875000e+007,-4.63021660e+001
,,,3.04687500e+007,-4.37455559e+001
,,,3.12500000e+007,-4.65507278e+001
,,,3.20312500e+007,-7.37874222e+001
,,,3.28125000e+007,-4.89653244e+001
,,,3.35937500e+007,-4.48617363e+001
,,,3.43750000e+007,-4.60069695e+001
,,,3.51562500e+007,-5.32938042e+001
,,,3.59375000e+007,-6.23248444e+001
,,,3.67187500e+007,-4.73097496e+001
,,,3.75000000e+007,-4.50233574e+001
,,,3.82812500e+007,-4.80410805e+001
,,,3.90625000e+007,-7.59627914e+001
,,,3.98437500e+007,-5.27023582e+001
,,,4.06250000e+007,-4.76522560e+001
,,,4.14062500e+007,-4.70662537e+001
,,,4.21875000e+007,-5.29003525e+001
,,,4.29687500e+007,-7.00573502e+001
,,,4.37500000e+007,-4.93512650e+001
,,,4.45312500e+007,-4.68325577e+001
,,,4.53125000e+007,-4.98693771e+001
,,,4.60937500e+007,-5.80010490e+001
,,,4.68750000e+007,-5.45757675e+001
,,,4.76562500e+007,-4.77932510e+001
,,,4.84375000e+007,-4.83286514e+001
,,,4.92187500e+007,-5.45969505e+001
,,,5.00000000e+007,-6.88680496e+001
,,,5.07812500e+007,-5.21568069e+001
,,,5.15625000e+007,-5.09816017e+001
,,,5.23437500e+007,-4.91273384e+001
,,,5.31250000e+007,-5.40264397e+001
,,,5.39062500e+007,-5.62106628e+001
,,,5.46875000e+007,-5.01995010e+001
,,,5.54687500e+007,-5.00475388e+001
,,,5.62500000e+007,-5.10766945e+001
,,,5.70312500e+007,-7.10576859e+001
,,,5.78125000e+007,-5.34786110e+001
,,,5.85937500e+007,-4.93858452e+001
,,,5.93750000e+007,-5.13492050e+001
,,,6.01562500e+007,-5.82418098e+001
,,,6.09375000e+007,-7.18139801e+001
,,,6.17187500e+007,-5.12967567e+001
,,,6.25000000e+007,-5.05802765e+001
,,,6.32812500e+007,-5.13701820e+001
,,,6.40625000e+007,-6.22022095e+001
,,,6.48437500e+007,-5.57177582e+001
,,,6.56250000e+007,-5.09251709e+001
,,,6.64062500e+007,-4.91402893e+001
,,,6.71875000e+007,-6.02026367e+001
,,,6.79687500e+007,-6.27946472e+001
,,,6.87500000e+007,-5.61112289e+001
,,,6.95312500e+007,-4.90819893e+001
,,,7.03125000e+007,-5.30361900e+001
,,,7.10937500e+007,-7.35749512e+001
,,,7.18750000e+007,-5.98658333e+001
,,,7.26562500e+007,-5.10593338e+001
,,,7.34375000e+007,-5.24207916e+001
,,,7.42187500e+007,-5.56439629e+001
,,,7.50000000e+007,-6.39807358e+001
,,,7.57812500e+007,-5.36714973e+001
,,,7.65625000e+007,-5.35851707e+001
,,,7.73437500e+007,-5.12923470e+001
,,,7.81250000e+007,-6.06507912e+001
,,,7.89062500e+007,-6.05312386e+001
,,,7.96875000e+007,-5.22584877e+001
,,,8.04687500e+007,-5.27318382e+001
,,,8.12500000e+007,-5.96166687e+001
,,,8.20312500e+007,-6.17610283e+001
,,,8.28125000e+007,-5.53731003e+001
,,,8.35937500e+007,-5.06132050e+001
,,,8.43750000e+007,-5.79151459e+001
,,,8.51562500e+007,-5.81820869e+001
,,,8.59375000e+007,-5.83243904e+001
,,,8.67187500e+007,-5.45293922e+001
,,,8.75000000e+007,-5.41147614e+001
,,,8.82812500e+007,-5.53323250e+001
,,,8.90625000e+007,-6.50700226e+001
,,,8.98437500e+007,-5.90084610e+001
,,,9.06250000e+007,-5.49758759e+001
,,,9.14062500e+007,-5.10538788e+001
,,,9.21875000e+007,-6.47557449e+001
,,,9.29687500e+007,-6.20565071e+001
,,,9.37500000e+007,-5.58269920e+001
,,,9.45312500e+007,-5.63614502e+001
,,,9.53125000e+007,-5.77198792e+001
,,,9.60937500e+007,-6.18640785e+001
,,,9.68750000e+007,-5.94322128e+001
,,,9.76562500e+007,-5.49153099e+001
,,,9.84375000e+007,-5.56562271e+001
,,,9.92187500e+007,-5.57398491e+001
,,,1.00000000e+008,-6.34705849e+001
,,,1.00781250e+008,-5.99231071e+001
,,,1.01562500e+008,-5.44575729e+001
,,,1.02343750e+008,-5.32997665e+001
,,,1.03125000e+008,-6.52734146e+001
,,,1.03906250e+008,-6.64495392e+001
,,,1.04687500e+008,-5.87824936e+001
,,,1.05468750e+008,-5.41005211e+001
,,,1.06250000e+008,-5.46505775e+001
,,,1.07031250e+008,-5.66117668e+001
,,,1.07812500e+008,-4.92604637e+001
,,,1.08593750e+008,-5.79585495e+001
,,,1.09375000e+008,-5.92084961e+001
,,,1.10156250e+008,-5.74712715e+001
,,,1.10937500e+008,-5.54906311e+001
,,,1.11718750e+008,-5.56240273e+001
,,,1.12500000e+008,-6.77171478e+001
,,,1.13281250e+008,-5.08467293e+001
,,,1.14062500e+008,-6.43731308e+001
,,,1.14843750e+008,-6.27019081e+001
,,,1.15625000e+008,-5.54706078e+001
,,,1.16406250e+008,-5.35026550e+001
,,,1.17187500e+008,-6.92626419e+001
,,,1.17968750e+008,-6.68678970e+001
,,,1.18750000e+008,-5.35685883e+001
,,,1.19531250e+008,-5.49944344e+001
,,,1.20312500e+008,-6.38165359e+001
,,,1.21093750e+008,-5.77538414e+001
,,,1.21875000e+008,-5.90383415e+001
,,,1.22656250e+008,-5.69033852e+001
,,,1.23437500e+008,-5.45894432e+001
,,,1.24218750e+008,-5.36451111e+001
,,,1.25000000e+008,-6.43344116e+001
,,,1.25781250e+008,-5.79338036e+001
,,,1.26562500e+008,-5.43235283e+001
,,,1.27343750e+008,-5.43838997e+001
,,,1.28125000e+008,-6.00366402e+001
,,,1.28906250e+008,-5.89086571e+001
,,,1.29687500e+008,-4.70221329e+001
,,,1.30468750e+008,-4.74182663e+001
,,,1.31250000e+008,-5.11034966e+001
,,,1.32031250e+008,-5.44425812e+001
,,,1.32812500e+008,-5.71139259e+001
,,,1.33593750e+008,-5.32431526e+001
,,,1.34375000e+008,-6.77931900e+001
,,,1.35156250e+008,-5.56880264e+001
,,,1.35937500e+008,-6.04057465e+001
,,,1.36718750e+008,-5.67825508e+001
,,,1.37500000e+008,-5.56823845e+001
,,,1.38281250e+008,-5.28457451e+001
,,,1.39062500e+008,-6.12969437e+001
,,,1.39843750e+008,-6.63174210e+001
,,,1.40625000e+008,-5.35945320e+001
,,,1.41406250e+008,-5.61297646e+001
,,,1.42187500e+008,-6.03564720e+001
,,,1.42968750e+008,-5.95556602e+001
,,,1.43750000e+008,-5.49045486e+001
,,,1.44531250e+008,-6.93137665e+001
,,,1.45312500e+008,-5.16750641e+001
,,,1.46093750e+008,-5.41331520e+001
,,,1.46875000e+008,-5.08972893e+001
,,,1.47656250e+008,-4.65278091e+001
,,,1.48437500e+008,-4.02999496e+001
,,,1.49218750e+008,-3.90790558e+001
,,,1.50000000e+008,-4.01029510e+001
,,,1.50781250e+008,-4.46198997e+001
,,,1.51562500e+008,-4.83902016e+001
,,,1.52343750e+008,-4.94832420e+001
,,,1.53125000e+008,-4.94950752e+001
,,,1.53906250e+008,-5.13537712e+001
,,,1.54687500e+008,-4.86838074e+001
,,,1.55468750e+008,-5.14029350e+001
,,,1.56250000e+008,-5.03142509e+001
,,,1.57031250e+008,-5.16964607e+001
,,,1.57812500e+008,-4.84398232e+001
,,,1.58593750e+008,-6.03322906e+001
,,,1.59375000e+008,-4.93547859e+001
,,,1.60156250e+008,-4.85662537e+001
,,,1.60937500e+008,-4.87981186e+001
,,,1.61718750e+008,-4.94055748e+001
,,,1.62500000e+008,-4.51560822e+001
,,,1.63281250e+008,-4.76265640e+001
,,,1.64062500e+008,-4.43799820e+001
,,,1.64843750e+008,-4.05101013e+001
,,,1.65625000e+008,-3.62339478e+001
,,,1.66406250e+008,-3.49467964e+001
,,,1.67187500e+008,-3.46660728e+001
,,,1.67968750e+008,-3.71853027e+001
,,,1.68750000e+008,-3.94091301e+001
,,,1.69531250e+008,-4.27334557e+001
,,,1.70312500e+008,-4.13734970e+001
,,,1.71093750e+008,-4.09530258e+001
,,,1.71875000e+008,-4.29890175e+001
,,,1.72656250e+008,-4.45130234e+001
,,,1.73437500e+008,-4.27458496e+001
,,,1.74218750e+008,-4.31491432e+001
,,,1.75000000e+008,-4.45963326e+001
,,,1.75781250e+008,-5.31059265e+001
,,,1.76562500e+008,-4.37180328e+001
,,,1.77343750e+008,-4.86354408e+001
,,,1.78125000e+008,-4.80188217e+001
,,,1.78906250e+008,-4.50887070e+001
,,,1.79687500e+008,-4.28289337e+001
,,,1.80468750e+008,-3.95541725e+001
,,,1.81250000e+008,-3.84500618e+001
,,,1.82031250e+008,-3.94463272e+001
,,,1.82812500e+008,-3.95834885e+001
,,,1.83593750e+008,-3.86264877e+001
,,,1.84375000e+008,-3.72053909e+001
,,,1.85156250e+008,-3.82055321e+001
,,,1.85937500e+008,-3.90542526e+001
,,,1.86718750e+008,-3.85000153e+001
,,,1.87500000e+008,-3.75966072e+001
,,,1.88281250e+008,-3.81419563e+001
,,,1.89062500e+008,-3.80792694e+001
,,,1.89843750e+008,-3.85990715e+001
,,,1.90625000e+008,-3.85409660e+001
,,,1.91406250e+008,-3.88937874e+001
,,,1.92187500e+008,-3.70112038e+001
,,,1.92968750e+008,-3.70527878e+001
,,,1.93750000e+008,-3.66084442e+001
,,,1.94531250e+008,-3.73876076e+001
,,,1.95312500e+008,-3.90997162e+001
,,,1.96093750e+008,-4.07572479e+001
,,,1.96875000e+008,-3.90615387e+001
,,,1.97656250e+008,-3.74968987e+001
,,,1.98437500e+008,-3.70667267e+001
,,,1.99218750e+008,-3.69324188e+001
,,,2.00000000e+008,-3.64642982e+001
,,,2.00781250e+008,-3.59913445e+001
,,,2.01562500e+008,-3.68274765e+001
,,,2.02343750e+008,-3.72306709e+001
,,,2.03125000e+008,-3.66338577e+001
,,,2.03906250e+008,-3.64078941e+001
,,,2.04687500e+008,-3.66929893e+001
,,,2.05468750e+008,-3.60330620e+001
,,,2.06250000e+008,-3.48707123e+001
,,,2.07031250e+008,-3.36171036e+001
,,,2.07812500e+008,-3.40461998e+001
,,,2.08593750e+008,-3.44322433e+001
,,,2.09375000e+008,-3.57766113e+001
,,,2.10156250e+008,-3.43678322e+001
,,,2.10937500e+008,-3.34577713e+001
,,,2.11718750e+008,-3.40995560e+001
,,,2.12500000e+008,-3.51186485e+001
,,,2.13281250e+008,-3.46984863e+001
,,,2.14062500e+008,-3.40290680e+001
,,,2.14843750e+008,-3.23702888e+001
,,,2.15625000e+008,-3.11605587e+001
,,,2.16406250e+008,-2.98558331e+001
,,,2.17187500e+008,-3.00658779e+001
,,,2.17968750e+008,-3.05624638e+001
,,,2.18750000e+008,-3.18853283e+001
,,,2.19531250e+008,-3.18890285e+001
,,,2.20312500e+008,-3.26753349e+001
,,,2.21093750e+008,-3.13623562e+001
,,,2.21875000e+008,-3.03383808e+001
,,,2.22656250e+008,-2.96284294e+001
,,,2.23437500e+008,-2.95098019e+001
,,,2.24218750e+008,-2.82728767e+001
,,,2.25000000e+008,-2.70856361e+001
,,,2.25781250e+008,-2.68419323e+001
,,,2.26562500e+008,-2.77811012e+001
,,,2.27343750e+008,-2.83369331e+001
,,,2.28125000e+008,-2.82967529e+001
,,,2.28906250e+008,-2.81849594e+001
,,,2.29687500e+008,-2.91693459e+001
,,,2.30468750e+008,-2.93986759e+001
,,,2.31250000e+008,-2.90248947e+001
,,,2.32031250e+008,-2.80897369e+001
,,,2.32812500e+008,-2.84405098e+001
,,,2.33593750e+008,-2.90224476e+001
,,,2.34375000e+008,-2.90031776e+001
,,,2.35156250e+008,-2.71856422e+001
,,,2.35937500e+008,-2.64709473e+001
,,,2.36718750e+008,-2.63123016e+001
,,,2.37500000e+008,-2.63519764e+001
,,,2.38281250e+008,-2.55863476e+001
,,,2.39062500e+008,-2.52848129e+001
,,,2.39843750e+008,-2.48926296e+001
,,,2.40625000e+008,-2.47827988e+001
,,,2.41406250e+008,-2.43042622e+001
,,,2.42187500e+008,-2.49676647e+001
,,,2.42968750e+008,-2.57714443e+001
,,,2.43750000e+008,-2.60542603e+001
,,,2.44531250e+008,-2.54256382e+001
,,,2.45312500e+008,-2.57049751e+001
,,,2.46093750e+008,-2.58131599e+001
,,,2.46875000e+008,-2.51621017e+001
,,,2.47656250e+008,-2.44728851e+001
,,,2.48437500e+008,-2.46982021e+001
,,,2.49218750e+008,-2.51299019e+001
,,,2.50000000e+008,-2.52133503e+001
,,,2.50781250e+008,-2.47772446e+001
,,,2.51562500e+008,-2.47449684e+001
,,,2.52343750e+008,-2.41462555e+001
,,,2.53125000e+008,-2.37744522e+001
,,,2.53906250e+008,-2.40637932e+001
,,,2.54687500e+008,-2.48251991e+001
,,,2.55468750e+008,-2.51908188e+001
,,,2.56250000e+008,-2.50702190e+001
,,,2.57031250e+008,-2.42241096e+001
,,,2.57812500e+008,-2.32294712e+001
,,,2.58593750e+008,-2.21956215e+001
,,,2.59375000e+008,-2.19373989e+001
,,,2.60156250e+008,-2.19257317e+001
,,,2.60937500e+008,-2.21754208e+001
,,,2.61718750e+008,-2.24612999e+001
,,,2.62500000e+008,-2.30172005e+001
,,,2.63281250e+008,-2.32491283e+001
,,,2.64062500e+008,-2.33622551e+001
,,,2.64843750e+008,-2.33223476e+001
,,,2.65625000e+008,-2.36143818e+001
,,,2.66406250e+008,-2.37323704e+001
,,,2.67187500e+008,-2.40673733e+001
,,,2.67968750e+008,-2.46023121e+001
,,,2.68750000e+008,-2.48659286e+001
,,,2.69531250e+008,-2.39186440e+001
,,,2.70312500e+008,-2.22378922e+001
,,,2.71093750e+008,-2.11318474e+001
,,,2.71875000e+008,-2.07309418e+001
,,,2.72656250e+008,-2.10702724e+001
,,,2.73437500e+008,-2.17641811e+001
,,,2.74218750e+008,-2.28368416e+001
,,,2.75000000e+008,-2.35940208e+001
,,,2.75781250e+008,-2.34016399e+001
,,,2.76562500e+008,-2.21946182e+001
,,,2.77343750e+008,-2.17370491e+001
,,,2.78125000e+008,-2.19666176e+001
,,,2.78906250e+008,-2.26038017e+001
,,,2.79687500e+008,-2.24797020e+001
,,,2.80468750e+008,-2.20683994e+001
,,,2.81250000e+008,-2.20824013e+001
,,,2.82031250e+008,-2.22610016e+001
,,,2.82812500e+008,-2.21639023e+001
,,,2.83593750e+008,-2.21000595e+001
,,,2.84375000e+008,-2.19129944e+001
,,,2.85156250e+008,-2.17911568e+001
,,,2.85937500e+008,-2.18164310e+001
,,,2.86718750e+008,-2.21479588e+001
,,,2.87500000e+008,-2.24291267e+001
,,,2.88281250e+008,-2.24533958e+001
,,,2.89062500e+008,-2.22457523e+001
,,,2.89843750e+008,-2.20584755e+001
,,,2.90625000e+008,-2.17445221e+001
,,,2.91406250e+008,-2.17687798e+001
,,,2.92187500e+008,-2.21017094e+001
,,,2.92968750e+008,-2.29174461e+001
,,,2.93750000e+008,-2.35370464e+001
,,,2.94531250e+008,-2.42817707e+001
,,,2.95312500e+008,-2.51418304e+001
,,,2.96093750e+008,-2.58164387e+001
,,,2.96875000e+008,-2.55915756e+001
,,,2.97656250e+008,-2.49661274e+001
,,,2.98437500e+008,-2.36744080e+001
,,,2.99218750e+008,-2.29082165e+001
,,,3.00000000e+008,-2.25973129e+001
,,,3.00781250e+008,-2.24374733e+001
,,,3.01562500e+008,-2.18832836e+001
,,,3.02343750e+008,-2.15332222e+001
,,,3.03125000e+008,-2.13916512e+001
,,,3.03906250e+008,-2.16635323e+001
,,,3.04687500e+008,-2.16582031e+001
,,,3.05468750e+008,-2.18045769e+001
,,,3.06250000e+008,-2.22325916e+001
,,,3.07031250e+008,-2.26816216e+001
,,,3.07812500e+008,-2.24250202e+001
,,,3.08593750e+008,-2.17177086e+001
,,,3.09375000e+008,-2.05426540e+001
,,,3.10156250e+008,-1.99388771e+001
,,,3.10937500e+008,-1.98265362e+001
,,,3.11718750e+008,-1.97626648e+001
,,,3.12500000e+008,-1.91263256e+001
,,,3.13281250e+008,-1.86605339e+001
,,,3.14062500e+008,-1.89431458e+001
,,,3.14843750e+008,-2.03681736e+001
,,,3.15625000e+008,-2.14937096e+001
,,,3.16406250e+008,-2.18430424e+001
,,,3.17187500e+008,-2.14829674e+001
,,,3.17968750e+008,-2.12203693e+001
,,,3.18750000e+008,-2.10354042e+001
,,,3.19531250e+008,-2.11354389e+001
,,,3.20312500e+008,-2.13750706e+001
,,,3.21093750e+008,-2.20290833e+001
,,,3.21875000e+008,-2.27462730e+001
,,,3.22656250e+008,-2.34790077e+001
,,,3.23437500e+008,-2.36948471e+001
,,,3.24218750e+008,-2.35044041e+001
,,,3.25000000e+008,-2.26068516e+001
,,,3.25781250e+008,-2.15049400e+001
,,,3.26562500e+008,-2.06859417e+001
,,,3.27343750e+008,-2.06910458e+001
,,,3.28125000e+008,-2.14660263e+001
,,,3.28906250e+008,-2.21322727e+001
,,,3.29687500e+008,-2.13110237e+001
,,,3.30468750e+008,-2.04008789e+001
,,,3.31250000e+008,-2.04970570e+001
,,,3.32031250e+008,-2.08029575e+001
,,,3.32812500e+008,-2.02919769e+001
,,,3.33593750e+008,-1.95669727e+001
,,,3.34375000e+008,-1.93534317e+001
,,,3.35156250e+008,-1.98191376e+001
,,,3.35937500e+008,-2.05900478e+001
,,,3.36718750e+008,-2.13661232e+001
,,,3.37500000e+008,-2.21315708e+001
,,,3.38281250e+008,-2.18446751e+001
,,,3.39062500e+008,-2.12400970e+001
,,,3.39843750e+008,-2.12094841e+001
,,,3.40625000e+008,-2.14389229e+001
,,,3.41406250e+008,-2.12370701e+001
,,,3.42187500e+008,-2.06600876e+001
,,,3.42968750e+008,-1.98852215e+001
,,,3.43750000e+008,-1.90388393e+001
,,,3.44531250e+008,-1.77921429e+001
,,,3.45312500e+008,-1.68509388e+001
,,,3.46093750e+008,-1.64510136e+001
,,,3.46875000e+008,-1.65517273e+001
,,,3.47656250e+008,-1.66795254e+001
,,,3.48437500e+008,-1.69585629e+001
,,,3.49218750e+008,-1.74184990e+001
,,,3.50000000e+008,-1.81686592e+001
,,,3.50781250e+008,-1.86881924e+001
,,,3.51562500e+008,-1.87263031e+001
,,,3.52343750e+008,-1.87790356e+001
,,,3.53125000e+008,-1.90925331e+001
,,,3.53906250e+008,-1.95115795e+001
,,,3.54687500e+008,-1.96201096e+001
,,,3.55468750e+008,-1.94826870e+001
,,,3.56250000e+008,-1.94709625e+001
,,,3.57031250e+008,-1.95394115e+001
,,,3.57812500e+008,-1.97406540e+001
,,,3.58593750e+008,-1.97383881e+001
,,,3.59375000e+008,-1.94856110e+001
,,,3.60156250e+008,-1.89681377e+001
,,,3.60937500e+008,-1.88516808e+001
,,,3.61718750e+008,-1.88586845e+001
,,,3.62500000e+008,-1.89811440e+001
,,,3.63281250e+008,-1.90462761e+001
,,,3.64062500e+008,-1.93090286e+001
,,,3.64843750e+008,-1.92905064e+001
,,,3.65625000e+008,-1.88738728e+001
,,,3.66406250e+008,-1.81720028e+001
,,,3.67187500e+008,-1.81292229e+001
,,,3.67968750e+008,-1.86162853e+001
,,,3.68750000e+008,-1.94029179e+001
,,,3.69531250e+008,-2.00340366e+001
,,,3.70312500e+008,-2.06084175e+001
,,,3.71093750e+008,-2.10517635e+001
,,,3.71875000e+008,-2.15709724e+001
,,,3.72656250e+008,-2.14893017e+001
,,,3.73437500e+008,-2.14251270e+001
,,,3.74218750e+008,-2.14552269e+001
,,,3.75000000e+008,-2.21943569e+001
,,,3.75781250e+008,-2.30886574e+001
,,,3.76562500e+008,-2.34648056e+001
,,,3.77343750e+008,-2.31044235e+001
,,,3.78125000e+008,-2.30163975e+001
,,,3.78906250e+008,-2.24115200e+001
,,,3.79687500e+008,-2.13386936e+001
,,,3.80468750e+008,-2.02460289e+001
,,,3.81250000e+008,-1.97764206e+001
,,,3.82031250e+008,-1.97292919e+001
,,,3.82812500e+008,-1.98072109e+001
,,,3.83593750e+008,-1.99826870e+001
,,,3.84375000e+008,-2.02516212e+001
,,,3.85156250e+008,-2.02646255e+001
,,,3.85937500e+008,-2.00941029e+001
,,,3.86718750e+008,-1.95935879e+001
,,,3.87500000e+008,-1.94666500e+001
,,,3.88281250e+008,-1.96987915e+001
,,,3.89062500e+008,-2.01435947e+001
,,,3.89843750e+008,-2.06126289e+001
,,,3.90625000e+008,-2.12440357e+001
,,,3.91406250e+008,-2.21293221e+001
,,,3.92187500e+008,-2.30207176e+001
,,,3.92968750e+008,-2.31990280e+001
,,,3.93750000e+008,-2.31341801e+001
,,,3.94531250e+008,-2.30563221e+001
,,,3.95312500e+008,-2.25487022e+001
,,,3.96093750e+008,-2.17268581e+001
,,,3.96875000e+008,-2.09018612e+001
,,,3.97656250e+008,-2.07201424e+001
,,,3.98437500e+008,-2.06136398e+001
,,,3.99218750e+008,-2.05144100e+001
,,,4.00000000e+008,-2.03273811e+001
,,,4.00781250e+008,-2.00145473e+001
,,,4.01562500e+008,-2.00229130e+001
,,,4.02343750e+008,-2.01970387e+001
,,,4.03125000e+008,-2.03737011e+001
,,,4.03906250e+008,-2.04689331e+001
,,,4.04687500e+008,-2.05429325e+001
,,,4.05468750e+008,-2.07248249e+001
,,,4.06250000e+008,-2.08288975e+001
,,,4.07031250e+008,-2.11106606e+001
,,,4.07812500e+008,-2.11747150e+001
,,,4.08593750e+008,-2.10780907e+001
,,,4.09375000e+008,-2.10827465e+001
,,,4.10156250e+008,-2.14201946e+001
,,,4.10937500e+008,-2.17140427e+001
,,,4.11718750e+008,-2.16453552e+001
,,,4.12500000e+008,-2.10464058e+001
,,,4.13281250e+008,-2.07365856e+001
,,,4.14062500e+008,-2.03308983e+001
,,,4.14843750e+008,-1.98823166e+001
,,,4.15625000e+008,-1.94233437e+001
,,,4.16406250e+008,-1.93622856e+001
,,,4.17187500e+008,-1.94538689e+001
,,,4.17968750e+008,-1.95902061e+001
,,,4.18750000e+008,-1.95983105e+001
,,,4.19531250e+008,-1.99016018e+001
,,,4.20312500e+008,-2.00402164e+001
,,,4.21093750e+008,-2.01353836e+001
,,,4.21875000e+008,-2.01547756e+001
,,,4.22656250e+008,-2.02705040e+001
,,,4.23437500e+008,-2.01561699e+001
,,,4.24218750e+008,-2.02972088e+001
,,,4.25000000e+008,-2.03764610e+001
,,,4.25781250e+008,-2.08144150e+001
,,,4.26562500e+008,-2.07917862e+001
,,,4.27343750e+008,-2.05191555e+001
,,,4.28125000e+008,-2.02351227e+001
,,,4.28906250e+008,-2.02449265e+001
,,,4.29687500e+008,-2.01457291e+001
