Data/20220819/UCLA_to_R2B_VPOL_E_0_01_Ch1.csv

"Record Length",5000,"Points",-1.00800000e-007,4.40625013e-004
"Sample Interval",2.00000000e-010,s,-1.00600000e-007,4.00000010e-004
"Trigger Point",504,"Samples",-1.00400000e-007,3.90625009e-004
"Trigger Time",0.00000000e+000,s,-1.00200000e-007,3.65625007e-004
"",,,-1.00000000e-007,4.65625014e-004
"Horizontal Offset",-1.00800000e-007,s,-9.98000000e-008,3.09375003e-004
,,,-9.96000000e-008,4.15625011e-004
,,,-9.94000000e-008,5.31250019e-004
,,,-9.92000000e-008,4.84375016e-004
,,,-9.90000000e-008,4.62500014e-004
,,,-9.88000000e-008,3.93750009e-004
,,,-9.86000000e-008,3.53125006e-004
,,,-9.84000000e-008,3.31250005e-004
,,,-9.82000000e-008,3.78125008e-004
,,,-9.80000000e-008,3.53125006e-004
,,,-9.78000000e-008,5.15625018e-004
,,,-9.76000000e-008,4.87500016e-004
,,,-9.74000000e-008,4.00000010e-004
,,,-9.72000000e-008,4.15625011e-004
,,,-9.70000000e-008,3.59375007e-004
,,,-9.68000000e-008,3.96875009e-004
,,,-9.66000000e-008,3.59375007e-004
,,,-9.64000000e-008,3.21875004e-004
,,,-9.62000000e-008,4.03125010e-004
,,,-9.60000000e-008,4.93750016e-004
,,,-9.58000000e-008,5.31250019e-004
,,,-9.56000000e-008,4.34375012e-004
,,,-9.54000000e-008,4.53125013e-004
,,,-9.52000000e-008,4.46875013e-004
,,,-9.50000000e-008,3.90625009e-004
,,,-9.48000000e-008,4.87500016e-004
,,,-9.46000000e-008,4.12500011e-004
,,,-9.44000000e-008,2.59375000e-004
,,,-9.42000000e-008,3.31250005e-004
,,,-9.40000000e-008,4.03125010e-004
,,,-9.38000000e-008,4.71875015e-004
,,,-9.36000000e-008,5.65625021e-004
,,,-9.34000000e-008,5.43750020e-004
,,,-9.32000000e-008,4.78125015e-004
,,,-9.30000000e-008,3.53125006e-004
,,,-9.28000000e-008,3.43750006e-004
,,,-9.26000000e-008,3.12500003e-004
,,,-9.24000000e-008,3.06250003e-004
,,,-9.22000000e-008,3.53125006e-004
,,,-9.20000000e-008,4.25000011e-004
,,,-9.18000000e-008,4.62500014e-004
,,,-9.16000000e-008,5.87500023e-004
,,,-9.14000000e-008,5.37500019e-004
,,,-9.12000000e-008,4.06250010e-004
,,,-9.10000000e-008,3.53125006e-004
,,,-9.08000000e-008,2.68750000e-004
,,,-9.06000000e-008,2.87500002e-004
,,,-9.04000000e-008,3.90625009e-004
,,,-9.02000000e-008,4.62500014e-004
,,,-9.00000000e-008,5.37500019e-004
,,,-8.98000000e-008,4.90625016e-004
,,,-8.96000000e-008,5.03125017e-004
,,,-8.94000000e-008,4.25000011e-004
,,,-8.92000000e-008,4.06250010e-004
,,,-8.90000000e-008,3.84375009e-004
,,,-8.88000000e-008,3.75000008e-004
,,,-8.86000000e-008,3.28125005e-004
,,,-8.84000000e-008,4.93750016e-004
,,,-8.82000000e-008,5.06250017e-004
,,,-8.80000000e-008,4.18750011e-004
,,,-8.78000000e-008,3.21875004e-004
,,,-8.76000000e-008,3.46875006e-004
,,,-8.74000000e-008,4.18750011e-004
,,,-8.72000000e-008,4.09375010e-004
,,,-8.70000000e-008,5.31250019e-004
,,,-8.68000000e-008,4.46875013e-004
,,,-8.66000000e-008,5.09375017e-004
,,,-8.64000000e-008,3.75000008e-004
,,,-8.62000000e-008,3.78125008e-004
,,,-8.60000000e-008,3.53125006e-004
,,,-8.58000000e-008,3.96875009e-004
,,,-8.56000000e-008,3.00000003e-004
,,,-8.54000000e-008,4.65625014e-004
,,,-8.52000000e-008,4.62500014e-004
,,,-8.50000000e-008,4.78125015e-004
,,,-8.48000000e-008,4.65625014e-004
,,,-8.46000000e-008,4.15625011e-004
,,,-8.44000000e-008,3.81250008e-004
,,,-8.42000000e-008,3.96875009e-004
,,,-8.40000000e-008,4.65625014e-004
,,,-8.38000000e-008,4.18750011e-004
,,,-8.36000000e-008,4.31250012e-004
,,,-8.34000000e-008,3.56250007e-004
,,,-8.32000000e-008,3.56250007e-004
,,,-8.30000000e-008,4.56250014e-004
,,,-8.28000000e-008,5.06250017e-004
,,,-8.26000000e-008,4.78125015e-004
,,,-8.24000000e-008,4.53125013e-004
,,,-8.22000000e-008,4.06250010e-004
,,,-8.20000000e-008,3.18750004e-004
,,,-8.18000000e-008,4.34375012e-004
,,,-8.16000000e-008,3.71875008e-004
,,,-8.14000000e-008,3.50000006e-004
,,,-8.12000000e-008,3.96875009e-004
,,,-8.10000000e-008,3.65625007e-004
,,,-8.08000000e-008,6.21875025e-004
,,,-8.06000000e-008,4.90625016e-004
,,,-8.04000000e-008,3.93750009e-004
,,,-8.02000000e-008,4.37500012e-004
,,,-8.00000000e-008,3.18750004e-004
,,,-7.98000000e-008,3.59375007e-004
,,,-7.96000000e-008,3.84375009e-004
,,,-7.94000000e-008,4.21875011e-004
,,,-7.92000000e-008,3.71875008e-004
,,,-7.90000000e-008,3.93750009e-004
,,,-7.88000000e-008,4.34375012e-004
,,,-7.86000000e-008,5.09375017e-004
,,,-7.84000000e-008,4.25000011e-004
,,,-7.82000000e-008,4.59375014e-004
,,,-7.80000000e-008,3.71875008e-004
,,,-7.78000000e-008,3.71875008e-004
,,,-7.76000000e-008,2.96875002e-004
,,,-7.74000000e-008,4.06250010e-004
,,,-7.72000000e-008,4.93750016e-004
,,,-7.70000000e-008,3.34375005e-004
,,,-7.68000000e-008,5.40625020e-004
,,,-7.66000000e-008,4.56250014e-004
,,,-7.64000000e-008,5.00000017e-004
,,,-7.62000000e-008,4.00000010e-004
,,,-7.60000000e-008,4.15625011e-004
,,,-7.58000000e-008,3.21875004e-004
,,,-7.56000000e-008,3.28125005e-004
,,,-7.54000000e-008,3.18750004e-004
,,,-7.52000000e-008,3.93750009e-004
,,,-7.50000000e-008,5.34375019e-004
,,,-7.48000000e-008,4.68750015e-004
,,,-7.46000000e-008,4.53125013e-004
,,,-7.44000000e-008,4.56250014e-004
,,,-7.42000000e-008,4.09375010e-004
,,,-7.40000000e-008,3.03125003e-004
,,,-7.38000000e-008,2.75000001e-004
,,,-7.36000000e-008,2.84375002e-004
,,,-7.34000000e-008,4.43750013e-004
,,,-7.32000000e-008,5.62500021e-004
,,,-7.30000000e-008,6.56250028e-004
,,,-7.28000000e-008,5.50000020e-004
,,,-7.26000000e-008,4.03125010e-004
,,,-7.24000000e-008,2.84375002e-004
,,,-7.22000000e-008,2.78125001e-004
,,,-7.20000000e-008,2.59375000e-004
,,,-7.18000000e-008,3.21875004e-004
,,,-7.16000000e-008,4.84375016e-004
,,,-7.14000000e-008,6.28125026e-004
,,,-7.12000000e-008,5.34375019e-004
,,,-7.10000000e-008,5.59375021e-004
,,,-7.08000000e-008,3.96875009e-004
,,,-7.06000000e-008,3.43750006e-004
,,,-7.04000000e-008,2.87500002e-004
,,,-7.02000000e-008,1.90624995e-004
,,,-7.00000000e-008,4.09375010e-004
,,,-6.98000000e-008,4.43750013e-004
,,,-6.96000000e-008,5.37500019e-004
,,,-6.94000000e-008,4.93750016e-004
,,,-6.92000000e-008,4.78125015e-004
,,,-6.90000000e-008,5.06250017e-004
,,,-6.88000000e-008,4.65625014e-004
,,,-6.86000000e-008,3.71875008e-004
,,,-6.84000000e-008,3.28125005e-004
,,,-6.82000000e-008,2.49999999e-004
,,,-6.80000000e-008,3.09375003e-004
,,,-6.78000000e-008,4.84375016e-004
,,,-6.76000000e-008,4.06250010e-004
,,,-6.74000000e-008,5.06250017e-004
,,,-6.72000000e-008,4.59375014e-004
,,,-6.70000000e-008,5.03125017e-004
,,,-6.68000000e-008,4.03125010e-004
,,,-6.66000000e-008,4.53125013e-004
,,,-6.64000000e-008,4.68750015e-004
,,,-6.62000000e-008,2.28124998e-004
,,,-6.60000000e-008,2.84375002e-004
,,,-6.58000000e-008,2.84375002e-004
,,,-6.56000000e-008,3.84375009e-004
,,,-6.54000000e-008,5.46875020e-004
,,,-6.52000000e-008,6.28125026e-004
,,,-6.50000000e-008,5.65625021e-004
,,,-6.48000000e-008,4.37500012e-004
,,,-6.46000000e-008,3.65625007e-004
,,,-6.44000000e-008,3.34375005e-004
,,,-6.42000000e-008,2.87500002e-004
,,,-6.40000000e-008,2.96875002e-004
,,,-6.38000000e-008,2.75000001e-004
,,,-6.36000000e-008,4.15625011e-004
,,,-6.34000000e-008,5.75000022e-004
,,,-6.32000000e-008,5.78125022e-004
,,,-6.30000000e-008,5.25000019e-004
,,,-6.28000000e-008,4.18750011e-004
,,,-6.26000000e-008,3.50000006e-004
,,,-6.24000000e-008,3.18750004e-004
,,,-6.22000000e-008,3.90625009e-004
,,,-6.20000000e-008,4.00000010e-004
,,,-6.18000000e-008,3.28125005e-004
,,,-6.16000000e-008,3.78125008e-004
,,,-6.14000000e-008,5.00000017e-004
,,,-6.12000000e-008,5.53125021e-004
,,,-6.10000000e-008,5.84375023e-004
,,,-6.08000000e-008,4.90625016e-004
,,,-6.06000000e-008,3.78125008e-004
,,,-6.04000000e-008,2.62500000e-004
,,,-6.02000000e-008,2.81250001e-004
,,,-6.00000000e-008,3.40625005e-004
,,,-5.98000000e-008,4.18750011e-004
,,,-5.96000000e-008,4.53125013e-004
,,,-5.94000000e-008,5.12500018e-004
,,,-5.92000000e-008,5.37500019e-004
,,,-5.90000000e-008,5.31250019e-004
,,,-5.88000000e-008,4.43750013e-004
,,,-5.86000000e-008,3.12500003e-004
,,,-5.84000000e-008,2.46874999e-004
,,,-5.82000000e-008,2.93750002e-004
,,,-5.80000000e-008,4.21875011e-004
,,,-5.78000000e-008,4.96875017e-004
,,,-5.76000000e-008,5.37500019e-004
,,,-5.74000000e-008,4.53125013e-004
,,,-5.72000000e-008,4.78125015e-004
,,,-5.70000000e-008,3.56250007e-004
,,,-5.68000000e-008,3.34375005e-004
,,,-5.66000000e-008,3.21875004e-004
,,,-5.64000000e-008,2.59375000e-004
,,,-5.62000000e-008,4.15625011e-004
,,,-5.60000000e-008,4.15625011e-004
,,,-5.58000000e-008,5.78125022e-004
,,,-5.56000000e-008,5.78125022e-004
,,,-5.54000000e-008,4.46875013e-004
,,,-5.52000000e-008,4.71875015e-004
,,,-5.50000000e-008,3.12500003e-004
,,,-5.48000000e-008,3.78125008e-004
,,,-5.46000000e-008,3.25000004e-004
,,,-5.44000000e-008,3.40625005e-004
,,,-5.42000000e-008,4.65625014e-004
,,,-5.40000000e-008,4.21875011e-004
,,,-5.38000000e-008,4.21875011e-004
,,,-5.36000000e-008,4.37500012e-004
,,,-5.34000000e-008,4.03125010e-004
,,,-5.32000000e-008,5.31250019e-004
,,,-5.30000000e-008,3.75000008e-004
,,,-5.28000000e-008,3.78125008e-004
,,,-5.26000000e-008,3.56250007e-004
,,,-5.24000000e-008,3.00000003e-004
,,,-5.22000000e-008,3.84375009e-004
,,,-5.20000000e-008,3.43750006e-004
,,,-5.18000000e-008,4.00000010e-004
,,,-5.16000000e-008,5.53125021e-004
,,,-5.14000000e-008,5.40625020e-004
,,,-5.12000000e-008,6.25000026e-004
,,,-5.10000000e-008,4.93750016e-004
,,,-5.08000000e-008,3.21875004e-004
,,,-5.06000000e-008,2.53124999e-004
,,,-5.04000000e-008,2.24999997e-004
,,,-5.02000000e-008,3.71875008e-004
,,,-5.00000000e-008,4.40625013e-004
,,,-4.98000000e-008,4.53125013e-004
,,,-4.96000000e-008,5.75000022e-004
,,,-4.94000000e-008,5.75000022e-004
,,,-4.92000000e-008,5.81250023e-004
,,,-4.90000000e-008,4.56250014e-004
,,,-4.88000000e-008,2.37499998e-004
,,,-4.86000000e-008,2.68750000e-004
,,,-4.84000000e-008,2.21874997e-004
,,,-4.82000000e-008,3.25000004e-004
,,,-4.80000000e-008,4.53125013e-004
,,,-4.78000000e-008,5.40625020e-004
,,,-4.76000000e-008,5.96875024e-004
,,,-4.74000000e-008,4.71875015e-004
,,,-4.72000000e-008,4.43750013e-004
,,,-4.70000000e-008,3.34375005e-004
,,,-4.68000000e-008,3.28125005e-004
,,,-4.66000000e-008,2.90625002e-004
,,,-4.64000000e-008,3.21875004e-004
,,,-4.62000000e-008,4.09375010e-004
,,,-4.60000000e-008,4.37500012e-004
,,,-4.58000000e-008,5.06250017e-004
,,,-4.56000000e-008,5.28125019e-004
,,,-4.54000000e-008,4.62500014e-004
,,,-4.52000000e-008,3.87500009e-004
,,,-4.50000000e-008,4.18750011e-004
,,,-4.48000000e-008,4.34375012e-004
,,,-4.46000000e-008,3.84375009e-004
,,,-4.44000000e-008,4.15625011e-004
,,,-4.42000000e-008,4.68750015e-004
,,,-4.40000000e-008,3.96875009e-004
,,,-4.38000000e-008,3.84375009e-004
,,,-4.36000000e-008,4.31250012e-004
,,,-4.34000000e-008,4.96875017e-004
,,,-4.32000000e-008,3.68750007e-004
,,,-4.30000000e-008,4.03125010e-004
,,,-4.28000000e-008,4.43750013e-004
,,,-4.26000000e-008,3.84375009e-004
,,,-4.24000000e-008,5.25000019e-004
,,,-4.22000000e-008,3.93750009e-004
,,,-4.20000000e-008,4.18750011e-004
,,,-4.18000000e-008,3.21875004e-004
,,,-4.16000000e-008,4.31250012e-004
,,,-4.14000000e-008,4.12500011e-004
,,,-4.12000000e-008,3.75000008e-004
,,,-4.10000000e-008,3.78125008e-004
,,,-4.08000000e-008,4.28125012e-004
,,,-4.06000000e-008,4.71875015e-004
,,,-4.04000000e-008,3.81250008e-004
,,,-4.02000000e-008,4.09375010e-004
,,,-4.00000000e-008,4.81250015e-004
,,,-3.98000000e-008,3.25000004e-004
,,,-3.96000000e-008,3.93750009e-004
,,,-3.94000000e-008,3.75000008e-004
,,,-3.92000000e-008,3.56250007e-004
,,,-3.90000000e-008,5.28125019e-004
,,,-3.88000000e-008,4.34375012e-004
,,,-3.86000000e-008,3.78125008e-004
,,,-3.84000000e-008,4.59375014e-004
,,,-3.82000000e-008,4.00000010e-004
,,,-3.80000000e-008,4.90625016e-004
,,,-3.78000000e-008,4.15625011e-004
,,,-3.76000000e-008,3.31250005e-004
,,,-3.74000000e-008,3.87500009e-004
,,,-3.72000000e-008,4.50000013e-004
,,,-3.70000000e-008,4.71875015e-004
,,,-3.68000000e-008,4.15625011e-004
,,,-3.66000000e-008,3.93750009e-004
,,,-3.64000000e-008,4.75000015e-004
,,,-3.62000000e-008,4.25000011e-004
,,,-3.60000000e-008,4.59375014e-004
,,,-3.58000000e-008,5.18750018e-004
,,,-3.56000000e-008,3.25000004e-004
,,,-3.54000000e-008,3.75000008e-004
,,,-3.52000000e-008,3.46875006e-004
,,,-3.50000000e-008,3.43750006e-004
,,,-3.48000000e-008,4.12500011e-004
,,,-3.46000000e-008,5.12500018e-004
,,,-3.44000000e-008,4.81250015e-004
,,,-3.42000000e-008,3.59375007e-004
,,,-3.40000000e-008,4.06250010e-004
,,,-3.38000000e-008,3.81250008e-004
,,,-3.36000000e-008,3.78125008e-004
,,,-3.34000000e-008,3.84375009e-004
,,,-3.32000000e-008,3.68750007e-004
,,,-3.30000000e-008,4.75000015e-004
,,,-3.28000000e-008,5.31250019e-004
,,,-3.26000000e-008,4.25000011e-004
,,,-3.24000000e-008,3.96875009e-004
,,,-3.22000000e-008,3.28125005e-004
,,,-3.20000000e-008,3.06250003e-004
,,,-3.18000000e-008,2.71875001e-004
,,,-3.16000000e-008,4.18750011e-004
,,,-3.14000000e-008,5.00000017e-004
,,,-3.12000000e-008,5.28125019e-004
,,,-3.10000000e-008,5.59375021e-004
,,,-3.08000000e-008,4.96875017e-004
,,,-3.06000000e-008,4.06250010e-004
,,,-3.04000000e-008,3.65625007e-004
,,,-3.02000000e-008,2.75000001e-004
,,,-3.00000000e-008,3.40625005e-004
,,,-2.98000000e-008,3.65625007e-004
,,,-2.96000000e-008,4.62500014e-004
,,,-2.94000000e-008,5.37500019e-004
,,,-2.92000000e-008,6.37500026e-004
,,,-2.90000000e-008,5.28125019e-004
,,,-2.88000000e-008,4.25000011e-004
,,,-2.86000000e-008,3.18750004e-004
,,,-2.84000000e-008,1.71874994e-004
,,,-2.82000000e-008,3.25000004e-004
,,,-2.80000000e-008,3.40625005e-004
,,,-2.78000000e-008,4.34375012e-004
,,,-2.76000000e-008,4.12500011e-004
,,,-2.74000000e-008,4.96875017e-004
,,,-2.72000000e-008,5.56250021e-004
,,,-2.70000000e-008,6.12500025e-004
,,,-2.68000000e-008,4.21875011e-004
,,,-2.66000000e-008,3.15625004e-004
,,,-2.64000000e-008,2.68750000e-004
,,,-2.62000000e-008,2.71875001e-004
,,,-2.60000000e-008,3.78125008e-004
,,,-2.58000000e-008,3.71875008e-004
,,,-2.56000000e-008,5.18750018e-004
,,,-2.54000000e-008,5.00000017e-004
,,,-2.52000000e-008,5.93750023e-004
,,,-2.50000000e-008,5.56250021e-004
,,,-2.48000000e-008,4.21875011e-004
,,,-2.46000000e-008,3.46875006e-004
,,,-2.44000000e-008,2.71875001e-004
,,,-2.42000000e-008,2.90625002e-004
,,,-2.40000000e-008,2.87500002e-004
,,,-2.38000000e-008,4.28125012e-004
,,,-2.36000000e-008,5.15625018e-004
,,,-2.34000000e-008,4.59375014e-004
,,,-2.32000000e-008,5.84375023e-004
,,,-2.30000000e-008,4.96875017e-004
,,,-2.28000000e-008,4.53125013e-004
,,,-2.26000000e-008,3.78125008e-004
,,,-2.24000000e-008,2.49999999e-004
,,,-2.22000000e-008,2.62500000e-004
,,,-2.20000000e-008,3.71875008e-004
,,,-2.18000000e-008,4.25000011e-004
,,,-2.16000000e-008,5.31250019e-004
,,,-2.14000000e-008,5.25000019e-004
,,,-2.12000000e-008,5.40625020e-004
,,,-2.10000000e-008,4.31250012e-004
,,,-2.08000000e-008,3.93750009e-004
,,,-2.06000000e-008,3.78125008e-004
,,,-2.04000000e-008,3.87500009e-004
,,,-2.02000000e-008,2.90625002e-004
,,,-2.00000000e-008,4.00000010e-004
,,,-1.98000000e-008,4.25000011e-004
,,,-1.96000000e-008,4.75000015e-004
,,,-1.94000000e-008,4.87500016e-004
,,,-1.92000000e-008,4.21875011e-004
,,,-1.90000000e-008,4.62500014e-004
,,,-1.88000000e-008,3.93750009e-004
,,,-1.86000000e-008,3.53125006e-004
,,,-1.84000000e-008,3.34375005e-004
,,,-1.82000000e-008,2.96875002e-004
,,,-1.80000000e-008,3.78125008e-004
,,,-1.78000000e-008,4.25000011e-004
,,,-1.76000000e-008,5.37500019e-004
,,,-1.74000000e-008,5.56250021e-004
,,,-1.72000000e-008,4.65625014e-004
,,,-1.70000000e-008,4.09375010e-004
,,,-1.68000000e-008,2.93750002e-004
,,,-1.66000000e-008,3.34375005e-004
,,,-1.64000000e-008,3.25000004e-004
,,,-1.62000000e-008,4.65625014e-004
,,,-1.60000000e-008,4.62500014e-004
,,,-1.58000000e-008,5.46875020e-004
,,,-1.56000000e-008,5.43750020e-004
,,,-1.54000000e-008,5.40625020e-004
,,,-1.52000000e-008,5.00000017e-004
,,,-1.50000000e-008,3.31250005e-004
,,,-1.48000000e-008,1.93749995e-004
,,,-1.46000000e-008,1.34374991e-004
,,,-1.44000000e-008,3.81250008e-004
,,,-1.42000000e-008,4.65625014e-004
,,,-1.40000000e-008,5.81250023e-004
,,,-1.38000000e-008,5.90625023e-004
,,,-1.36000000e-008,6.00000024e-004
,,,-1.34000000e-008,4.31250012e-004
,,,-1.32000000e-008,4.03125010e-004
,,,-1.30000000e-008,2.62500000e-004
,,,-1.28000000e-008,3.46875006e-004
,,,-1.26000000e-008,3.75000008e-004
,,,-1.24000000e-008,4.84375016e-004
,,,-1.22000000e-008,4.53125013e-004
,,,-1.20000000e-008,4.34375012e-004
,,,-1.18000000e-008,4.90625016e-004
,,,-1.16000000e-008,4.12500011e-004
,,,-1.14000000e-008,4.00000010e-004
,,,-1.12000000e-008,4.34375012e-004
,,,-1.10000000e-008,4.34375012e-004
,,,-1.08000000e-008,4.96875017e-004
,,,-1.06000000e-008,3.37500005e-004
,,,-1.04000000e-008,3.37500005e-004
,,,-1.02000000e-008,2.06249996e-004
,,,-1.00000000e-008,3.46875006e-004
,,,-9.80000000e-009,4.81250015e-004
,,,-9.60000000e-009,5.03125017e-004
,,,-9.40000000e-009,5.50000020e-004
,,,-9.20000000e-009,4.43750013e-004
,,,-9.00000000e-009,4.75000015e-004
,,,-8.80000000e-009,3.84375009e-004
,,,-8.60000000e-009,3.18750004e-004
,,,-8.40000000e-009,3.62500007e-004
,,,-8.20000000e-009,2.56250000e-004
,,,-8.00000000e-009,4.06250010e-004
,,,-7.80000000e-009,4.50000013e-004
,,,-7.60000000e-009,5.62500021e-004
,,,-7.40000000e-009,5.53125021e-004
,,,-7.20000000e-009,4.50000013e-004
,,,-7.00000000e-009,3.96875009e-004
,,,-6.80000000e-009,2.56250000e-004
,,,-6.60000000e-009,2.43749999e-004
,,,-6.40000000e-009,3.78125008e-004
,,,-6.20000000e-009,4.50000013e-004
,,,-6.00000000e-009,4.96875017e-004
,,,-5.80000000e-009,4.25000011e-004
,,,-5.60000000e-009,4.43750013e-004
,,,-5.40000000e-009,4.25000011e-004
,,,-5.20000000e-009,4.46875013e-004
,,,-5.00000000e-009,4.56250014e-004
,,,-4.80000000e-009,5.00000017e-004
,,,-4.60000000e-009,4.90625016e-004
,,,-4.40000000e-009,4.56250014e-004
,,,-4.20000000e-009,3.84375009e-004
,,,-4.00000000e-009,3.93750009e-004
,,,-3.80000000e-009,2.93750002e-004
,,,-3.60000000e-009,3.68750007e-004
,,,-3.40000000e-009,3.75000008e-004
,,,-3.20000000e-009,5.06250017e-004
,,,-3.00000000e-009,5.25000019e-004
,,,-2.80000000e-009,5.50000020e-004
,,,-2.60000000e-009,4.21875011e-004
,,,-2.40000000e-009,3.50000006e-004
,,,-2.20000000e-009,3.37500005e-004
,,,-2.00000000e-009,2.24999997e-004
,,,-1.80000000e-009,2.65625000e-004
,,,-1.60000000e-009,4.31250012e-004
,,,-1.40000000e-009,4.43750013e-004
,,,-1.20000000e-009,4.93750016e-004
,,,-1.00000000e-009,5.28125019e-004
,,,-8.00000000e-010,4.18750011e-004
,,,-6.00000000e-010,3.15625004e-004
,,,-4.00000000e-010,4.28125012e-004
,,,-2.00000000e-010,3.78125008e-004
,,,0.00000000e+000,4.15625011e-004
,,,2.00000000e-010,4.75000015e-004
,,,4.00000000e-010,3.87500009e-004
,,,6.00000000e-010,4.62500014e-004
,,,8.00000000e-010,5.31250019e-004
,,,1.00000000e-009,4.21875011e-004
,,,1.20000000e-009,4.75000015e-004
,,,1.40000000e-009,4.21875011e-004
,,,1.60000000e-009,3.43750006e-004
,,,1.80000000e-009,3.84375009e-004
,,,2.00000000e-009,4.43750013e-004
,,,2.20000000e-009,4.59375014e-004
,,,2.40000000e-009,4.68750015e-004
,,,2.60000000e-009,4.12500011e-004
,,,2.80000000e-009,3.21875004e-004
,,,3.00000000e-009,4.46875013e-004
,,,3.20000000e-009,5.18750018e-004
,,,3.40000000e-009,4.93750016e-004
,,,3.60000000e-009,3.46875006e-004
,,,3.80000000e-009,4.56250014e-004
,,,4.00000000e-009,3.21875004e-004
,,,4.20000000e-009,4.18750011e-004
,,,4.40000000e-009,4.43750013e-004
,,,4.60000000e-009,4.93750016e-004
,,,4.80000000e-009,4.65625014e-004
,,,5.00000000e-009,3.93750009e-004
,,,5.20000000e-009,4.46875013e-004
,,,5.40000000e-009,4.56250014e-004
,,,5.60000000e-009,2.56250000e-004
,,,5.80000000e-009,3.18750004e-004
,,,6.00000000e-009,3.28125005e-004
,,,6.20000000e-009,4.37500012e-004
,,,6.40000000e-009,5.90625023e-004
,,,6.60000000e-009,5.21875018e-004
,,,6.80000000e-009,4.90625016e-004
,,,7.00000000e-009,3.28125005e-004
,,,7.20000000e-009,3.00000003e-004
,,,7.40000000e-009,3.09375003e-004
,,,7.60000000e-009,3.75000008e-004
,,,7.80000000e-009,4.78125015e-004
,,,8.00000000e-009,4.15625011e-004
,,,8.20000000e-009,4.90625016e-004
,,,8.40000000e-009,4.68750015e-004
,,,8.60000000e-009,3.78125008e-004
,,,8.80000000e-009,5.59375021e-004
,,,9.00000000e-009,4.00000010e-004
,,,9.20000000e-009,4.68750015e-004
,,,9.40000000e-009,4.31250012e-004
