Data/20220819/UCLA_to_R2A_VPOL_E_NEG80_01_Math1.csv

"Record Length",3200,"Points",0.00000000e+000,-9.41720963e+000
"Sample Interval",7.81250000e+005,Hz,7.81250000e+005,-1.51382132e+001
"Trigger Point",0,"Samples",1.56250000e+006,-1.74143295e+001
"Trigger Time",0.00000000e+000,Hz,2.34375000e+006,-2.17865429e+001
"",,,3.12500000e+006,-3.16499901e+001
"Horizontal Offset",0.00000000e+000,Hz,3.90625000e+006,-3.60647469e+001
,,,4.68750000e+006,-2.83135490e+001
,,,5.46875000e+006,-2.80640144e+001
,,,6.25000000e+006,-3.24230576e+001
,,,7.03125000e+006,-5.03955727e+001
,,,7.81250000e+006,-3.63026047e+001
,,,8.59375000e+006,-3.24224472e+001
,,,9.37500000e+006,-3.35575066e+001
,,,1.01562500e+007,-4.00982857e+001
,,,1.09375000e+007,-4.80035172e+001
,,,1.17187500e+007,-3.73348923e+001
,,,1.25000000e+007,-3.54111023e+001
,,,1.32812500e+007,-3.79076195e+001
,,,1.40625000e+007,-4.82921715e+001
,,,1.48437500e+007,-4.28646965e+001
,,,1.56250000e+007,-3.76981735e+001
,,,1.64062500e+007,-3.79040375e+001
,,,1.71875000e+007,-4.35505295e+001
,,,1.79687500e+007,-5.57472420e+001
,,,1.87500000e+007,-4.28017387e+001
,,,1.95312500e+007,-3.92343063e+001
,,,2.03125000e+007,-4.07630959e+001
,,,2.10937500e+007,-4.97459526e+001
,,,2.18750000e+007,-4.85206833e+001
,,,2.26562500e+007,-4.17444954e+001
,,,2.34375000e+007,-4.02905464e+001
,,,2.42187500e+007,-4.47620697e+001
,,,2.50000000e+007,-7.13892441e+001
,,,2.57812500e+007,-4.46636467e+001
,,,2.65625000e+007,-4.19299965e+001
,,,2.73437500e+007,-4.37080231e+001
,,,2.81250000e+007,-5.14194145e+001
,,,2.89062500e+007,-5.40158424e+001
,,,2.96875000e+007,-4.53839836e+001
,,,3.04687500e+007,-4.26521263e+001
,,,3.12500000e+007,-4.55057106e+001
,,,3.20312500e+007,-6.26298981e+001
,,,3.28125000e+007,-4.79577713e+001
,,,3.35937500e+007,-4.37872276e+001
,,,3.43750000e+007,-4.53244820e+001
,,,3.51562500e+007,-5.05101395e+001
,,,3.59375000e+007,-5.79531860e+001
,,,3.67187500e+007,-4.67436562e+001
,,,3.75000000e+007,-4.46576653e+001
,,,3.82812500e+007,-4.85219994e+001
,,,3.90625000e+007,-5.55379715e+001
,,,3.98437500e+007,-5.28068924e+001
,,,4.06250000e+007,-4.58481941e+001
,,,4.14062500e+007,-4.60412407e+001
,,,4.21875000e+007,-5.02575455e+001
,,,4.29687500e+007,-5.91550751e+001
,,,4.37500000e+007,-4.90297394e+001
,,,4.45312500e+007,-4.60010338e+001
,,,4.53125000e+007,-4.85458031e+001
,,,4.60937500e+007,-5.75349541e+001
,,,4.68750000e+007,-5.49738770e+001
,,,4.76562500e+007,-4.85579910e+001
,,,4.84375000e+007,-4.67493477e+001
,,,4.92187500e+007,-5.15616913e+001
,,,5.00000000e+007,-6.40794830e+001
,,,5.07812500e+007,-5.44355888e+001
,,,5.15625000e+007,-4.58801651e+001
,,,5.23437500e+007,-4.73463173e+001
,,,5.31250000e+007,-5.49717560e+001
,,,5.39062500e+007,-5.60016441e+001
,,,5.46875000e+007,-4.89399948e+001
,,,5.54687500e+007,-4.90801697e+001
,,,5.62500000e+007,-4.91913719e+001
,,,5.70312500e+007,-7.04146957e+001
,,,5.78125000e+007,-5.17444687e+001
,,,5.85937500e+007,-5.02216454e+001
,,,5.93750000e+007,-4.74197769e+001
,,,6.01562500e+007,-5.66345978e+001
,,,6.09375000e+007,-5.94813576e+001
,,,6.17187500e+007,-5.09018822e+001
,,,6.25000000e+007,-4.75750961e+001
,,,6.32812500e+007,-5.39999352e+001
,,,6.40625000e+007,-6.03093529e+001
,,,6.48437500e+007,-5.47701530e+001
,,,6.56250000e+007,-5.04846687e+001
,,,6.64062500e+007,-4.91321030e+001
,,,6.71875000e+007,-5.48198853e+001
,,,6.79687500e+007,-6.36749382e+001
,,,6.87500000e+007,-5.11429634e+001
,,,6.95312500e+007,-4.99512291e+001
,,,7.03125000e+007,-5.34939423e+001
,,,7.10937500e+007,-6.26295052e+001
,,,7.18750000e+007,-6.15552940e+001
,,,7.26562500e+007,-5.23242378e+001
,,,7.34375000e+007,-5.07644844e+001
,,,7.42187500e+007,-5.40478897e+001
,,,7.50000000e+007,-7.06787109e+001
,,,7.57812500e+007,-5.64222679e+001
,,,7.65625000e+007,-5.15306473e+001
,,,7.73437500e+007,-5.02988167e+001
,,,7.81250000e+007,-5.71657829e+001
,,,7.89062500e+007,-6.23421249e+001
,,,7.96875000e+007,-5.21092186e+001
,,,8.04687500e+007,-5.00018234e+001
,,,8.12500000e+007,-5.24497375e+001
,,,8.20312500e+007,-6.81808472e+001
,,,8.28125000e+007,-5.46163521e+001
,,,8.35937500e+007,-5.19445839e+001
,,,8.43750000e+007,-5.35484734e+001
,,,8.51562500e+007,-5.51576462e+001
,,,8.59375000e+007,-5.98006630e+001
,,,8.67187500e+007,-5.53800392e+001
,,,8.75000000e+007,-4.98720894e+001
,,,8.82812500e+007,-5.53784599e+001
,,,8.90625000e+007,-5.96751938e+001
,,,8.98437500e+007,-5.67008286e+001
,,,9.06250000e+007,-5.13917770e+001
,,,9.14062500e+007,-5.23269119e+001
,,,9.21875000e+007,-5.67094650e+001
,,,9.29687500e+007,-4.86255493e+001
,,,9.37500000e+007,-5.81393433e+001
,,,9.45312500e+007,-5.33170166e+001
,,,9.53125000e+007,-5.49294777e+001
,,,9.60937500e+007,-5.71647873e+001
,,,9.68750000e+007,-6.03157921e+001
,,,9.76562500e+007,-5.47169495e+001
,,,9.84375000e+007,-4.61323738e+001
,,,9.92187500e+007,-5.97202034e+001
,,,1.00000000e+008,-5.95874138e+001
,,,1.00781250e+008,-5.58809891e+001
,,,1.01562500e+008,-5.47435760e+001
,,,1.02343750e+008,-5.07102623e+001
,,,1.03125000e+008,-5.90339394e+001
,,,1.03906250e+008,-5.96006546e+001
,,,1.04687500e+008,-5.44561882e+001
,,,1.05468750e+008,-5.56758041e+001
,,,1.06250000e+008,-5.90926590e+001
,,,1.07031250e+008,-6.38283501e+001
,,,1.07812500e+008,-6.07986107e+001
,,,1.08593750e+008,-5.50783424e+001
,,,1.09375000e+008,-5.87132797e+001
,,,1.10156250e+008,-5.65036049e+001
,,,1.10937500e+008,-5.89632454e+001
,,,1.11718750e+008,-5.60104332e+001
,,,1.12500000e+008,-6.18445778e+001
,,,1.13281250e+008,-5.50536690e+001
,,,1.14062500e+008,-6.27922096e+001
,,,1.14843750e+008,-6.42101593e+001
,,,1.15625000e+008,-5.70653915e+001
,,,1.16406250e+008,-5.28000946e+001
,,,1.17187500e+008,-5.55785103e+001
,,,1.17968750e+008,-6.12120018e+001
,,,1.18750000e+008,-6.73561554e+001
,,,1.19531250e+008,-5.41799126e+001
,,,1.20312500e+008,-5.60866013e+001
,,,1.21093750e+008,-5.84947815e+001
,,,1.21875000e+008,-7.33012009e+001
,,,1.22656250e+008,-5.25330467e+001
,,,1.23437500e+008,-5.63721924e+001
,,,1.24218750e+008,-5.42090683e+001
,,,1.25000000e+008,-6.32791328e+001
,,,1.25781250e+008,-5.69825172e+001
,,,1.26562500e+008,-5.66388512e+001
,,,1.27343750e+008,-5.34609299e+001
,,,1.28125000e+008,-7.14300766e+001
,,,1.28906250e+008,-6.07895889e+001
,,,1.29687500e+008,-5.11541748e+001
,,,1.30468750e+008,-4.81947823e+001
,,,1.31250000e+008,-5.59189339e+001
,,,1.32031250e+008,-5.81166344e+001
,,,1.32812500e+008,-5.95302887e+001
,,,1.33593750e+008,-5.41524467e+001
,,,1.34375000e+008,-5.79228897e+001
,,,1.35156250e+008,-5.40675163e+001
,,,1.35937500e+008,-6.81663437e+001
,,,1.36718750e+008,-5.25117950e+001
,,,1.37500000e+008,-5.85367584e+001
,,,1.38281250e+008,-5.78659515e+001
,,,1.39062500e+008,-6.34012146e+001
,,,1.39843750e+008,-6.11405182e+001
,,,1.40625000e+008,-5.77592125e+001
,,,1.41406250e+008,-5.24051628e+001
,,,1.42187500e+008,-6.64787521e+001
,,,1.42968750e+008,-6.51907883e+001
,,,1.43750000e+008,-5.78952980e+001
,,,1.44531250e+008,-5.48161736e+001
,,,1.45312500e+008,-5.76215782e+001
,,,1.46093750e+008,-5.67668152e+001
,,,1.46875000e+008,-6.03927193e+001
,,,1.47656250e+008,-5.84400406e+001
,,,1.48437500e+008,-5.16477280e+001
,,,1.49218750e+008,-5.04429207e+001
,,,1.50000000e+008,-4.99181480e+001
,,,1.50781250e+008,-5.14460449e+001
,,,1.51562500e+008,-5.15104370e+001
,,,1.52343750e+008,-5.16619377e+001
,,,1.53125000e+008,-6.71454849e+001
,,,1.53906250e+008,-6.30055962e+001
,,,1.54687500e+008,-5.20026398e+001
,,,1.55468750e+008,-5.20947838e+001
,,,1.56250000e+008,-6.05917664e+001
,,,1.57031250e+008,-5.56271210e+001
,,,1.57812500e+008,-5.81222000e+001
,,,1.58593750e+008,-5.98878555e+001
,,,1.59375000e+008,-5.25395279e+001
,,,1.60156250e+008,-5.38705521e+001
,,,1.60937500e+008,-5.31980324e+001
,,,1.61718750e+008,-6.07912560e+001
,,,1.62500000e+008,-4.92221832e+001
,,,1.63281250e+008,-4.73306503e+001
,,,1.64062500e+008,-4.98899231e+001
,,,1.64843750e+008,-5.41343002e+001
,,,1.65625000e+008,-4.60543289e+001
,,,1.66406250e+008,-4.74353485e+001
,,,1.67187500e+008,-4.46978989e+001
,,,1.67968750e+008,-4.31966438e+001
,,,1.68750000e+008,-4.34593506e+001
,,,1.69531250e+008,-4.53749847e+001
,,,1.70312500e+008,-5.19521103e+001
,,,1.71093750e+008,-4.84523201e+001
,,,1.71875000e+008,-4.82885742e+001
,,,1.72656250e+008,-5.20518875e+001
,,,1.73437500e+008,-4.75783844e+001
,,,1.74218750e+008,-4.59268684e+001
,,,1.75000000e+008,-4.57323456e+001
,,,1.75781250e+008,-4.75319633e+001
,,,1.76562500e+008,-4.69504242e+001
,,,1.77343750e+008,-4.73087769e+001
,,,1.78125000e+008,-6.71732559e+001
,,,1.78906250e+008,-6.73186646e+001
,,,1.79687500e+008,-4.60914154e+001
,,,1.80468750e+008,-4.64425201e+001
,,,1.81250000e+008,-4.68680916e+001
,,,1.82031250e+008,-4.44958534e+001
,,,1.82812500e+008,-4.48396263e+001
,,,1.83593750e+008,-4.54386787e+001
,,,1.84375000e+008,-4.64511833e+001
,,,1.85156250e+008,-4.31639366e+001
,,,1.85937500e+008,-4.35987358e+001
,,,1.86718750e+008,-4.40605507e+001
,,,1.87500000e+008,-5.36966324e+001
,,,1.88281250e+008,-5.02156448e+001
,,,1.89062500e+008,-5.62645035e+001
,,,1.89843750e+008,-4.90971489e+001
,,,1.90625000e+008,-5.10457840e+001
,,,1.91406250e+008,-4.79154739e+001
,,,1.92187500e+008,-4.68876762e+001
,,,1.92968750e+008,-4.98061943e+001
,,,1.93750000e+008,-5.07284012e+001
,,,1.94531250e+008,-6.00489082e+001
,,,1.95312500e+008,-5.86849136e+001
,,,1.96093750e+008,-4.69146767e+001
,,,1.96875000e+008,-4.50135803e+001
,,,1.97656250e+008,-4.24692116e+001
,,,1.98437500e+008,-4.43962212e+001
,,,1.99218750e+008,-4.57339630e+001
,,,2.00000000e+008,-4.23371811e+001
,,,2.00781250e+008,-4.15526314e+001
,,,2.01562500e+008,-3.90227585e+001
,,,2.02343750e+008,-4.30261383e+001
,,,2.03125000e+008,-4.29609108e+001
,,,2.03906250e+008,-4.36763649e+001
,,,2.04687500e+008,-4.45368805e+001
,,,2.05468750e+008,-4.33913879e+001
,,,2.06250000e+008,-4.46053886e+001
,,,2.07031250e+008,-4.56352768e+001
,,,2.07812500e+008,-4.38719482e+001
,,,2.08593750e+008,-4.65596428e+001
,,,2.09375000e+008,-4.04665756e+001
,,,2.10156250e+008,-4.93302956e+001
,,,2.10937500e+008,-5.46530914e+001
,,,2.11718750e+008,-4.68374977e+001
,,,2.12500000e+008,-4.42137680e+001
,,,2.13281250e+008,-4.39378548e+001
,,,2.14062500e+008,-4.49381294e+001
,,,2.14843750e+008,-5.01334076e+001
,,,2.15625000e+008,-5.06559868e+001
,,,2.16406250e+008,-5.34382782e+001
,,,2.17187500e+008,-5.00834770e+001
,,,2.17968750e+008,-4.60127792e+001
,,,2.18750000e+008,-4.44721222e+001
,,,2.19531250e+008,-4.47368164e+001
,,,2.20312500e+008,-4.64879456e+001
,,,2.21093750e+008,-4.27196083e+001
,,,2.21875000e+008,-4.01102600e+001
,,,2.22656250e+008,-3.86749344e+001
,,,2.23437500e+008,-4.11280594e+001
,,,2.24218750e+008,-4.14319458e+001
,,,2.25000000e+008,-3.88604012e+001
,,,2.25781250e+008,-3.83290596e+001
,,,2.26562500e+008,-3.92776566e+001
,,,2.27343750e+008,-4.12903328e+001
,,,2.28125000e+008,-4.20600777e+001
,,,2.28906250e+008,-4.28783989e+001
,,,2.29687500e+008,-4.53337517e+001
,,,2.30468750e+008,-4.08325119e+001
,,,2.31250000e+008,-3.74752197e+001
,,,2.32031250e+008,-3.60835953e+001
,,,2.32812500e+008,-3.52671242e+001
,,,2.33593750e+008,-3.59805946e+001
,,,2.34375000e+008,-3.73176804e+001
,,,2.35156250e+008,-3.56092796e+001
,,,2.35937500e+008,-3.41104279e+001
,,,2.36718750e+008,-3.34424591e+001
,,,2.37500000e+008,-3.36288605e+001
,,,2.38281250e+008,-3.15601463e+001
,,,2.39062500e+008,-2.98503208e+001
,,,2.39843750e+008,-3.00667896e+001
,,,2.40625000e+008,-3.07001190e+001
,,,2.41406250e+008,-3.20760231e+001
,,,2.42187500e+008,-3.12597809e+001
,,,2.42968750e+008,-3.05481453e+001
,,,2.43750000e+008,-3.00464478e+001
,,,2.44531250e+008,-2.96913757e+001
,,,2.45312500e+008,-3.00539246e+001
,,,2.46093750e+008,-3.18083382e+001
,,,2.46875000e+008,-3.21205826e+001
,,,2.47656250e+008,-3.06247559e+001
,,,2.48437500e+008,-3.08975811e+001
,,,2.49218750e+008,-3.31885452e+001
,,,2.50000000e+008,-3.51706467e+001
,,,2.50781250e+008,-3.43091049e+001
,,,2.51562500e+008,-3.49343605e+001
,,,2.52343750e+008,-3.67310791e+001
,,,2.53125000e+008,-3.56374130e+001
,,,2.53906250e+008,-3.32183571e+001
,,,2.54687500e+008,-3.25735893e+001
,,,2.55468750e+008,-3.22233086e+001
,,,2.56250000e+008,-3.24935646e+001
,,,2.57031250e+008,-3.32933273e+001
,,,2.57812500e+008,-3.46979065e+001
,,,2.58593750e+008,-3.44650650e+001
,,,2.59375000e+008,-3.29393921e+001
,,,2.60156250e+008,-3.07649345e+001
,,,2.60937500e+008,-2.94466381e+001
,,,2.61718750e+008,-2.90496101e+001
,,,2.62500000e+008,-3.02776680e+001
,,,2.63281250e+008,-3.23263702e+001
,,,2.64062500e+008,-3.26655617e+001
,,,2.64843750e+008,-3.11994743e+001
,,,2.65625000e+008,-3.16263447e+001
,,,2.66406250e+008,-3.30530930e+001
,,,2.67187500e+008,-3.46890106e+001
,,,2.67968750e+008,-3.31081810e+001
,,,2.68750000e+008,-3.27030487e+001
,,,2.69531250e+008,-3.20775375e+001
,,,2.70312500e+008,-3.26581497e+001
,,,2.71093750e+008,-3.39477577e+001
,,,2.71875000e+008,-3.42012024e+001
,,,2.72656250e+008,-3.37336807e+001
,,,2.73437500e+008,-3.35180092e+001
,,,2.74218750e+008,-3.11237392e+001
,,,2.75000000e+008,-3.02371025e+001
,,,2.75781250e+008,-2.97153759e+001
,,,2.76562500e+008,-3.13442154e+001
,,,2.77343750e+008,-3.27904205e+001
,,,2.78125000e+008,-3.32874260e+001
,,,2.78906250e+008,-3.24886513e+001
,,,2.79687500e+008,-3.45151291e+001
,,,2.80468750e+008,-3.22880821e+001
,,,2.81250000e+008,-2.99015961e+001
,,,2.82031250e+008,-2.89304619e+001
,,,2.82812500e+008,-2.82245941e+001
,,,2.83593750e+008,-2.80304852e+001
,,,2.84375000e+008,-2.81813278e+001
,,,2.85156250e+008,-2.90884724e+001
,,,2.85937500e+008,-2.97689285e+001
,,,2.86718750e+008,-2.92796707e+001
,,,2.87500000e+008,-2.92494221e+001
,,,2.88281250e+008,-2.87950439e+001
,,,2.89062500e+008,-2.86012592e+001
,,,2.89843750e+008,-2.87074223e+001
,,,2.90625000e+008,-2.88894787e+001
,,,2.91406250e+008,-2.84620972e+001
,,,2.92187500e+008,-2.81265411e+001
,,,2.92968750e+008,-2.76333847e+001
,,,2.93750000e+008,-2.86430588e+001
,,,2.94531250e+008,-2.98487282e+001
,,,2.95312500e+008,-3.17382965e+001
,,,2.96093750e+008,-3.38799667e+001
,,,2.96875000e+008,-3.40847397e+001
,,,2.97656250e+008,-3.17862530e+001
,,,2.98437500e+008,-3.09386539e+001
,,,2.99218750e+008,-3.05878029e+001
,,,3.00000000e+008,-3.14483795e+001
,,,3.00781250e+008,-3.11897964e+001
,,,3.01562500e+008,-3.12700367e+001
,,,3.02343750e+008,-3.33372040e+001
,,,3.03125000e+008,-3.63479996e+001
,,,3.03906250e+008,-3.60895576e+001
,,,3.04687500e+008,-3.53176308e+001
,,,3.05468750e+008,-3.26439018e+001
,,,3.06250000e+008,-3.15365295e+001
,,,3.07031250e+008,-3.05932102e+001
,,,3.07812500e+008,-3.00636368e+001
,,,3.08593750e+008,-3.07432308e+001
,,,3.09375000e+008,-3.26776314e+001
,,,3.10156250e+008,-3.48299179e+001
,,,3.10937500e+008,-3.69065590e+001
,,,3.11718750e+008,-3.30485649e+001
,,,3.12500000e+008,-3.11492004e+001
,,,3.13281250e+008,-3.14558239e+001
,,,3.14062500e+008,-3.33441887e+001
,,,3.14843750e+008,-3.57290459e+001
,,,3.15625000e+008,-3.40098114e+001
,,,3.16406250e+008,-3.18805408e+001
,,,3.17187500e+008,-3.32243729e+001
,,,3.17968750e+008,-3.37571716e+001
,,,3.18750000e+008,-3.28442268e+001
,,,3.19531250e+008,-3.14301968e+001
,,,3.20312500e+008,-3.21040268e+001
,,,3.21093750e+008,-3.24137726e+001
,,,3.21875000e+008,-3.44185791e+001
,,,3.22656250e+008,-3.61271210e+001
,,,3.23437500e+008,-3.79696159e+001
,,,3.24218750e+008,-3.62177315e+001
,,,3.25000000e+008,-3.79518623e+001
,,,3.25781250e+008,-4.28442879e+001
,,,3.26562500e+008,-4.35120468e+001
,,,3.27343750e+008,-3.70633240e+001
,,,3.28125000e+008,-3.46180649e+001
,,,3.28906250e+008,-3.40889511e+001
,,,3.29687500e+008,-3.42752228e+001
,,,3.30468750e+008,-3.43644371e+001
,,,3.31250000e+008,-3.50823593e+001
,,,3.32031250e+008,-3.75407677e+001
,,,3.32812500e+008,-3.93279457e+001
,,,3.33593750e+008,-3.86922569e+001
,,,3.34375000e+008,-3.91651611e+001
,,,3.35156250e+008,-4.11283035e+001
,,,3.35937500e+008,-4.62095451e+001
,,,3.36718750e+008,-5.57553444e+001
,,,3.37500000e+008,-4.66274567e+001
,,,3.38281250e+008,-4.19457169e+001
,,,3.39062500e+008,-3.91323509e+001
,,,3.39843750e+008,-3.97498398e+001
,,,3.40625000e+008,-4.09497871e+001
,,,3.41406250e+008,-4.20847855e+001
,,,3.42187500e+008,-4.37643166e+001
,,,3.42968750e+008,-4.32940331e+001
,,,3.43750000e+008,-3.54430313e+001
,,,3.44531250e+008,-3.14698086e+001
,,,3.45312500e+008,-2.93040199e+001
,,,3.46093750e+008,-2.94051037e+001
,,,3.46875000e+008,-3.08364658e+001
,,,3.47656250e+008,-3.28784943e+001
,,,3.48437500e+008,-3.37998886e+001
,,,3.49218750e+008,-3.40556297e+001
,,,3.50000000e+008,-3.24440079e+001
,,,3.50781250e+008,-3.09408226e+001
,,,3.51562500e+008,-2.99502926e+001
,,,3.52343750e+008,-3.06025181e+001
,,,3.53125000e+008,-3.26620255e+001
,,,3.53906250e+008,-3.56265259e+001
,,,3.54687500e+008,-3.62149887e+001
,,,3.55468750e+008,-3.56769753e+001
,,,3.56250000e+008,-3.52777138e+001
,,,3.57031250e+008,-3.62896996e+001
,,,3.57812500e+008,-3.55900650e+001
,,,3.58593750e+008,-3.39511337e+001
,,,3.59375000e+008,-3.15644760e+001
,,,3.60156250e+008,-3.04984493e+001
,,,3.60937500e+008,-3.06843071e+001
,,,3.61718750e+008,-3.21821518e+001
,,,3.62500000e+008,-3.38651962e+001
,,,3.63281250e+008,-3.48820839e+001
,,,3.64062500e+008,-3.21652184e+001
,,,3.64843750e+008,-3.07470608e+001
,,,3.65625000e+008,-3.02995300e+001
,,,3.66406250e+008,-3.22437820e+001
,,,3.67187500e+008,-3.72150726e+001
,,,3.67968750e+008,-5.51432800e+001
,,,3.68750000e+008,-4.18745346e+001
,,,3.69531250e+008,-3.70757141e+001
,,,3.70312500e+008,-3.51523933e+001
,,,3.71093750e+008,-3.36526146e+001
,,,3.71875000e+008,-3.24977684e+001
,,,3.72656250e+008,-3.24192772e+001
,,,3.73437500e+008,-3.37005539e+001
,,,3.74218750e+008,-3.67322273e+001
,,,3.75000000e+008,-4.14993362e+001
,,,3.75781250e+008,-4.61350555e+001
,,,3.76562500e+008,-4.23355904e+001
,,,3.77343750e+008,-4.07430725e+001
,,,3.78125000e+008,-3.84775162e+001
,,,3.78906250e+008,-3.89162712e+001
,,,3.79687500e+008,-4.18323174e+001
,,,3.80468750e+008,-4.74849014e+001
,,,3.81250000e+008,-4.72043915e+001
,,,3.82031250e+008,-4.73250008e+001
,,,3.82812500e+008,-4.26455727e+001
,,,3.83593750e+008,-3.88868866e+001
,,,3.84375000e+008,-3.61554604e+001
,,,3.85156250e+008,-3.45974045e+001
,,,3.85937500e+008,-3.26224594e+001
,,,3.86718750e+008,-3.19135017e+001
,,,3.87500000e+008,-3.26229401e+001
,,,3.88281250e+008,-3.45041656e+001
,,,3.89062500e+008,-3.54382439e+001
,,,3.89843750e+008,-3.55772629e+001
,,,3.90625000e+008,-3.51360512e+001
,,,3.91406250e+008,-3.74338455e+001
,,,3.92187500e+008,-4.12148819e+001
,,,3.92968750e+008,-4.63518639e+001
,,,3.93750000e+008,-4.36012611e+001
,,,3.94531250e+008,-3.95074005e+001
,,,3.95312500e+008,-3.69683800e+001
,,,3.96093750e+008,-3.68993492e+001
,,,3.96875000e+008,-3.87247696e+001
,,,3.97656250e+008,-4.07855911e+001
,,,3.98437500e+008,-4.18537712e+001
,,,3.99218750e+008,-3.83821793e+001
,,,4.00000000e+008,-3.47437286e+001
,,,4.00781250e+008,-3.29543190e+001
,,,4.01562500e+008,-3.28606071e+001
,,,4.02343750e+008,-3.35746994e+001
,,,4.03125000e+008,-3.35587540e+001
,,,4.03906250e+008,-3.30983047e+001
,,,4.04687500e+008,-3.36181259e+001
,,,4.05468750e+008,-3.62373772e+001
,,,4.06250000e+008,-3.98624458e+001
,,,4.07031250e+008,-4.07620621e+001
,,,4.07812500e+008,-3.94524002e+001
,,,4.08593750e+008,-3.93144341e+001
,,,4.09375000e+008,-3.88232460e+001
,,,4.10156250e+008,-3.69507141e+001
,,,4.10937500e+008,-3.69497566e+001
,,,4.11718750e+008,-3.74494438e+001
,,,4.12500000e+008,-3.66785927e+001
,,,4.13281250e+008,-3.44878540e+001
,,,4.14062500e+008,-3.34576569e+001
,,,4.14843750e+008,-3.29766884e+001
,,,4.15625000e+008,-3.33613472e+001
,,,4.16406250e+008,-3.29386940e+001
,,,4.17187500e+008,-3.28443069e+001
,,,4.17968750e+008,-3.38227615e+001
,,,4.18750000e+008,-3.55397186e+001
,,,4.19531250e+008,-3.80398750e+001
,,,4.20312500e+008,-3.88386230e+001
,,,4.21093750e+008,-3.60006905e+001
,,,4.21875000e+008,-3.41631699e+001
,,,4.22656250e+008,-3.31620903e+001
,,,4.23437500e+008,-3.35774727e+001
,,,4.24218750e+008,-3.66000328e+001
,,,4.25000000e+008,-3.97022514e+001
,,,4.25781250e+008,-4.40973511e+001
,,,4.26562500e+008,-4.81145058e+001
,,,4.27343750e+008,-5.03999062e+001
,,,4.28125000e+008,-4.83188400e+001
,,,4.28906250e+008,-4.92983131e+001
,,,4.29687500e+008,-5.83022041e+001
