Data/20220819/UCLA_to_R2A_VPOL_E_20_01_Ch2.csv

"Record Length",5000,"Points",-1.00800000e-007,4.81250489e-005
"Sample Interval",2.00000000e-010,s,-1.00600000e-007,3.06250480e-005
"Trigger Point",504,"Samples",-1.00400000e-007,4.40625487e-005
"Trigger Time",0.00000000e+000,s,-1.00200000e-007,5.03125490e-005
"",,,-1.00000000e-007,5.75000493e-005
"Horizontal Offset",-1.00800000e-007,s,-9.98000000e-008,4.06250485e-005
,,,-9.96000000e-008,7.18754691e-006
,,,-9.94000000e-008,-6.87495376e-006
,,,-9.92000000e-008,-4.24999555e-005
,,,-9.90000000e-008,-6.56245375e-006
,,,-9.88000000e-008,3.03125480e-005
,,,-9.86000000e-008,7.53125501e-005
,,,-9.84000000e-008,1.24062552e-004
,,,-9.82000000e-008,8.78125507e-005
,,,-9.80000000e-008,3.21875481e-005
,,,-9.78000000e-008,-4.37499555e-005
,,,-9.76000000e-008,-1.03437458e-004
,,,-9.74000000e-008,-5.81249562e-005
,,,-9.72000000e-008,1.78125474e-005
,,,-9.70000000e-008,8.90625508e-005
,,,-9.68000000e-008,1.52812554e-004
,,,-9.66000000e-008,1.29062553e-004
,,,-9.64000000e-008,6.71875498e-005
,,,-9.62000000e-008,-3.12499549e-005
,,,-9.60000000e-008,-8.68749576e-005
,,,-9.58000000e-008,-7.15624568e-005
,,,-9.56000000e-008,-4.87499557e-005
,,,-9.54000000e-008,2.62500478e-005
,,,-9.52000000e-008,1.07500052e-004
,,,-9.50000000e-008,1.25000053e-004
,,,-9.48000000e-008,1.31875053e-004
,,,-9.46000000e-008,5.78125493e-005
,,,-9.44000000e-008,-2.65624547e-005
,,,-9.42000000e-008,-8.21874573e-005
,,,-9.40000000e-008,-1.04062458e-004
,,,-9.38000000e-008,-3.28124550e-005
,,,-9.36000000e-008,3.03125480e-005
,,,-9.34000000e-008,9.50000511e-005
,,,-9.32000000e-008,1.35312553e-004
,,,-9.30000000e-008,8.78125507e-005
,,,-9.28000000e-008,5.06250490e-005
,,,-9.26000000e-008,-3.12499549e-005
,,,-9.24000000e-008,-6.49999565e-005
,,,-9.22000000e-008,-3.59374551e-005
,,,-9.20000000e-008,3.12546581e-007
,,,-9.18000000e-008,7.34375501e-005
,,,-9.16000000e-008,7.43750501e-005
,,,-9.14000000e-008,6.84375498e-005
,,,-9.12000000e-008,5.37500491e-005
,,,-9.10000000e-008,1.31250472e-005
,,,-9.08000000e-008,3.46875482e-005
,,,-9.06000000e-008,2.59375478e-005
,,,-9.04000000e-008,2.75000479e-005
,,,-9.02000000e-008,1.06250471e-005
,,,-9.00000000e-008,-6.87495376e-006
,,,-8.98000000e-008,9.37546611e-007
,,,-8.96000000e-008,1.00000470e-005
,,,-8.94000000e-008,4.78125488e-005
,,,-8.92000000e-008,7.71875502e-005
,,,-8.90000000e-008,9.34375510e-005
,,,-8.88000000e-008,8.62500507e-005
,,,-8.86000000e-008,6.25000495e-005
,,,-8.84000000e-008,-1.49999541e-005
,,,-8.82000000e-008,-7.28124569e-005
,,,-8.80000000e-008,-9.71874581e-005
,,,-8.78000000e-008,-3.84374553e-005
,,,-8.76000000e-008,6.06250494e-005
,,,-8.74000000e-008,1.37187553e-004
,,,-8.72000000e-008,1.79375055e-004
,,,-8.70000000e-008,9.71875512e-005
,,,-8.68000000e-008,-2.49995355e-006
,,,-8.66000000e-008,-1.05624958e-004
,,,-8.64000000e-008,-1.39999960e-004
,,,-8.62000000e-008,-7.21874569e-005
,,,-8.60000000e-008,1.56250473e-005
,,,-8.58000000e-008,1.08125052e-004
,,,-8.56000000e-008,1.73125055e-004
,,,-8.54000000e-008,1.37500053e-004
,,,-8.52000000e-008,8.46875506e-005
,,,-8.50000000e-008,-6.87495376e-006
,,,-8.48000000e-008,-8.46874575e-005
,,,-8.46000000e-008,-8.87499576e-005
,,,-8.44000000e-008,-6.09374563e-005
,,,-8.42000000e-008,1.09375471e-005
,,,-8.40000000e-008,8.93750508e-005
,,,-8.38000000e-008,9.65625512e-005
,,,-8.36000000e-008,8.28125505e-005
,,,-8.34000000e-008,5.03125490e-005
,,,-8.32000000e-008,-4.68745366e-006
,,,-8.30000000e-008,-2.12499544e-005
,,,-8.28000000e-008,-4.46874556e-005
,,,-8.26000000e-008,-2.03124544e-005
,,,-8.24000000e-008,6.87504689e-006
,,,-8.22000000e-008,3.62500483e-005
,,,-8.20000000e-008,7.06250499e-005
,,,-8.18000000e-008,7.37500501e-005
,,,-8.16000000e-008,6.59375497e-005
,,,-8.14000000e-008,5.59375492e-005
,,,-8.12000000e-008,4.62500488e-005
,,,-8.10000000e-008,3.75000483e-005
,,,-8.08000000e-008,2.78125479e-005
,,,-8.06000000e-008,-1.87495352e-006
,,,-8.04000000e-008,-4.96874558e-005
,,,-8.02000000e-008,-4.43749555e-005
,,,-8.00000000e-008,-1.46874541e-005
,,,-7.98000000e-008,5.75000493e-005
,,,-7.96000000e-008,1.34375053e-004
,,,-7.94000000e-008,1.64375054e-004
,,,-7.92000000e-008,1.11250052e-004
,,,-7.90000000e-008,1.59375473e-005
,,,-7.88000000e-008,-8.40624574e-005
,,,-7.86000000e-008,-1.41874960e-004
,,,-7.84000000e-008,-1.14999959e-004
,,,-7.82000000e-008,-9.37453478e-007
,,,-7.80000000e-008,1.36875053e-004
,,,-7.78000000e-008,2.24375057e-004
,,,-7.76000000e-008,1.94375056e-004
,,,-7.74000000e-008,8.28125505e-005
,,,-7.72000000e-008,-6.18749564e-005
,,,-7.70000000e-008,-1.56562461e-004
,,,-7.68000000e-008,-1.44999960e-004
,,,-7.66000000e-008,-5.49999560e-005
,,,-7.64000000e-008,5.87500494e-005
,,,-7.62000000e-008,1.43125053e-004
,,,-7.60000000e-008,1.63125054e-004
,,,-7.58000000e-008,1.28437553e-004
,,,-7.56000000e-008,5.21875490e-005
,,,-7.54000000e-008,-1.78124543e-005
,,,-7.52000000e-008,-8.46874575e-005
,,,-7.50000000e-008,-9.28124578e-005
,,,-7.48000000e-008,-4.84374557e-005
,,,-7.46000000e-008,2.06250475e-005
,,,-7.44000000e-008,9.28125510e-005
,,,-7.42000000e-008,1.20000052e-004
,,,-7.40000000e-008,7.78125503e-005
,,,-7.38000000e-008,4.75000488e-005
,,,-7.36000000e-008,-9.37453478e-007
,,,-7.34000000e-008,-1.43749541e-005
,,,-7.32000000e-008,-2.49999546e-005
,,,-7.30000000e-008,-9.37495388e-006
,,,-7.28000000e-008,3.43754673e-006
,,,-7.26000000e-008,1.62500473e-005
,,,-7.24000000e-008,4.40625487e-005
,,,-7.22000000e-008,4.65625488e-005
,,,-7.20000000e-008,6.25000495e-005
,,,-7.18000000e-008,6.84375498e-005
,,,-7.16000000e-008,5.37500491e-005
,,,-7.14000000e-008,4.68750488e-005
,,,-7.12000000e-008,1.31250472e-005
,,,-7.10000000e-008,-3.12499549e-005
,,,-7.08000000e-008,-5.81249562e-005
,,,-7.06000000e-008,-5.18749559e-005
,,,-7.04000000e-008,2.81254670e-006
,,,-7.02000000e-008,9.68750512e-005
,,,-7.00000000e-008,1.46250054e-004
,,,-6.98000000e-008,1.53750054e-004
,,,-6.96000000e-008,8.40625506e-005
,,,-6.94000000e-008,-1.09374540e-005
,,,-6.92000000e-008,-9.34374579e-005
,,,-6.90000000e-008,-1.14062459e-004
,,,-6.88000000e-008,-7.34374569e-005
,,,-6.86000000e-008,2.43750477e-005
,,,-6.84000000e-008,1.10000052e-004
,,,-6.82000000e-008,1.63125054e-004
,,,-6.80000000e-008,1.45937553e-004
,,,-6.78000000e-008,7.12500500e-005
,,,-6.76000000e-008,-9.99995391e-006
,,,-6.74000000e-008,-8.06249573e-005
,,,-6.72000000e-008,-9.03124577e-005
,,,-6.70000000e-008,-3.15624549e-005
,,,-6.68000000e-008,2.81250479e-005
,,,-6.66000000e-008,8.68750507e-005
,,,-6.64000000e-008,9.50000511e-005
,,,-6.62000000e-008,9.53125511e-005
,,,-6.60000000e-008,5.15625490e-005
,,,-6.58000000e-008,1.46875473e-005
,,,-6.56000000e-008,-1.15624540e-005
,,,-6.54000000e-008,-3.96874553e-005
,,,-6.52000000e-008,-3.21874550e-005
,,,-6.50000000e-008,-2.12499544e-005
,,,-6.48000000e-008,2.50004668e-006
,,,-6.46000000e-008,2.50000478e-005
,,,-6.44000000e-008,5.90625494e-005
,,,-6.42000000e-008,7.09375499e-005
,,,-6.40000000e-008,9.84375512e-005
,,,-6.38000000e-008,6.53125497e-005
,,,-6.36000000e-008,2.21875476e-005
,,,-6.34000000e-008,-3.96874553e-005
,,,-6.32000000e-008,-7.09374568e-005
,,,-6.30000000e-008,-3.49999551e-005
,,,-6.28000000e-008,1.96875475e-005
,,,-6.26000000e-008,6.15625495e-005
,,,-6.24000000e-008,1.06250052e-004
,,,-6.22000000e-008,9.87500513e-005
,,,-6.20000000e-008,6.31250496e-005
,,,-6.18000000e-008,1.81250474e-005
,,,-6.16000000e-008,-1.68749542e-005
,,,-6.14000000e-008,-5.71874562e-005
,,,-6.12000000e-008,-4.43749555e-005
,,,-6.10000000e-008,-1.09374540e-005
,,,-6.08000000e-008,4.68750488e-005
,,,-6.06000000e-008,1.04062552e-004
,,,-6.04000000e-008,1.52500054e-004
,,,-6.02000000e-008,1.27812553e-004
,,,-6.00000000e-008,6.43750496e-005
,,,-5.98000000e-008,-3.43749551e-005
,,,-5.96000000e-008,-8.31249574e-005
,,,-5.94000000e-008,-7.24999569e-005
,,,-5.92000000e-008,-8.12495382e-006
,,,-5.90000000e-008,5.46875492e-005
,,,-5.88000000e-008,1.15937552e-004
,,,-5.86000000e-008,1.25312553e-004
,,,-5.84000000e-008,6.56250497e-005
,,,-5.82000000e-008,1.84375474e-005
,,,-5.80000000e-008,-3.93749553e-005
,,,-5.78000000e-008,-4.43749555e-005
,,,-5.76000000e-008,-2.03124544e-005
,,,-5.74000000e-008,2.03125475e-005
,,,-5.72000000e-008,5.96875494e-005
,,,-5.70000000e-008,7.18750500e-005
,,,-5.68000000e-008,5.06250490e-005
,,,-5.66000000e-008,3.46875482e-005
,,,-5.64000000e-008,2.40625477e-005
,,,-5.62000000e-008,3.37500482e-005
,,,-5.60000000e-008,3.53125482e-005
,,,-5.58000000e-008,2.12500476e-005
,,,-5.56000000e-008,-9.68745389e-006
,,,-5.54000000e-008,-2.78124548e-005
,,,-5.52000000e-008,-1.15624540e-005
,,,-5.50000000e-008,2.00000475e-005
,,,-5.48000000e-008,4.59375487e-005
,,,-5.46000000e-008,6.31250496e-005
,,,-5.44000000e-008,5.34375491e-005
,,,-5.42000000e-008,3.09375480e-005
,,,-5.40000000e-008,1.87504666e-006
,,,-5.38000000e-008,-2.65624547e-005
,,,-5.36000000e-008,-1.56249542e-005
,,,-5.34000000e-008,-9.06245386e-006
,,,-5.32000000e-008,2.90625479e-005
,,,-5.30000000e-008,4.46875487e-005
,,,-5.28000000e-008,6.43750496e-005
,,,-5.26000000e-008,6.87500498e-005
,,,-5.24000000e-008,4.75000488e-005
,,,-5.22000000e-008,3.25000481e-005
,,,-5.20000000e-008,1.87504666e-006
,,,-5.18000000e-008,-3.53124551e-005
,,,-5.16000000e-008,-4.53124556e-005
,,,-5.14000000e-008,-1.28124540e-005
,,,-5.12000000e-008,6.59375497e-005
,,,-5.10000000e-008,9.68750512e-005
,,,-5.08000000e-008,1.31875053e-004
,,,-5.06000000e-008,9.12500509e-005
,,,-5.04000000e-008,6.56254688e-006
,,,-5.02000000e-008,-4.15624554e-005
,,,-5.00000000e-008,-5.40624560e-005
,,,-4.98000000e-008,-1.46874541e-005
,,,-4.96000000e-008,3.12500481e-005
,,,-4.94000000e-008,7.96875504e-005
,,,-4.92000000e-008,1.03125051e-004
,,,-4.90000000e-008,8.56250506e-005
,,,-4.88000000e-008,5.71875493e-005
,,,-4.86000000e-008,3.00000480e-005
,,,-4.84000000e-008,-1.21874540e-005
,,,-4.82000000e-008,-5.15624559e-005
,,,-4.80000000e-008,-2.59374547e-005
,,,-4.78000000e-008,9.37504701e-006
,,,-4.76000000e-008,6.84375498e-005
,,,-4.74000000e-008,1.11562552e-004
,,,-4.72000000e-008,8.59375506e-005
,,,-4.70000000e-008,6.81250498e-005
,,,-4.68000000e-008,4.06254676e-006
,,,-4.66000000e-008,-2.28124545e-005
,,,-4.64000000e-008,-4.43749555e-005
,,,-4.62000000e-008,-4.96874558e-005
,,,-4.60000000e-008,-2.28124545e-005
,,,-4.58000000e-008,2.50000478e-005
,,,-4.56000000e-008,1.00000051e-004
,,,-4.54000000e-008,1.07812552e-004
,,,-4.52000000e-008,8.78125507e-005
,,,-4.50000000e-008,3.37500482e-005
,,,-4.48000000e-008,-4.78124557e-005
,,,-4.46000000e-008,-8.56249575e-005
,,,-4.44000000e-008,-7.93749572e-005
,,,-4.42000000e-008,-3.71874552e-005
,,,-4.40000000e-008,5.81250493e-005
,,,-4.38000000e-008,9.75000512e-005
,,,-4.36000000e-008,1.05000052e-004
,,,-4.34000000e-008,9.03125509e-005
,,,-4.32000000e-008,2.43750477e-005
,,,-4.30000000e-008,-1.74999543e-005
,,,-4.28000000e-008,-4.93749558e-005
,,,-4.26000000e-008,-6.37499565e-005
,,,-4.24000000e-008,1.21875471e-005
,,,-4.22000000e-008,2.81250479e-005
,,,-4.20000000e-008,8.78125507e-005
,,,-4.18000000e-008,1.00000051e-004
,,,-4.16000000e-008,7.21875500e-005
,,,-4.14000000e-008,4.93750489e-005
,,,-4.12000000e-008,1.46875473e-005
,,,-4.10000000e-008,-9.37495388e-006
,,,-4.08000000e-008,-2.78124548e-005
,,,-4.06000000e-008,-2.15624545e-005
,,,-4.04000000e-008,6.25004686e-006
,,,-4.02000000e-008,2.50000478e-005
,,,-4.00000000e-008,7.93750503e-005
,,,-3.98000000e-008,9.40625510e-005
,,,-3.96000000e-008,8.25000505e-005
,,,-3.94000000e-008,7.62500502e-005
,,,-3.92000000e-008,3.40625482e-005
,,,-3.90000000e-008,-3.12495358e-006
,,,-3.88000000e-008,-2.46874546e-005
,,,-3.86000000e-008,-4.81249557e-005
,,,-3.84000000e-008,-7.49995379e-006
,,,-3.82000000e-008,3.65625483e-005
,,,-3.80000000e-008,8.78125507e-005
,,,-3.78000000e-008,1.23437552e-004
,,,-3.76000000e-008,1.10312552e-004
,,,-3.74000000e-008,6.65625497e-005
,,,-3.72000000e-008,1.53125473e-005
,,,-3.70000000e-008,-6.93749567e-005
,,,-3.68000000e-008,-9.49999579e-005
,,,-3.66000000e-008,-1.01249958e-004
,,,-3.64000000e-008,-4.46874556e-005
,,,-3.62000000e-008,6.46875496e-005
,,,-3.60000000e-008,1.51875054e-004
,,,-3.58000000e-008,2.06875056e-004
,,,-3.56000000e-008,1.54375054e-004
,,,-3.54000000e-008,3.46875482e-005
,,,-3.52000000e-008,-9.15624578e-005
,,,-3.50000000e-008,-1.72187462e-004
,,,-3.48000000e-008,-1.29687460e-004
,,,-3.46000000e-008,-3.46874551e-005
,,,-3.44000000e-008,9.15625509e-005
,,,-3.42000000e-008,1.67500055e-004
,,,-3.40000000e-008,1.77500055e-004
,,,-3.38000000e-008,1.33437553e-004
,,,-3.36000000e-008,3.34375482e-005
,,,-3.34000000e-008,-6.56249566e-005
,,,-3.32000000e-008,-1.21562459e-004
,,,-3.30000000e-008,-1.49374961e-004
,,,-3.28000000e-008,-7.03124568e-005
,,,-3.26000000e-008,4.25000486e-005
,,,-3.24000000e-008,1.48437554e-004
,,,-3.22000000e-008,1.94062556e-004
,,,-3.20000000e-008,1.53750054e-004
,,,-3.18000000e-008,8.34375505e-005
,,,-3.16000000e-008,-1.46874541e-005
,,,-3.14000000e-008,-9.65624580e-005
,,,-3.12000000e-008,-1.00624958e-004
,,,-3.10000000e-008,-7.78124571e-005
,,,-3.08000000e-008,-9.99995391e-006
,,,-3.06000000e-008,8.43750506e-005
,,,-3.04000000e-008,1.32187553e-004
,,,-3.02000000e-008,1.65937554e-004
,,,-3.00000000e-008,1.25000053e-004
,,,-2.98000000e-008,5.34375491e-005
,,,-2.96000000e-008,-2.12499544e-005
,,,-2.94000000e-008,-8.81249576e-005
,,,-2.92000000e-008,-9.62499580e-005
,,,-2.90000000e-008,-6.24999564e-005
,,,-2.88000000e-008,1.46875473e-005
,,,-2.86000000e-008,1.00625051e-004
,,,-2.84000000e-008,1.51875054e-004
,,,-2.82000000e-008,1.62187554e-004
,,,-2.80000000e-008,1.10625052e-004
,,,-2.78000000e-008,2.03125475e-005
,,,-2.76000000e-008,-4.40624555e-005
,,,-2.74000000e-008,-1.12187459e-004
,,,-2.72000000e-008,-1.12499959e-004
,,,-2.70000000e-008,-6.37499565e-005
,,,-2.68000000e-008,3.37500482e-005
,,,-2.66000000e-008,1.28125053e-004
,,,-2.64000000e-008,1.81250055e-004
,,,-2.62000000e-008,1.47187554e-004
,,,-2.60000000e-008,8.81250508e-005
,,,-2.58000000e-008,-3.09374549e-005
,,,-2.56000000e-008,-8.90624577e-005
,,,-2.54000000e-008,-1.32812460e-004
,,,-2.52000000e-008,-7.90624572e-005
,,,-2.50000000e-008,1.12500471e-005
,,,-2.48000000e-008,7.96875504e-005
,,,-2.46000000e-008,1.40937553e-004
,,,-2.44000000e-008,1.38750053e-004
,,,-2.42000000e-008,9.06250509e-005
,,,-2.40000000e-008,2.71875479e-005
,,,-2.38000000e-008,-5.65624561e-005
,,,-2.36000000e-008,-8.18749573e-005
,,,-2.34000000e-008,-8.15624573e-005
,,,-2.32000000e-008,-2.65624547e-005
,,,-2.30000000e-008,5.03125490e-005
,,,-2.28000000e-008,9.59375511e-005
,,,-2.26000000e-008,1.07500052e-004
,,,-2.24000000e-008,8.62500507e-005
,,,-2.22000000e-008,3.53125482e-005
,,,-2.20000000e-008,2.62500478e-005
,,,-2.18000000e-008,-4.68745366e-006
,,,-2.16000000e-008,-2.24999545e-005
,,,-2.14000000e-008,-4.34374555e-005
,,,-2.12000000e-008,-4.93749558e-005
,,,-2.10000000e-008,4.37504677e-006
,,,-2.08000000e-008,7.96875504e-005
,,,-2.06000000e-008,1.38750053e-004
,,,-2.04000000e-008,1.42187553e-004
,,,-2.02000000e-008,8.00000504e-005
,,,-2.00000000e-008,2.37500477e-005
,,,-1.98000000e-008,-5.06249558e-005
,,,-1.96000000e-008,-5.34374560e-005
,,,-1.94000000e-008,-5.21874559e-005
,,,-1.92000000e-008,-9.37495388e-006
,,,-1.90000000e-008,5.12500490e-005
,,,-1.88000000e-008,9.90625513e-005
,,,-1.86000000e-008,1.31250053e-004
,,,-1.84000000e-008,1.26562553e-004
,,,-1.82000000e-008,5.34375491e-005
,,,-1.80000000e-008,-3.03124549e-005
,,,-1.78000000e-008,-9.28124578e-005
,,,-1.76000000e-008,-9.18749578e-005
,,,-1.74000000e-008,-3.03124549e-005
,,,-1.72000000e-008,4.93750489e-005
,,,-1.70000000e-008,1.26562553e-004
,,,-1.68000000e-008,1.40000053e-004
,,,-1.66000000e-008,1.03750051e-004
,,,-1.64000000e-008,4.84375489e-005
,,,-1.62000000e-008,-4.21874554e-005
,,,-1.60000000e-008,-8.53124575e-005
,,,-1.58000000e-008,-8.21874573e-005
,,,-1.56000000e-008,-3.21874550e-005
,,,-1.54000000e-008,6.31250496e-005
,,,-1.52000000e-008,1.15625052e-004
,,,-1.50000000e-008,1.04687552e-004
,,,-1.48000000e-008,8.18750505e-005
,,,-1.46000000e-008,-6.24995373e-006
,,,-1.44000000e-008,-3.78124552e-005
,,,-1.42000000e-008,-5.59374561e-005
,,,-1.40000000e-008,-2.40624546e-005
,,,-1.38000000e-008,4.37500486e-005
,,,-1.36000000e-008,7.93750503e-005
,,,-1.34000000e-008,8.53125506e-005
,,,-1.32000000e-008,6.18750495e-005
,,,-1.30000000e-008,1.37500472e-005
,,,-1.28000000e-008,-1.71874543e-005
,,,-1.26000000e-008,-2.24999545e-005
,,,-1.24000000e-008,1.62500473e-005
,,,-1.22000000e-008,4.03125485e-005
,,,-1.20000000e-008,4.53125487e-005
,,,-1.18000000e-008,5.71875493e-005
,,,-1.16000000e-008,1.40625472e-005
,,,-1.14000000e-008,5.00004680e-006
,,,-1.12000000e-008,2.15625476e-005
,,,-1.10000000e-008,2.06250475e-005
,,,-1.08000000e-008,4.25000486e-005
,,,-1.06000000e-008,2.78125479e-005
,,,-1.04000000e-008,5.46875492e-005
,,,-1.02000000e-008,4.43750487e-005
,,,-1.00000000e-008,3.06250480e-005
,,,-9.80000000e-009,1.96875475e-005
,,,-9.60000000e-009,-1.84374543e-005
,,,-9.40000000e-009,-1.18749540e-005
,,,-9.20000000e-009,2.43750477e-005
,,,-9.00000000e-009,3.25000481e-005
,,,-8.80000000e-009,5.93750494e-005
,,,-8.60000000e-009,2.21875476e-005
,,,-8.40000000e-009,-5.62495370e-006
,,,-8.20000000e-009,-2.49999546e-005
,,,-8.00000000e-009,-1.34374541e-005
,,,-7.80000000e-009,1.93750475e-005
,,,-7.60000000e-009,3.15625481e-005
,,,-7.40000000e-009,5.78125493e-005
,,,-7.20000000e-009,2.84375479e-005
,,,-7.00000000e-009,1.50000473e-005
,,,-6.80000000e-009,4.68754679e-006
,,,-6.60000000e-009,-1.43749541e-005
,,,-6.40000000e-009,-2.96874548e-005
,,,-6.20000000e-009,-1.28124540e-005
,,,-6.00000000e-009,4.37504677e-006
,,,-5.80000000e-009,5.25000491e-005
,,,-5.60000000e-009,7.09375499e-005
,,,-5.40000000e-009,5.84375493e-005
,,,-5.20000000e-009,-6.24995373e-006
,,,-5.00000000e-009,-8.31249574e-005
,,,-4.80000000e-009,-8.46874575e-005
,,,-4.60000000e-009,-6.21874564e-005
,,,-4.40000000e-009,-3.12453449e-007
,,,-4.20000000e-009,6.59375497e-005
,,,-4.00000000e-009,7.84375503e-005
,,,-3.80000000e-009,6.96875499e-005
,,,-3.60000000e-009,5.62504683e-006
,,,-3.40000000e-009,-4.43749555e-005
,,,-3.20000000e-009,-6.56249566e-005
,,,-3.00000000e-009,-6.21874564e-005
,,,-2.80000000e-009,-3.34374550e-005
,,,-2.60000000e-009,-4.37495364e-006
,,,-2.40000000e-009,4.12500485e-005
,,,-2.20000000e-009,7.50000501e-005
,,,-2.00000000e-009,6.56250497e-005
,,,-1.80000000e-009,4.78125488e-005
,,,-1.60000000e-009,1.81250474e-005
,,,-1.40000000e-009,-2.28124545e-005
,,,-1.20000000e-009,-3.09374549e-005
,,,-1.00000000e-009,-4.24999555e-005
,,,-8.00000000e-010,-1.21874540e-005
,,,-6.00000000e-010,7.81254694e-006
,,,-4.00000000e-010,3.31250481e-005
,,,-2.00000000e-010,5.90625494e-005
,,,0.00000000e+000,5.96875494e-005
,,,2.00000000e-010,3.75000483e-005
,,,4.00000000e-010,5.93754685e-006
,,,6.00000000e-010,-2.18749545e-005
,,,8.00000000e-010,-4.49999556e-005
,,,1.00000000e-009,-4.15624554e-005
,,,1.20000000e-009,-2.56249547e-005
,,,1.40000000e-009,-2.49995355e-006
,,,1.60000000e-009,4.81250489e-005
,,,1.80000000e-009,7.43750501e-005
,,,2.00000000e-009,7.96875504e-005
,,,2.20000000e-009,4.84375489e-005
,,,2.40000000e-009,1.78125474e-005
,,,2.60000000e-009,-1.46874541e-005
,,,2.80000000e-009,-3.96874553e-005
,,,3.00000000e-009,-4.18749554e-005
,,,3.20000000e-009,-3.28124550e-005
,,,3.40000000e-009,-1.87495352e-006
,,,3.60000000e-009,6.15625495e-005
,,,3.80000000e-009,8.46875506e-005
,,,4.00000000e-009,1.27812553e-004
,,,4.20000000e-009,7.53125501e-005
,,,4.40000000e-009,1.31250472e-005
,,,4.60000000e-009,-5.15624559e-005
,,,4.80000000e-009,-6.59374566e-005
,,,5.00000000e-009,-4.09374554e-005
,,,5.20000000e-009,1.53125473e-005
,,,5.40000000e-009,5.06250490e-005
,,,5.60000000e-009,7.65625502e-005
,,,5.80000000e-009,6.87500498e-005
,,,6.00000000e-009,7.53125501e-005
,,,6.20000000e-009,4.18750486e-005
,,,6.40000000e-009,-7.49995379e-006
,,,6.60000000e-009,-2.81249548e-005
,,,6.80000000e-009,-5.37499560e-005
,,,7.00000000e-009,-3.99999553e-005
,,,7.20000000e-009,1.62500473e-005
,,,7.40000000e-009,7.18750500e-005
,,,7.60000000e-009,1.13125052e-004
,,,7.80000000e-009,1.13750052e-004
,,,8.00000000e-009,8.71875507e-005
,,,8.20000000e-009,6.62500497e-005
