Data/20220819/UCLA_to_R2A_VPOL_E_NEG90_01_Ch2.csv

"Record Length",5000,"Points",-1.00800000e-007,-3.50312470e-004
"Sample Interval",2.00000000e-010,s,-1.00600000e-007,-2.79374967e-004
"Trigger Point",504,"Samples",-1.00400000e-007,-1.81562462e-004
"Trigger Time",0.00000000e+000,s,-1.00200000e-007,-9.59374580e-005
"",,,-1.00000000e-007,-3.43745360e-006
"Horizontal Offset",-1.00800000e-007,s,-9.98000000e-008,4.37504677e-006
,,,-9.96000000e-008,-1.02499958e-004
,,,-9.94000000e-008,-2.90312467e-004
,,,-9.92000000e-008,-4.15937473e-004
,,,-9.90000000e-008,-3.84374972e-004
,,,-9.88000000e-008,-3.12187468e-004
,,,-9.86000000e-008,-1.67812461e-004
,,,-9.84000000e-008,3.43754673e-006
,,,-9.82000000e-008,3.28125481e-005
,,,-9.80000000e-008,5.50000492e-005
,,,-9.78000000e-008,-1.11249959e-004
,,,-9.76000000e-008,-3.33124969e-004
,,,-9.74000000e-008,-3.55937470e-004
,,,-9.72000000e-008,-3.32812469e-004
,,,-9.70000000e-008,-2.56874966e-004
,,,-9.68000000e-008,-9.81249581e-005
,,,-9.66000000e-008,-4.24999555e-005
,,,-9.64000000e-008,-4.06249554e-005
,,,-9.62000000e-008,-1.16249959e-004
,,,-9.60000000e-008,-2.37499965e-004
,,,-9.58000000e-008,-2.28437464e-004
,,,-9.56000000e-008,-1.82187462e-004
,,,-9.54000000e-008,-2.23124964e-004
,,,-9.52000000e-008,-1.45624960e-004
,,,-9.50000000e-008,-2.12499964e-004
,,,-9.48000000e-008,-2.17812464e-004
,,,-9.46000000e-008,-2.02187463e-004
,,,-9.44000000e-008,-2.05624963e-004
,,,-9.42000000e-008,-1.04687458e-004
,,,-9.40000000e-008,-2.93749548e-005
,,,-9.38000000e-008,-1.71874543e-005
,,,-9.36000000e-008,-7.65624571e-005
,,,-9.34000000e-008,-2.07499963e-004
,,,-9.32000000e-008,-2.79999967e-004
,,,-9.30000000e-008,-3.60937471e-004
,,,-9.28000000e-008,-3.50624970e-004
,,,-9.26000000e-008,-1.80937462e-004
,,,-9.24000000e-008,-3.93749553e-005
,,,-9.22000000e-008,3.37500482e-005
,,,-9.20000000e-008,8.84375508e-005
,,,-9.18000000e-008,-2.96874548e-005
,,,-9.16000000e-008,-2.20312464e-004
,,,-9.14000000e-008,-3.85624972e-004
,,,-9.12000000e-008,-4.55937475e-004
,,,-9.10000000e-008,-3.94062472e-004
,,,-9.08000000e-008,-2.45937465e-004
,,,-9.06000000e-008,-6.34374564e-005
,,,-9.04000000e-008,8.28125505e-005
,,,-9.02000000e-008,1.16875052e-004
,,,-9.00000000e-008,1.25000472e-005
,,,-8.98000000e-008,-1.86249962e-004
,,,-8.96000000e-008,-3.87812472e-004
,,,-8.94000000e-008,-4.12812473e-004
,,,-8.92000000e-008,-4.06874973e-004
,,,-8.90000000e-008,-2.91249967e-004
,,,-8.88000000e-008,-7.93749572e-005
,,,-8.86000000e-008,3.28125481e-005
,,,-8.84000000e-008,9.56250511e-005
,,,-8.82000000e-008,-7.49995379e-006
,,,-8.80000000e-008,-1.71249962e-004
,,,-8.78000000e-008,-2.71562466e-004
,,,-8.76000000e-008,-3.61249971e-004
,,,-8.74000000e-008,-3.82187472e-004
,,,-8.72000000e-008,-2.89999967e-004
,,,-8.70000000e-008,-2.02812463e-004
,,,-8.68000000e-008,-6.40624565e-005
,,,-8.66000000e-008,2.68750478e-005
,,,-8.64000000e-008,1.15625471e-005
,,,-8.62000000e-008,9.37546611e-007
,,,-8.60000000e-008,-1.04062458e-004
,,,-8.58000000e-008,-2.53124965e-004
,,,-8.56000000e-008,-3.67187471e-004
,,,-8.54000000e-008,-3.91562472e-004
,,,-8.52000000e-008,-2.96874968e-004
,,,-8.50000000e-008,-2.00937463e-004
,,,-8.48000000e-008,-3.49999551e-005
,,,-8.46000000e-008,8.09375504e-005
,,,-8.44000000e-008,1.96875475e-005
,,,-8.42000000e-008,-5.62499561e-005
,,,-8.40000000e-008,-2.28749964e-004
,,,-8.38000000e-008,-3.77812471e-004
,,,-8.36000000e-008,-3.79687471e-004
,,,-8.34000000e-008,-3.52187470e-004
,,,-8.32000000e-008,-2.00312463e-004
,,,-8.30000000e-008,-6.37499565e-005
,,,-8.28000000e-008,-3.31249550e-005
,,,-8.26000000e-008,1.90625475e-005
,,,-8.24000000e-008,-1.12187459e-004
,,,-8.22000000e-008,-2.06249963e-004
,,,-8.20000000e-008,-2.74687466e-004
,,,-8.18000000e-008,-3.30312469e-004
,,,-8.16000000e-008,-2.79374967e-004
,,,-8.14000000e-008,-1.93749963e-004
,,,-8.12000000e-008,-1.84687462e-004
,,,-8.10000000e-008,-1.43124960e-004
,,,-8.08000000e-008,-1.15937459e-004
,,,-8.06000000e-008,-1.40312460e-004
,,,-8.04000000e-008,-1.44687460e-004
,,,-8.02000000e-008,-1.66562461e-004
,,,-8.00000000e-008,-1.78124962e-004
,,,-7.98000000e-008,-1.86874962e-004
,,,-7.96000000e-008,-2.35937465e-004
,,,-7.94000000e-008,-2.49374965e-004
,,,-7.92000000e-008,-2.34374965e-004
,,,-7.90000000e-008,-1.90312462e-004
,,,-7.88000000e-008,-1.38124960e-004
,,,-7.86000000e-008,-1.19374959e-004
,,,-7.84000000e-008,-3.21874550e-005
,,,-7.82000000e-008,-5.62499561e-005
,,,-7.80000000e-008,-1.32812460e-004
,,,-7.78000000e-008,-2.66874966e-004
,,,-7.76000000e-008,-3.49062470e-004
,,,-7.74000000e-008,-3.82187472e-004
,,,-7.72000000e-008,-2.85624967e-004
,,,-7.70000000e-008,-1.38749960e-004
,,,-7.68000000e-008,1.96875475e-005
,,,-7.66000000e-008,1.12500052e-004
,,,-7.64000000e-008,3.84375484e-005
,,,-7.62000000e-008,-1.50312461e-004
,,,-7.60000000e-008,-3.40624970e-004
,,,-7.58000000e-008,-4.09999973e-004
,,,-7.56000000e-008,-3.89062472e-004
,,,-7.54000000e-008,-2.16249964e-004
,,,-7.52000000e-008,-3.90624553e-005
,,,-7.50000000e-008,1.90625475e-005
,,,-7.48000000e-008,2.78125479e-005
,,,-7.46000000e-008,-5.40624560e-005
,,,-7.44000000e-008,-2.50624965e-004
,,,-7.42000000e-008,-3.53124970e-004
,,,-7.40000000e-008,-3.38749970e-004
,,,-7.38000000e-008,-2.97499968e-004
,,,-7.36000000e-008,-1.09374959e-004
,,,-7.34000000e-008,-7.40624570e-005
,,,-7.32000000e-008,-8.59374575e-005
,,,-7.30000000e-008,-9.40624579e-005
,,,-7.28000000e-008,-2.23124964e-004
,,,-7.26000000e-008,-2.64687466e-004
,,,-7.24000000e-008,-2.46874965e-004
,,,-7.22000000e-008,-2.00312463e-004
,,,-7.20000000e-008,-7.34374569e-005
,,,-7.18000000e-008,-8.34374574e-005
,,,-7.16000000e-008,-1.33437460e-004
,,,-7.14000000e-008,-1.69687461e-004
,,,-7.12000000e-008,-2.53749965e-004
,,,-7.10000000e-008,-2.74374966e-004
,,,-7.08000000e-008,-3.02499968e-004
,,,-7.06000000e-008,-2.09062463e-004
,,,-7.04000000e-008,-9.62499580e-005
,,,-7.02000000e-008,-5.49999560e-005
,,,-7.00000000e-008,-4.90624558e-005
,,,-6.98000000e-008,-1.18437459e-004
,,,-6.96000000e-008,-2.53437465e-004
,,,-6.94000000e-008,-2.97187468e-004
,,,-6.92000000e-008,-3.36562469e-004
,,,-6.90000000e-008,-2.66249966e-004
,,,-6.88000000e-008,-1.00312458e-004
,,,-6.86000000e-008,-4.34374555e-005
,,,-6.84000000e-008,-5.53124561e-005
,,,-6.82000000e-008,-1.08124959e-004
,,,-6.80000000e-008,-2.40624965e-004
,,,-6.78000000e-008,-2.76562467e-004
,,,-6.76000000e-008,-2.86562467e-004
,,,-6.74000000e-008,-2.14687464e-004
,,,-6.72000000e-008,-1.36562460e-004
,,,-6.70000000e-008,-1.06249958e-004
,,,-6.68000000e-008,-7.18749568e-005
,,,-6.66000000e-008,-1.64062461e-004
,,,-6.64000000e-008,-1.89374962e-004
,,,-6.62000000e-008,-2.02812463e-004
,,,-6.60000000e-008,-1.86562462e-004
,,,-6.58000000e-008,-1.46562460e-004
,,,-6.56000000e-008,-1.35937460e-004
,,,-6.54000000e-008,-1.81249962e-004
,,,-6.52000000e-008,-2.09687463e-004
,,,-6.50000000e-008,-2.02812463e-004
,,,-6.48000000e-008,-2.02499963e-004
,,,-6.46000000e-008,-1.57812461e-004
,,,-6.44000000e-008,-1.17499959e-004
,,,-6.42000000e-008,-6.56249566e-005
,,,-6.40000000e-008,-4.90624558e-005
,,,-6.38000000e-008,-1.99687463e-004
,,,-6.36000000e-008,-2.88437467e-004
,,,-6.34000000e-008,-2.83437467e-004
,,,-6.32000000e-008,-3.18124969e-004
,,,-6.30000000e-008,-2.32812464e-004
,,,-6.28000000e-008,-1.00312458e-004
,,,-6.26000000e-008,-4.65624556e-005
,,,-6.24000000e-008,1.50000473e-005
,,,-6.22000000e-008,-6.37499565e-005
,,,-6.20000000e-008,-2.32812464e-004
,,,-6.18000000e-008,-2.61249966e-004
,,,-6.16000000e-008,-2.94999967e-004
,,,-6.14000000e-008,-3.16874968e-004
,,,-6.12000000e-008,-2.20624964e-004
,,,-6.10000000e-008,-1.48437460e-004
,,,-6.08000000e-008,-7.15624568e-005
,,,-6.06000000e-008,-1.06562458e-004
,,,-6.04000000e-008,-9.46874579e-005
,,,-6.02000000e-008,-1.74062462e-004
,,,-6.00000000e-008,-2.22187464e-004
,,,-5.98000000e-008,-1.98749963e-004
,,,-5.96000000e-008,-2.62499966e-004
,,,-5.94000000e-008,-2.09999963e-004
,,,-5.92000000e-008,-1.88749962e-004
,,,-5.90000000e-008,-2.24062464e-004
,,,-5.88000000e-008,-1.97499963e-004
,,,-5.86000000e-008,-1.56249961e-004
,,,-5.84000000e-008,-1.01874958e-004
,,,-5.82000000e-008,-4.74999557e-005
,,,-5.80000000e-008,-4.34374555e-005
,,,-5.78000000e-008,-1.23749959e-004
,,,-5.76000000e-008,-2.05937463e-004
,,,-5.74000000e-008,-3.25624969e-004
,,,-5.72000000e-008,-3.71562471e-004
,,,-5.70000000e-008,-2.90312467e-004
,,,-5.68000000e-008,-1.78437462e-004
,,,-5.66000000e-008,-2.53124546e-005
,,,-5.64000000e-008,6.81250498e-005
,,,-5.62000000e-008,6.84375498e-005
,,,-5.60000000e-008,-6.74999566e-005
,,,-5.58000000e-008,-2.70312466e-004
,,,-5.56000000e-008,-3.94687472e-004
,,,-5.54000000e-008,-4.69374976e-004
,,,-5.52000000e-008,-3.66874971e-004
,,,-5.50000000e-008,-1.12812459e-004
,,,-5.48000000e-008,4.03125485e-005
,,,-5.46000000e-008,1.22812552e-004
,,,-5.44000000e-008,8.96875508e-005
,,,-5.42000000e-008,-1.45624960e-004
,,,-5.40000000e-008,-3.29062469e-004
,,,-5.38000000e-008,-4.14999973e-004
,,,-5.36000000e-008,-4.65937476e-004
,,,-5.34000000e-008,-3.60312471e-004
,,,-5.32000000e-008,-8.15624573e-005
,,,-5.30000000e-008,2.37500477e-005
,,,-5.28000000e-008,5.68750493e-005
,,,-5.26000000e-008,-1.93749544e-005
,,,-5.24000000e-008,-2.03437463e-004
,,,-5.22000000e-008,-2.94999967e-004
,,,-5.20000000e-008,-3.17812469e-004
,,,-5.18000000e-008,-3.21874969e-004
,,,-5.16000000e-008,-2.45937465e-004
,,,-5.14000000e-008,-1.48437460e-004
,,,-5.12000000e-008,-1.34062460e-004
,,,-5.10000000e-008,-1.24374959e-004
,,,-5.08000000e-008,-1.25312459e-004
,,,-5.06000000e-008,-1.44687460e-004
,,,-5.04000000e-008,-1.35937460e-004
,,,-5.02000000e-008,-1.73749962e-004
,,,-5.00000000e-008,-1.80937462e-004
,,,-4.98000000e-008,-2.57187466e-004
,,,-4.96000000e-008,-2.86562467e-004
,,,-4.94000000e-008,-2.85624967e-004
,,,-4.92000000e-008,-2.51249965e-004
,,,-4.90000000e-008,-1.43124960e-004
,,,-4.88000000e-008,-8.71874576e-005
,,,-4.86000000e-008,-6.03124563e-005
,,,-4.84000000e-008,6.25004686e-006
,,,-4.82000000e-008,-1.27187459e-004
,,,-4.80000000e-008,-2.28437464e-004
,,,-4.78000000e-008,-2.84999967e-004
,,,-4.76000000e-008,-3.43749970e-004
,,,-4.74000000e-008,-2.72812466e-004
,,,-4.72000000e-008,-1.53437461e-004
,,,-4.70000000e-008,-7.99999572e-005
,,,-4.68000000e-008,-8.74995385e-006
,,,-4.66000000e-008,8.43754697e-006
,,,-4.64000000e-008,-1.03124958e-004
,,,-4.62000000e-008,-2.57499966e-004
,,,-4.60000000e-008,-3.04687468e-004
,,,-4.58000000e-008,-3.69374971e-004
,,,-4.56000000e-008,-3.27187469e-004
,,,-4.54000000e-008,-1.62187461e-004
,,,-4.52000000e-008,-4.87499557e-005
,,,-4.50000000e-008,-7.81245380e-006
,,,-4.48000000e-008,-1.46874541e-005
,,,-4.46000000e-008,-1.63437461e-004
,,,-4.44000000e-008,-2.29999964e-004
,,,-4.42000000e-008,-2.74374966e-004
,,,-4.40000000e-008,-2.88437467e-004
,,,-4.38000000e-008,-2.44374965e-004
,,,-4.36000000e-008,-1.73437462e-004
,,,-4.34000000e-008,-1.35937460e-004
,,,-4.32000000e-008,-1.37499960e-004
,,,-4.30000000e-008,-1.84687462e-004
,,,-4.28000000e-008,-1.89374962e-004
,,,-4.26000000e-008,-1.27187459e-004
,,,-4.24000000e-008,-1.31249960e-004
,,,-4.22000000e-008,-1.56562461e-004
,,,-4.20000000e-008,-1.97499963e-004
,,,-4.18000000e-008,-2.70312466e-004
,,,-4.16000000e-008,-3.06874968e-004
,,,-4.14000000e-008,-2.69999966e-004
,,,-4.12000000e-008,-2.00312463e-004
,,,-4.10000000e-008,-9.56249580e-005
,,,-4.08000000e-008,-1.81249543e-005
,,,-4.06000000e-008,-4.09374554e-005
,,,-4.04000000e-008,-1.36562460e-004
,,,-4.02000000e-008,-2.84374967e-004
,,,-4.00000000e-008,-3.54062470e-004
,,,-3.98000000e-008,-3.46874970e-004
,,,-3.96000000e-008,-2.48749965e-004
,,,-3.94000000e-008,-1.28437460e-004
,,,-3.92000000e-008,-2.21874545e-005
,,,-3.90000000e-008,1.03125471e-005
,,,-3.88000000e-008,-2.24999545e-005
,,,-3.86000000e-008,-1.88437462e-004
,,,-3.84000000e-008,-3.76874971e-004
,,,-3.82000000e-008,-3.73124971e-004
,,,-3.80000000e-008,-2.75937467e-004
,,,-3.78000000e-008,-2.35624965e-004
,,,-3.76000000e-008,-7.90624572e-005
,,,-3.74000000e-008,1.25004663e-006
,,,-3.72000000e-008,-1.81249543e-005
,,,-3.70000000e-008,-6.56249566e-005
,,,-3.68000000e-008,-2.09687463e-004
,,,-3.66000000e-008,-3.29687469e-004
,,,-3.64000000e-008,-2.81249967e-004
,,,-3.62000000e-008,-2.23749964e-004
,,,-3.60000000e-008,-1.29687460e-004
,,,-3.58000000e-008,-5.40624560e-005
,,,-3.56000000e-008,-2.81249548e-005
,,,-3.54000000e-008,-9.90624581e-005
,,,-3.52000000e-008,-2.32187464e-004
,,,-3.50000000e-008,-2.95624967e-004
,,,-3.48000000e-008,-2.72499966e-004
,,,-3.46000000e-008,-2.25624964e-004
,,,-3.44000000e-008,-9.93749582e-005
,,,-3.42000000e-008,-6.56249566e-005
,,,-3.40000000e-008,-7.15624568e-005
,,,-3.38000000e-008,-1.36562460e-004
,,,-3.36000000e-008,-2.24062464e-004
,,,-3.34000000e-008,-2.66874966e-004
,,,-3.32000000e-008,-2.62499966e-004
,,,-3.30000000e-008,-1.73124962e-004
,,,-3.28000000e-008,-8.46874575e-005
,,,-3.26000000e-008,-1.38124960e-004
,,,-3.24000000e-008,-1.27499959e-004
,,,-3.22000000e-008,-1.99062463e-004
,,,-3.20000000e-008,-2.65937466e-004
,,,-3.18000000e-008,-2.38124965e-004
,,,-3.16000000e-008,-1.87187462e-004
,,,-3.14000000e-008,-9.09374578e-005
,,,-3.12000000e-008,-5.65624561e-005
,,,-3.10000000e-008,-9.18749578e-005
,,,-3.08000000e-008,-2.13749964e-004
,,,-3.06000000e-008,-3.27812469e-004
,,,-3.04000000e-008,-3.42187470e-004
,,,-3.02000000e-008,-2.75937467e-004
,,,-3.00000000e-008,-1.42812460e-004
,,,-2.98000000e-008,-2.53124546e-005
,,,-2.96000000e-008,4.40625487e-005
,,,-2.94000000e-008,-5.43749560e-005
,,,-2.92000000e-008,-1.95312463e-004
,,,-2.90000000e-008,-3.23124969e-004
,,,-2.88000000e-008,-4.12187473e-004
,,,-2.86000000e-008,-3.18437469e-004
,,,-2.84000000e-008,-1.97187463e-004
,,,-2.82000000e-008,-4.21874554e-005
,,,-2.80000000e-008,4.68750488e-005
,,,-2.78000000e-008,1.50000473e-005
,,,-2.76000000e-008,-6.24999564e-005
,,,-2.74000000e-008,-2.50937465e-004
,,,-2.72000000e-008,-3.88437472e-004
,,,-2.70000000e-008,-3.58749970e-004
,,,-2.68000000e-008,-3.03124968e-004
,,,-2.66000000e-008,-1.24999959e-004
,,,-2.64000000e-008,3.84375484e-005
,,,-2.62000000e-008,6.31250496e-005
,,,-2.60000000e-008,-1.06249539e-005
,,,-2.58000000e-008,-1.25937459e-004
,,,-2.56000000e-008,-3.04062468e-004
,,,-2.54000000e-008,-3.95312472e-004
,,,-2.52000000e-008,-3.31249969e-004
,,,-2.50000000e-008,-2.39374965e-004
,,,-2.48000000e-008,-1.38437460e-004
,,,-2.46000000e-008,-2.71874547e-005
,,,-2.44000000e-008,-1.74999543e-005
,,,-2.42000000e-008,-7.03124568e-005
,,,-2.40000000e-008,-1.29687460e-004
,,,-2.38000000e-008,-1.92499963e-004
,,,-2.36000000e-008,-2.36249965e-004
,,,-2.34000000e-008,-2.19687464e-004
,,,-2.32000000e-008,-2.10624963e-004
,,,-2.30000000e-008,-2.18124964e-004
,,,-2.28000000e-008,-2.00624963e-004
,,,-2.26000000e-008,-1.86562462e-004
,,,-2.24000000e-008,-1.41874960e-004
,,,-2.22000000e-008,-6.24999564e-005
,,,-2.20000000e-008,-4.90624558e-005
,,,-2.18000000e-008,-6.24995373e-006
,,,-2.16000000e-008,-1.01874958e-004
,,,-2.14000000e-008,-3.06249968e-004
,,,-2.12000000e-008,-3.80937472e-004
,,,-2.10000000e-008,-4.35312474e-004
,,,-2.08000000e-008,-3.26249969e-004
,,,-2.06000000e-008,-6.81249567e-005
,,,-2.04000000e-008,7.65625502e-005
,,,-2.02000000e-008,1.37500053e-004
,,,-2.00000000e-008,6.93750499e-005
,,,-1.98000000e-008,-1.75937462e-004
,,,-1.96000000e-008,-3.64374971e-004
,,,-1.94000000e-008,-5.32812479e-004
,,,-1.92000000e-008,-5.01249977e-004
,,,-1.90000000e-008,-2.83749967e-004
,,,-1.88000000e-008,-5.06249558e-005
,,,-1.86000000e-008,1.18125052e-004
,,,-1.84000000e-008,1.68125055e-004
,,,-1.82000000e-008,7.18750500e-005
,,,-1.80000000e-008,-1.24374959e-004
,,,-1.78000000e-008,-3.51874970e-004
,,,-1.76000000e-008,-4.81249976e-004
,,,-1.74000000e-008,-4.16562473e-004
,,,-1.72000000e-008,-2.63749966e-004
,,,-1.70000000e-008,-1.05937458e-004
,,,-1.68000000e-008,2.62500478e-005
,,,-1.66000000e-008,9.06250509e-005
,,,-1.64000000e-008,1.43750472e-005
,,,-1.62000000e-008,-1.02812458e-004
,,,-1.60000000e-008,-1.87499962e-004
,,,-1.58000000e-008,-3.68124971e-004
,,,-1.56000000e-008,-3.66874971e-004
,,,-1.54000000e-008,-2.79062467e-004
,,,-1.52000000e-008,-2.73749966e-004
,,,-1.50000000e-008,-1.20312459e-004
,,,-1.48000000e-008,-1.93749544e-005
,,,-1.46000000e-008,-3.74999552e-005
,,,-1.44000000e-008,-1.46874541e-005
,,,-1.42000000e-008,-7.18749568e-005
,,,-1.40000000e-008,-1.82187462e-004
,,,-1.38000000e-008,-2.08437463e-004
,,,-1.36000000e-008,-3.53437470e-004
,,,-1.34000000e-008,-4.15312473e-004
,,,-1.32000000e-008,-3.25937469e-004
,,,-1.30000000e-008,-2.27187464e-004
,,,-1.28000000e-008,-4.15624554e-005
,,,-1.26000000e-008,1.12187552e-004
,,,-1.24000000e-008,1.28437553e-004
,,,-1.22000000e-008,2.06250475e-005
,,,-1.20000000e-008,-2.21249964e-004
,,,-1.18000000e-008,-4.51562475e-004
,,,-1.16000000e-008,-5.62812480e-004
,,,-1.14000000e-008,-4.92187477e-004
,,,-1.12000000e-008,-2.38437465e-004
,,,-1.10000000e-008,3.68750483e-005
,,,-1.08000000e-008,2.44062558e-004
,,,-1.06000000e-008,2.82500060e-004
,,,-1.04000000e-008,5.09375490e-005
,,,-1.02000000e-008,-2.39374965e-004
,,,-1.00000000e-008,-4.97187477e-004
,,,-9.80000000e-009,-6.43124984e-004
,,,-9.60000000e-009,-5.55624980e-004
,,,-9.40000000e-009,-2.79062467e-004
,,,-9.20000000e-009,2.56250478e-005
,,,-9.00000000e-009,2.06250056e-004
,,,-8.80000000e-009,2.08125056e-004
,,,-8.60000000e-009,5.43750491e-005
,,,-8.40000000e-009,-1.82187462e-004
,,,-8.20000000e-009,-3.91249972e-004
,,,-8.00000000e-009,-5.03124977e-004
,,,-7.80000000e-009,-4.57187475e-004
,,,-7.60000000e-009,-2.68437466e-004
,,,-7.40000000e-009,-8.09374573e-005
,,,-7.20000000e-009,5.56250492e-005
,,,-7.00000000e-009,7.81250503e-005
,,,-6.80000000e-009,-1.24995349e-006
,,,-6.60000000e-009,-1.53437461e-004
,,,-6.40000000e-009,-2.28124964e-004
,,,-6.20000000e-009,-3.41562470e-004
,,,-6.00000000e-009,-3.34999969e-004
,,,-5.80000000e-009,-2.77812467e-004
,,,-5.60000000e-009,-2.47499965e-004
,,,-5.40000000e-009,-1.13749959e-004
,,,-5.20000000e-009,-8.06249573e-005
,,,-5.00000000e-009,-1.01874958e-004
,,,-4.80000000e-009,-1.96874544e-005
,,,-4.60000000e-009,-6.46874565e-005
,,,-4.40000000e-009,-1.35937460e-004
,,,-4.20000000e-009,-2.11874963e-004
,,,-4.00000000e-009,-3.72187471e-004
,,,-3.80000000e-009,-4.06874973e-004
,,,-3.60000000e-009,-3.59374971e-004
,,,-3.40000000e-009,-2.39999965e-004
,,,-3.20000000e-009,-4.78124557e-005
,,,-3.00000000e-009,9.53125511e-005
,,,-2.80000000e-009,1.14375052e-004
,,,-2.60000000e-009,1.00000470e-005
,,,-2.40000000e-009,-2.63749966e-004
,,,-2.20000000e-009,-4.41249974e-004
,,,-2.00000000e-009,-5.64062480e-004
,,,-1.80000000e-009,-5.05624977e-004
,,,-1.60000000e-009,-2.68749966e-004
,,,-1.40000000e-009,-3.81249552e-005
,,,-1.20000000e-009,1.76875055e-004
,,,-1.00000000e-009,2.25000057e-004
,,,-8.00000000e-010,-1.62499542e-005
,,,-6.00000000e-010,-2.35937465e-004
,,,-4.00000000e-010,-4.84999976e-004
,,,-2.00000000e-010,-6.07187482e-004
,,,0.00000000e+000,-4.90624977e-004
,,,2.00000000e-010,-2.89999967e-004
,,,4.00000000e-010,-2.34374545e-005
,,,6.00000000e-010,1.24375052e-004
,,,8.00000000e-010,1.06562552e-004
,,,1.00000000e-009,-3.28124550e-005
,,,1.20000000e-009,-2.63124966e-004
,,,1.40000000e-009,-4.18749973e-004
,,,1.60000000e-009,-4.46562475e-004
,,,1.80000000e-009,-3.64374971e-004
,,,2.00000000e-009,-2.28437464e-004
,,,2.20000000e-009,-1.14062459e-004
,,,2.40000000e-009,9.06254700e-006
,,,2.60000000e-009,2.43750477e-005
,,,2.80000000e-009,-8.31249574e-005
,,,3.00000000e-009,-1.42187460e-004
,,,3.20000000e-009,-2.25937464e-004
,,,3.40000000e-009,-3.05624968e-004
,,,3.60000000e-009,-2.71249966e-004
,,,3.80000000e-009,-2.89687467e-004
,,,4.00000000e-009,-2.50624965e-004
,,,4.20000000e-009,-1.47499960e-004
,,,4.40000000e-009,-1.09062459e-004
,,,4.60000000e-009,-7.24999569e-005
,,,4.80000000e-009,-3.74995361e-006
,,,5.00000000e-009,-2.31249545e-005
,,,5.20000000e-009,-1.06874959e-004
,,,5.40000000e-009,-2.29999964e-004
,,,5.60000000e-009,-3.31874969e-004
,,,5.80000000e-009,-3.74687471e-004
,,,6.00000000e-009,-3.18749969e-004
,,,6.20000000e-009,-2.04374963e-004
,,,6.40000000e-009,-2.81249548e-005
,,,6.60000000e-009,1.24062552e-004
,,,6.80000000e-009,1.26250053e-004
