Data/20220819/UCLA_to_R2B_VPOL_E_70_01_Ch2.csv

"Record Length",5000,"Points",-1.00800000e-007,-2.03124544e-005
"Sample Interval",2.00000000e-010,s,-1.00600000e-007,-1.47187460e-004
"Trigger Point",504,"Samples",-1.00400000e-007,-1.76562462e-004
"Trigger Time",0.00000000e+000,s,-1.00200000e-007,-1.51874961e-004
"",,,-1.00000000e-007,-3.28124550e-005
"Horizontal Offset",-1.00800000e-007,s,-9.98000000e-008,1.29375053e-004
,,,-9.96000000e-008,1.93437556e-004
,,,-9.94000000e-008,2.14062557e-004
,,,-9.92000000e-008,1.19687552e-004
,,,-9.90000000e-008,-2.56249547e-005
,,,-9.88000000e-008,-1.36874960e-004
,,,-9.86000000e-008,-2.06562463e-004
,,,-9.84000000e-008,-1.87187462e-004
,,,-9.82000000e-008,-8.28124574e-005
,,,-9.80000000e-008,7.21875500e-005
,,,-9.78000000e-008,1.94687556e-004
,,,-9.76000000e-008,2.21875057e-004
,,,-9.74000000e-008,1.65625054e-004
,,,-9.72000000e-008,2.31250477e-005
,,,-9.70000000e-008,-1.38749960e-004
,,,-9.68000000e-008,-1.95312463e-004
,,,-9.66000000e-008,-1.78437462e-004
,,,-9.64000000e-008,-7.40624570e-005
,,,-9.62000000e-008,4.75000488e-005
,,,-9.60000000e-008,1.65312554e-004
,,,-9.58000000e-008,2.00625056e-004
,,,-9.56000000e-008,1.35312553e-004
,,,-9.54000000e-008,5.50000492e-005
,,,-9.52000000e-008,-8.40624574e-005
,,,-9.50000000e-008,-1.46874960e-004
,,,-9.48000000e-008,-8.99999577e-005
,,,-9.46000000e-008,-1.65624542e-005
,,,-9.44000000e-008,7.15625500e-005
,,,-9.42000000e-008,1.04375052e-004
,,,-9.40000000e-008,7.06250499e-005
,,,-9.38000000e-008,5.56250492e-005
,,,-9.36000000e-008,3.75000483e-005
,,,-9.34000000e-008,-2.18745354e-006
,,,-9.32000000e-008,-1.18749540e-005
,,,-9.30000000e-008,-6.78124567e-005
,,,-9.28000000e-008,-6.34374564e-005
,,,-9.26000000e-008,-1.53124542e-005
,,,-9.24000000e-008,5.93750494e-005
,,,-9.22000000e-008,6.87500498e-005
,,,-9.20000000e-008,6.34375496e-005
,,,-9.18000000e-008,4.65661288e-011
,,,-9.16000000e-008,-3.96874553e-005
,,,-9.14000000e-008,-9.99995391e-006
,,,-9.12000000e-008,1.84375474e-005
,,,-9.10000000e-008,1.09375471e-005
,,,-9.08000000e-008,2.43750477e-005
,,,-9.06000000e-008,-3.74995361e-006
,,,-9.04000000e-008,1.90625475e-005
,,,-9.02000000e-008,2.37500477e-005
,,,-9.00000000e-008,-2.12499544e-005
,,,-8.98000000e-008,-1.53124542e-005
,,,-8.96000000e-008,-6.24953464e-007
,,,-8.94000000e-008,3.65625483e-005
,,,-8.92000000e-008,8.78125507e-005
,,,-8.90000000e-008,6.56250497e-005
,,,-8.88000000e-008,-1.56245351e-006
,,,-8.86000000e-008,-7.28124569e-005
,,,-8.84000000e-008,-1.20937459e-004
,,,-8.82000000e-008,-7.87499572e-005
,,,-8.80000000e-008,1.93750475e-005
,,,-8.78000000e-008,9.28125510e-005
,,,-8.76000000e-008,1.04062552e-004
,,,-8.74000000e-008,5.34375491e-005
,,,-8.72000000e-008,1.12500471e-005
,,,-8.70000000e-008,-3.96874553e-005
,,,-8.68000000e-008,-5.09374559e-005
,,,-8.66000000e-008,-2.71874547e-005
,,,-8.64000000e-008,-5.87499562e-005
,,,-8.62000000e-008,-1.74999543e-005
,,,-8.60000000e-008,4.25000486e-005
,,,-8.58000000e-008,8.46875506e-005
,,,-8.56000000e-008,8.53125506e-005
,,,-8.54000000e-008,5.40625491e-005
,,,-8.52000000e-008,1.93750475e-005
,,,-8.50000000e-008,-3.37499550e-005
,,,-8.48000000e-008,-3.53124551e-005
,,,-8.46000000e-008,-4.84374557e-005
,,,-8.44000000e-008,-5.49999560e-005
,,,-8.42000000e-008,5.93754685e-006
,,,-8.40000000e-008,3.59375483e-005
,,,-8.38000000e-008,5.59375492e-005
,,,-8.36000000e-008,7.71875502e-005
,,,-8.34000000e-008,1.37500472e-005
,,,-8.32000000e-008,-1.81249543e-005
,,,-8.30000000e-008,-1.56249542e-005
,,,-8.28000000e-008,-9.99995391e-006
,,,-8.26000000e-008,1.62500473e-005
,,,-8.24000000e-008,2.12500476e-005
,,,-8.22000000e-008,-2.96874548e-005
,,,-8.20000000e-008,-4.56249556e-005
,,,-8.18000000e-008,-2.81249548e-005
,,,-8.16000000e-008,4.81250489e-005
,,,-8.14000000e-008,9.37500510e-005
,,,-8.12000000e-008,8.78125507e-005
,,,-8.10000000e-008,7.68750502e-005
,,,-8.08000000e-008,3.21875481e-005
,,,-8.06000000e-008,-1.53124542e-005
,,,-8.04000000e-008,-9.09374578e-005
,,,-8.02000000e-008,-1.19687459e-004
,,,-8.00000000e-008,-9.21874578e-005
,,,-7.98000000e-008,-9.37495388e-006
,,,-7.96000000e-008,1.29375053e-004
,,,-7.94000000e-008,1.60000054e-004
,,,-7.92000000e-008,1.10312552e-004
,,,-7.90000000e-008,3.62500483e-005
,,,-7.88000000e-008,-7.43749570e-005
,,,-7.86000000e-008,-1.06874959e-004
,,,-7.84000000e-008,-8.03124572e-005
,,,-7.82000000e-008,-7.15624568e-005
,,,-7.80000000e-008,-1.03124539e-005
,,,-7.78000000e-008,2.71875479e-005
,,,-7.76000000e-008,8.65625507e-005
,,,-7.74000000e-008,1.31875053e-004
,,,-7.72000000e-008,1.60937554e-004
,,,-7.70000000e-008,6.81250498e-005
,,,-7.68000000e-008,-6.18749564e-005
,,,-7.66000000e-008,-1.32499960e-004
,,,-7.64000000e-008,-1.56249961e-004
,,,-7.62000000e-008,-6.90624567e-005
,,,-7.60000000e-008,5.93750494e-005
,,,-7.58000000e-008,1.14375052e-004
,,,-7.56000000e-008,1.07187552e-004
,,,-7.54000000e-008,1.01250051e-004
,,,-7.52000000e-008,3.96875485e-005
,,,-7.50000000e-008,5.62504683e-006
,,,-7.48000000e-008,-4.34374555e-005
,,,-7.46000000e-008,-1.20937459e-004
,,,-7.44000000e-008,-8.78124576e-005
,,,-7.42000000e-008,-5.03124558e-005
,,,-7.40000000e-008,1.93750475e-005
,,,-7.38000000e-008,7.34375501e-005
,,,-7.36000000e-008,8.21875505e-005
,,,-7.34000000e-008,4.46875487e-005
,,,-7.32000000e-008,4.15625485e-005
,,,-7.30000000e-008,3.93750484e-005
,,,-7.28000000e-008,4.37504677e-006
,,,-7.26000000e-008,-5.93749563e-005
,,,-7.24000000e-008,-1.03124958e-004
,,,-7.22000000e-008,-1.26562459e-004
,,,-7.20000000e-008,-6.31249564e-005
,,,-7.18000000e-008,7.59375502e-005
,,,-7.16000000e-008,1.45937553e-004
,,,-7.14000000e-008,1.73750055e-004
,,,-7.12000000e-008,1.14375052e-004
,,,-7.10000000e-008,2.31250477e-005
,,,-7.08000000e-008,-5.34374560e-005
,,,-7.06000000e-008,-1.12812459e-004
,,,-7.04000000e-008,-1.34999960e-004
,,,-7.02000000e-008,-9.84374581e-005
,,,-7.00000000e-008,-2.49995355e-006
,,,-6.98000000e-008,1.11250052e-004
,,,-6.96000000e-008,1.48125054e-004
,,,-6.94000000e-008,1.57500054e-004
,,,-6.92000000e-008,9.31250510e-005
,,,-6.90000000e-008,4.06254676e-006
,,,-6.88000000e-008,-8.93749577e-005
,,,-6.86000000e-008,-1.69062461e-004
,,,-6.84000000e-008,-1.79062462e-004
,,,-6.82000000e-008,-1.16562459e-004
,,,-6.80000000e-008,1.90625475e-005
,,,-6.78000000e-008,1.62187554e-004
,,,-6.76000000e-008,2.16875057e-004
,,,-6.74000000e-008,2.03437556e-004
,,,-6.72000000e-008,7.09375499e-005
,,,-6.70000000e-008,-1.00937458e-004
,,,-6.68000000e-008,-1.97812463e-004
,,,-6.66000000e-008,-1.90624962e-004
,,,-6.64000000e-008,-1.09374959e-004
,,,-6.62000000e-008,4.50000487e-005
,,,-6.60000000e-008,1.36562553e-004
,,,-6.58000000e-008,2.04062556e-004
,,,-6.56000000e-008,2.11562557e-004
,,,-6.54000000e-008,1.09687552e-004
,,,-6.52000000e-008,-2.78124548e-005
,,,-6.50000000e-008,-1.50624961e-004
,,,-6.48000000e-008,-1.99062463e-004
,,,-6.46000000e-008,-1.42499960e-004
,,,-6.44000000e-008,-2.31249545e-005
,,,-6.42000000e-008,7.25000500e-005
,,,-6.40000000e-008,1.38750053e-004
,,,-6.38000000e-008,1.49687554e-004
,,,-6.36000000e-008,1.04062552e-004
,,,-6.34000000e-008,6.53125497e-005
,,,-6.32000000e-008,3.43754673e-006
,,,-6.30000000e-008,-1.03749958e-004
,,,-6.28000000e-008,-1.61874961e-004
,,,-6.26000000e-008,-1.39374960e-004
,,,-6.24000000e-008,-4.71874557e-005
,,,-6.22000000e-008,8.56250506e-005
,,,-6.20000000e-008,1.82500055e-004
,,,-6.18000000e-008,1.47187554e-004
,,,-6.16000000e-008,7.40625501e-005
,,,-6.14000000e-008,1.28125472e-005
,,,-6.12000000e-008,-4.96874558e-005
,,,-6.10000000e-008,-6.71874566e-005
,,,-6.08000000e-008,-8.49999575e-005
,,,-6.06000000e-008,-8.24999574e-005
,,,-6.04000000e-008,-5.06249558e-005
,,,-6.02000000e-008,4.53125487e-005
,,,-6.00000000e-008,1.10937552e-004
,,,-5.98000000e-008,9.09375509e-005
,,,-5.96000000e-008,1.12500052e-004
,,,-5.94000000e-008,4.84375489e-005
,,,-5.92000000e-008,-1.09374540e-005
,,,-5.90000000e-008,-5.43749560e-005
,,,-5.88000000e-008,-9.99999582e-005
,,,-5.86000000e-008,-1.19999959e-004
,,,-5.84000000e-008,-7.71874571e-005
,,,-5.82000000e-008,1.06250471e-005
,,,-5.80000000e-008,9.31250510e-005
,,,-5.78000000e-008,1.58437554e-004
,,,-5.76000000e-008,1.33437553e-004
,,,-5.74000000e-008,5.28125491e-005
,,,-5.72000000e-008,-7.56249570e-005
,,,-5.70000000e-008,-1.04687458e-004
,,,-5.68000000e-008,-1.28124960e-004
,,,-5.66000000e-008,-6.03124563e-005
,,,-5.64000000e-008,2.03125475e-005
,,,-5.62000000e-008,6.40625496e-005
,,,-5.60000000e-008,1.25625053e-004
,,,-5.58000000e-008,1.13125052e-004
,,,-5.56000000e-008,5.62500492e-005
,,,-5.54000000e-008,7.18754691e-006
,,,-5.52000000e-008,-7.96874572e-005
,,,-5.50000000e-008,-9.84374581e-005
,,,-5.48000000e-008,-6.21874564e-005
,,,-5.46000000e-008,-1.53124542e-005
,,,-5.44000000e-008,6.43750496e-005
,,,-5.42000000e-008,8.34375505e-005
,,,-5.40000000e-008,1.11250052e-004
,,,-5.38000000e-008,8.21875505e-005
,,,-5.36000000e-008,1.81250474e-005
,,,-5.34000000e-008,-1.62499542e-005
,,,-5.32000000e-008,-8.65624575e-005
,,,-5.30000000e-008,-8.90624577e-005
,,,-5.28000000e-008,-8.12495382e-006
,,,-5.26000000e-008,5.00000489e-005
,,,-5.24000000e-008,1.10000052e-004
,,,-5.22000000e-008,6.37500496e-005
,,,-5.20000000e-008,1.06250471e-005
,,,-5.18000000e-008,3.12546581e-007
,,,-5.16000000e-008,-3.34374550e-005
,,,-5.14000000e-008,-1.24995349e-006
,,,-5.12000000e-008,-8.74995385e-006
,,,-5.10000000e-008,-1.03124539e-005
,,,-5.08000000e-008,-4.99995367e-006
,,,-5.06000000e-008,9.37546611e-007
,,,-5.04000000e-008,3.53125482e-005
,,,-5.02000000e-008,2.59375478e-005
,,,-5.00000000e-008,-1.68749542e-005
,,,-4.98000000e-008,9.68754703e-006
,,,-4.96000000e-008,2.53125478e-005
,,,-4.94000000e-008,6.21875495e-005
,,,-4.92000000e-008,5.68750493e-005
,,,-4.90000000e-008,-2.65624547e-005
,,,-4.88000000e-008,-6.15624564e-005
,,,-4.86000000e-008,-4.53124556e-005
,,,-4.84000000e-008,-9.99995391e-006
,,,-4.82000000e-008,3.84375484e-005
,,,-4.80000000e-008,7.12500500e-005
,,,-4.78000000e-008,4.84375489e-005
,,,-4.76000000e-008,1.56254664e-006
,,,-4.74000000e-008,1.37500472e-005
,,,-4.72000000e-008,-1.15624540e-005
,,,-4.70000000e-008,-4.99999558e-005
,,,-4.68000000e-008,-2.56249547e-005
,,,-4.66000000e-008,-5.06249558e-005
,,,-4.64000000e-008,-5.24999559e-005
,,,-4.62000000e-008,1.53125473e-005
,,,-4.60000000e-008,6.31250496e-005
,,,-4.58000000e-008,6.59375497e-005
,,,-4.56000000e-008,3.09375480e-005
,,,-4.54000000e-008,-3.74999552e-005
,,,-4.52000000e-008,-6.65624566e-005
,,,-4.50000000e-008,-6.71874566e-005
,,,-4.48000000e-008,-1.87499543e-005
,,,-4.46000000e-008,-5.93745372e-006
,,,-4.44000000e-008,-1.99999544e-005
,,,-4.42000000e-008,4.59375487e-005
,,,-4.40000000e-008,3.81250484e-005
,,,-4.38000000e-008,2.25000476e-005
,,,-4.36000000e-008,1.15625471e-005
,,,-4.34000000e-008,-3.12499549e-005
,,,-4.32000000e-008,-1.65624542e-005
,,,-4.30000000e-008,2.21875476e-005
,,,-4.28000000e-008,4.34375486e-005
,,,-4.26000000e-008,1.87500475e-005
,,,-4.24000000e-008,-4.53124556e-005
,,,-4.22000000e-008,-4.96874558e-005
,,,-4.20000000e-008,-5.74999562e-005
,,,-4.18000000e-008,1.56254664e-006
,,,-4.16000000e-008,6.00000494e-005
,,,-4.14000000e-008,7.96875504e-005
,,,-4.12000000e-008,8.84375508e-005
,,,-4.10000000e-008,3.21875481e-005
,,,-4.08000000e-008,-4.68745366e-006
,,,-4.06000000e-008,-5.56249561e-005
,,,-4.04000000e-008,-1.09999959e-004
,,,-4.02000000e-008,-8.65624575e-005
,,,-4.00000000e-008,-2.74999547e-005
,,,-3.98000000e-008,6.71875498e-005
,,,-3.96000000e-008,1.39062553e-004
,,,-3.94000000e-008,1.10000052e-004
,,,-3.92000000e-008,6.65625497e-005
,,,-3.90000000e-008,8.43754697e-006
,,,-3.88000000e-008,-7.15624568e-005
,,,-3.86000000e-008,-6.68749566e-005
,,,-3.84000000e-008,-6.74999566e-005
,,,-3.82000000e-008,-4.96874558e-005
,,,-3.80000000e-008,1.46875473e-005
,,,-3.78000000e-008,7.06250499e-005
,,,-3.76000000e-008,1.19687552e-004
,,,-3.74000000e-008,1.20000052e-004
,,,-3.72000000e-008,5.15625490e-005
,,,-3.70000000e-008,-5.53124561e-005
,,,-3.68000000e-008,-1.17187459e-004
,,,-3.66000000e-008,-8.46874575e-005
,,,-3.64000000e-008,-2.28124545e-005
,,,-3.62000000e-008,4.81250489e-005
,,,-3.60000000e-008,6.56250497e-005
,,,-3.58000000e-008,2.87500479e-005
,,,-3.56000000e-008,4.31250486e-005
,,,-3.54000000e-008,2.09375476e-005
,,,-3.52000000e-008,-6.56245375e-006
,,,-3.50000000e-008,-6.24995373e-006
,,,-3.48000000e-008,-5.31249560e-005
,,,-3.46000000e-008,-4.28124555e-005
,,,-3.44000000e-008,-6.56245375e-006
,,,-3.42000000e-008,2.40625477e-005
,,,-3.40000000e-008,2.28125476e-005
,,,-3.38000000e-008,-1.31249541e-005
,,,-3.36000000e-008,-3.56249551e-005
,,,-3.34000000e-008,1.25004663e-006
,,,-3.32000000e-008,6.37500496e-005
,,,-3.30000000e-008,7.06250499e-005
,,,-3.28000000e-008,2.21875476e-005
,,,-3.26000000e-008,-3.49999551e-005
,,,-3.24000000e-008,-6.68749566e-005
,,,-3.22000000e-008,-4.87499557e-005
,,,-3.20000000e-008,1.03125471e-005
,,,-3.18000000e-008,3.18750481e-005
,,,-3.16000000e-008,3.81250484e-005
,,,-3.14000000e-008,3.12500481e-005
,,,-3.12000000e-008,3.43750482e-005
,,,-3.10000000e-008,3.34375482e-005
,,,-3.08000000e-008,9.37546611e-007
,,,-3.06000000e-008,-5.06249558e-005
,,,-3.04000000e-008,-6.40624565e-005
,,,-3.02000000e-008,-7.46874570e-005
,,,-3.00000000e-008,-2.56249547e-005
,,,-2.98000000e-008,3.18750481e-005
,,,-2.96000000e-008,5.12500490e-005
,,,-2.94000000e-008,7.71875502e-005
,,,-2.92000000e-008,4.62500488e-005
,,,-2.90000000e-008,1.12500471e-005
,,,-2.88000000e-008,-1.59374542e-005
,,,-2.86000000e-008,-7.84374572e-005
,,,-2.84000000e-008,-8.24999574e-005
,,,-2.82000000e-008,-5.93749563e-005
,,,-2.80000000e-008,1.12500471e-005
,,,-2.78000000e-008,1.06250052e-004
,,,-2.76000000e-008,1.18437552e-004
,,,-2.74000000e-008,5.84375493e-005
,,,-2.72000000e-008,-1.87495352e-006
,,,-2.70000000e-008,-4.31249555e-005
,,,-2.68000000e-008,-6.56249566e-005
,,,-2.66000000e-008,-8.46874575e-005
,,,-2.64000000e-008,-4.81249557e-005
,,,-2.62000000e-008,-1.71874543e-005
,,,-2.60000000e-008,3.00000480e-005
,,,-2.58000000e-008,8.09375504e-005
,,,-2.56000000e-008,9.21875509e-005
,,,-2.54000000e-008,8.09375504e-005
,,,-2.52000000e-008,3.62500483e-005
,,,-2.50000000e-008,-5.81249562e-005
,,,-2.48000000e-008,-7.24999569e-005
,,,-2.46000000e-008,-6.90624567e-005
,,,-2.44000000e-008,-5.84374562e-005
,,,-2.42000000e-008,-2.40624546e-005
,,,-2.40000000e-008,1.18750471e-005
,,,-2.38000000e-008,1.00937551e-004
,,,-2.36000000e-008,1.35937553e-004
,,,-2.34000000e-008,1.20312552e-004
,,,-2.32000000e-008,3.56250483e-005
,,,-2.30000000e-008,-9.09374578e-005
,,,-2.28000000e-008,-1.38749960e-004
,,,-2.26000000e-008,-1.10624959e-004
,,,-2.24000000e-008,-3.84374553e-005
,,,-2.22000000e-008,3.90625484e-005
,,,-2.20000000e-008,6.68750497e-005
,,,-2.18000000e-008,7.40625501e-005
,,,-2.16000000e-008,8.06250504e-005
,,,-2.14000000e-008,9.65625512e-005
,,,-2.12000000e-008,6.68750497e-005
,,,-2.10000000e-008,-3.40624551e-005
,,,-2.08000000e-008,-1.17812459e-004
,,,-2.06000000e-008,-1.48749960e-004
,,,-2.04000000e-008,-9.62499580e-005
,,,-2.02000000e-008,1.03125471e-005
,,,-2.00000000e-008,6.53125497e-005
,,,-1.98000000e-008,1.28125053e-004
,,,-1.96000000e-008,1.57187554e-004
,,,-1.94000000e-008,1.20000052e-004
,,,-1.92000000e-008,6.53125497e-005
,,,-1.90000000e-008,-5.84374562e-005
,,,-1.88000000e-008,-1.56249961e-004
,,,-1.86000000e-008,-1.89374962e-004
,,,-1.84000000e-008,-1.45624960e-004
,,,-1.82000000e-008,1.25004663e-006
,,,-1.80000000e-008,1.16250052e-004
,,,-1.78000000e-008,1.66562554e-004
,,,-1.76000000e-008,1.78750055e-004
,,,-1.74000000e-008,6.00000494e-005
,,,-1.72000000e-008,-2.81249548e-005
,,,-1.70000000e-008,-6.65624566e-005
,,,-1.68000000e-008,-1.51562461e-004
,,,-1.66000000e-008,-1.61249961e-004
,,,-1.64000000e-008,-1.10624959e-004
,,,-1.62000000e-008,5.93754685e-006
,,,-1.60000000e-008,1.50937554e-004
,,,-1.58000000e-008,2.26562557e-004
,,,-1.56000000e-008,2.17187557e-004
,,,-1.54000000e-008,7.90625503e-005
,,,-1.52000000e-008,-7.87499572e-005
,,,-1.50000000e-008,-1.71874962e-004
,,,-1.48000000e-008,-1.99374963e-004
,,,-1.46000000e-008,-1.27812460e-004
,,,-1.44000000e-008,-2.24999545e-005
,,,-1.42000000e-008,1.19375052e-004
,,,-1.40000000e-008,2.04375056e-004
,,,-1.38000000e-008,1.80312555e-004
,,,-1.36000000e-008,9.93750513e-005
,,,-1.34000000e-008,-5.53124561e-005
,,,-1.32000000e-008,-1.61874961e-004
,,,-1.30000000e-008,-1.43437460e-004
,,,-1.28000000e-008,-1.19687459e-004
,,,-1.26000000e-008,-3.74995361e-006
,,,-1.24000000e-008,6.12500495e-005
,,,-1.22000000e-008,7.53125501e-005
,,,-1.20000000e-008,1.08125052e-004
,,,-1.18000000e-008,9.09375509e-005
,,,-1.16000000e-008,5.68750493e-005
,,,-1.14000000e-008,-1.12499540e-005
,,,-1.12000000e-008,-8.74999576e-005
,,,-1.10000000e-008,-1.04999958e-004
,,,-1.08000000e-008,-9.74999581e-005
,,,-1.06000000e-008,-3.84374553e-005
,,,-1.04000000e-008,2.93750480e-005
,,,-1.02000000e-008,8.00000504e-005
,,,-1.00000000e-008,1.35000053e-004
,,,-9.80000000e-009,1.37187553e-004
,,,-9.60000000e-009,1.06562552e-004
,,,-9.40000000e-009,4.03125485e-005
,,,-9.20000000e-009,-1.03124958e-004
,,,-9.00000000e-009,-1.52499961e-004
,,,-8.80000000e-009,-1.64687461e-004
,,,-8.60000000e-009,-6.99999568e-005
,,,-8.40000000e-009,6.68750497e-005
,,,-8.20000000e-009,1.48125054e-004
,,,-8.00000000e-009,1.88750056e-004
,,,-7.80000000e-009,1.29687553e-004
,,,-7.60000000e-009,6.84375498e-005
,,,-7.40000000e-009,-4.40624555e-005
,,,-7.20000000e-009,-1.83437462e-004
,,,-7.00000000e-009,-2.30624964e-004
,,,-6.80000000e-009,-2.13749964e-004
,,,-6.60000000e-009,-7.06249568e-005
,,,-6.40000000e-009,1.45312553e-004
,,,-6.20000000e-009,2.66875059e-004
,,,-6.00000000e-009,2.65937559e-004
,,,-5.80000000e-009,1.35000053e-004
,,,-5.60000000e-009,-1.03124958e-004
,,,-5.40000000e-009,-2.26562464e-004
,,,-5.20000000e-009,-2.94374967e-004
,,,-5.00000000e-009,-1.89687462e-004
,,,-4.80000000e-009,-5.43749560e-005
,,,-4.60000000e-009,8.18750505e-005
,,,-4.40000000e-009,2.33437558e-004
,,,-4.20000000e-009,2.10000057e-004
,,,-4.00000000e-009,1.00312551e-004
,,,-3.80000000e-009,-3.56249551e-005
,,,-3.60000000e-009,-2.07187463e-004
,,,-3.40000000e-009,-2.31874964e-004
,,,-3.20000000e-009,-1.84062462e-004
,,,-3.00000000e-009,-4.46874556e-005
,,,-2.80000000e-009,5.78125493e-005
,,,-2.60000000e-009,8.31250505e-005
,,,-2.40000000e-009,1.08437552e-004
,,,-2.20000000e-009,5.43750491e-005
,,,-2.00000000e-009,-3.43745360e-006
,,,-1.80000000e-009,-2.93749548e-005
,,,-1.60000000e-009,-1.25312459e-004
,,,-1.40000000e-009,-1.34999960e-004
,,,-1.20000000e-009,-9.78124581e-005
,,,-1.00000000e-009,-3.28124550e-005
,,,-8.00000000e-010,3.40625482e-005
,,,-6.00000000e-010,9.00000508e-005
,,,-4.00000000e-010,7.62500502e-005
,,,-2.00000000e-010,3.00000480e-005
,,,0.00000000e+000,-3.15624549e-005
,,,2.00000000e-010,-4.43749555e-005
,,,4.00000000e-010,-7.49999570e-005
,,,6.00000000e-010,-6.09374563e-005
,,,8.00000000e-010,-4.81249557e-005
,,,1.00000000e-009,-2.46874546e-005
,,,1.20000000e-009,3.03125480e-005
,,,1.40000000e-009,5.37500491e-005
,,,1.60000000e-009,3.18750481e-005
,,,1.80000000e-009,1.56250473e-005
,,,2.00000000e-009,-7.49995379e-006
,,,2.20000000e-009,-2.06249544e-005
,,,2.40000000e-009,-2.28124545e-005
,,,2.60000000e-009,-4.46874556e-005
,,,2.80000000e-009,-6.06249563e-005
,,,3.00000000e-009,-3.18749549e-005
,,,3.20000000e-009,5.09375490e-005
,,,3.40000000e-009,9.53125511e-005
,,,3.60000000e-009,1.02500051e-004
,,,3.80000000e-009,3.93750484e-005
,,,4.00000000e-009,-3.59374551e-005
,,,4.20000000e-009,-7.21874569e-005
,,,4.40000000e-009,-5.96874563e-005
,,,4.60000000e-009,-1.09374540e-005
,,,4.80000000e-009,2.84375479e-005
,,,5.00000000e-009,5.65625493e-005
,,,5.20000000e-009,7.81250503e-005
,,,5.40000000e-009,8.28125505e-005
,,,5.60000000e-009,4.34375486e-005
,,,5.80000000e-009,-2.53124546e-005
,,,6.00000000e-009,-7.84374572e-005
,,,6.20000000e-009,-9.62499580e-005
,,,6.40000000e-009,-2.46874546e-005
,,,6.60000000e-009,2.43750477e-005
,,,6.80000000e-009,5.43750491e-005
,,,7.00000000e-009,5.93750494e-005
,,,7.20000000e-009,4.68750488e-005
,,,7.40000000e-009,4.31250486e-005
,,,7.60000000e-009,4.37504677e-006
,,,7.80000000e-009,8.43754697e-006
,,,8.00000000e-009,-5.18749559e-005
