Data/20220819/UCLA_to_R2A_VPOL_E_50_01_Ch2.csv

"Record Length",5000,"Points",-1.00800000e-007,-1.18124959e-004
"Sample Interval",2.00000000e-010,s,-1.00600000e-007,-5.93745372e-006
"Trigger Point",504,"Samples",-1.00400000e-007,1.08750052e-004
"Trigger Time",0.00000000e+000,s,-1.00200000e-007,1.66875054e-004
"",,,-1.00000000e-007,1.49375054e-004
"Horizontal Offset",-1.00800000e-007,s,-9.98000000e-008,9.15625509e-005
,,,-9.96000000e-008,-4.68745366e-006
,,,-9.94000000e-008,-9.37499579e-005
,,,-9.92000000e-008,-1.82812462e-004
,,,-9.90000000e-008,-1.36562460e-004
,,,-9.88000000e-008,-6.28124564e-005
,,,-9.86000000e-008,6.40625496e-005
,,,-9.84000000e-008,1.72500055e-004
,,,-9.82000000e-008,1.82187555e-004
,,,-9.80000000e-008,9.81250512e-005
,,,-9.78000000e-008,-1.43749541e-005
,,,-9.76000000e-008,-1.02812458e-004
,,,-9.74000000e-008,-1.41874960e-004
,,,-9.72000000e-008,-1.43749960e-004
,,,-9.70000000e-008,-7.24999569e-005
,,,-9.68000000e-008,8.75004698e-006
,,,-9.66000000e-008,8.84375508e-005
,,,-9.64000000e-008,1.55625054e-004
,,,-9.62000000e-008,1.08750052e-004
,,,-9.60000000e-008,6.43750496e-005
,,,-9.58000000e-008,-3.49999551e-005
,,,-9.56000000e-008,-1.27187459e-004
,,,-9.54000000e-008,-1.21562459e-004
,,,-9.52000000e-008,-1.18124959e-004
,,,-9.50000000e-008,-4.87499557e-005
,,,-9.48000000e-008,6.75000498e-005
,,,-9.46000000e-008,1.34062553e-004
,,,-9.44000000e-008,1.72500055e-004
,,,-9.42000000e-008,1.14687552e-004
,,,-9.40000000e-008,1.96875475e-005
,,,-9.38000000e-008,-1.01249958e-004
,,,-9.36000000e-008,-1.69062461e-004
,,,-9.34000000e-008,-1.38124960e-004
,,,-9.32000000e-008,-6.81249567e-005
,,,-9.30000000e-008,4.50000487e-005
,,,-9.28000000e-008,1.01562551e-004
,,,-9.26000000e-008,1.17812552e-004
,,,-9.24000000e-008,9.87500513e-005
,,,-9.22000000e-008,5.90625494e-005
,,,-9.20000000e-008,-2.71874547e-005
,,,-9.18000000e-008,-1.02187458e-004
,,,-9.16000000e-008,-1.47812460e-004
,,,-9.14000000e-008,-1.36562460e-004
,,,-9.12000000e-008,-8.24999574e-005
,,,-9.10000000e-008,2.31250477e-005
,,,-9.08000000e-008,1.14375052e-004
,,,-9.06000000e-008,1.39062553e-004
,,,-9.04000000e-008,1.62187554e-004
,,,-9.02000000e-008,6.59375497e-005
,,,-9.00000000e-008,-6.09374563e-005
,,,-8.98000000e-008,-1.40624960e-004
,,,-8.96000000e-008,-2.00937463e-004
,,,-8.94000000e-008,-1.58437461e-004
,,,-8.92000000e-008,2.81254670e-006
,,,-8.90000000e-008,1.20937552e-004
,,,-8.88000000e-008,2.15937557e-004
,,,-8.86000000e-008,1.84375055e-004
,,,-8.84000000e-008,7.12500500e-005
,,,-8.82000000e-008,-6.49999565e-005
,,,-8.80000000e-008,-1.39062460e-004
,,,-8.78000000e-008,-1.40624960e-004
,,,-8.76000000e-008,-1.04687458e-004
,,,-8.74000000e-008,-2.34374545e-005
,,,-8.72000000e-008,3.15625481e-005
,,,-8.70000000e-008,9.12500509e-005
,,,-8.68000000e-008,1.62500054e-004
,,,-8.66000000e-008,1.27812553e-004
,,,-8.64000000e-008,5.09375490e-005
,,,-8.62000000e-008,-6.46874565e-005
,,,-8.60000000e-008,-1.47812460e-004
,,,-8.58000000e-008,-1.64687461e-004
,,,-8.56000000e-008,-1.39687460e-004
,,,-8.54000000e-008,-3.93749553e-005
,,,-8.52000000e-008,8.50000506e-005
,,,-8.50000000e-008,1.55000054e-004
,,,-8.48000000e-008,1.91562556e-004
,,,-8.46000000e-008,1.05312552e-004
,,,-8.44000000e-008,-6.24953464e-007
,,,-8.42000000e-008,-1.19062459e-004
,,,-8.40000000e-008,-1.89374962e-004
,,,-8.38000000e-008,-1.51562461e-004
,,,-8.36000000e-008,-7.34374569e-005
,,,-8.34000000e-008,4.65625488e-005
,,,-8.32000000e-008,1.57812554e-004
,,,-8.30000000e-008,1.78437555e-004
,,,-8.28000000e-008,1.31875053e-004
,,,-8.26000000e-008,6.53125497e-005
,,,-8.24000000e-008,-5.87499562e-005
,,,-8.22000000e-008,-1.67812461e-004
,,,-8.20000000e-008,-2.09062463e-004
,,,-8.18000000e-008,-1.54687461e-004
,,,-8.16000000e-008,-5.21874559e-005
,,,-8.14000000e-008,1.05937552e-004
,,,-8.12000000e-008,2.08437556e-004
,,,-8.10000000e-008,2.13125057e-004
,,,-8.08000000e-008,1.29687553e-004
,,,-8.06000000e-008,-8.74995385e-006
,,,-8.04000000e-008,-1.65312461e-004
,,,-8.02000000e-008,-2.28437464e-004
,,,-8.00000000e-008,-2.00312463e-004
,,,-7.98000000e-008,-8.68749576e-005
,,,-7.96000000e-008,6.75000498e-005
,,,-7.94000000e-008,2.23437557e-004
,,,-7.92000000e-008,2.58750059e-004
,,,-7.90000000e-008,1.64687554e-004
,,,-7.88000000e-008,3.43754673e-006
,,,-7.86000000e-008,-1.53749961e-004
,,,-7.84000000e-008,-2.33437465e-004
,,,-7.82000000e-008,-1.62499961e-004
,,,-7.80000000e-008,-5.37499560e-005
,,,-7.78000000e-008,7.15625500e-005
,,,-7.76000000e-008,1.53125054e-004
,,,-7.74000000e-008,1.32500053e-004
,,,-7.72000000e-008,1.01562551e-004
,,,-7.70000000e-008,4.96875489e-005
,,,-7.68000000e-008,-2.90624548e-005
,,,-7.66000000e-008,-6.96874567e-005
,,,-7.64000000e-008,-9.24999578e-005
,,,-7.62000000e-008,-9.18749578e-005
,,,-7.60000000e-008,-5.65624561e-005
,,,-7.58000000e-008,7.50004692e-006
,,,-7.56000000e-008,3.34375482e-005
,,,-7.54000000e-008,7.50000501e-005
,,,-7.52000000e-008,1.34062553e-004
,,,-7.50000000e-008,1.09375052e-004
,,,-7.48000000e-008,4.21875486e-005
,,,-7.46000000e-008,-6.71874566e-005
,,,-7.44000000e-008,-1.62187461e-004
,,,-7.42000000e-008,-1.92187463e-004
,,,-7.40000000e-008,-1.21249959e-004
,,,-7.38000000e-008,2.81254670e-006
,,,-7.36000000e-008,1.19375052e-004
,,,-7.34000000e-008,1.65625054e-004
,,,-7.32000000e-008,1.53125054e-004
,,,-7.30000000e-008,5.93750494e-005
,,,-7.28000000e-008,-3.18749549e-005
,,,-7.26000000e-008,-9.46874579e-005
,,,-7.24000000e-008,-1.79062462e-004
,,,-7.22000000e-008,-1.86562462e-004
,,,-7.20000000e-008,-1.05937458e-004
,,,-7.18000000e-008,3.25000481e-005
,,,-7.16000000e-008,2.01250056e-004
,,,-7.14000000e-008,2.91875060e-004
,,,-7.12000000e-008,2.08437556e-004
,,,-7.10000000e-008,4.87500489e-005
,,,-7.08000000e-008,-1.56249961e-004
,,,-7.06000000e-008,-2.84999967e-004
,,,-7.04000000e-008,-2.77812467e-004
,,,-7.02000000e-008,-1.09999959e-004
,,,-7.00000000e-008,9.56250511e-005
,,,-6.98000000e-008,2.84062560e-004
,,,-6.96000000e-008,2.89375060e-004
,,,-6.94000000e-008,1.81562555e-004
,,,-6.92000000e-008,-1.78124543e-005
,,,-6.90000000e-008,-2.02812463e-004
,,,-6.88000000e-008,-2.60624966e-004
,,,-6.86000000e-008,-1.97812463e-004
,,,-6.84000000e-008,-5.90624562e-005
,,,-6.82000000e-008,9.28125510e-005
,,,-6.80000000e-008,1.32500053e-004
,,,-6.78000000e-008,1.35312553e-004
,,,-6.76000000e-008,9.37500510e-005
,,,-6.74000000e-008,4.75000488e-005
,,,-6.72000000e-008,-4.06249554e-005
,,,-6.70000000e-008,-1.13749959e-004
,,,-6.68000000e-008,-1.40312460e-004
,,,-6.66000000e-008,-1.10624959e-004
,,,-6.64000000e-008,-3.62499552e-005
,,,-6.62000000e-008,5.90625494e-005
,,,-6.60000000e-008,1.22812552e-004
,,,-6.58000000e-008,1.39375053e-004
,,,-6.56000000e-008,1.19062552e-004
,,,-6.54000000e-008,2.93750480e-005
,,,-6.52000000e-008,-4.90624558e-005
,,,-6.50000000e-008,-1.32187460e-004
,,,-6.48000000e-008,-1.45624960e-004
,,,-6.46000000e-008,-7.84374572e-005
,,,-6.44000000e-008,-2.24999545e-005
,,,-6.42000000e-008,9.40625510e-005
,,,-6.40000000e-008,1.03750051e-004
,,,-6.38000000e-008,8.81250508e-005
,,,-6.36000000e-008,3.93750484e-005
,,,-6.34000000e-008,-1.49999541e-005
,,,-6.32000000e-008,-3.90624553e-005
,,,-6.30000000e-008,-7.24999569e-005
,,,-6.28000000e-008,-1.29374960e-004
,,,-6.26000000e-008,-1.14999959e-004
,,,-6.24000000e-008,-4.84374557e-005
,,,-6.22000000e-008,4.71875488e-005
,,,-6.20000000e-008,1.39687553e-004
,,,-6.18000000e-008,1.54687554e-004
,,,-6.16000000e-008,8.75000507e-005
,,,-6.14000000e-008,-1.09374540e-005
,,,-6.12000000e-008,-1.38124960e-004
,,,-6.10000000e-008,-1.73437462e-004
,,,-6.08000000e-008,-1.20937459e-004
,,,-6.06000000e-008,-5.03124558e-005
,,,-6.04000000e-008,7.00000499e-005
,,,-6.02000000e-008,1.48125054e-004
,,,-6.00000000e-008,1.78125055e-004
,,,-5.98000000e-008,1.16875052e-004
,,,-5.96000000e-008,3.40625482e-005
,,,-5.94000000e-008,-7.81249571e-005
,,,-5.92000000e-008,-1.38124960e-004
,,,-5.90000000e-008,-1.37187460e-004
,,,-5.88000000e-008,-6.43749565e-005
,,,-5.86000000e-008,3.62500483e-005
,,,-5.84000000e-008,8.34375505e-005
,,,-5.82000000e-008,1.20625052e-004
,,,-5.80000000e-008,9.37500510e-005
,,,-5.78000000e-008,5.56250492e-005
,,,-5.76000000e-008,1.15625471e-005
,,,-5.74000000e-008,-8.24999574e-005
,,,-5.72000000e-008,-1.79062462e-004
,,,-5.70000000e-008,-1.80624962e-004
,,,-5.68000000e-008,-1.11562459e-004
,,,-5.66000000e-008,3.03125480e-005
,,,-5.64000000e-008,1.80625055e-004
,,,-5.62000000e-008,2.39687558e-004
,,,-5.60000000e-008,1.73750055e-004
,,,-5.58000000e-008,3.40625482e-005
,,,-5.56000000e-008,-1.18437459e-004
,,,-5.54000000e-008,-2.43437465e-004
,,,-5.52000000e-008,-2.39687465e-004
,,,-5.50000000e-008,-1.13437459e-004
,,,-5.48000000e-008,8.40625506e-005
,,,-5.46000000e-008,2.27812557e-004
,,,-5.44000000e-008,2.77812560e-004
,,,-5.42000000e-008,1.60937554e-004
,,,-5.40000000e-008,-1.87499543e-005
,,,-5.38000000e-008,-1.74687462e-004
,,,-5.36000000e-008,-2.46874965e-004
,,,-5.34000000e-008,-2.04062463e-004
,,,-5.32000000e-008,-7.65624571e-005
,,,-5.30000000e-008,6.40625496e-005
,,,-5.28000000e-008,1.64062554e-004
,,,-5.26000000e-008,1.99375056e-004
,,,-5.24000000e-008,1.46562554e-004
,,,-5.22000000e-008,1.34375472e-005
,,,-5.20000000e-008,-1.15937459e-004
,,,-5.18000000e-008,-1.92812463e-004
,,,-5.16000000e-008,-1.86874962e-004
,,,-5.14000000e-008,-9.65624580e-005
,,,-5.12000000e-008,4.75000488e-005
,,,-5.10000000e-008,1.53125054e-004
,,,-5.08000000e-008,1.74687555e-004
,,,-5.06000000e-008,1.33437553e-004
,,,-5.04000000e-008,1.46875473e-005
,,,-5.02000000e-008,-8.31249574e-005
,,,-5.00000000e-008,-1.48437460e-004
,,,-4.98000000e-008,-1.14687459e-004
,,,-4.96000000e-008,-4.96874558e-005
,,,-4.94000000e-008,3.59375483e-005
,,,-4.92000000e-008,1.10937552e-004
,,,-4.90000000e-008,1.01875051e-004
,,,-4.88000000e-008,4.53125487e-005
,,,-4.86000000e-008,-1.24999540e-005
,,,-4.84000000e-008,-2.46874546e-005
,,,-4.82000000e-008,-1.62499542e-005
,,,-4.80000000e-008,1.84375474e-005
,,,-4.78000000e-008,2.03125475e-005
,,,-4.76000000e-008,-5.59374561e-005
,,,-4.74000000e-008,-9.74999581e-005
,,,-4.72000000e-008,-7.49999570e-005
,,,-4.70000000e-008,7.81254694e-006
,,,-4.68000000e-008,9.84375512e-005
,,,-4.66000000e-008,1.85312555e-004
,,,-4.64000000e-008,1.28437553e-004
,,,-4.62000000e-008,2.12500476e-005
,,,-4.60000000e-008,-6.49999565e-005
,,,-4.58000000e-008,-1.59687461e-004
,,,-4.56000000e-008,-1.80624962e-004
,,,-4.54000000e-008,-1.00624958e-004
,,,-4.52000000e-008,3.03125480e-005
,,,-4.50000000e-008,1.64375054e-004
,,,-4.48000000e-008,2.22500057e-004
,,,-4.46000000e-008,1.79687555e-004
,,,-4.44000000e-008,4.09375485e-005
,,,-4.42000000e-008,-9.96874582e-005
,,,-4.40000000e-008,-2.01874963e-004
,,,-4.38000000e-008,-2.14374964e-004
,,,-4.36000000e-008,-1.43437460e-004
,,,-4.34000000e-008,1.31250472e-005
,,,-4.32000000e-008,1.50312554e-004
,,,-4.30000000e-008,2.21250057e-004
,,,-4.28000000e-008,2.03750056e-004
,,,-4.26000000e-008,1.16875052e-004
,,,-4.24000000e-008,-4.28124555e-005
,,,-4.22000000e-008,-1.87187462e-004
,,,-4.20000000e-008,-2.53124965e-004
,,,-4.18000000e-008,-2.04687463e-004
,,,-4.16000000e-008,-5.49999560e-005
,,,-4.14000000e-008,1.66250054e-004
,,,-4.12000000e-008,2.64375059e-004
,,,-4.10000000e-008,2.66250059e-004
,,,-4.08000000e-008,1.43437553e-004
,,,-4.06000000e-008,-4.31249555e-005
,,,-4.04000000e-008,-2.17187464e-004
,,,-4.02000000e-008,-2.83437467e-004
,,,-4.00000000e-008,-1.99374963e-004
,,,-3.98000000e-008,-4.68749557e-005
,,,-3.96000000e-008,1.41562553e-004
,,,-3.94000000e-008,2.43750058e-004
,,,-3.92000000e-008,2.05937556e-004
,,,-3.90000000e-008,1.15937552e-004
,,,-3.88000000e-008,-5.46874560e-005
,,,-3.86000000e-008,-1.59374961e-004
,,,-3.84000000e-008,-1.94062463e-004
,,,-3.82000000e-008,-1.54062461e-004
,,,-3.80000000e-008,-6.28124564e-005
,,,-3.78000000e-008,3.00000480e-005
,,,-3.76000000e-008,1.45937553e-004
,,,-3.74000000e-008,1.85625055e-004
,,,-3.72000000e-008,1.72500055e-004
,,,-3.70000000e-008,6.78125498e-005
,,,-3.68000000e-008,-7.31249569e-005
,,,-3.66000000e-008,-1.86874962e-004
,,,-3.64000000e-008,-1.89062462e-004
,,,-3.62000000e-008,-1.19687459e-004
,,,-3.60000000e-008,8.75004698e-006
,,,-3.58000000e-008,1.57500054e-004
,,,-3.56000000e-008,1.90625056e-004
,,,-3.54000000e-008,1.47187554e-004
,,,-3.52000000e-008,4.37500486e-005
,,,-3.50000000e-008,-7.74999571e-005
,,,-3.48000000e-008,-1.48124960e-004
,,,-3.46000000e-008,-1.59062461e-004
,,,-3.44000000e-008,-5.93749563e-005
,,,-3.42000000e-008,2.28125476e-005
,,,-3.40000000e-008,8.46875506e-005
,,,-3.38000000e-008,9.34375510e-005
,,,-3.36000000e-008,2.40625477e-005
,,,-3.34000000e-008,-2.03124544e-005
,,,-3.32000000e-008,-8.74995385e-006
,,,-3.30000000e-008,3.81250484e-005
,,,-3.28000000e-008,3.65625483e-005
,,,-3.26000000e-008,-1.65624542e-005
,,,-3.24000000e-008,-8.81249576e-005
,,,-3.22000000e-008,-1.13437459e-004
,,,-3.20000000e-008,-7.24999569e-005
,,,-3.18000000e-008,4.71875488e-005
,,,-3.16000000e-008,1.31250053e-004
,,,-3.14000000e-008,1.65312554e-004
,,,-3.12000000e-008,1.18750052e-004
,,,-3.10000000e-008,2.84375479e-005
,,,-3.08000000e-008,-6.99999568e-005
,,,-3.06000000e-008,-1.44062460e-004
,,,-3.04000000e-008,-1.52812461e-004
,,,-3.02000000e-008,-8.62499575e-005
,,,-3.00000000e-008,5.62504683e-006
,,,-2.98000000e-008,1.46250054e-004
,,,-2.96000000e-008,1.74375055e-004
,,,-2.94000000e-008,1.54375054e-004
,,,-2.92000000e-008,6.00000494e-005
,,,-2.90000000e-008,-7.84374572e-005
,,,-2.88000000e-008,-1.83437462e-004
,,,-2.86000000e-008,-2.09062463e-004
,,,-2.84000000e-008,-1.58437461e-004
,,,-2.82000000e-008,-3.21874550e-005
,,,-2.80000000e-008,1.25312553e-004
,,,-2.78000000e-008,2.43750058e-004
,,,-2.76000000e-008,2.25937557e-004
,,,-2.74000000e-008,1.18125052e-004
,,,-2.72000000e-008,-6.43749565e-005
,,,-2.70000000e-008,-2.36562465e-004
,,,-2.68000000e-008,-2.84374967e-004
,,,-2.66000000e-008,-1.62812461e-004
,,,-2.64000000e-008,2.06250475e-005
,,,-2.62000000e-008,2.16875057e-004
,,,-2.60000000e-008,2.90000060e-004
,,,-2.58000000e-008,2.09375057e-004
,,,-2.56000000e-008,4.96875489e-005
,,,-2.54000000e-008,-1.14374959e-004
,,,-2.52000000e-008,-2.22499964e-004
,,,-2.50000000e-008,-2.36874965e-004
,,,-2.48000000e-008,-1.01249958e-004
,,,-2.46000000e-008,4.65625488e-005
,,,-2.44000000e-008,1.56250054e-004
,,,-2.42000000e-008,1.98437556e-004
,,,-2.40000000e-008,8.87500508e-005
,,,-2.38000000e-008,-1.93749544e-005
,,,-2.36000000e-008,-9.99999582e-005
,,,-2.34000000e-008,-1.22812459e-004
,,,-2.32000000e-008,-1.06562458e-004
,,,-2.30000000e-008,-6.12499563e-005
,,,-2.28000000e-008,-2.37499546e-005
,,,-2.26000000e-008,3.81250484e-005
,,,-2.24000000e-008,8.37500505e-005
,,,-2.22000000e-008,1.23125052e-004
,,,-2.20000000e-008,6.28125495e-005
,,,-2.18000000e-008,2.93750480e-005
,,,-2.16000000e-008,-6.40624565e-005
,,,-2.14000000e-008,-9.74999581e-005
,,,-2.12000000e-008,-6.87499567e-005
,,,-2.10000000e-008,-3.12499549e-005
,,,-2.08000000e-008,3.09375480e-005
,,,-2.06000000e-008,8.21875505e-005
,,,-2.04000000e-008,9.31250510e-005
,,,-2.02000000e-008,6.00000494e-005
,,,-2.00000000e-008,2.59375478e-005
,,,-1.98000000e-008,-4.03124553e-005
,,,-1.96000000e-008,-6.40624565e-005
,,,-1.94000000e-008,-4.31249555e-005
,,,-1.92000000e-008,-4.21874554e-005
,,,-1.90000000e-008,-1.28124540e-005
,,,-1.88000000e-008,1.50000473e-005
,,,-1.86000000e-008,1.37500472e-005
,,,-1.84000000e-008,1.53125473e-005
,,,-1.82000000e-008,4.25000486e-005
,,,-1.80000000e-008,7.84375503e-005
,,,-1.78000000e-008,7.37500501e-005
,,,-1.76000000e-008,2.40625477e-005
,,,-1.74000000e-008,-7.15624568e-005
,,,-1.72000000e-008,-1.87187462e-004
,,,-1.70000000e-008,-1.15624959e-004
,,,-1.68000000e-008,-2.03124544e-005
,,,-1.66000000e-008,1.34062553e-004
,,,-1.64000000e-008,1.95312556e-004
,,,-1.62000000e-008,1.68125055e-004
,,,-1.60000000e-008,4.71875488e-005
,,,-1.58000000e-008,-5.87499562e-005
,,,-1.56000000e-008,-1.69999962e-004
,,,-1.54000000e-008,-1.69374961e-004
,,,-1.52000000e-008,-1.36249960e-004
,,,-1.50000000e-008,-9.99995391e-006
,,,-1.48000000e-008,9.03125509e-005
,,,-1.46000000e-008,1.55312554e-004
,,,-1.44000000e-008,1.71250055e-004
,,,-1.42000000e-008,9.96875513e-005
,,,-1.40000000e-008,-4.06245363e-006
,,,-1.38000000e-008,-1.14374959e-004
,,,-1.36000000e-008,-1.99374963e-004
,,,-1.34000000e-008,-2.06249963e-004
,,,-1.32000000e-008,-1.29999960e-004
,,,-1.30000000e-008,5.09375490e-005
,,,-1.28000000e-008,2.20312557e-004
,,,-1.26000000e-008,2.92187560e-004
,,,-1.24000000e-008,2.29062557e-004
,,,-1.22000000e-008,3.21875481e-005
,,,-1.20000000e-008,-2.03437463e-004
,,,-1.18000000e-008,-3.39374970e-004
,,,-1.16000000e-008,-2.87499967e-004
,,,-1.14000000e-008,-1.10312459e-004
,,,-1.12000000e-008,1.19062552e-004
,,,-1.10000000e-008,2.91875060e-004
,,,-1.08000000e-008,2.95625061e-004
,,,-1.06000000e-008,1.53437554e-004
,,,-1.04000000e-008,-4.18749554e-005
,,,-1.02000000e-008,-2.10312463e-004
,,,-1.00000000e-008,-2.66249966e-004
,,,-9.80000000e-009,-1.89374962e-004
,,,-9.60000000e-009,-6.93749567e-005
,,,-9.40000000e-009,1.11250052e-004
,,,-9.20000000e-009,1.93437556e-004
,,,-9.00000000e-009,1.87187555e-004
,,,-8.80000000e-009,1.10000052e-004
,,,-8.60000000e-009,-5.93745372e-006
,,,-8.40000000e-009,-1.04999958e-004
,,,-8.20000000e-009,-1.31874960e-004
,,,-8.00000000e-009,-1.57187461e-004
,,,-7.80000000e-009,-9.62499580e-005
,,,-7.60000000e-009,-2.99999549e-005
,,,-7.40000000e-009,6.84375498e-005
,,,-7.20000000e-009,1.42187553e-004
,,,-7.00000000e-009,1.22187552e-004
,,,-6.80000000e-009,6.65625497e-005
,,,-6.60000000e-009,-3.49999551e-005
,,,-6.40000000e-009,-1.10937459e-004
,,,-6.20000000e-009,-1.25624959e-004
,,,-6.00000000e-009,-8.28124574e-005
,,,-5.80000000e-009,-3.46874551e-005
,,,-5.60000000e-009,5.31254682e-006
,,,-5.40000000e-009,2.25000476e-005
,,,-5.20000000e-009,3.06250480e-005
,,,-5.00000000e-009,4.50000487e-005
,,,-4.80000000e-009,5.78125493e-005
,,,-4.60000000e-009,3.12500481e-005
,,,-4.40000000e-009,-4.81249557e-005
,,,-4.20000000e-009,-8.81249576e-005
,,,-4.00000000e-009,-1.28749960e-004
,,,-3.80000000e-009,-1.35624960e-004
,,,-3.60000000e-009,-1.06249958e-004
,,,-3.40000000e-009,-1.96874544e-005
,,,-3.20000000e-009,8.87500508e-005
,,,-3.00000000e-009,1.50312554e-004
,,,-2.80000000e-009,1.66875054e-004
,,,-2.60000000e-009,5.78125493e-005
,,,-2.40000000e-009,-1.19062459e-004
,,,-2.20000000e-009,-2.19999964e-004
,,,-2.00000000e-009,-2.59999966e-004
,,,-1.80000000e-009,-1.54374961e-004
,,,-1.60000000e-009,1.06250471e-005
,,,-1.40000000e-009,1.75937555e-004
,,,-1.20000000e-009,2.29375057e-004
,,,-1.00000000e-009,1.71250055e-004
,,,-8.00000000e-010,1.43750472e-005
,,,-6.00000000e-010,-1.21249959e-004
,,,-4.00000000e-010,-2.16874964e-004
,,,-2.00000000e-010,-2.28749964e-004
,,,0.00000000e+000,-1.77499962e-004
,,,2.00000000e-010,-4.46874556e-005
,,,4.00000000e-010,1.06562552e-004
,,,6.00000000e-010,1.87187555e-004
,,,8.00000000e-010,1.73750055e-004
,,,1.00000000e-009,9.28125510e-005
,,,1.20000000e-009,-2.34374545e-005
,,,1.40000000e-009,-1.56562461e-004
,,,1.60000000e-009,-2.44999965e-004
,,,1.80000000e-009,-2.18437464e-004
,,,2.00000000e-009,-1.19062459e-004
,,,2.20000000e-009,6.90625498e-005
,,,2.40000000e-009,2.41250058e-004
,,,2.60000000e-009,2.74375060e-004
,,,2.80000000e-009,1.80625055e-004
,,,3.00000000e-009,2.43750477e-005
,,,3.20000000e-009,-1.92499963e-004
,,,3.40000000e-009,-2.68124966e-004
,,,3.60000000e-009,-2.38124965e-004
,,,3.80000000e-009,-7.03124568e-005
,,,4.00000000e-009,9.34375510e-005
,,,4.20000000e-009,2.25937557e-004
,,,4.40000000e-009,2.39062558e-004
,,,4.60000000e-009,1.39375053e-004
,,,4.80000000e-009,-1.12499540e-005
,,,5.00000000e-009,-1.17499959e-004
,,,5.20000000e-009,-1.77812462e-004
,,,5.40000000e-009,-1.57187461e-004
,,,5.60000000e-009,-5.40624560e-005
,,,5.80000000e-009,4.25000486e-005
,,,6.00000000e-009,9.84375512e-005
,,,6.20000000e-009,1.21250052e-004
,,,6.40000000e-009,8.43750506e-005
,,,6.60000000e-009,3.46875482e-005
,,,6.80000000e-009,1.31250472e-005
,,,7.00000000e-009,-4.06249554e-005
,,,7.20000000e-009,-9.40624579e-005
,,,7.40000000e-009,-7.78124571e-005
,,,7.60000000e-009,-3.18749549e-005
,,,7.80000000e-009,2.71875479e-005
