Data/20220819/UCLA_to_R2A_VPOL_E_90_01_Ch2.csv

"Record Length",5000,"Points",-1.00800000e-007,7.00000499e-005
"Sample Interval",2.00000000e-010,s,-1.00600000e-007,1.25004663e-006
"Trigger Point",504,"Samples",-1.00400000e-007,-1.17187459e-004
"Trigger Time",0.00000000e+000,s,-1.00200000e-007,-2.04062463e-004
"",,,-1.00000000e-007,-1.98124963e-004
"Horizontal Offset",-1.00800000e-007,s,-9.98000000e-008,-1.44999960e-004
,,,-9.96000000e-008,-1.90624543e-005
,,,-9.94000000e-008,9.87500513e-005
,,,-9.92000000e-008,1.21875052e-004
,,,-9.90000000e-008,9.40625510e-005
,,,-9.88000000e-008,2.50000478e-005
,,,-9.86000000e-008,-7.53124570e-005
,,,-9.84000000e-008,-1.33437460e-004
,,,-9.82000000e-008,-1.65937461e-004
,,,-9.80000000e-008,-1.55312461e-004
,,,-9.78000000e-008,-1.22499959e-004
,,,-9.76000000e-008,-4.65624556e-005
,,,-9.74000000e-008,4.71875488e-005
,,,-9.72000000e-008,1.12187552e-004
,,,-9.70000000e-008,1.42187553e-004
,,,-9.68000000e-008,7.18750500e-005
,,,-9.66000000e-008,-2.59374547e-005
,,,-9.64000000e-008,-1.53437461e-004
,,,-9.62000000e-008,-2.42499965e-004
,,,-9.60000000e-008,-2.39999965e-004
,,,-9.58000000e-008,-1.34062460e-004
,,,-9.56000000e-008,5.93754685e-006
,,,-9.54000000e-008,1.71250055e-004
,,,-9.52000000e-008,2.18750057e-004
,,,-9.50000000e-008,1.78125055e-004
,,,-9.48000000e-008,1.21875471e-005
,,,-9.46000000e-008,-1.96249963e-004
,,,-9.44000000e-008,-2.88749967e-004
,,,-9.42000000e-008,-2.77812467e-004
,,,-9.40000000e-008,-1.47812460e-004
,,,-9.38000000e-008,3.21875481e-005
,,,-9.36000000e-008,1.56250054e-004
,,,-9.34000000e-008,2.22187557e-004
,,,-9.32000000e-008,1.56250054e-004
,,,-9.30000000e-008,2.18750476e-005
,,,-9.28000000e-008,-1.03124958e-004
,,,-9.26000000e-008,-2.26249964e-004
,,,-9.24000000e-008,-2.59374966e-004
,,,-9.22000000e-008,-1.56249961e-004
,,,-9.20000000e-008,-4.31249555e-005
,,,-9.18000000e-008,1.24062552e-004
,,,-9.16000000e-008,2.12187557e-004
,,,-9.14000000e-008,2.11250057e-004
,,,-9.12000000e-008,1.08750052e-004
,,,-9.10000000e-008,-3.46874551e-005
,,,-9.08000000e-008,-2.05624963e-004
,,,-9.06000000e-008,-3.15312468e-004
,,,-9.04000000e-008,-2.66874966e-004
,,,-9.02000000e-008,-1.23749959e-004
,,,-9.00000000e-008,9.46875511e-005
,,,-8.98000000e-008,2.71875059e-004
,,,-8.96000000e-008,2.88750060e-004
,,,-8.94000000e-008,1.00625051e-004
,,,-8.92000000e-008,-1.02812458e-004
,,,-8.90000000e-008,-3.05312468e-004
,,,-8.88000000e-008,-3.29687469e-004
,,,-8.86000000e-008,-2.34374965e-004
,,,-8.84000000e-008,-5.90624562e-005
,,,-8.82000000e-008,1.02500051e-004
,,,-8.80000000e-008,1.85937555e-004
,,,-8.78000000e-008,1.79375055e-004
,,,-8.76000000e-008,7.71875502e-005
,,,-8.74000000e-008,-5.46874560e-005
,,,-8.72000000e-008,-1.77812462e-004
,,,-8.70000000e-008,-2.37187465e-004
,,,-8.68000000e-008,-2.18437464e-004
,,,-8.66000000e-008,-1.31874960e-004
,,,-8.64000000e-008,-6.24953464e-007
,,,-8.62000000e-008,1.17812552e-004
,,,-8.60000000e-008,1.56562554e-004
,,,-8.58000000e-008,1.19687552e-004
,,,-8.56000000e-008,2.81254670e-006
,,,-8.54000000e-008,-1.23437459e-004
,,,-8.52000000e-008,-1.89062462e-004
,,,-8.50000000e-008,-2.24687464e-004
,,,-8.48000000e-008,-1.68124961e-004
,,,-8.46000000e-008,-3.21874550e-005
,,,-8.44000000e-008,6.34375496e-005
,,,-8.42000000e-008,1.20625052e-004
,,,-8.40000000e-008,8.15625504e-005
,,,-8.38000000e-008,-9.37453478e-007
,,,-8.36000000e-008,-8.31249574e-005
,,,-8.34000000e-008,-8.84374576e-005
,,,-8.32000000e-008,-9.09374578e-005
,,,-8.30000000e-008,-1.12187459e-004
,,,-8.28000000e-008,-1.22812459e-004
,,,-8.26000000e-008,-9.68749580e-005
,,,-8.24000000e-008,-3.65624552e-005
,,,-8.22000000e-008,6.59375497e-005
,,,-8.20000000e-008,1.64062554e-004
,,,-8.18000000e-008,1.60000054e-004
,,,-8.16000000e-008,7.21875500e-005
,,,-8.14000000e-008,-8.24999574e-005
,,,-8.12000000e-008,-2.19062464e-004
,,,-8.10000000e-008,-3.00624968e-004
,,,-8.08000000e-008,-2.21249964e-004
,,,-8.06000000e-008,-4.21874554e-005
,,,-8.04000000e-008,1.42500053e-004
,,,-8.02000000e-008,2.96562561e-004
,,,-8.00000000e-008,2.83437560e-004
,,,-7.98000000e-008,9.28125510e-005
,,,-7.96000000e-008,-1.12499959e-004
,,,-7.94000000e-008,-3.30624969e-004
,,,-7.92000000e-008,-3.56562470e-004
,,,-7.90000000e-008,-2.23437464e-004
,,,-7.88000000e-008,-4.65624556e-005
,,,-7.86000000e-008,1.59062554e-004
,,,-7.84000000e-008,2.35937558e-004
,,,-7.82000000e-008,2.27500057e-004
,,,-7.80000000e-008,9.21875509e-005
,,,-7.78000000e-008,-1.14999959e-004
,,,-7.76000000e-008,-2.60624966e-004
,,,-7.74000000e-008,-3.33749969e-004
,,,-7.72000000e-008,-2.66874966e-004
,,,-7.70000000e-008,-8.84374576e-005
,,,-7.68000000e-008,8.31250505e-005
,,,-7.66000000e-008,2.27187557e-004
,,,-7.64000000e-008,2.53750059e-004
,,,-7.62000000e-008,1.39375053e-004
,,,-7.60000000e-008,3.75004674e-006
,,,-7.58000000e-008,-1.87499962e-004
,,,-7.56000000e-008,-2.99999968e-004
,,,-7.54000000e-008,-2.74062466e-004
,,,-7.52000000e-008,-1.82499962e-004
,,,-7.50000000e-008,-2.68749547e-005
,,,-7.48000000e-008,1.45937553e-004
,,,-7.46000000e-008,2.03750056e-004
,,,-7.44000000e-008,1.72812555e-004
,,,-7.42000000e-008,2.15625476e-005
,,,-7.40000000e-008,-1.04687458e-004
,,,-7.38000000e-008,-2.17187464e-004
,,,-7.36000000e-008,-2.52499965e-004
,,,-7.34000000e-008,-2.03749963e-004
,,,-7.32000000e-008,-1.33124960e-004
,,,-7.30000000e-008,-1.28124540e-005
,,,-7.28000000e-008,9.68750512e-005
,,,-7.26000000e-008,1.95937556e-004
,,,-7.24000000e-008,1.98125056e-004
,,,-7.22000000e-008,1.00000051e-004
,,,-7.20000000e-008,-5.40624560e-005
,,,-7.18000000e-008,-2.42812465e-004
,,,-7.16000000e-008,-3.27812469e-004
,,,-7.14000000e-008,-2.58749966e-004
,,,-7.12000000e-008,-1.03124958e-004
,,,-7.10000000e-008,1.18437552e-004
,,,-7.08000000e-008,2.54375059e-004
,,,-7.06000000e-008,2.89062560e-004
,,,-7.04000000e-008,1.75312555e-004
,,,-7.02000000e-008,-6.37499565e-005
,,,-7.00000000e-008,-2.64062466e-004
,,,-6.98000000e-008,-3.61874971e-004
,,,-6.96000000e-008,-2.85937467e-004
,,,-6.94000000e-008,-8.68749576e-005
,,,-6.92000000e-008,1.04375052e-004
,,,-6.90000000e-008,2.14375057e-004
,,,-6.88000000e-008,1.89375056e-004
,,,-6.86000000e-008,7.78125503e-005
,,,-6.84000000e-008,-3.93749553e-005
,,,-6.82000000e-008,-1.39999960e-004
,,,-6.80000000e-008,-1.76249962e-004
,,,-6.78000000e-008,-1.74374962e-004
,,,-6.76000000e-008,-1.62187461e-004
,,,-6.74000000e-008,-6.12499563e-005
,,,-6.72000000e-008,1.53125473e-005
,,,-6.70000000e-008,9.03125509e-005
,,,-6.68000000e-008,1.30625053e-004
,,,-6.66000000e-008,1.13125052e-004
,,,-6.64000000e-008,4.18750486e-005
,,,-6.62000000e-008,-9.68749580e-005
,,,-6.60000000e-008,-1.96249963e-004
,,,-6.58000000e-008,-2.50624965e-004
,,,-6.56000000e-008,-2.18124964e-004
,,,-6.54000000e-008,-1.08749959e-004
,,,-6.52000000e-008,3.68750483e-005
,,,-6.50000000e-008,1.66562554e-004
,,,-6.48000000e-008,2.06875056e-004
,,,-6.46000000e-008,1.37187553e-004
,,,-6.44000000e-008,-2.81249548e-005
,,,-6.42000000e-008,-1.80312462e-004
,,,-6.40000000e-008,-3.06562468e-004
,,,-6.38000000e-008,-2.97812468e-004
,,,-6.36000000e-008,-1.89687462e-004
,,,-6.34000000e-008,3.43754673e-006
,,,-6.32000000e-008,2.02187556e-004
,,,-6.30000000e-008,3.20000062e-004
,,,-6.28000000e-008,2.83437560e-004
,,,-6.26000000e-008,8.28125505e-005
,,,-6.24000000e-008,-1.94374963e-004
,,,-6.22000000e-008,-3.96874972e-004
,,,-6.20000000e-008,-4.08124973e-004
,,,-6.18000000e-008,-2.22499964e-004
,,,-6.16000000e-008,3.75000483e-005
,,,-6.14000000e-008,2.71250059e-004
,,,-6.12000000e-008,3.60312564e-004
,,,-6.10000000e-008,2.79062560e-004
,,,-6.08000000e-008,2.25000476e-005
,,,-6.06000000e-008,-2.39062465e-004
,,,-6.04000000e-008,-3.98437472e-004
,,,-6.02000000e-008,-3.61874971e-004
,,,-6.00000000e-008,-1.75312462e-004
,,,-5.98000000e-008,5.84375493e-005
,,,-5.96000000e-008,2.61562559e-004
,,,-5.94000000e-008,2.62187559e-004
,,,-5.92000000e-008,1.10937552e-004
,,,-5.90000000e-008,-8.03124572e-005
,,,-5.88000000e-008,-2.01562463e-004
,,,-5.86000000e-008,-2.32812464e-004
,,,-5.84000000e-008,-1.65624961e-004
,,,-5.82000000e-008,-5.87499562e-005
,,,-5.80000000e-008,1.18750471e-005
,,,-5.78000000e-008,6.31250496e-005
,,,-5.76000000e-008,6.65625497e-005
,,,-5.74000000e-008,2.84375479e-005
,,,-5.72000000e-008,-8.43745383e-006
,,,-5.70000000e-008,-2.21874545e-005
,,,-5.68000000e-008,-4.49999556e-005
,,,-5.66000000e-008,-6.84374567e-005
,,,-5.64000000e-008,-8.93749577e-005
,,,-5.62000000e-008,-9.06249577e-005
,,,-5.60000000e-008,-1.24687459e-004
,,,-5.58000000e-008,-9.96874582e-005
,,,-5.56000000e-008,-2.93749548e-005
,,,-5.54000000e-008,6.00000494e-005
,,,-5.52000000e-008,1.08125052e-004
,,,-5.50000000e-008,8.28125505e-005
,,,-5.48000000e-008,-1.12499540e-005
,,,-5.46000000e-008,-1.35312460e-004
,,,-5.44000000e-008,-2.14687464e-004
,,,-5.42000000e-008,-2.19374964e-004
,,,-5.40000000e-008,-1.13749959e-004
,,,-5.38000000e-008,1.00000470e-005
,,,-5.36000000e-008,1.06250052e-004
,,,-5.34000000e-008,1.72812555e-004
,,,-5.32000000e-008,1.50000054e-004
,,,-5.30000000e-008,3.90625484e-005
,,,-5.28000000e-008,-1.31562460e-004
,,,-5.26000000e-008,-2.50624965e-004
,,,-5.24000000e-008,-2.64687466e-004
,,,-5.22000000e-008,-1.60312461e-004
,,,-5.20000000e-008,2.84375479e-005
,,,-5.18000000e-008,1.75312555e-004
,,,-5.16000000e-008,2.35000058e-004
,,,-5.14000000e-008,1.86250055e-004
,,,-5.12000000e-008,4.56250487e-005
,,,-5.10000000e-008,-1.42812460e-004
,,,-5.08000000e-008,-2.54062466e-004
,,,-5.06000000e-008,-2.59374966e-004
,,,-5.04000000e-008,-1.56562461e-004
,,,-5.02000000e-008,2.62500478e-005
,,,-5.00000000e-008,1.38750053e-004
,,,-4.98000000e-008,1.69687555e-004
,,,-4.96000000e-008,9.34375510e-005
,,,-4.94000000e-008,-4.68745366e-006
,,,-4.92000000e-008,-9.78124581e-005
,,,-4.90000000e-008,-1.52187461e-004
,,,-4.88000000e-008,-1.49999961e-004
,,,-4.86000000e-008,-1.37812460e-004
,,,-4.84000000e-008,-8.37499574e-005
,,,-4.82000000e-008,6.56254688e-006
,,,-4.80000000e-008,7.90625503e-005
,,,-4.78000000e-008,1.31875053e-004
,,,-4.76000000e-008,1.43750053e-004
,,,-4.74000000e-008,4.90625489e-005
,,,-4.72000000e-008,-7.37499569e-005
,,,-4.70000000e-008,-1.79687462e-004
,,,-4.68000000e-008,-2.18437464e-004
,,,-4.66000000e-008,-1.69999962e-004
,,,-4.64000000e-008,-5.59374561e-005
,,,-4.62000000e-008,1.07500052e-004
,,,-4.60000000e-008,1.93750056e-004
,,,-4.58000000e-008,1.70625055e-004
,,,-4.56000000e-008,3.71875483e-005
,,,-4.54000000e-008,-1.48124960e-004
,,,-4.52000000e-008,-2.68437466e-004
,,,-4.50000000e-008,-2.99374968e-004
,,,-4.48000000e-008,-1.79999962e-004
,,,-4.46000000e-008,-1.65624542e-005
,,,-4.44000000e-008,1.43750053e-004
,,,-4.42000000e-008,2.02812556e-004
,,,-4.40000000e-008,1.03750051e-004
,,,-4.38000000e-008,-1.12499540e-005
,,,-4.36000000e-008,-1.50312461e-004
,,,-4.34000000e-008,-2.24062464e-004
,,,-4.32000000e-008,-2.05624963e-004
,,,-4.30000000e-008,-1.09374959e-004
,,,-4.28000000e-008,1.12500471e-005
,,,-4.26000000e-008,1.20937552e-004
,,,-4.24000000e-008,1.90937556e-004
,,,-4.22000000e-008,1.10937552e-004
,,,-4.20000000e-008,-1.24995349e-006
,,,-4.18000000e-008,-1.01249958e-004
,,,-4.16000000e-008,-1.77187462e-004
,,,-4.14000000e-008,-1.62187461e-004
,,,-4.12000000e-008,-5.06249558e-005
,,,-4.10000000e-008,-8.12495382e-006
,,,-4.08000000e-008,2.25000476e-005
,,,-4.06000000e-008,3.87500484e-005
,,,-4.04000000e-008,-1.09374540e-005
,,,-4.02000000e-008,-3.74999552e-005
,,,-4.00000000e-008,-3.71874552e-005
,,,-3.98000000e-008,-6.74999566e-005
,,,-3.96000000e-008,-4.03124553e-005
,,,-3.94000000e-008,-3.93749553e-005
,,,-3.92000000e-008,-5.49999560e-005
,,,-3.90000000e-008,-7.28124569e-005
,,,-3.88000000e-008,-7.78124571e-005
,,,-3.86000000e-008,-5.99999563e-005
,,,-3.84000000e-008,1.34375472e-005
,,,-3.82000000e-008,9.81250512e-005
,,,-3.80000000e-008,1.16875052e-004
,,,-3.78000000e-008,6.78125498e-005
,,,-3.76000000e-008,-5.68749561e-005
,,,-3.74000000e-008,-2.07499963e-004
,,,-3.72000000e-008,-2.43749965e-004
,,,-3.70000000e-008,-1.87187462e-004
,,,-3.68000000e-008,-4.96874558e-005
,,,-3.66000000e-008,1.46250054e-004
,,,-3.64000000e-008,2.39375058e-004
,,,-3.62000000e-008,1.90937556e-004
,,,-3.60000000e-008,2.84375479e-005
,,,-3.58000000e-008,-1.84374962e-004
,,,-3.56000000e-008,-3.31562469e-004
,,,-3.54000000e-008,-3.36249969e-004
,,,-3.52000000e-008,-2.00937463e-004
,,,-3.50000000e-008,1.40625472e-005
,,,-3.48000000e-008,1.95312556e-004
,,,-3.46000000e-008,2.60937559e-004
,,,-3.44000000e-008,1.74687555e-004
,,,-3.42000000e-008,1.56250473e-005
,,,-3.40000000e-008,-1.43124960e-004
,,,-3.38000000e-008,-2.64374966e-004
,,,-3.36000000e-008,-2.68437466e-004
,,,-3.34000000e-008,-1.90312462e-004
,,,-3.32000000e-008,-4.31249555e-005
,,,-3.30000000e-008,1.12500052e-004
,,,-3.28000000e-008,2.24375057e-004
,,,-3.26000000e-008,2.24062557e-004
,,,-3.24000000e-008,9.62500511e-005
,,,-3.22000000e-008,-5.53124561e-005
,,,-3.20000000e-008,-2.36562465e-004
,,,-3.18000000e-008,-2.85624967e-004
,,,-3.16000000e-008,-2.33437465e-004
,,,-3.14000000e-008,-1.41562460e-004
,,,-3.12000000e-008,3.50000482e-005
,,,-3.10000000e-008,1.57187554e-004
,,,-3.08000000e-008,1.90000056e-004
,,,-3.06000000e-008,1.44375053e-004
,,,-3.04000000e-008,9.37504701e-006
,,,-3.02000000e-008,-1.35937460e-004
,,,-3.00000000e-008,-2.29687464e-004
,,,-2.98000000e-008,-2.39999965e-004
,,,-2.96000000e-008,-1.84062462e-004
,,,-2.94000000e-008,-6.12499563e-005
,,,-2.92000000e-008,7.46875501e-005
,,,-2.90000000e-008,1.36875053e-004
,,,-2.88000000e-008,1.85625055e-004
,,,-2.86000000e-008,1.25937553e-004
,,,-2.84000000e-008,-6.24953464e-007
,,,-2.82000000e-008,-1.39062460e-004
,,,-2.80000000e-008,-2.75312467e-004
,,,-2.78000000e-008,-2.87499967e-004
,,,-2.76000000e-008,-1.64062461e-004
,,,-2.74000000e-008,3.43750482e-005
,,,-2.72000000e-008,1.67812555e-004
,,,-2.70000000e-008,2.43750058e-004
,,,-2.68000000e-008,1.63750054e-004
,,,-2.66000000e-008,2.12500476e-005
,,,-2.64000000e-008,-1.42499960e-004
,,,-2.62000000e-008,-2.20312464e-004
,,,-2.60000000e-008,-2.35937465e-004
,,,-2.58000000e-008,-1.80624962e-004
,,,-2.56000000e-008,-6.74999566e-005
,,,-2.54000000e-008,6.18750495e-005
,,,-2.52000000e-008,1.32500053e-004
,,,-2.50000000e-008,1.41250053e-004
,,,-2.48000000e-008,7.56250502e-005
,,,-2.46000000e-008,6.56254688e-006
,,,-2.44000000e-008,-9.34374579e-005
,,,-2.42000000e-008,-1.36874960e-004
,,,-2.40000000e-008,-1.90312462e-004
,,,-2.38000000e-008,-1.62187461e-004
,,,-2.36000000e-008,-1.09999959e-004
,,,-2.34000000e-008,-1.15624540e-005
,,,-2.32000000e-008,1.13750052e-004
,,,-2.30000000e-008,1.86562555e-004
,,,-2.28000000e-008,1.95000056e-004
,,,-2.26000000e-008,8.00000504e-005
,,,-2.24000000e-008,-1.02499958e-004
,,,-2.22000000e-008,-2.48749965e-004
,,,-2.20000000e-008,-3.10624968e-004
,,,-2.18000000e-008,-2.72812466e-004
,,,-2.16000000e-008,-7.87499572e-005
,,,-2.14000000e-008,1.06875052e-004
,,,-2.12000000e-008,2.72500060e-004
,,,-2.10000000e-008,2.98750061e-004
,,,-2.08000000e-008,1.64062554e-004
,,,-2.06000000e-008,-9.65624580e-005
,,,-2.04000000e-008,-3.19374969e-004
,,,-2.02000000e-008,-4.36249974e-004
,,,-2.00000000e-008,-3.51249970e-004
,,,-1.98000000e-008,-1.10937459e-004
,,,-1.96000000e-008,1.52500054e-004
,,,-1.94000000e-008,3.19062562e-004
,,,-1.92000000e-008,3.19375062e-004
,,,-1.90000000e-008,1.94375056e-004
,,,-1.88000000e-008,-4.93749558e-005
,,,-1.86000000e-008,-2.65624966e-004
,,,-1.84000000e-008,-3.99999972e-004
,,,-1.82000000e-008,-3.59374971e-004
,,,-1.80000000e-008,-1.67812461e-004
,,,-1.78000000e-008,1.15937552e-004
,,,-1.76000000e-008,3.08750061e-004
,,,-1.74000000e-008,3.12500061e-004
,,,-1.72000000e-008,1.99687556e-004
,,,-1.70000000e-008,-1.31249541e-005
,,,-1.68000000e-008,-2.51874965e-004
,,,-1.66000000e-008,-3.55624970e-004
,,,-1.64000000e-008,-3.28124969e-004
,,,-1.62000000e-008,-1.83437462e-004
,,,-1.60000000e-008,1.90625475e-005
,,,-1.58000000e-008,1.59062554e-004
,,,-1.56000000e-008,1.97812556e-004
,,,-1.54000000e-008,1.74375055e-004
,,,-1.52000000e-008,4.40625487e-005
,,,-1.50000000e-008,-9.03124577e-005
,,,-1.48000000e-008,-2.02499963e-004
,,,-1.46000000e-008,-2.23437464e-004
,,,-1.44000000e-008,-1.95937463e-004
,,,-1.42000000e-008,-1.53749961e-004
,,,-1.40000000e-008,-1.28124540e-005
,,,-1.38000000e-008,7.25000500e-005
,,,-1.36000000e-008,1.71250055e-004
,,,-1.34000000e-008,2.44375058e-004
,,,-1.32000000e-008,1.53125054e-004
,,,-1.30000000e-008,-5.93745372e-006
,,,-1.28000000e-008,-2.03124963e-004
,,,-1.26000000e-008,-3.44374970e-004
,,,-1.24000000e-008,-3.41874970e-004
,,,-1.22000000e-008,-1.79374962e-004
,,,-1.20000000e-008,5.09375490e-005
,,,-1.18000000e-008,2.27812557e-004
,,,-1.16000000e-008,3.20625062e-004
,,,-1.14000000e-008,2.20625057e-004
,,,-1.12000000e-008,1.81250474e-005
,,,-1.10000000e-008,-1.85937462e-004
,,,-1.08000000e-008,-3.44062470e-004
,,,-1.06000000e-008,-3.76249971e-004
,,,-1.04000000e-008,-2.16562464e-004
,,,-1.02000000e-008,-1.24995349e-006
,,,-1.00000000e-008,1.99375056e-004
,,,-9.80000000e-009,2.96875061e-004
,,,-9.60000000e-009,2.49062558e-004
,,,-9.40000000e-009,9.21875509e-005
,,,-9.20000000e-009,-9.87499581e-005
,,,-9.00000000e-009,-2.59999966e-004
,,,-8.80000000e-009,-3.32187469e-004
,,,-8.60000000e-009,-2.73749966e-004
,,,-8.40000000e-009,-9.90624581e-005
,,,-8.20000000e-009,9.40625510e-005
,,,-8.00000000e-009,2.26250057e-004
,,,-7.80000000e-009,2.61875059e-004
,,,-7.60000000e-009,1.41875053e-004
,,,-7.40000000e-009,-4.49999556e-005
,,,-7.20000000e-009,-2.19374964e-004
,,,-7.00000000e-009,-2.98749968e-004
,,,-6.80000000e-009,-2.78437467e-004
,,,-6.60000000e-009,-2.07499963e-004
,,,-6.40000000e-009,-5.24999559e-005
,,,-6.20000000e-009,6.96875499e-005
,,,-6.00000000e-009,1.49375054e-004
,,,-5.80000000e-009,1.54687554e-004
,,,-5.60000000e-009,7.40625501e-005
,,,-5.40000000e-009,-4.49999556e-005
,,,-5.20000000e-009,-1.69999962e-004
,,,-5.00000000e-009,-2.65312466e-004
,,,-4.80000000e-009,-2.94062467e-004
,,,-4.60000000e-009,-2.09062463e-004
,,,-4.40000000e-009,-2.68749547e-005
,,,-4.20000000e-009,1.29375053e-004
,,,-4.00000000e-009,2.36250058e-004
,,,-3.80000000e-009,2.30000057e-004
,,,-3.60000000e-009,9.53125511e-005
,,,-3.40000000e-009,-1.50624961e-004
,,,-3.20000000e-009,-3.40937470e-004
,,,-3.00000000e-009,-4.26562474e-004
,,,-2.80000000e-009,-2.77187467e-004
,,,-2.60000000e-009,-6.03124563e-005
,,,-2.40000000e-009,1.59375054e-004
,,,-2.20000000e-009,2.88750060e-004
,,,-2.00000000e-009,2.19375057e-004
,,,-1.80000000e-009,5.18750490e-005
,,,-1.60000000e-009,-1.69999962e-004
,,,-1.40000000e-009,-3.36562469e-004
,,,-1.20000000e-009,-3.59062470e-004
,,,-1.00000000e-009,-2.72187466e-004
,,,-8.00000000e-010,-7.21874569e-005
,,,-6.00000000e-010,1.48125054e-004
,,,-4.00000000e-010,2.59062559e-004
,,,-2.00000000e-010,2.03125056e-004
,,,0.00000000e+000,6.59375497e-005
,,,2.00000000e-010,-1.03124958e-004
,,,4.00000000e-010,-2.46562465e-004
,,,6.00000000e-010,-2.69062466e-004
,,,8.00000000e-010,-1.99999963e-004
,,,1.00000000e-009,-9.56249580e-005
,,,1.20000000e-009,4.09375485e-005
,,,1.40000000e-009,1.25312553e-004
,,,1.60000000e-009,1.85625055e-004
,,,1.80000000e-009,1.14062552e-004
,,,2.00000000e-009,-1.87495352e-006
,,,2.20000000e-009,-1.22187459e-004
,,,2.40000000e-009,-2.20937464e-004
,,,2.60000000e-009,-2.45937465e-004
,,,2.80000000e-009,-2.04687463e-004
,,,3.00000000e-009,-6.84374567e-005
,,,3.20000000e-009,5.62500492e-005
,,,3.40000000e-009,1.49375054e-004
,,,3.60000000e-009,1.53750054e-004
,,,3.80000000e-009,7.96875504e-005
,,,4.00000000e-009,-2.21874545e-005
,,,4.20000000e-009,-1.39374960e-004
,,,4.40000000e-009,-2.44687465e-004
,,,4.60000000e-009,-2.47499965e-004
,,,4.80000000e-009,-1.48124960e-004
,,,5.00000000e-009,-5.62495370e-006
,,,5.20000000e-009,1.25625053e-004
,,,5.40000000e-009,2.15312557e-004
,,,5.60000000e-009,2.01250056e-004
,,,5.80000000e-009,9.56250511e-005
,,,6.00000000e-009,-8.49999575e-005
,,,6.20000000e-009,-2.55937466e-004
,,,6.40000000e-009,-3.25624969e-004
,,,6.60000000e-009,-2.55937466e-004
,,,6.80000000e-009,-4.90624558e-005
,,,7.00000000e-009,1.43437553e-004
,,,7.20000000e-009,2.99375061e-004
,,,7.40000000e-009,2.66562559e-004
,,,7.60000000e-009,6.62500497e-005
