Data/20220819/UCLA_to_R2B_VPOL_E_40_01_Ch2.csv

"Record Length",5000,"Points",-1.00800000e-007,1.15312552e-004
"Sample Interval",2.00000000e-010,s,-1.00600000e-007,6.78125498e-005
"Trigger Point",504,"Samples",-1.00400000e-007,2.09375476e-005
"Trigger Time",0.00000000e+000,s,-1.00200000e-007,1.53125473e-005
"",,,-1.00000000e-007,1.87500475e-005
"Horizontal Offset",-1.00800000e-007,s,-9.98000000e-008,8.18750505e-005
,,,-9.96000000e-008,1.19062552e-004
,,,-9.94000000e-008,9.25000510e-005
,,,-9.92000000e-008,7.28125500e-005
,,,-9.90000000e-008,1.78125474e-005
,,,-9.88000000e-008,1.37500472e-005
,,,-9.86000000e-008,1.84375474e-005
,,,-9.84000000e-008,3.50000482e-005
,,,-9.82000000e-008,8.12500504e-005
,,,-9.80000000e-008,6.71875498e-005
,,,-9.78000000e-008,6.25000495e-005
,,,-9.76000000e-008,3.09375480e-005
,,,-9.74000000e-008,-3.96874553e-005
,,,-9.72000000e-008,-4.37495364e-006
,,,-9.70000000e-008,-6.24995373e-006
,,,-9.68000000e-008,6.00000494e-005
,,,-9.66000000e-008,1.39375053e-004
,,,-9.64000000e-008,1.58125054e-004
,,,-9.62000000e-008,1.45937553e-004
,,,-9.60000000e-008,5.12500490e-005
,,,-9.58000000e-008,-4.81249557e-005
,,,-9.56000000e-008,-8.49999575e-005
,,,-9.54000000e-008,-6.34374564e-005
,,,-9.52000000e-008,6.90625498e-005
,,,-9.50000000e-008,1.75937555e-004
,,,-9.48000000e-008,2.45625058e-004
,,,-9.46000000e-008,2.29375057e-004
,,,-9.44000000e-008,1.02500051e-004
,,,-9.42000000e-008,-1.43749541e-005
,,,-9.40000000e-008,-9.49999579e-005
,,,-9.38000000e-008,-1.01562458e-004
,,,-9.36000000e-008,-5.62495370e-006
,,,-9.34000000e-008,7.71875502e-005
,,,-9.32000000e-008,1.76875055e-004
,,,-9.30000000e-008,1.93125056e-004
,,,-9.28000000e-008,1.26562553e-004
,,,-9.26000000e-008,5.78125493e-005
,,,-9.24000000e-008,-4.59374556e-005
,,,-9.22000000e-008,-5.12499559e-005
,,,-9.20000000e-008,-2.18745354e-006
,,,-9.18000000e-008,5.78125493e-005
,,,-9.16000000e-008,1.54375054e-004
,,,-9.14000000e-008,1.08437552e-004
,,,-9.12000000e-008,7.68750502e-005
,,,-9.10000000e-008,1.75000474e-005
,,,-9.08000000e-008,-6.24995373e-006
,,,-9.06000000e-008,5.71875493e-005
,,,-9.04000000e-008,8.71875507e-005
,,,-9.02000000e-008,1.29687553e-004
,,,-9.00000000e-008,1.24687552e-004
,,,-8.98000000e-008,5.65625493e-005
,,,-8.96000000e-008,2.78125479e-005
,,,-8.94000000e-008,-9.68745389e-006
,,,-8.92000000e-008,4.65661288e-011
,,,-8.90000000e-008,4.93750489e-005
,,,-8.88000000e-008,7.46875501e-005
,,,-8.86000000e-008,8.12500504e-005
,,,-8.84000000e-008,6.96875499e-005
,,,-8.82000000e-008,3.31250481e-005
,,,-8.80000000e-008,1.96875475e-005
,,,-8.78000000e-008,-1.96874544e-005
,,,-8.76000000e-008,1.62500473e-005
,,,-8.74000000e-008,7.09375499e-005
,,,-8.72000000e-008,9.53125511e-005
,,,-8.70000000e-008,1.30937553e-004
,,,-8.68000000e-008,8.09375504e-005
,,,-8.66000000e-008,2.46875477e-005
,,,-8.64000000e-008,-3.37499550e-005
,,,-8.62000000e-008,-4.15624554e-005
,,,-8.60000000e-008,3.53125482e-005
,,,-8.58000000e-008,1.09687552e-004
,,,-8.56000000e-008,1.75937555e-004
,,,-8.54000000e-008,1.99062556e-004
,,,-8.52000000e-008,1.37812553e-004
,,,-8.50000000e-008,5.18750490e-005
,,,-8.48000000e-008,-4.15624554e-005
,,,-8.46000000e-008,-8.40624574e-005
,,,-8.44000000e-008,-4.53124556e-005
,,,-8.42000000e-008,4.68754679e-006
,,,-8.40000000e-008,1.27812553e-004
,,,-8.38000000e-008,1.89062556e-004
,,,-8.36000000e-008,1.92500056e-004
,,,-8.34000000e-008,1.41875053e-004
,,,-8.32000000e-008,3.28125481e-005
,,,-8.30000000e-008,-3.59374551e-005
,,,-8.28000000e-008,-6.62499566e-005
,,,-8.26000000e-008,-1.15624540e-005
,,,-8.24000000e-008,4.56250487e-005
,,,-8.22000000e-008,9.06250509e-005
,,,-8.20000000e-008,1.04375052e-004
,,,-8.18000000e-008,8.68750507e-005
,,,-8.16000000e-008,7.53125501e-005
,,,-8.14000000e-008,1.05312552e-004
,,,-8.12000000e-008,9.12500509e-005
,,,-8.10000000e-008,8.50000506e-005
,,,-8.08000000e-008,5.90625494e-005
,,,-8.06000000e-008,-1.37499541e-005
,,,-8.04000000e-008,-5.71874562e-005
,,,-8.02000000e-008,-5.46874560e-005
,,,-8.00000000e-008,3.75004674e-006
,,,-7.98000000e-008,1.13437552e-004
,,,-7.96000000e-008,1.98437556e-004
,,,-7.94000000e-008,2.24375057e-004
,,,-7.92000000e-008,1.49375054e-004
,,,-7.90000000e-008,3.56250483e-005
,,,-7.88000000e-008,-8.74999576e-005
,,,-7.86000000e-008,-1.62499961e-004
,,,-7.84000000e-008,-1.28749960e-004
,,,-7.82000000e-008,-3.74995361e-006
,,,-7.80000000e-008,1.49062554e-004
,,,-7.78000000e-008,2.44687558e-004
,,,-7.76000000e-008,2.46250058e-004
,,,-7.74000000e-008,1.34375053e-004
,,,-7.72000000e-008,-1.90624543e-005
,,,-7.70000000e-008,-1.25937459e-004
,,,-7.68000000e-008,-1.36562460e-004
,,,-7.66000000e-008,-3.37499550e-005
,,,-7.64000000e-008,7.09375499e-005
,,,-7.62000000e-008,1.93437556e-004
,,,-7.60000000e-008,2.20625057e-004
,,,-7.58000000e-008,1.75937555e-004
,,,-7.56000000e-008,6.75000498e-005
,,,-7.54000000e-008,-3.03124549e-005
,,,-7.52000000e-008,-8.59374575e-005
,,,-7.50000000e-008,-5.56249561e-005
,,,-7.48000000e-008,1.37500472e-005
,,,-7.46000000e-008,1.06250052e-004
,,,-7.44000000e-008,1.85937555e-004
,,,-7.42000000e-008,1.80625055e-004
,,,-7.40000000e-008,9.78125512e-005
,,,-7.38000000e-008,3.59375483e-005
,,,-7.36000000e-008,-3.93749553e-005
,,,-7.34000000e-008,-4.46874556e-005
,,,-7.32000000e-008,2.09375476e-005
,,,-7.30000000e-008,6.31250496e-005
,,,-7.28000000e-008,8.84375508e-005
,,,-7.26000000e-008,9.71875512e-005
,,,-7.24000000e-008,7.21875500e-005
,,,-7.22000000e-008,6.75000498e-005
,,,-7.20000000e-008,5.56250492e-005
,,,-7.18000000e-008,8.68750507e-005
,,,-7.16000000e-008,1.15625052e-004
,,,-7.14000000e-008,7.53125501e-005
,,,-7.12000000e-008,4.59375487e-005
,,,-7.10000000e-008,-8.12495382e-006
,,,-7.08000000e-008,-2.12499544e-005
,,,-7.06000000e-008,4.37504677e-006
,,,-7.04000000e-008,5.75000493e-005
,,,-7.02000000e-008,1.48437554e-004
,,,-7.00000000e-008,2.00000056e-004
,,,-6.98000000e-008,1.69062555e-004
,,,-6.96000000e-008,8.12500504e-005
,,,-6.94000000e-008,-4.56249556e-005
,,,-6.92000000e-008,-1.31249960e-004
,,,-6.90000000e-008,-1.22187459e-004
,,,-6.88000000e-008,-5.24999559e-005
,,,-6.86000000e-008,7.75000502e-005
,,,-6.84000000e-008,1.80312555e-004
,,,-6.82000000e-008,2.11250057e-004
,,,-6.80000000e-008,1.83437555e-004
,,,-6.78000000e-008,7.03125499e-005
,,,-6.76000000e-008,-2.90624548e-005
,,,-6.74000000e-008,-7.62499571e-005
,,,-6.72000000e-008,-5.96874563e-005
,,,-6.70000000e-008,9.37504701e-006
,,,-6.68000000e-008,8.28125505e-005
,,,-6.66000000e-008,1.30312553e-004
,,,-6.64000000e-008,1.48437554e-004
,,,-6.62000000e-008,1.25000053e-004
,,,-6.60000000e-008,1.19375052e-004
,,,-6.58000000e-008,6.87500498e-005
,,,-6.56000000e-008,4.03125485e-005
,,,-6.54000000e-008,2.78125479e-005
,,,-6.52000000e-008,-6.56245375e-006
,,,-6.50000000e-008,9.37504701e-006
,,,-6.48000000e-008,2.18750476e-005
,,,-6.46000000e-008,5.68750493e-005
,,,-6.44000000e-008,8.43750506e-005
,,,-6.42000000e-008,7.78125503e-005
,,,-6.40000000e-008,9.59375511e-005
,,,-6.38000000e-008,8.65625507e-005
,,,-6.36000000e-008,4.50000487e-005
,,,-6.34000000e-008,2.53125478e-005
,,,-6.32000000e-008,-2.56249547e-005
,,,-6.30000000e-008,-4.31249555e-005
,,,-6.28000000e-008,9.68754703e-006
,,,-6.26000000e-008,5.65625493e-005
,,,-6.24000000e-008,1.36250053e-004
,,,-6.22000000e-008,1.70937555e-004
,,,-6.20000000e-008,1.48750054e-004
,,,-6.18000000e-008,6.87500498e-005
,,,-6.16000000e-008,-8.12495382e-006
,,,-6.14000000e-008,-2.21874545e-005
,,,-6.12000000e-008,-1.34374541e-005
,,,-6.10000000e-008,4.75000488e-005
,,,-6.08000000e-008,1.23125052e-004
,,,-6.06000000e-008,1.46875054e-004
,,,-6.04000000e-008,1.42187553e-004
,,,-6.02000000e-008,6.93750499e-005
,,,-6.00000000e-008,-8.12495382e-006
,,,-5.98000000e-008,-4.99999558e-005
,,,-5.96000000e-008,-6.78124567e-005
,,,-5.94000000e-008,8.43754697e-006
,,,-5.92000000e-008,9.81250512e-005
,,,-5.90000000e-008,1.57500054e-004
,,,-5.88000000e-008,1.50312554e-004
,,,-5.86000000e-008,7.90625503e-005
,,,-5.84000000e-008,8.75004698e-006
,,,-5.82000000e-008,-3.12499549e-005
,,,-5.80000000e-008,-1.96874544e-005
,,,-5.78000000e-008,3.37500482e-005
,,,-5.76000000e-008,8.90625508e-005
,,,-5.74000000e-008,1.10000052e-004
,,,-5.72000000e-008,1.05000052e-004
,,,-5.70000000e-008,8.56250506e-005
,,,-5.68000000e-008,7.46875501e-005
,,,-5.66000000e-008,5.46875492e-005
,,,-5.64000000e-008,5.31250491e-005
,,,-5.62000000e-008,7.43750501e-005
,,,-5.60000000e-008,6.62500497e-005
,,,-5.58000000e-008,5.71875493e-005
,,,-5.56000000e-008,3.00000480e-005
,,,-5.54000000e-008,7.18754691e-006
,,,-5.52000000e-008,1.06250471e-005
,,,-5.50000000e-008,3.40625482e-005
,,,-5.48000000e-008,7.87500503e-005
,,,-5.46000000e-008,9.93750513e-005
,,,-5.44000000e-008,1.14375052e-004
,,,-5.42000000e-008,6.96875499e-005
,,,-5.40000000e-008,2.28125476e-005
,,,-5.38000000e-008,-1.59374542e-005
,,,-5.36000000e-008,-4.84374557e-005
,,,-5.34000000e-008,-1.74999543e-005
,,,-5.32000000e-008,4.03125485e-005
,,,-5.30000000e-008,9.43750510e-005
,,,-5.28000000e-008,1.60625054e-004
,,,-5.26000000e-008,1.41250053e-004
,,,-5.24000000e-008,1.02187551e-004
,,,-5.22000000e-008,4.68750488e-005
,,,-5.20000000e-008,-2.37499546e-005
,,,-5.18000000e-008,-1.96874544e-005
,,,-5.16000000e-008,5.62504683e-006
,,,-5.14000000e-008,5.06250490e-005
,,,-5.12000000e-008,1.00937551e-004
,,,-5.10000000e-008,1.13750052e-004
,,,-5.08000000e-008,9.96875513e-005
,,,-5.06000000e-008,6.93750499e-005
,,,-5.04000000e-008,3.09375480e-005
,,,-5.02000000e-008,2.53125478e-005
,,,-5.00000000e-008,1.87500475e-005
,,,-4.98000000e-008,6.43750496e-005
,,,-4.96000000e-008,7.46875501e-005
,,,-4.94000000e-008,7.56250502e-005
,,,-4.92000000e-008,4.87500489e-005
,,,-4.90000000e-008,4.68754679e-006
,,,-4.88000000e-008,2.50004668e-006
,,,-4.86000000e-008,3.84375484e-005
,,,-4.84000000e-008,7.31250500e-005
,,,-4.82000000e-008,1.21875052e-004
,,,-4.80000000e-008,1.25937553e-004
,,,-4.78000000e-008,1.01250051e-004
,,,-4.76000000e-008,4.75000488e-005
,,,-4.74000000e-008,1.81250474e-005
,,,-4.72000000e-008,1.31250472e-005
,,,-4.70000000e-008,2.40625477e-005
,,,-4.68000000e-008,4.37500486e-005
,,,-4.66000000e-008,8.12500504e-005
,,,-4.64000000e-008,9.56250511e-005
,,,-4.62000000e-008,9.43750510e-005
,,,-4.60000000e-008,9.65625512e-005
,,,-4.58000000e-008,7.21875500e-005
,,,-4.56000000e-008,5.84375493e-005
,,,-4.54000000e-008,2.53125478e-005
,,,-4.52000000e-008,2.21875476e-005
,,,-4.50000000e-008,2.93750480e-005
,,,-4.48000000e-008,3.06250480e-005
,,,-4.46000000e-008,3.40625482e-005
,,,-4.44000000e-008,3.75000483e-005
,,,-4.42000000e-008,6.40625496e-005
,,,-4.40000000e-008,7.93750503e-005
,,,-4.38000000e-008,7.56250502e-005
,,,-4.36000000e-008,5.62500492e-005
,,,-4.34000000e-008,4.53125487e-005
,,,-4.32000000e-008,4.00000485e-005
,,,-4.30000000e-008,2.15625476e-005
,,,-4.28000000e-008,4.59375487e-005
,,,-4.26000000e-008,4.53125487e-005
,,,-4.24000000e-008,5.78125493e-005
,,,-4.22000000e-008,7.03125499e-005
,,,-4.20000000e-008,5.93750494e-005
,,,-4.18000000e-008,6.43750496e-005
,,,-4.16000000e-008,7.56250502e-005
,,,-4.14000000e-008,4.03125485e-005
,,,-4.12000000e-008,5.21875490e-005
,,,-4.10000000e-008,5.46875492e-005
,,,-4.08000000e-008,5.40625491e-005
,,,-4.06000000e-008,6.71875498e-005
,,,-4.04000000e-008,4.84375489e-005
,,,-4.02000000e-008,3.03125480e-005
,,,-4.00000000e-008,2.06250475e-005
,,,-3.98000000e-008,3.65625483e-005
,,,-3.96000000e-008,5.12500490e-005
,,,-3.94000000e-008,8.43750506e-005
,,,-3.92000000e-008,9.59375511e-005
,,,-3.90000000e-008,7.71875502e-005
,,,-3.88000000e-008,6.81250498e-005
,,,-3.86000000e-008,4.34375486e-005
,,,-3.84000000e-008,2.71875479e-005
,,,-3.82000000e-008,2.84375479e-005
,,,-3.80000000e-008,5.56250492e-005
,,,-3.78000000e-008,7.34375501e-005
,,,-3.76000000e-008,9.75000512e-005
,,,-3.74000000e-008,7.68750502e-005
,,,-3.72000000e-008,7.53125501e-005
,,,-3.70000000e-008,6.21875495e-005
,,,-3.68000000e-008,4.53125487e-005
,,,-3.66000000e-008,6.87500498e-005
,,,-3.64000000e-008,7.71875502e-005
,,,-3.62000000e-008,1.00937551e-004
,,,-3.60000000e-008,9.25000510e-005
,,,-3.58000000e-008,4.46875487e-005
,,,-3.56000000e-008,4.06254676e-006
,,,-3.54000000e-008,-2.71874547e-005
,,,-3.52000000e-008,-1.74999543e-005
,,,-3.50000000e-008,2.28125476e-005
,,,-3.48000000e-008,8.34375505e-005
,,,-3.46000000e-008,1.16875052e-004
,,,-3.44000000e-008,1.43437553e-004
,,,-3.42000000e-008,1.05937552e-004
,,,-3.40000000e-008,2.65625478e-005
,,,-3.38000000e-008,-4.93749558e-005
,,,-3.36000000e-008,-6.18749564e-005
,,,-3.34000000e-008,-2.71874547e-005
,,,-3.32000000e-008,3.43750482e-005
,,,-3.30000000e-008,1.35000053e-004
,,,-3.28000000e-008,1.79375055e-004
,,,-3.26000000e-008,1.76562555e-004
,,,-3.24000000e-008,1.16562552e-004
,,,-3.22000000e-008,5.25000491e-005
,,,-3.20000000e-008,4.65661288e-011
,,,-3.18000000e-008,-2.46874546e-005
,,,-3.16000000e-008,-7.49995379e-006
,,,-3.14000000e-008,1.65625474e-005
,,,-3.12000000e-008,6.71875498e-005
,,,-3.10000000e-008,9.06250509e-005
,,,-3.08000000e-008,8.15625504e-005
,,,-3.06000000e-008,8.84375508e-005
,,,-3.04000000e-008,6.78125498e-005
,,,-3.02000000e-008,4.75000488e-005
,,,-3.00000000e-008,4.21875486e-005
,,,-2.98000000e-008,2.78125479e-005
,,,-2.96000000e-008,2.06250475e-005
,,,-2.94000000e-008,1.21875471e-005
,,,-2.92000000e-008,1.25000472e-005
,,,-2.90000000e-008,2.90625479e-005
,,,-2.88000000e-008,9.31250510e-005
,,,-2.86000000e-008,1.23437552e-004
,,,-2.84000000e-008,1.49375054e-004
,,,-2.82000000e-008,1.35000053e-004
,,,-2.80000000e-008,8.71875507e-005
,,,-2.78000000e-008,2.93750480e-005
,,,-2.76000000e-008,6.25046596e-007
,,,-2.74000000e-008,-1.56245351e-006
,,,-2.72000000e-008,2.46875477e-005
,,,-2.70000000e-008,7.37500501e-005
,,,-2.68000000e-008,1.17812552e-004
,,,-2.66000000e-008,1.24375052e-004
,,,-2.64000000e-008,1.19062552e-004
,,,-2.62000000e-008,5.50000492e-005
,,,-2.60000000e-008,9.06254700e-006
,,,-2.58000000e-008,-2.78124548e-005
,,,-2.56000000e-008,-2.68749547e-005
,,,-2.54000000e-008,2.65625478e-005
,,,-2.52000000e-008,6.59375497e-005
,,,-2.50000000e-008,1.08437552e-004
,,,-2.48000000e-008,1.06562552e-004
,,,-2.46000000e-008,5.96875494e-005
,,,-2.44000000e-008,1.21875471e-005
,,,-2.42000000e-008,9.37546611e-007
,,,-2.40000000e-008,1.37500472e-005
,,,-2.38000000e-008,5.18750490e-005
,,,-2.36000000e-008,7.90625503e-005
,,,-2.34000000e-008,1.02187551e-004
,,,-2.32000000e-008,9.09375509e-005
,,,-2.30000000e-008,7.78125503e-005
,,,-2.28000000e-008,5.37500491e-005
,,,-2.26000000e-008,4.53125487e-005
,,,-2.24000000e-008,3.59375483e-005
,,,-2.22000000e-008,3.34375482e-005
,,,-2.20000000e-008,4.84375489e-005
,,,-2.18000000e-008,4.21875486e-005
,,,-2.16000000e-008,5.68750493e-005
,,,-2.14000000e-008,5.31250491e-005
,,,-2.12000000e-008,7.18750500e-005
,,,-2.10000000e-008,9.93750513e-005
,,,-2.08000000e-008,1.00000051e-004
,,,-2.06000000e-008,9.56250511e-005
,,,-2.04000000e-008,3.21875481e-005
,,,-2.02000000e-008,-4.34374555e-005
,,,-2.00000000e-008,-7.15624568e-005
,,,-1.98000000e-008,-4.09374554e-005
,,,-1.96000000e-008,4.53125487e-005
,,,-1.94000000e-008,1.37812553e-004
,,,-1.92000000e-008,2.06562556e-004
,,,-1.90000000e-008,1.89687556e-004
,,,-1.88000000e-008,1.31250053e-004
,,,-1.86000000e-008,2.50000478e-005
,,,-1.84000000e-008,-5.18749559e-005
,,,-1.82000000e-008,-8.15624573e-005
,,,-1.80000000e-008,-4.03124553e-005
,,,-1.78000000e-008,4.96875489e-005
,,,-1.76000000e-008,1.51562554e-004
,,,-1.74000000e-008,2.13437557e-004
,,,-1.72000000e-008,2.10000057e-004
,,,-1.70000000e-008,1.28125053e-004
,,,-1.68000000e-008,2.56250478e-005
,,,-1.66000000e-008,-3.18749549e-005
,,,-1.64000000e-008,-5.99999563e-005
,,,-1.62000000e-008,-1.40624541e-005
,,,-1.60000000e-008,5.28125491e-005
,,,-1.58000000e-008,9.59375511e-005
,,,-1.56000000e-008,1.12187552e-004
,,,-1.54000000e-008,9.31250510e-005
,,,-1.52000000e-008,5.65625493e-005
,,,-1.50000000e-008,1.59375473e-005
,,,-1.48000000e-008,2.43750477e-005
,,,-1.46000000e-008,5.87500494e-005
,,,-1.44000000e-008,8.28125505e-005
,,,-1.42000000e-008,8.37500505e-005
,,,-1.40000000e-008,6.75000498e-005
,,,-1.38000000e-008,8.75004698e-006
,,,-1.36000000e-008,-2.99999549e-005
,,,-1.34000000e-008,-2.71874547e-005
,,,-1.32000000e-008,3.71875483e-005
,,,-1.30000000e-008,1.23750052e-004
,,,-1.28000000e-008,1.80312555e-004
,,,-1.26000000e-008,1.73125055e-004
,,,-1.24000000e-008,9.37500510e-005
,,,-1.22000000e-008,7.18754691e-006
,,,-1.20000000e-008,-8.34374574e-005
,,,-1.18000000e-008,-1.05312458e-004
,,,-1.16000000e-008,-3.74999552e-005
,,,-1.14000000e-008,6.31250496e-005
,,,-1.12000000e-008,1.51250054e-004
,,,-1.10000000e-008,2.05000056e-004
,,,-1.08000000e-008,1.66250054e-004
,,,-1.06000000e-008,6.34375496e-005
,,,-1.04000000e-008,-1.96874544e-005
,,,-1.02000000e-008,-7.53124570e-005
,,,-1.00000000e-008,-6.49999565e-005
,,,-9.80000000e-009,2.71875479e-005
,,,-9.60000000e-009,9.37500510e-005
,,,-9.40000000e-009,1.49062554e-004
,,,-9.20000000e-009,1.45937553e-004
,,,-9.00000000e-009,8.46875506e-005
,,,-8.80000000e-009,2.43750477e-005
,,,-8.60000000e-009,-5.93745372e-006
,,,-8.40000000e-009,-4.37495364e-006
,,,-8.20000000e-009,3.40625482e-005
,,,-8.00000000e-009,8.81250508e-005
,,,-7.80000000e-009,1.27812553e-004
,,,-7.60000000e-009,1.19062552e-004
,,,-7.40000000e-009,8.25000505e-005
,,,-7.20000000e-009,9.68754703e-006
,,,-7.00000000e-009,-2.78124548e-005
,,,-6.80000000e-009,-2.31249545e-005
,,,-6.60000000e-009,1.87504666e-006
,,,-6.40000000e-009,4.93750489e-005
,,,-6.20000000e-009,9.18750509e-005
,,,-6.00000000e-009,8.03125504e-005
,,,-5.80000000e-009,5.84375493e-005
,,,-5.60000000e-009,2.78125479e-005
,,,-5.40000000e-009,-3.74995361e-006
,,,-5.20000000e-009,-2.28124545e-005
,,,-5.00000000e-009,-2.12499544e-005
,,,-4.80000000e-009,1.37500472e-005
,,,-4.60000000e-009,2.96875480e-005
,,,-4.40000000e-009,5.09375490e-005
,,,-4.20000000e-009,6.37500496e-005
,,,-4.00000000e-009,5.43750491e-005
,,,-3.80000000e-009,4.18750486e-005
,,,-3.60000000e-009,4.15625485e-005
,,,-3.40000000e-009,4.53125487e-005
,,,-3.20000000e-009,4.46875487e-005
,,,-3.00000000e-009,3.28125481e-005
,,,-2.80000000e-009,1.21875471e-005
,,,-2.60000000e-009,3.12504671e-006
,,,-2.40000000e-009,8.75004698e-006
,,,-2.20000000e-009,1.75000474e-005
,,,-2.00000000e-009,3.15625481e-005
,,,-1.80000000e-009,3.78125484e-005
,,,-1.60000000e-009,4.37500486e-005
,,,-1.40000000e-009,2.28125476e-005
,,,-1.20000000e-009,4.06250485e-005
,,,-1.00000000e-009,2.96875480e-005
,,,-8.00000000e-010,1.93750475e-005
,,,-6.00000000e-010,5.00004680e-006
,,,-4.00000000e-010,-2.49995355e-006
,,,-2.00000000e-010,-2.49995355e-006
,,,0.00000000e+000,1.90625475e-005
,,,2.00000000e-010,3.09375480e-005
,,,4.00000000e-010,5.40625491e-005
,,,6.00000000e-010,8.25000505e-005
,,,8.00000000e-010,1.10625052e-004
,,,1.00000000e-009,1.17812552e-004
,,,1.20000000e-009,1.05937552e-004
,,,1.40000000e-009,4.09375485e-005
,,,1.60000000e-009,-3.84374553e-005
,,,1.80000000e-009,-5.24999559e-005
,,,2.00000000e-009,-4.93749558e-005
,,,2.20000000e-009,1.87500475e-005
,,,2.40000000e-009,9.71875512e-005
,,,2.60000000e-009,1.47187554e-004
,,,2.80000000e-009,1.50000054e-004
,,,3.00000000e-009,8.37500505e-005
,,,3.20000000e-009,2.71875479e-005
,,,3.40000000e-009,-4.74999557e-005
,,,3.60000000e-009,-6.81249567e-005
,,,3.80000000e-009,-4.06249554e-005
,,,4.00000000e-009,1.18750471e-005
,,,4.20000000e-009,8.06250504e-005
,,,4.40000000e-009,1.20000052e-004
,,,4.60000000e-009,1.15000052e-004
,,,4.80000000e-009,7.25000500e-005
,,,5.00000000e-009,4.12500485e-005
,,,5.20000000e-009,2.68750478e-005
,,,5.40000000e-009,3.84375484e-005
,,,5.60000000e-009,4.21875486e-005
,,,5.80000000e-009,7.15625500e-005
,,,6.00000000e-009,8.25000505e-005
,,,6.20000000e-009,6.06250494e-005
,,,6.40000000e-009,5.31250491e-005
,,,6.60000000e-009,3.50000482e-005
,,,6.80000000e-009,3.87500484e-005
,,,7.00000000e-009,4.90625489e-005
,,,7.20000000e-009,7.93750503e-005
,,,7.40000000e-009,1.22500052e-004
,,,7.60000000e-009,1.20312552e-004
,,,7.80000000e-009,8.34375505e-005
,,,8.00000000e-009,1.12500471e-005
,,,8.20000000e-009,-5.62499561e-005
,,,8.40000000e-009,-5.56249561e-005
,,,8.60000000e-009,-2.93749548e-005
,,,8.80000000e-009,2.53125478e-005
