Data/20220819/UCLA_to_R2A_VPOL_E_20_01_Math1.csv

"Record Length",3200,"Points",0.00000000e+000,-1.06456833e+001
"Sample Interval",7.81250000e+005,Hz,7.81250000e+005,-1.63566608e+001
"Trigger Point",0,"Samples",1.56250000e+006,-1.86206112e+001
"Trigger Time",0.00000000e+000,Hz,2.34375000e+006,-2.30173416e+001
"",,,3.12500000e+006,-3.31617012e+001
"Horizontal Offset",0.00000000e+000,Hz,3.90625000e+006,-3.71316833e+001
,,,4.68750000e+006,-2.96297588e+001
,,,5.46875000e+006,-2.92563572e+001
,,,6.25000000e+006,-3.39572296e+001
,,,7.03125000e+006,-5.19973145e+001
,,,7.81250000e+006,-3.78845062e+001
,,,8.59375000e+006,-3.35977020e+001
,,,9.37500000e+006,-3.48083191e+001
,,,1.01562500e+007,-4.11161652e+001
,,,1.09375000e+007,-5.03368950e+001
,,,1.17187500e+007,-3.78074570e+001
,,,1.25000000e+007,-3.63434563e+001
,,,1.32812500e+007,-3.98416100e+001
,,,1.40625000e+007,-5.19512215e+001
,,,1.48437500e+007,-4.48567352e+001
,,,1.56250000e+007,-3.89505119e+001
,,,1.64062500e+007,-3.92252502e+001
,,,1.71875000e+007,-4.45911026e+001
,,,1.79687500e+007,-5.71390228e+001
,,,1.87500000e+007,-4.30232506e+001
,,,1.95312500e+007,-4.03343887e+001
,,,2.03125000e+007,-4.30418243e+001
,,,2.10937500e+007,-5.39140205e+001
,,,2.18750000e+007,-5.16289291e+001
,,,2.26562500e+007,-4.29992638e+001
,,,2.34375000e+007,-4.21214714e+001
,,,2.42187500e+007,-4.59039955e+001
,,,2.50000000e+007,-7.12098618e+001
,,,2.57812500e+007,-4.52700577e+001
,,,2.65625000e+007,-4.41865997e+001
,,,2.73437500e+007,-4.44765778e+001
,,,2.81250000e+007,-5.06815262e+001
,,,2.89062500e+007,-5.39177704e+001
,,,2.96875000e+007,-4.53451385e+001
,,,3.04687500e+007,-4.41976662e+001
,,,3.12500000e+007,-4.72103310e+001
,,,3.20312500e+007,-6.87943878e+001
,,,3.28125000e+007,-5.08283691e+001
,,,3.35937500e+007,-4.62503891e+001
,,,3.43750000e+007,-4.55684700e+001
,,,3.51562500e+007,-5.17948647e+001
,,,3.59375000e+007,-6.73167419e+001
,,,3.67187500e+007,-4.61448288e+001
,,,3.75000000e+007,-4.57991028e+001
,,,3.82812500e+007,-5.02478981e+001
,,,3.90625000e+007,-5.90587730e+001
,,,3.98437500e+007,-5.17529068e+001
,,,4.06250000e+007,-4.92685394e+001
,,,4.14062500e+007,-4.69303513e+001
,,,4.21875000e+007,-5.26153336e+001
,,,4.29687500e+007,-5.93139992e+001
,,,4.37500000e+007,-5.28028412e+001
,,,4.45312500e+007,-4.85629768e+001
,,,4.53125000e+007,-4.89226990e+001
,,,4.60937500e+007,-5.83389282e+001
,,,4.68750000e+007,-5.76236038e+001
,,,4.76562500e+007,-4.95703430e+001
,,,4.84375000e+007,-4.97915840e+001
,,,4.92187500e+007,-4.92971230e+001
,,,5.00000000e+007,-6.20900497e+001
,,,5.07812500e+007,-5.29416084e+001
,,,5.15625000e+007,-4.97546844e+001
,,,5.23437500e+007,-4.95171967e+001
,,,5.31250000e+007,-5.74218445e+001
,,,5.39062500e+007,-5.89768295e+001
,,,5.46875000e+007,-5.13540039e+001
,,,5.54687500e+007,-5.05164261e+001
,,,5.62500000e+007,-5.29468346e+001
,,,5.70312500e+007,-5.94231529e+001
,,,5.78125000e+007,-5.41680984e+001
,,,5.85937500e+007,-5.01747513e+001
,,,5.93750000e+007,-5.01870918e+001
,,,6.01562500e+007,-5.56445389e+001
,,,6.09375000e+007,-6.13718262e+001
,,,6.17187500e+007,-5.28234253e+001
,,,6.25000000e+007,-5.01615067e+001
,,,6.32812500e+007,-5.29853897e+001
,,,6.40625000e+007,-6.39714851e+001
,,,6.48437500e+007,-5.74023781e+001
,,,6.56250000e+007,-5.22757988e+001
,,,6.64062500e+007,-5.08115921e+001
,,,6.71875000e+007,-5.44601974e+001
,,,6.79687500e+007,-5.86468201e+001
,,,6.87500000e+007,-5.58423271e+001
,,,6.95312500e+007,-5.11171494e+001
,,,7.03125000e+007,-5.30721550e+001
,,,7.10937500e+007,-6.14894905e+001
,,,7.18750000e+007,-5.78879318e+001
,,,7.26562500e+007,-5.27875786e+001
,,,7.34375000e+007,-5.46602440e+001
,,,7.42187500e+007,-5.44314346e+001
,,,7.50000000e+007,-5.94453125e+001
,,,7.57812500e+007,-5.99095268e+001
,,,7.65625000e+007,-5.31529198e+001
,,,7.73437500e+007,-5.31046791e+001
,,,7.81250000e+007,-5.60661507e+001
,,,7.89062500e+007,-7.33939514e+001
,,,7.96875000e+007,-5.18789101e+001
,,,8.04687500e+007,-5.00350494e+001
,,,8.12500000e+007,-6.18760185e+001
,,,8.20312500e+007,-6.00319519e+001
,,,8.28125000e+007,-5.77333145e+001
,,,8.35937500e+007,-5.12523193e+001
,,,8.43750000e+007,-5.40830307e+001
,,,8.51562500e+007,-5.66604614e+001
,,,8.59375000e+007,-6.09117241e+001
,,,8.67187500e+007,-5.44893646e+001
,,,8.75000000e+007,-5.37756348e+001
,,,8.82812500e+007,-5.48721008e+001
,,,8.90625000e+007,-7.16495743e+001
,,,8.98437500e+007,-6.00006371e+001
,,,9.06250000e+007,-5.80396500e+001
,,,9.14062500e+007,-5.19901581e+001
,,,9.21875000e+007,-5.91854019e+001
,,,9.29687500e+007,-7.18002090e+001
,,,9.37500000e+007,-5.43383598e+001
,,,9.45312500e+007,-5.64572411e+001
,,,9.53125000e+007,-5.49467621e+001
,,,9.60937500e+007,-5.57869530e+001
,,,9.68750000e+007,-5.99164543e+001
,,,9.76562500e+007,-5.15985832e+001
,,,9.84375000e+007,-5.40960884e+001
,,,9.92187500e+007,-6.12082214e+001
,,,1.00000000e+008,-5.77707596e+001
,,,1.00781250e+008,-5.25621758e+001
,,,1.01562500e+008,-5.98861198e+001
,,,1.02343750e+008,-5.49192352e+001
,,,1.03125000e+008,-5.55790710e+001
,,,1.03906250e+008,-7.15711899e+001
,,,1.04687500e+008,-5.20287514e+001
,,,1.05468750e+008,-5.30868378e+001
,,,1.06250000e+008,-5.91228638e+001
,,,1.07031250e+008,-5.67445869e+001
,,,1.07812500e+008,-4.93521042e+001
,,,1.08593750e+008,-5.60575027e+001
,,,1.09375000e+008,-5.70264359e+001
,,,1.10156250e+008,-5.78633270e+001
,,,1.10937500e+008,-5.41120224e+001
,,,1.11718750e+008,-5.53108139e+001
,,,1.12500000e+008,-5.83893204e+001
,,,1.13281250e+008,-5.29733429e+001
,,,1.14062500e+008,-5.55630722e+001
,,,1.14843750e+008,-5.84495087e+001
,,,1.15625000e+008,-5.83705101e+001
,,,1.16406250e+008,-5.50737839e+001
,,,1.17187500e+008,-5.89671516e+001
,,,1.17968750e+008,-7.09838181e+001
,,,1.18750000e+008,-5.76262054e+001
,,,1.19531250e+008,-5.39415741e+001
,,,1.20312500e+008,-6.38227310e+001
,,,1.21093750e+008,-5.70376587e+001
,,,1.21875000e+008,-6.08277664e+001
,,,1.22656250e+008,-5.44917450e+001
,,,1.23437500e+008,-5.39586296e+001
,,,1.24218750e+008,-5.91655502e+001
,,,1.25000000e+008,-5.77933922e+001
,,,1.25781250e+008,-6.29138832e+001
,,,1.26562500e+008,-5.60938034e+001
,,,1.27343750e+008,-5.80981941e+001
,,,1.28125000e+008,-5.93674736e+001
,,,1.28906250e+008,-5.67601738e+001
,,,1.29687500e+008,-4.83452568e+001
,,,1.30468750e+008,-4.77723312e+001
,,,1.31250000e+008,-5.49032974e+001
,,,1.32031250e+008,-5.25427246e+001
,,,1.32812500e+008,-5.60923615e+001
,,,1.33593750e+008,-5.08918076e+001
,,,1.34375000e+008,-6.92405930e+001
,,,1.35156250e+008,-5.64123993e+001
,,,1.35937500e+008,-6.00879974e+001
,,,1.36718750e+008,-6.14191856e+001
,,,1.37500000e+008,-5.84330292e+001
,,,1.38281250e+008,-5.53450508e+001
,,,1.39062500e+008,-6.72486801e+001
,,,1.39843750e+008,-6.13957367e+001
,,,1.40625000e+008,-5.56129189e+001
,,,1.41406250e+008,-5.52052536e+001
,,,1.42187500e+008,-7.07615967e+001
,,,1.42968750e+008,-6.53884048e+001
,,,1.43750000e+008,-5.87285500e+001
,,,1.44531250e+008,-5.87359734e+001
,,,1.45312500e+008,-5.09553680e+001
,,,1.46093750e+008,-5.27647438e+001
,,,1.46875000e+008,-5.19231529e+001
,,,1.47656250e+008,-4.90338554e+001
,,,1.48437500e+008,-4.16506500e+001
,,,1.49218750e+008,-4.21068001e+001
,,,1.50000000e+008,-4.19467468e+001
,,,1.50781250e+008,-4.70497971e+001
,,,1.51562500e+008,-4.89548988e+001
,,,1.52343750e+008,-5.19920502e+001
,,,1.53125000e+008,-5.16627960e+001
,,,1.53906250e+008,-5.28820992e+001
,,,1.54687500e+008,-5.00175591e+001
,,,1.55468750e+008,-5.34583359e+001
,,,1.56250000e+008,-5.33492508e+001
,,,1.57031250e+008,-5.37300529e+001
,,,1.57812500e+008,-4.96192703e+001
,,,1.58593750e+008,-6.10876541e+001
,,,1.59375000e+008,-5.36091156e+001
,,,1.60156250e+008,-4.98049698e+001
,,,1.60937500e+008,-5.26605225e+001
,,,1.61718750e+008,-5.91568909e+001
,,,1.62500000e+008,-4.81109619e+001
,,,1.63281250e+008,-4.91887283e+001
,,,1.64062500e+008,-4.53763428e+001
,,,1.64843750e+008,-4.09058495e+001
,,,1.65625000e+008,-3.63835106e+001
,,,1.66406250e+008,-3.56297073e+001
,,,1.67187500e+008,-3.50304680e+001
,,,1.67968750e+008,-3.77980843e+001
,,,1.68750000e+008,-4.04184265e+001
,,,1.69531250e+008,-4.26921082e+001
,,,1.70312500e+008,-3.94834404e+001
,,,1.71093750e+008,-4.08765831e+001
,,,1.71875000e+008,-4.26492767e+001
,,,1.72656250e+008,-4.65853920e+001
,,,1.73437500e+008,-4.44511719e+001
,,,1.74218750e+008,-4.73548088e+001
,,,1.75000000e+008,-4.59344215e+001
,,,1.75781250e+008,-4.64562073e+001
,,,1.76562500e+008,-4.41567841e+001
,,,1.77343750e+008,-4.82956772e+001
,,,1.78125000e+008,-4.59871063e+001
,,,1.78906250e+008,-4.40483131e+001
,,,1.79687500e+008,-4.19883347e+001
,,,1.80468750e+008,-4.02355804e+001
,,,1.81250000e+008,-3.89117546e+001
,,,1.82031250e+008,-3.90615883e+001
,,,1.82812500e+008,-3.78977165e+001
,,,1.83593750e+008,-3.58027458e+001
,,,1.84375000e+008,-3.41599960e+001
,,,1.85156250e+008,-3.46454582e+001
,,,1.85937500e+008,-3.56504974e+001
,,,1.86718750e+008,-3.71617622e+001
,,,1.87500000e+008,-3.65642662e+001
,,,1.88281250e+008,-3.77600746e+001
,,,1.89062500e+008,-3.75085106e+001
,,,1.89843750e+008,-3.84004974e+001
,,,1.90625000e+008,-3.88541031e+001
,,,1.91406250e+008,-3.81544571e+001
,,,1.92187500e+008,-3.65047073e+001
,,,1.92968750e+008,-3.72714729e+001
,,,1.93750000e+008,-3.75933075e+001
,,,1.94531250e+008,-3.86117592e+001
,,,1.95312500e+008,-3.79488983e+001
,,,1.96093750e+008,-3.96550980e+001
,,,1.96875000e+008,-4.09118195e+001
,,,1.97656250e+008,-4.30139961e+001
,,,1.98437500e+008,-4.15575066e+001
,,,1.99218750e+008,-4.03885269e+001
,,,2.00000000e+008,-4.04534187e+001
,,,2.00781250e+008,-4.15689125e+001
,,,2.01562500e+008,-4.16342049e+001
,,,2.02343750e+008,-4.03186684e+001
,,,2.03125000e+008,-3.86891403e+001
,,,2.03906250e+008,-3.98303947e+001
,,,2.04687500e+008,-3.90689850e+001
,,,2.05468750e+008,-3.72601929e+001
,,,2.06250000e+008,-3.68187256e+001
,,,2.07031250e+008,-3.58149948e+001
,,,2.07812500e+008,-3.70773048e+001
,,,2.08593750e+008,-3.65542221e+001
,,,2.09375000e+008,-3.67168007e+001
,,,2.10156250e+008,-3.61300926e+001
,,,2.10937500e+008,-3.55277672e+001
,,,2.11718750e+008,-3.61132889e+001
,,,2.12500000e+008,-3.92336845e+001
,,,2.13281250e+008,-3.90909081e+001
,,,2.14062500e+008,-3.75230522e+001
,,,2.14843750e+008,-3.55977898e+001
,,,2.15625000e+008,-3.44280891e+001
,,,2.16406250e+008,-3.26030464e+001
,,,2.17187500e+008,-3.28856583e+001
,,,2.17968750e+008,-3.38269081e+001
,,,2.18750000e+008,-3.35952225e+001
,,,2.19531250e+008,-3.23219147e+001
,,,2.20312500e+008,-3.32960052e+001
,,,2.21093750e+008,-3.47923012e+001
,,,2.21875000e+008,-3.44345169e+001
,,,2.22656250e+008,-3.26308327e+001
,,,2.23437500e+008,-3.16873760e+001
,,,2.24218750e+008,-3.02309895e+001
,,,2.25000000e+008,-2.90221882e+001
,,,2.25781250e+008,-2.85908661e+001
,,,2.26562500e+008,-2.96215153e+001
,,,2.27343750e+008,-2.96027641e+001
,,,2.28125000e+008,-2.90523758e+001
,,,2.28906250e+008,-2.81201057e+001
,,,2.29687500e+008,-2.82722321e+001
,,,2.30468750e+008,-2.90737572e+001
,,,2.31250000e+008,-3.06714916e+001
,,,2.32031250e+008,-3.07814922e+001
,,,2.32812500e+008,-2.98024368e+001
,,,2.33593750e+008,-2.93737640e+001
,,,2.34375000e+008,-3.11544685e+001
,,,2.35156250e+008,-3.15375881e+001
,,,2.35937500e+008,-2.99716625e+001
,,,2.36718750e+008,-2.84675179e+001
,,,2.37500000e+008,-2.86484051e+001
,,,2.38281250e+008,-2.83132210e+001
,,,2.39062500e+008,-2.82493362e+001
,,,2.39843750e+008,-2.79777699e+001
,,,2.40625000e+008,-2.74245129e+001
,,,2.41406250e+008,-2.61861687e+001
,,,2.42187500e+008,-2.63600807e+001
,,,2.42968750e+008,-2.70087986e+001
,,,2.43750000e+008,-2.78254948e+001
,,,2.44531250e+008,-2.72035084e+001
,,,2.45312500e+008,-2.78089218e+001
,,,2.46093750e+008,-2.93219833e+001
,,,2.46875000e+008,-2.98965988e+001
,,,2.47656250e+008,-2.86265907e+001
,,,2.48437500e+008,-2.83441238e+001
,,,2.49218750e+008,-2.78010864e+001
,,,2.50000000e+008,-2.65884380e+001
,,,2.50781250e+008,-2.53643970e+001
,,,2.51562500e+008,-2.51251469e+001
,,,2.52343750e+008,-2.48886223e+001
,,,2.53125000e+008,-2.49828682e+001
,,,2.53906250e+008,-2.49121609e+001
,,,2.54687500e+008,-2.52985363e+001
,,,2.55468750e+008,-2.55801888e+001
,,,2.56250000e+008,-2.53694019e+001
,,,2.57031250e+008,-2.45586987e+001
,,,2.57812500e+008,-2.37476730e+001
,,,2.58593750e+008,-2.29299698e+001
,,,2.59375000e+008,-2.22735386e+001
,,,2.60156250e+008,-2.18396931e+001
,,,2.60937500e+008,-2.18438492e+001
,,,2.61718750e+008,-2.19193974e+001
,,,2.62500000e+008,-2.22736320e+001
,,,2.63281250e+008,-2.24478359e+001
,,,2.64062500e+008,-2.31181870e+001
,,,2.64843750e+008,-2.40440273e+001
,,,2.65625000e+008,-2.49152374e+001
,,,2.66406250e+008,-2.47034283e+001
,,,2.67187500e+008,-2.43517723e+001
,,,2.67968750e+008,-2.45416851e+001
,,,2.68750000e+008,-2.52668152e+001
,,,2.69531250e+008,-2.56411762e+001
,,,2.70312500e+008,-2.52224064e+001
,,,2.71093750e+008,-2.44582958e+001
,,,2.71875000e+008,-2.37931232e+001
,,,2.72656250e+008,-2.31048450e+001
,,,2.73437500e+008,-2.25090351e+001
,,,2.74218750e+008,-2.25760689e+001
,,,2.75000000e+008,-2.32611904e+001
,,,2.75781250e+008,-2.37665100e+001
,,,2.76562500e+008,-2.32853909e+001
,,,2.77343750e+008,-2.30081367e+001
,,,2.78125000e+008,-2.36066227e+001
,,,2.78906250e+008,-2.49124565e+001
,,,2.79687500e+008,-2.52143135e+001
,,,2.80468750e+008,-2.51645794e+001
,,,2.81250000e+008,-2.54956188e+001
,,,2.82031250e+008,-2.59797134e+001
,,,2.82812500e+008,-2.62595997e+001
,,,2.83593750e+008,-2.57589970e+001
,,,2.84375000e+008,-2.52991047e+001
,,,2.85156250e+008,-2.50603790e+001
,,,2.85937500e+008,-2.49601002e+001
,,,2.86718750e+008,-2.48883095e+001
,,,2.87500000e+008,-2.44069729e+001
,,,2.88281250e+008,-2.40226364e+001
,,,2.89062500e+008,-2.35335846e+001
,,,2.89843750e+008,-2.32029915e+001
,,,2.90625000e+008,-2.29718571e+001
,,,2.91406250e+008,-2.29061756e+001
,,,2.92187500e+008,-2.32073669e+001
,,,2.92968750e+008,-2.40930119e+001
,,,2.93750000e+008,-2.46383629e+001
,,,2.94531250e+008,-2.48442974e+001
,,,2.95312500e+008,-2.48507214e+001
,,,2.96093750e+008,-2.52246304e+001
,,,2.96875000e+008,-2.51799107e+001
,,,2.97656250e+008,-2.48338909e+001
,,,2.98437500e+008,-2.41757507e+001
,,,2.99218750e+008,-2.43039188e+001
,,,3.00000000e+008,-2.43113594e+001
,,,3.00781250e+008,-2.41094513e+001
,,,3.01562500e+008,-2.38331127e+001
,,,3.02343750e+008,-2.37259521e+001
,,,3.03125000e+008,-2.34033375e+001
,,,3.03906250e+008,-2.29570465e+001
,,,3.04687500e+008,-2.27686768e+001
,,,3.05468750e+008,-2.31286831e+001
,,,3.06250000e+008,-2.36896458e+001
,,,3.07031250e+008,-2.39975071e+001
,,,3.07812500e+008,-2.38707180e+001
,,,3.08593750e+008,-2.34744492e+001
,,,3.09375000e+008,-2.24848499e+001
,,,3.10156250e+008,-2.19959011e+001
,,,3.10937500e+008,-2.19612675e+001
,,,3.11718750e+008,-2.21696014e+001
,,,3.12500000e+008,-2.21165791e+001
,,,3.13281250e+008,-2.18665352e+001
,,,3.14062500e+008,-2.13694553e+001
,,,3.14843750e+008,-2.14015388e+001
,,,3.15625000e+008,-2.17539845e+001
,,,3.16406250e+008,-2.25101795e+001
,,,3.17187500e+008,-2.30338383e+001
,,,3.17968750e+008,-2.34409294e+001
,,,3.18750000e+008,-2.36022224e+001
,,,3.19531250e+008,-2.37424278e+001
,,,3.20312500e+008,-2.32317963e+001
,,,3.21093750e+008,-2.33586617e+001
,,,3.21875000e+008,-2.39127045e+001
,,,3.22656250e+008,-2.46020947e+001
,,,3.23437500e+008,-2.49488869e+001
,,,3.24218750e+008,-2.52718449e+001
,,,3.25000000e+008,-2.52887592e+001
,,,3.25781250e+008,-2.46448441e+001
,,,3.26562500e+008,-2.38734112e+001
,,,3.27343750e+008,-2.35058594e+001
,,,3.28125000e+008,-2.33408909e+001
,,,3.28906250e+008,-2.30170536e+001
,,,3.29687500e+008,-2.25155563e+001
,,,3.30468750e+008,-2.29516811e+001
,,,3.31250000e+008,-2.42196331e+001
,,,3.32031250e+008,-2.54935665e+001
,,,3.32812500e+008,-2.49355698e+001
,,,3.33593750e+008,-2.36099377e+001
,,,3.34375000e+008,-2.26890678e+001
,,,3.35156250e+008,-2.24048042e+001
,,,3.35937500e+008,-2.26825676e+001
,,,3.36718750e+008,-2.32433147e+001
,,,3.37500000e+008,-2.40778465e+001
,,,3.38281250e+008,-2.50191288e+001
,,,3.39062500e+008,-2.60798817e+001
,,,3.39843750e+008,-2.69976826e+001
,,,3.40625000e+008,-2.67100639e+001
,,,3.41406250e+008,-2.54345646e+001
,,,3.42187500e+008,-2.42348976e+001
,,,3.42968750e+008,-2.35844707e+001
,,,3.43750000e+008,-2.29407024e+001
,,,3.44531250e+008,-2.17495689e+001
,,,3.45312500e+008,-2.05200596e+001
,,,3.46093750e+008,-1.97600193e+001
,,,3.46875000e+008,-1.95211887e+001
,,,3.47656250e+008,-1.96108837e+001
,,,3.48437500e+008,-1.99764957e+001
,,,3.49218750e+008,-2.07774067e+001
,,,3.50000000e+008,-2.18758144e+001
,,,3.50781250e+008,-2.32621002e+001
,,,3.51562500e+008,-2.41340504e+001
,,,3.52343750e+008,-2.43574867e+001
,,,3.53125000e+008,-2.38720818e+001
,,,3.53906250e+008,-2.31308498e+001
,,,3.54687500e+008,-2.27557659e+001
,,,3.55468750e+008,-2.25918465e+001
,,,3.56250000e+008,-2.30031776e+001
,,,3.57031250e+008,-2.30349407e+001
,,,3.57812500e+008,-2.30081062e+001
,,,3.58593750e+008,-2.28334694e+001
,,,3.59375000e+008,-2.31992989e+001
,,,3.60156250e+008,-2.32055645e+001
,,,3.60937500e+008,-2.29137363e+001
,,,3.61718750e+008,-2.22500706e+001
,,,3.62500000e+008,-2.17591763e+001
,,,3.63281250e+008,-2.16518002e+001
,,,3.64062500e+008,-2.15692501e+001
,,,3.64843750e+008,-2.10149040e+001
,,,3.65625000e+008,-2.04307823e+001
,,,3.66406250e+008,-2.00349560e+001
,,,3.67187500e+008,-2.00303364e+001
,,,3.67968750e+008,-2.02982826e+001
,,,3.68750000e+008,-2.07916965e+001
,,,3.69531250e+008,-2.15193806e+001
,,,3.70312500e+008,-2.24905624e+001
,,,3.71093750e+008,-2.33018341e+001
,,,3.71875000e+008,-2.39163151e+001
,,,3.72656250e+008,-2.35900040e+001
,,,3.73437500e+008,-2.29335747e+001
,,,3.74218750e+008,-2.24385166e+001
,,,3.75000000e+008,-2.26325226e+001
,,,3.75781250e+008,-2.35215740e+001
,,,3.76562500e+008,-2.42112999e+001
,,,3.77343750e+008,-2.41958637e+001
,,,3.78125000e+008,-2.41188946e+001
,,,3.78906250e+008,-2.35604534e+001
,,,3.79687500e+008,-2.25375385e+001
,,,3.80468750e+008,-2.13125267e+001
,,,3.81250000e+008,-2.08773270e+001
,,,3.82031250e+008,-2.09161739e+001
,,,3.82812500e+008,-2.13927193e+001
,,,3.83593750e+008,-2.17673016e+001
,,,3.84375000e+008,-2.20365620e+001
,,,3.85156250e+008,-2.18069859e+001
,,,3.85937500e+008,-2.15860367e+001
,,,3.86718750e+008,-2.17364063e+001
,,,3.87500000e+008,-2.19367161e+001
,,,3.88281250e+008,-2.22365112e+001
,,,3.89062500e+008,-2.27498474e+001
,,,3.89843750e+008,-2.33385925e+001
,,,3.90625000e+008,-2.37823162e+001
,,,3.91406250e+008,-2.41811085e+001
,,,3.92187500e+008,-2.53241920e+001
,,,3.92968750e+008,-2.67338009e+001
,,,3.93750000e+008,-2.69554787e+001
,,,3.94531250e+008,-2.60337200e+001
,,,3.95312500e+008,-2.56871490e+001
,,,3.96093750e+008,-2.60625191e+001
,,,3.96875000e+008,-2.67428608e+001
,,,3.97656250e+008,-2.71599541e+001
,,,3.98437500e+008,-2.70039616e+001
,,,3.99218750e+008,-2.61885414e+001
,,,4.00000000e+008,-2.56240311e+001
,,,4.00781250e+008,-2.51540070e+001
,,,4.01562500e+008,-2.49462242e+001
,,,4.02343750e+008,-2.46931992e+001
,,,4.03125000e+008,-2.43154755e+001
,,,4.03906250e+008,-2.42386379e+001
,,,4.04687500e+008,-2.43769341e+001
,,,4.05468750e+008,-2.44775105e+001
,,,4.06250000e+008,-2.44508152e+001
,,,4.07031250e+008,-2.43393211e+001
,,,4.07812500e+008,-2.44523258e+001
,,,4.08593750e+008,-2.44584503e+001
,,,4.09375000e+008,-2.43829918e+001
,,,4.10156250e+008,-2.43421497e+001
,,,4.10937500e+008,-2.41008339e+001
,,,4.11718750e+008,-2.35219574e+001
,,,4.12500000e+008,-2.26863880e+001
,,,4.13281250e+008,-2.22483921e+001
,,,4.14062500e+008,-2.22999020e+001
,,,4.14843750e+008,-2.23485527e+001
,,,4.15625000e+008,-2.23897495e+001
,,,4.16406250e+008,-2.26230450e+001
,,,4.17187500e+008,-2.26769562e+001
,,,4.17968750e+008,-2.27485828e+001
,,,4.18750000e+008,-2.28973274e+001
,,,4.19531250e+008,-2.33898582e+001
,,,4.20312500e+008,-2.36257839e+001
,,,4.21093750e+008,-2.36967201e+001
,,,4.21875000e+008,-2.36578465e+001
,,,4.22656250e+008,-2.36988621e+001
,,,4.23437500e+008,-2.33982906e+001
,,,4.24218750e+008,-2.33641739e+001
,,,4.25000000e+008,-2.34415169e+001
,,,4.25781250e+008,-2.34092083e+001
,,,4.26562500e+008,-2.31032028e+001
,,,4.27343750e+008,-2.26732368e+001
,,,4.28125000e+008,-2.25621758e+001
,,,4.28906250e+008,-2.25692444e+001
,,,4.29687500e+008,-2.23765984e+001
