Data/20220819/UCLA_to_R2A_VPOL_E_NEG100_01_Ch2.csv

"Record Length",5000,"Points",-1.00800000e-007,-1.08124959e-004
"Sample Interval",2.00000000e-010,s,-1.00600000e-007,-7.40624570e-005
"Trigger Point",504,"Samples",-1.00400000e-007,-4.37495364e-006
"Trigger Time",0.00000000e+000,s,-1.00200000e-007,5.96875494e-005
"",,,-1.00000000e-007,4.00000485e-005
"Horizontal Offset",-1.00800000e-007,s,-9.98000000e-008,-1.68749542e-005
,,,-9.96000000e-008,-7.84374572e-005
,,,-9.94000000e-008,-1.61874961e-004
,,,-9.92000000e-008,-1.63749961e-004
,,,-9.90000000e-008,-9.09374578e-005
,,,-9.88000000e-008,1.12500471e-005
,,,-9.86000000e-008,6.59375497e-005
,,,-9.84000000e-008,5.46875492e-005
,,,-9.82000000e-008,1.15625471e-005
,,,-9.80000000e-008,-6.96874567e-005
,,,-9.78000000e-008,-1.20312459e-004
,,,-9.76000000e-008,-1.63124961e-004
,,,-9.74000000e-008,-1.01562458e-004
,,,-9.72000000e-008,-5.65624561e-005
,,,-9.70000000e-008,5.62504683e-006
,,,-9.68000000e-008,6.00000494e-005
,,,-9.66000000e-008,1.87504666e-006
,,,-9.64000000e-008,-2.53124546e-005
,,,-9.62000000e-008,-4.56249556e-005
,,,-9.60000000e-008,-1.13437459e-004
,,,-9.58000000e-008,-1.19687459e-004
,,,-9.56000000e-008,-6.84374567e-005
,,,-9.54000000e-008,-5.40624560e-005
,,,-9.52000000e-008,-5.21874559e-005
,,,-9.50000000e-008,1.28125472e-005
,,,-9.48000000e-008,5.62504683e-006
,,,-9.46000000e-008,-2.18745354e-006
,,,-9.44000000e-008,-2.40624546e-005
,,,-9.42000000e-008,-8.37499574e-005
,,,-9.40000000e-008,-7.46874570e-005
,,,-9.38000000e-008,-7.09374568e-005
,,,-9.36000000e-008,-2.34374545e-005
,,,-9.34000000e-008,-2.99999549e-005
,,,-9.32000000e-008,-4.34374555e-005
,,,-9.30000000e-008,-2.31249545e-005
,,,-9.28000000e-008,-6.18749564e-005
,,,-9.26000000e-008,-4.68749557e-005
,,,-9.24000000e-008,-4.62499556e-005
,,,-9.22000000e-008,-4.12499554e-005
,,,-9.20000000e-008,-5.49999560e-005
,,,-9.18000000e-008,-9.31249579e-005
,,,-9.16000000e-008,-1.07812459e-004
,,,-9.14000000e-008,-1.23749959e-004
,,,-9.12000000e-008,-8.78124576e-005
,,,-9.10000000e-008,3.12546581e-007
,,,-9.08000000e-008,3.03125480e-005
,,,-9.06000000e-008,4.46875487e-005
,,,-9.04000000e-008,3.31250481e-005
,,,-9.02000000e-008,-6.59374566e-005
,,,-9.00000000e-008,-1.45624960e-004
,,,-8.98000000e-008,-1.55624961e-004
,,,-8.96000000e-008,-1.30624960e-004
,,,-8.94000000e-008,-5.59374561e-005
,,,-8.92000000e-008,7.37500501e-005
,,,-8.90000000e-008,1.34687553e-004
,,,-8.88000000e-008,7.37500501e-005
,,,-8.86000000e-008,1.46875473e-005
,,,-8.84000000e-008,-9.96874582e-005
,,,-8.82000000e-008,-2.18749964e-004
,,,-8.80000000e-008,-2.30937464e-004
,,,-8.78000000e-008,-1.54374961e-004
,,,-8.76000000e-008,-5.93749563e-005
,,,-8.74000000e-008,4.65625488e-005
,,,-8.72000000e-008,1.23437552e-004
,,,-8.70000000e-008,1.09687552e-004
,,,-8.68000000e-008,2.78125479e-005
,,,-8.66000000e-008,-6.68749566e-005
,,,-8.64000000e-008,-1.73749962e-004
,,,-8.62000000e-008,-2.14374964e-004
,,,-8.60000000e-008,-1.43124960e-004
,,,-8.58000000e-008,-7.74999571e-005
,,,-8.56000000e-008,6.25004686e-006
,,,-8.54000000e-008,6.50000497e-005
,,,-8.52000000e-008,1.02812551e-004
,,,-8.50000000e-008,4.00000485e-005
,,,-8.48000000e-008,-2.34374545e-005
,,,-8.46000000e-008,-1.16249959e-004
,,,-8.44000000e-008,-1.47499960e-004
,,,-8.42000000e-008,-1.46874960e-004
,,,-8.40000000e-008,-6.09374563e-005
,,,-8.38000000e-008,-1.46874541e-005
,,,-8.36000000e-008,-2.24999545e-005
,,,-8.34000000e-008,2.50004668e-006
,,,-8.32000000e-008,3.28125481e-005
,,,-8.30000000e-008,-1.03124539e-005
,,,-8.28000000e-008,-1.87495352e-006
,,,-8.26000000e-008,-4.40624555e-005
,,,-8.24000000e-008,-7.93749572e-005
,,,-8.22000000e-008,-1.27187459e-004
,,,-8.20000000e-008,-1.70937462e-004
,,,-8.18000000e-008,-1.65312461e-004
,,,-8.16000000e-008,-1.16562459e-004
,,,-8.14000000e-008,-2.49995355e-006
,,,-8.12000000e-008,7.46875501e-005
,,,-8.10000000e-008,6.93750499e-005
,,,-8.08000000e-008,4.31250486e-005
,,,-8.06000000e-008,-3.12499549e-005
,,,-8.04000000e-008,-1.57499961e-004
,,,-8.02000000e-008,-2.04374963e-004
,,,-8.00000000e-008,-1.81249962e-004
,,,-7.98000000e-008,-1.27499959e-004
,,,-7.96000000e-008,2.06250475e-005
,,,-7.94000000e-008,1.20625052e-004
,,,-7.92000000e-008,1.36875053e-004
,,,-7.90000000e-008,8.71875507e-005
,,,-7.88000000e-008,-2.53124546e-005
,,,-7.86000000e-008,-1.42499960e-004
,,,-7.84000000e-008,-2.40937465e-004
,,,-7.82000000e-008,-2.08437463e-004
,,,-7.80000000e-008,-1.19062459e-004
,,,-7.78000000e-008,-3.71874552e-005
,,,-7.76000000e-008,5.62500492e-005
,,,-7.74000000e-008,1.14375052e-004
,,,-7.72000000e-008,5.62500492e-005
,,,-7.70000000e-008,-3.78124552e-005
,,,-7.68000000e-008,-1.10312459e-004
,,,-7.66000000e-008,-1.83437462e-004
,,,-7.64000000e-008,-1.94374963e-004
,,,-7.62000000e-008,-9.71874581e-005
,,,-7.60000000e-008,-4.93749558e-005
,,,-7.58000000e-008,-9.68745389e-006
,,,-7.56000000e-008,7.03125499e-005
,,,-7.54000000e-008,2.59375478e-005
,,,-7.52000000e-008,-2.56249547e-005
,,,-7.50000000e-008,-3.56249551e-005
,,,-7.48000000e-008,-8.34374574e-005
,,,-7.46000000e-008,-8.96874577e-005
,,,-7.44000000e-008,-6.99999568e-005
,,,-7.42000000e-008,-7.62499571e-005
,,,-7.40000000e-008,-9.37499579e-005
,,,-7.38000000e-008,-8.46874575e-005
,,,-7.36000000e-008,9.37504701e-006
,,,-7.34000000e-008,-3.12453449e-007
,,,-7.32000000e-008,-7.81245380e-006
,,,-7.30000000e-008,2.37500477e-005
,,,-7.28000000e-008,-2.87499548e-005
,,,-7.26000000e-008,-1.19999959e-004
,,,-7.24000000e-008,-1.32812460e-004
,,,-7.22000000e-008,-1.70312462e-004
,,,-7.20000000e-008,-1.17499959e-004
,,,-7.18000000e-008,5.00004680e-006
,,,-7.16000000e-008,7.25000500e-005
,,,-7.14000000e-008,9.09375509e-005
,,,-7.12000000e-008,8.34375505e-005
,,,-7.10000000e-008,-6.24953464e-007
,,,-7.08000000e-008,-1.30624960e-004
,,,-7.06000000e-008,-1.55624961e-004
,,,-7.04000000e-008,-1.92499963e-004
,,,-7.02000000e-008,-1.44062460e-004
,,,-7.00000000e-008,7.50004692e-006
,,,-6.98000000e-008,9.40625510e-005
,,,-6.96000000e-008,1.19375052e-004
,,,-6.94000000e-008,6.56250497e-005
,,,-6.92000000e-008,-3.28124550e-005
,,,-6.90000000e-008,-1.02187458e-004
,,,-6.88000000e-008,-1.66249961e-004
,,,-6.86000000e-008,-1.58749961e-004
,,,-6.84000000e-008,-8.81249576e-005
,,,-6.82000000e-008,-1.93749544e-005
,,,-6.80000000e-008,2.25000476e-005
,,,-6.78000000e-008,4.46875487e-005
,,,-6.76000000e-008,1.28125472e-005
,,,-6.74000000e-008,-5.28124559e-005
,,,-6.72000000e-008,-7.46874570e-005
,,,-6.70000000e-008,-8.99999577e-005
,,,-6.68000000e-008,-1.04687458e-004
,,,-6.66000000e-008,-5.90624562e-005
,,,-6.64000000e-008,-4.46874556e-005
,,,-6.62000000e-008,-5.31249560e-005
,,,-6.60000000e-008,-2.93749548e-005
,,,-6.58000000e-008,-2.93749548e-005
,,,-6.56000000e-008,-4.03124553e-005
,,,-6.54000000e-008,-1.56245351e-006
,,,-6.52000000e-008,9.68754703e-006
,,,-6.50000000e-008,-9.06245386e-006
,,,-6.48000000e-008,-3.15624549e-005
,,,-6.46000000e-008,-5.93749563e-005
,,,-6.44000000e-008,-1.25624959e-004
,,,-6.42000000e-008,-1.22187459e-004
,,,-6.40000000e-008,-8.53124575e-005
,,,-6.38000000e-008,-2.53124546e-005
,,,-6.36000000e-008,1.59375473e-005
,,,-6.34000000e-008,7.15625500e-005
,,,-6.32000000e-008,8.43754697e-006
,,,-6.30000000e-008,-8.81249576e-005
,,,-6.28000000e-008,-1.47812460e-004
,,,-6.26000000e-008,-1.94062463e-004
,,,-6.24000000e-008,-1.59999961e-004
,,,-6.22000000e-008,-4.37499555e-005
,,,-6.20000000e-008,3.90625484e-005
,,,-6.18000000e-008,1.01562551e-004
,,,-6.16000000e-008,8.34375505e-005
,,,-6.14000000e-008,-1.46874541e-005
,,,-6.12000000e-008,-9.99999582e-005
,,,-6.10000000e-008,-1.40937460e-004
,,,-6.08000000e-008,-1.47499960e-004
,,,-6.06000000e-008,-7.78124571e-005
,,,-6.04000000e-008,9.37546611e-007
,,,-6.02000000e-008,4.75000488e-005
,,,-6.00000000e-008,5.43750491e-005
,,,-5.98000000e-008,-2.49995355e-006
,,,-5.96000000e-008,-7.99999572e-005
,,,-5.94000000e-008,-1.22812459e-004
,,,-5.92000000e-008,-1.60624961e-004
,,,-5.90000000e-008,-1.26874959e-004
,,,-5.88000000e-008,-5.46874560e-005
,,,-5.86000000e-008,2.21875476e-005
,,,-5.84000000e-008,5.90625494e-005
,,,-5.82000000e-008,4.84375489e-005
,,,-5.80000000e-008,-2.09374544e-005
,,,-5.78000000e-008,-1.20624959e-004
,,,-5.76000000e-008,-1.30624960e-004
,,,-5.74000000e-008,-1.31874960e-004
,,,-5.72000000e-008,-9.87499581e-005
,,,-5.70000000e-008,-2.56249547e-005
,,,-5.68000000e-008,2.37500477e-005
,,,-5.66000000e-008,3.25000481e-005
,,,-5.64000000e-008,4.68754679e-006
,,,-5.62000000e-008,-6.68749566e-005
,,,-5.60000000e-008,-1.05624958e-004
,,,-5.58000000e-008,-1.02187458e-004
,,,-5.56000000e-008,-5.28124559e-005
,,,-5.54000000e-008,-2.62499547e-005
,,,-5.52000000e-008,1.87504666e-006
,,,-5.50000000e-008,2.06250475e-005
,,,-5.48000000e-008,-1.90624543e-005
,,,-5.46000000e-008,-6.21874564e-005
,,,-5.44000000e-008,-7.12499568e-005
,,,-5.42000000e-008,-8.56249575e-005
,,,-5.40000000e-008,-5.34374560e-005
,,,-5.38000000e-008,7.18754691e-006
,,,-5.36000000e-008,-1.53124542e-005
,,,-5.34000000e-008,-6.06249563e-005
,,,-5.32000000e-008,-8.21874573e-005
,,,-5.30000000e-008,-6.53124565e-005
,,,-5.28000000e-008,-3.34374550e-005
,,,-5.26000000e-008,-1.96874544e-005
,,,-5.24000000e-008,-2.40624546e-005
,,,-5.22000000e-008,-6.96874567e-005
,,,-5.20000000e-008,-4.99999558e-005
,,,-5.18000000e-008,-6.93749567e-005
,,,-5.16000000e-008,-8.18749573e-005
,,,-5.14000000e-008,-6.06249563e-005
,,,-5.12000000e-008,-1.12499540e-005
,,,-5.10000000e-008,2.84375479e-005
,,,-5.08000000e-008,2.25000476e-005
,,,-5.06000000e-008,-1.24995349e-006
,,,-5.04000000e-008,-4.40624555e-005
,,,-5.02000000e-008,-1.02812458e-004
,,,-5.00000000e-008,-1.17812459e-004
,,,-4.98000000e-008,-1.23437459e-004
,,,-4.96000000e-008,-1.19374959e-004
,,,-4.94000000e-008,-5.21874559e-005
,,,-4.92000000e-008,3.96875485e-005
,,,-4.90000000e-008,4.25000486e-005
,,,-4.88000000e-008,1.06250471e-005
,,,-4.86000000e-008,-2.18749545e-005
,,,-4.84000000e-008,-1.30937460e-004
,,,-4.82000000e-008,-1.66874961e-004
,,,-4.80000000e-008,-1.77812462e-004
,,,-4.78000000e-008,-1.21562459e-004
,,,-4.76000000e-008,-6.46874565e-005
,,,-4.74000000e-008,4.56250487e-005
,,,-4.72000000e-008,1.00625051e-004
,,,-4.70000000e-008,6.40625496e-005
,,,-4.68000000e-008,1.18750471e-005
,,,-4.66000000e-008,-8.81249576e-005
,,,-4.64000000e-008,-1.94687463e-004
,,,-4.62000000e-008,-1.86874962e-004
,,,-4.60000000e-008,-1.20312459e-004
,,,-4.58000000e-008,-5.53124561e-005
,,,-4.56000000e-008,2.93750480e-005
,,,-4.54000000e-008,8.56250506e-005
,,,-4.52000000e-008,5.62500492e-005
,,,-4.50000000e-008,2.18754667e-006
,,,-4.48000000e-008,-4.87499557e-005
,,,-4.46000000e-008,-1.54687461e-004
,,,-4.44000000e-008,-1.49062461e-004
,,,-4.42000000e-008,-1.30624960e-004
,,,-4.40000000e-008,-9.65624580e-005
,,,-4.38000000e-008,-4.53124556e-005
,,,-4.36000000e-008,1.78125474e-005
,,,-4.34000000e-008,5.28125491e-005
,,,-4.32000000e-008,7.09375499e-005
,,,-4.30000000e-008,2.40625477e-005
,,,-4.28000000e-008,-5.49999560e-005
,,,-4.26000000e-008,-1.59374961e-004
,,,-4.24000000e-008,-2.07187463e-004
,,,-4.22000000e-008,-1.70937462e-004
,,,-4.20000000e-008,-1.07187459e-004
,,,-4.18000000e-008,-1.37499541e-005
,,,-4.16000000e-008,7.31250500e-005
,,,-4.14000000e-008,1.26562553e-004
,,,-4.12000000e-008,6.43750496e-005
,,,-4.10000000e-008,-2.31249545e-005
,,,-4.08000000e-008,-1.19999959e-004
,,,-4.06000000e-008,-2.15312464e-004
,,,-4.04000000e-008,-2.05937463e-004
,,,-4.02000000e-008,-1.31874960e-004
,,,-4.00000000e-008,-6.31249564e-005
,,,-3.98000000e-008,5.46875492e-005
,,,-3.96000000e-008,1.18437552e-004
,,,-3.94000000e-008,1.09375052e-004
,,,-3.92000000e-008,-3.74995361e-006
,,,-3.90000000e-008,-1.09062459e-004
,,,-3.88000000e-008,-2.02499963e-004
,,,-3.86000000e-008,-2.29687464e-004
,,,-3.84000000e-008,-2.18437464e-004
,,,-3.82000000e-008,-9.15624578e-005
,,,-3.80000000e-008,1.71875474e-005
,,,-3.78000000e-008,1.08750052e-004
,,,-3.76000000e-008,1.78125055e-004
,,,-3.74000000e-008,8.34375505e-005
,,,-3.72000000e-008,-6.24999564e-005
,,,-3.70000000e-008,-1.58437461e-004
,,,-3.68000000e-008,-2.62187466e-004
,,,-3.66000000e-008,-2.18749964e-004
,,,-3.64000000e-008,-8.49999575e-005
,,,-3.62000000e-008,4.28125486e-005
,,,-3.60000000e-008,1.45000053e-004
,,,-3.58000000e-008,1.48437554e-004
,,,-3.56000000e-008,8.21875505e-005
,,,-3.54000000e-008,-4.34374555e-005
,,,-3.52000000e-008,-1.53437461e-004
,,,-3.50000000e-008,-2.32187464e-004
,,,-3.48000000e-008,-2.40312465e-004
,,,-3.46000000e-008,-1.50937461e-004
,,,-3.44000000e-008,-1.59374542e-005
,,,-3.42000000e-008,8.87500508e-005
,,,-3.40000000e-008,1.24062552e-004
,,,-3.38000000e-008,6.96875499e-005
,,,-3.36000000e-008,-8.12495382e-006
,,,-3.34000000e-008,-7.49999570e-005
,,,-3.32000000e-008,-1.71249962e-004
,,,-3.30000000e-008,-1.80937462e-004
,,,-3.28000000e-008,-1.67187461e-004
,,,-3.26000000e-008,-8.09374573e-005
,,,-3.24000000e-008,2.06250475e-005
,,,-3.22000000e-008,6.75000498e-005
,,,-3.20000000e-008,7.00000499e-005
,,,-3.18000000e-008,1.75000474e-005
,,,-3.16000000e-008,-2.09374544e-005
,,,-3.14000000e-008,-9.74999581e-005
,,,-3.12000000e-008,-1.55624961e-004
,,,-3.10000000e-008,-1.63124961e-004
,,,-3.08000000e-008,-1.36562460e-004
,,,-3.06000000e-008,-7.81249571e-005
,,,-3.04000000e-008,-3.34374550e-005
,,,-3.02000000e-008,3.31250481e-005
,,,-3.00000000e-008,5.53125492e-005
,,,-2.98000000e-008,2.75000479e-005
,,,-2.96000000e-008,2.81254670e-006
,,,-2.94000000e-008,-9.53124580e-005
,,,-2.92000000e-008,-1.60624961e-004
,,,-2.90000000e-008,-1.87499962e-004
,,,-2.88000000e-008,-2.16249964e-004
,,,-2.86000000e-008,-1.24062459e-004
,,,-2.84000000e-008,-4.99995367e-006
,,,-2.82000000e-008,8.25000505e-005
,,,-2.80000000e-008,1.24062552e-004
,,,-2.78000000e-008,1.00625051e-004
,,,-2.76000000e-008,-1.31249541e-005
,,,-2.74000000e-008,-1.56249961e-004
,,,-2.72000000e-008,-2.48749965e-004
,,,-2.70000000e-008,-2.54374966e-004
,,,-2.68000000e-008,-1.64999961e-004
,,,-2.66000000e-008,-6.24953464e-007
,,,-2.64000000e-008,1.41875053e-004
,,,-2.62000000e-008,1.70312555e-004
,,,-2.60000000e-008,1.13750052e-004
,,,-2.58000000e-008,-4.37495364e-006
,,,-2.56000000e-008,-1.79062462e-004
,,,-2.54000000e-008,-2.98124968e-004
,,,-2.52000000e-008,-3.13124968e-004
,,,-2.50000000e-008,-1.83124962e-004
,,,-2.48000000e-008,2.18754667e-006
,,,-2.46000000e-008,1.34062553e-004
,,,-2.44000000e-008,2.01250056e-004
,,,-2.42000000e-008,1.12187552e-004
,,,-2.40000000e-008,-2.68749547e-005
,,,-2.38000000e-008,-1.70624962e-004
,,,-2.36000000e-008,-2.59999966e-004
,,,-2.34000000e-008,-2.67187466e-004
,,,-2.32000000e-008,-1.88749962e-004
,,,-2.30000000e-008,-3.31249550e-005
,,,-2.28000000e-008,1.07812552e-004
,,,-2.26000000e-008,1.69062555e-004
,,,-2.24000000e-008,1.47187554e-004
,,,-2.22000000e-008,1.96875475e-005
,,,-2.20000000e-008,-1.08437459e-004
,,,-2.18000000e-008,-1.89374962e-004
,,,-2.16000000e-008,-2.22187464e-004
,,,-2.14000000e-008,-1.95624963e-004
,,,-2.12000000e-008,-8.49999575e-005
,,,-2.10000000e-008,-1.43749541e-005
,,,-2.08000000e-008,7.87500503e-005
,,,-2.06000000e-008,8.62500507e-005
,,,-2.04000000e-008,2.81250479e-005
,,,-2.02000000e-008,-5.49999560e-005
,,,-2.00000000e-008,-1.13437459e-004
,,,-1.98000000e-008,-1.83124962e-004
,,,-1.96000000e-008,-2.05312463e-004
,,,-1.94000000e-008,-1.66562461e-004
,,,-1.92000000e-008,-1.17499959e-004
,,,-1.90000000e-008,-2.84374548e-005
,,,-1.88000000e-008,6.12500495e-005
,,,-1.86000000e-008,8.40625506e-005
,,,-1.84000000e-008,6.75000498e-005
,,,-1.82000000e-008,-2.18749545e-005
,,,-1.80000000e-008,-1.09687459e-004
,,,-1.78000000e-008,-2.11249963e-004
,,,-1.76000000e-008,-2.43749965e-004
,,,-1.74000000e-008,-1.91874963e-004
,,,-1.72000000e-008,-6.12499563e-005
,,,-1.70000000e-008,5.28125491e-005
,,,-1.68000000e-008,1.58125054e-004
,,,-1.66000000e-008,1.39062553e-004
,,,-1.64000000e-008,1.31250472e-005
,,,-1.62000000e-008,-1.15312459e-004
,,,-1.60000000e-008,-2.19999964e-004
,,,-1.58000000e-008,-2.61874966e-004
,,,-1.56000000e-008,-2.16249964e-004
,,,-1.54000000e-008,-1.18124959e-004
,,,-1.52000000e-008,5.40625491e-005
,,,-1.50000000e-008,1.21250052e-004
,,,-1.48000000e-008,1.45000053e-004
,,,-1.46000000e-008,6.71875498e-005
,,,-1.44000000e-008,-6.40624565e-005
,,,-1.42000000e-008,-1.59687461e-004
,,,-1.40000000e-008,-2.00312463e-004
,,,-1.38000000e-008,-1.99062463e-004
,,,-1.36000000e-008,-1.20937459e-004
,,,-1.34000000e-008,-4.74999557e-005
,,,-1.32000000e-008,3.56250483e-005
,,,-1.30000000e-008,7.75000502e-005
,,,-1.28000000e-008,8.06250504e-005
,,,-1.26000000e-008,6.56254688e-006
,,,-1.24000000e-008,-6.24999564e-005
,,,-1.22000000e-008,-1.21562459e-004
,,,-1.20000000e-008,-1.35312460e-004
,,,-1.18000000e-008,-1.21874959e-004
,,,-1.16000000e-008,-1.06249958e-004
,,,-1.14000000e-008,-5.56249561e-005
,,,-1.12000000e-008,2.12500476e-005
,,,-1.10000000e-008,6.46875496e-005
,,,-1.08000000e-008,6.18750495e-005
,,,-1.06000000e-008,2.62500478e-005
,,,-1.04000000e-008,-5.90624562e-005
,,,-1.02000000e-008,-1.54687461e-004
,,,-1.00000000e-008,-2.19374964e-004
,,,-9.80000000e-009,-2.36874965e-004
,,,-9.60000000e-009,-1.84374962e-004
,,,-9.40000000e-009,-3.15624549e-005
,,,-9.20000000e-009,9.71875512e-005
,,,-9.00000000e-009,1.82812555e-004
,,,-8.80000000e-009,1.36250053e-004
,,,-8.60000000e-009,3.28125481e-005
,,,-8.40000000e-009,-1.69687461e-004
,,,-8.20000000e-009,-2.91562467e-004
,,,-8.00000000e-009,-3.25312469e-004
,,,-7.80000000e-009,-2.25312464e-004
,,,-7.60000000e-009,-3.28124550e-005
,,,-7.40000000e-009,1.65000054e-004
,,,-7.20000000e-009,2.62187559e-004
,,,-7.00000000e-009,1.87187555e-004
,,,-6.80000000e-009,-4.06245363e-006
,,,-6.60000000e-009,-2.30937464e-004
,,,-6.40000000e-009,-3.76562471e-004
,,,-6.20000000e-009,-3.64062471e-004
,,,-6.00000000e-009,-2.18437464e-004
,,,-5.80000000e-009,-1.68749542e-005
,,,-5.60000000e-009,1.57812554e-004
,,,-5.40000000e-009,2.28437557e-004
,,,-5.20000000e-009,1.55312554e-004
,,,-5.00000000e-009,-1.65624542e-005
,,,-4.80000000e-009,-1.94374963e-004
,,,-4.60000000e-009,-2.99687468e-004
,,,-4.40000000e-009,-2.99062468e-004
,,,-4.20000000e-009,-1.84374962e-004
,,,-4.00000000e-009,-2.78124548e-005
,,,-3.80000000e-009,4.90625489e-005
,,,-3.60000000e-009,1.06250052e-004
,,,-3.40000000e-009,1.04062552e-004
,,,-3.20000000e-009,-8.43745383e-006
,,,-3.00000000e-009,-8.21874573e-005
,,,-2.80000000e-009,-1.77499962e-004
,,,-2.60000000e-009,-2.41874965e-004
,,,-2.40000000e-009,-1.78749962e-004
,,,-2.20000000e-009,-8.59374575e-005
,,,-2.00000000e-009,-6.12499563e-005
,,,-1.80000000e-009,7.81254694e-006
,,,-1.60000000e-009,1.25000472e-005
,,,-1.40000000e-009,5.00004680e-006
,,,-1.20000000e-009,-2.40624546e-005
,,,-1.00000000e-009,-3.84374553e-005
,,,-8.00000000e-010,-1.00937458e-004
,,,-6.00000000e-010,-1.71562462e-004
,,,-4.00000000e-010,-1.51249961e-004
,,,-2.00000000e-010,-1.68749961e-004
,,,0.00000000e+000,-1.53124961e-004
,,,2.00000000e-010,-2.71874547e-005
,,,4.00000000e-010,4.12500485e-005
,,,6.00000000e-010,1.05312552e-004
,,,8.00000000e-010,9.37500510e-005
,,,1.00000000e-009,-3.68749552e-005
,,,1.20000000e-009,-1.60624961e-004
,,,1.40000000e-009,-2.75937467e-004
,,,1.60000000e-009,-2.60624966e-004
,,,1.80000000e-009,-1.66562461e-004
,,,2.00000000e-009,-8.12495382e-006
,,,2.20000000e-009,1.90000056e-004
,,,2.40000000e-009,2.23437557e-004
,,,2.60000000e-009,1.26250053e-004
,,,2.80000000e-009,-6.40624565e-005
,,,3.00000000e-009,-2.58124966e-004
,,,3.20000000e-009,-3.38124969e-004
,,,3.40000000e-009,-2.80937467e-004
,,,3.60000000e-009,-1.23437459e-004
,,,3.80000000e-009,4.84375489e-005
,,,4.00000000e-009,1.85625055e-004
,,,4.20000000e-009,1.89687556e-004
,,,4.40000000e-009,8.15625504e-005
,,,4.60000000e-009,-8.84374576e-005
,,,4.80000000e-009,-2.51874965e-004
,,,5.00000000e-009,-3.07499968e-004
,,,5.20000000e-009,-2.40312465e-004
,,,5.40000000e-009,-1.19062459e-004
,,,5.60000000e-009,1.18750471e-005
,,,5.80000000e-009,1.27500053e-004
,,,6.00000000e-009,1.37187553e-004
,,,6.20000000e-009,1.02500051e-004
,,,6.40000000e-009,-1.96874544e-005
,,,6.60000000e-009,-1.02499958e-004
,,,6.80000000e-009,-1.76249962e-004
,,,7.00000000e-009,-1.87187462e-004
,,,7.20000000e-009,-1.24687459e-004
,,,7.40000000e-009,-4.18749554e-005
