Data/20220819/UCLA_to_R2A_VPOL_E_60_01_Ch2.csv

"Record Length",5000,"Points",-1.00800000e-007,5.25000491e-005
"Sample Interval",2.00000000e-010,s,-1.00600000e-007,7.81250503e-005
"Trigger Point",504,"Samples",-1.00400000e-007,6.28125495e-005
"Trigger Time",0.00000000e+000,s,-1.00200000e-007,-1.31249541e-005
"",,,-1.00000000e-007,-1.37812460e-004
"Horizontal Offset",-1.00800000e-007,s,-9.98000000e-008,-2.27187464e-004
,,,-9.96000000e-008,-2.64062466e-004
,,,-9.94000000e-008,-1.83437462e-004
,,,-9.92000000e-008,8.75004698e-006
,,,-9.90000000e-008,1.70312555e-004
,,,-9.88000000e-008,2.09062556e-004
,,,-9.86000000e-008,1.25625053e-004
,,,-9.84000000e-008,-8.12499573e-005
,,,-9.82000000e-008,-2.30624964e-004
,,,-9.80000000e-008,-2.95937467e-004
,,,-9.78000000e-008,-2.75624967e-004
,,,-9.76000000e-008,-1.84999962e-004
,,,-9.74000000e-008,2.28125476e-005
,,,-9.72000000e-008,1.65937554e-004
,,,-9.70000000e-008,2.14062557e-004
,,,-9.68000000e-008,1.20937552e-004
,,,-9.66000000e-008,-3.87499553e-005
,,,-9.64000000e-008,-2.09374963e-004
,,,-9.62000000e-008,-2.89062467e-004
,,,-9.60000000e-008,-2.49062465e-004
,,,-9.58000000e-008,-1.26562459e-004
,,,-9.56000000e-008,3.15625481e-005
,,,-9.54000000e-008,1.11562552e-004
,,,-9.52000000e-008,1.29062553e-004
,,,-9.50000000e-008,6.18750495e-005
,,,-9.48000000e-008,-3.09374549e-005
,,,-9.46000000e-008,-1.44687460e-004
,,,-9.44000000e-008,-2.04062463e-004
,,,-9.42000000e-008,-1.65624961e-004
,,,-9.40000000e-008,-8.28124574e-005
,,,-9.38000000e-008,1.56254664e-006
,,,-9.36000000e-008,4.84375489e-005
,,,-9.34000000e-008,5.93754685e-006
,,,-9.32000000e-008,-3.62499552e-005
,,,-9.30000000e-008,-9.24999578e-005
,,,-9.28000000e-008,-9.90624581e-005
,,,-9.26000000e-008,-2.68749547e-005
,,,-9.24000000e-008,1.21875471e-005
,,,-9.22000000e-008,3.12504671e-006
,,,-9.20000000e-008,-5.53124561e-005
,,,-9.18000000e-008,-1.00624958e-004
,,,-9.16000000e-008,-1.18749959e-004
,,,-9.14000000e-008,-7.81249571e-005
,,,-9.12000000e-008,-3.43749551e-005
,,,-9.10000000e-008,2.06250475e-005
,,,-9.08000000e-008,6.31250496e-005
,,,-9.06000000e-008,4.87500489e-005
,,,-9.04000000e-008,-2.40624546e-005
,,,-9.02000000e-008,-1.20312459e-004
,,,-9.00000000e-008,-1.99374963e-004
,,,-8.98000000e-008,-1.89687462e-004
,,,-8.96000000e-008,-9.24999578e-005
,,,-8.94000000e-008,1.87500475e-005
,,,-8.92000000e-008,7.00000499e-005
,,,-8.90000000e-008,7.00000499e-005
,,,-8.88000000e-008,-7.18745378e-006
,,,-8.86000000e-008,-8.18749573e-005
,,,-8.84000000e-008,-1.03749958e-004
,,,-8.82000000e-008,-1.29999960e-004
,,,-8.80000000e-008,-1.48124960e-004
,,,-8.78000000e-008,-9.90624581e-005
,,,-8.76000000e-008,-5.46874560e-005
,,,-8.74000000e-008,-3.56249551e-005
,,,-8.72000000e-008,3.71875483e-005
,,,-8.70000000e-008,4.21875486e-005
,,,-8.68000000e-008,-9.68745389e-006
,,,-8.66000000e-008,-4.09374554e-005
,,,-8.64000000e-008,-6.84374567e-005
,,,-8.62000000e-008,-1.28124960e-004
,,,-8.60000000e-008,-1.39999960e-004
,,,-8.58000000e-008,-1.40312460e-004
,,,-8.56000000e-008,-1.25312459e-004
,,,-8.54000000e-008,-2.99999549e-005
,,,-8.52000000e-008,7.50000501e-005
,,,-8.50000000e-008,8.18750505e-005
,,,-8.48000000e-008,8.43750506e-005
,,,-8.46000000e-008,-1.65624542e-005
,,,-8.44000000e-008,-1.17499959e-004
,,,-8.42000000e-008,-1.85624962e-004
,,,-8.40000000e-008,-1.90937463e-004
,,,-8.38000000e-008,-1.35312460e-004
,,,-8.36000000e-008,-5.37499560e-005
,,,-8.34000000e-008,5.03125490e-005
,,,-8.32000000e-008,8.78125507e-005
,,,-8.30000000e-008,8.62500507e-005
,,,-8.28000000e-008,5.00004680e-006
,,,-8.26000000e-008,-8.56249575e-005
,,,-8.24000000e-008,-1.84687462e-004
,,,-8.22000000e-008,-1.94999963e-004
,,,-8.20000000e-008,-1.12812459e-004
,,,-8.18000000e-008,-6.87495376e-006
,,,-8.16000000e-008,7.84375503e-005
,,,-8.14000000e-008,7.18750500e-005
,,,-8.12000000e-008,5.62504683e-006
,,,-8.10000000e-008,-7.37499569e-005
,,,-8.08000000e-008,-1.13749959e-004
,,,-8.06000000e-008,-1.34062460e-004
,,,-8.04000000e-008,-8.21874573e-005
,,,-8.02000000e-008,-3.37499550e-005
,,,-8.00000000e-008,2.03125475e-005
,,,-7.98000000e-008,7.81254694e-006
,,,-7.96000000e-008,-4.18749554e-005
,,,-7.94000000e-008,-1.23749959e-004
,,,-7.92000000e-008,-1.49062461e-004
,,,-7.90000000e-008,-1.11874959e-004
,,,-7.88000000e-008,1.56254664e-006
,,,-7.86000000e-008,7.65625502e-005
,,,-7.84000000e-008,5.78125493e-005
,,,-7.82000000e-008,-3.28124550e-005
,,,-7.80000000e-008,-1.55312461e-004
,,,-7.78000000e-008,-2.47187465e-004
,,,-7.76000000e-008,-1.99062463e-004
,,,-7.74000000e-008,-1.05624958e-004
,,,-7.72000000e-008,3.87500484e-005
,,,-7.70000000e-008,1.43125053e-004
,,,-7.68000000e-008,1.60937554e-004
,,,-7.66000000e-008,4.15625485e-005
,,,-7.64000000e-008,-8.96874577e-005
,,,-7.62000000e-008,-2.23124964e-004
,,,-7.60000000e-008,-2.76249967e-004
,,,-7.58000000e-008,-1.92187463e-004
,,,-7.56000000e-008,-7.49995379e-006
,,,-7.54000000e-008,1.14375052e-004
,,,-7.52000000e-008,1.89687556e-004
,,,-7.50000000e-008,9.90625513e-005
,,,-7.48000000e-008,-5.62499561e-005
,,,-7.46000000e-008,-1.86249962e-004
,,,-7.44000000e-008,-2.35624965e-004
,,,-7.42000000e-008,-1.82812462e-004
,,,-7.40000000e-008,-7.09374568e-005
,,,-7.38000000e-008,3.25000481e-005
,,,-7.36000000e-008,9.65625512e-005
,,,-7.34000000e-008,9.28125510e-005
,,,-7.32000000e-008,1.28125472e-005
,,,-7.30000000e-008,-8.81249576e-005
,,,-7.28000000e-008,-1.68437461e-004
,,,-7.26000000e-008,-1.63749961e-004
,,,-7.24000000e-008,-6.90624567e-005
,,,-7.22000000e-008,5.46875492e-005
,,,-7.20000000e-008,1.03125051e-004
,,,-7.18000000e-008,6.34375496e-005
,,,-7.16000000e-008,-6.81249567e-005
,,,-7.14000000e-008,-1.73749962e-004
,,,-7.12000000e-008,-1.74374962e-004
,,,-7.10000000e-008,-1.47812460e-004
,,,-7.08000000e-008,-3.43749551e-005
,,,-7.06000000e-008,7.62500502e-005
,,,-7.04000000e-008,9.09375509e-005
,,,-7.02000000e-008,5.15625490e-005
,,,-7.00000000e-008,-5.96874563e-005
,,,-6.98000000e-008,-1.97499963e-004
,,,-6.96000000e-008,-2.37812465e-004
,,,-6.94000000e-008,-2.16874964e-004
,,,-6.92000000e-008,-9.93749582e-005
,,,-6.90000000e-008,6.53125497e-005
,,,-6.88000000e-008,1.24062552e-004
,,,-6.86000000e-008,6.00000494e-005
,,,-6.84000000e-008,-4.24999555e-005
,,,-6.82000000e-008,-1.81249962e-004
,,,-6.80000000e-008,-1.84062462e-004
,,,-6.78000000e-008,-1.52499961e-004
,,,-6.76000000e-008,-9.78124581e-005
,,,-6.74000000e-008,-7.49995379e-006
,,,-6.72000000e-008,1.75000474e-005
,,,-6.70000000e-008,-2.81245357e-006
,,,-6.68000000e-008,-4.37495364e-006
,,,-6.66000000e-008,-6.93749567e-005
,,,-6.64000000e-008,-7.09374568e-005
,,,-6.62000000e-008,-4.59374556e-005
,,,-6.60000000e-008,-5.03124558e-005
,,,-6.58000000e-008,-5.18749559e-005
,,,-6.56000000e-008,-5.93749563e-005
,,,-6.54000000e-008,-1.07187459e-004
,,,-6.52000000e-008,-1.16249959e-004
,,,-6.50000000e-008,-1.07187459e-004
,,,-6.48000000e-008,-3.43749551e-005
,,,-6.46000000e-008,2.46875477e-005
,,,-6.44000000e-008,6.96875499e-005
,,,-6.42000000e-008,2.84375479e-005
,,,-6.40000000e-008,-6.81249567e-005
,,,-6.38000000e-008,-1.22812459e-004
,,,-6.36000000e-008,-1.60937461e-004
,,,-6.34000000e-008,-1.67812461e-004
,,,-6.32000000e-008,-9.09374578e-005
,,,-6.30000000e-008,-2.71874547e-005
,,,-6.28000000e-008,8.15625504e-005
,,,-6.26000000e-008,1.45000053e-004
,,,-6.24000000e-008,1.11875052e-004
,,,-6.22000000e-008,-4.71874557e-005
,,,-6.20000000e-008,-1.78124962e-004
,,,-6.18000000e-008,-2.46562465e-004
,,,-6.16000000e-008,-2.44687465e-004
,,,-6.14000000e-008,-1.33437460e-004
,,,-6.12000000e-008,-8.43745383e-006
,,,-6.10000000e-008,9.06250509e-005
,,,-6.08000000e-008,1.22187552e-004
,,,-6.06000000e-008,4.93750489e-005
,,,-6.04000000e-008,-4.31249555e-005
,,,-6.02000000e-008,-1.68437461e-004
,,,-6.00000000e-008,-1.99999963e-004
,,,-5.98000000e-008,-2.09374963e-004
,,,-5.96000000e-008,-1.30312460e-004
,,,-5.94000000e-008,-5.34374560e-005
,,,-5.92000000e-008,3.90625484e-005
,,,-5.90000000e-008,4.34375486e-005
,,,-5.88000000e-008,4.65661288e-011
,,,-5.86000000e-008,-1.71874543e-005
,,,-5.84000000e-008,-5.21874559e-005
,,,-5.82000000e-008,-5.09374559e-005
,,,-5.80000000e-008,-7.09374568e-005
,,,-5.78000000e-008,-1.38749960e-004
,,,-5.76000000e-008,-1.92187463e-004
,,,-5.74000000e-008,-1.59999961e-004
,,,-5.72000000e-008,-5.56249561e-005
,,,-5.70000000e-008,7.21875500e-005
,,,-5.68000000e-008,1.64687554e-004
,,,-5.66000000e-008,1.29687553e-004
,,,-5.64000000e-008,2.78125479e-005
,,,-5.62000000e-008,-1.03437458e-004
,,,-5.60000000e-008,-2.65937466e-004
,,,-5.58000000e-008,-3.17812469e-004
,,,-5.56000000e-008,-2.44062465e-004
,,,-5.54000000e-008,-8.93749577e-005
,,,-5.52000000e-008,1.24062552e-004
,,,-5.50000000e-008,2.55312559e-004
,,,-5.48000000e-008,1.99687556e-004
,,,-5.46000000e-008,6.50000497e-005
,,,-5.44000000e-008,-1.34687460e-004
,,,-5.42000000e-008,-2.68124966e-004
,,,-5.40000000e-008,-3.12187468e-004
,,,-5.38000000e-008,-2.41562465e-004
,,,-5.36000000e-008,-7.37499569e-005
,,,-5.34000000e-008,6.25000495e-005
,,,-5.32000000e-008,1.51875054e-004
,,,-5.30000000e-008,1.68437555e-004
,,,-5.28000000e-008,6.56250497e-005
,,,-5.26000000e-008,-2.90624548e-005
,,,-5.24000000e-008,-1.74062462e-004
,,,-5.22000000e-008,-2.41249965e-004
,,,-5.20000000e-008,-2.27499964e-004
,,,-5.18000000e-008,-1.29999960e-004
,,,-5.16000000e-008,-1.34374541e-005
,,,-5.14000000e-008,6.09375495e-005
,,,-5.12000000e-008,1.02500051e-004
,,,-5.10000000e-008,8.81250508e-005
,,,-5.08000000e-008,2.65625478e-005
,,,-5.06000000e-008,-4.96874558e-005
,,,-5.04000000e-008,-1.46249960e-004
,,,-5.02000000e-008,-1.94062463e-004
,,,-5.00000000e-008,-2.10937463e-004
,,,-4.98000000e-008,-1.84999962e-004
,,,-4.96000000e-008,-7.18749568e-005
,,,-4.94000000e-008,1.87504666e-006
,,,-4.92000000e-008,7.34375501e-005
,,,-4.90000000e-008,1.26875053e-004
,,,-4.88000000e-008,7.84375503e-005
,,,-4.86000000e-008,1.15625471e-005
,,,-4.84000000e-008,-8.40624574e-005
,,,-4.82000000e-008,-2.83749967e-004
,,,-4.80000000e-008,-3.24687469e-004
,,,-4.78000000e-008,-2.48749965e-004
,,,-4.76000000e-008,-7.59374570e-005
,,,-4.74000000e-008,1.42500053e-004
,,,-4.72000000e-008,2.63125059e-004
,,,-4.70000000e-008,2.17500057e-004
,,,-4.68000000e-008,4.31250486e-005
,,,-4.66000000e-008,-1.44687460e-004
,,,-4.64000000e-008,-2.71249966e-004
,,,-4.62000000e-008,-3.55312470e-004
,,,-4.60000000e-008,-2.66249966e-004
,,,-4.58000000e-008,-9.65624580e-005
,,,-4.56000000e-008,6.93750499e-005
,,,-4.54000000e-008,2.35937558e-004
,,,-4.52000000e-008,2.22812557e-004
,,,-4.50000000e-008,5.43750491e-005
,,,-4.48000000e-008,-8.43749574e-005
,,,-4.46000000e-008,-2.32812464e-004
,,,-4.44000000e-008,-3.06874968e-004
,,,-4.42000000e-008,-2.54374966e-004
,,,-4.40000000e-008,-1.30937460e-004
,,,-4.38000000e-008,-1.09374540e-005
,,,-4.36000000e-008,6.28125495e-005
,,,-4.34000000e-008,1.22500052e-004
,,,-4.32000000e-008,1.11875052e-004
,,,-4.30000000e-008,5.18750490e-005
,,,-4.28000000e-008,-7.03124568e-005
,,,-4.26000000e-008,-2.29374964e-004
,,,-4.24000000e-008,-2.68124966e-004
,,,-4.22000000e-008,-2.18749964e-004
,,,-4.20000000e-008,-8.15624573e-005
,,,-4.18000000e-008,3.71875483e-005
,,,-4.16000000e-008,8.25000505e-005
,,,-4.14000000e-008,1.22812552e-004
,,,-4.12000000e-008,6.37500496e-005
,,,-4.10000000e-008,-4.37495364e-006
,,,-4.08000000e-008,-7.74999571e-005
,,,-4.06000000e-008,-1.97812463e-004
,,,-4.04000000e-008,-2.23124964e-004
,,,-4.02000000e-008,-2.00624963e-004
,,,-4.00000000e-008,-1.25312459e-004
,,,-3.98000000e-008,9.06254700e-006
,,,-3.96000000e-008,9.50000511e-005
,,,-3.94000000e-008,8.59375506e-005
,,,-3.92000000e-008,6.43750496e-005
,,,-3.90000000e-008,-1.09374540e-005
,,,-3.88000000e-008,-8.93749577e-005
,,,-3.86000000e-008,-1.71249962e-004
,,,-3.84000000e-008,-2.01249963e-004
,,,-3.82000000e-008,-1.50937461e-004
,,,-3.80000000e-008,-9.12499578e-005
,,,-3.78000000e-008,3.84375484e-005
,,,-3.76000000e-008,1.12500052e-004
,,,-3.74000000e-008,4.96875489e-005
,,,-3.72000000e-008,3.59375483e-005
,,,-3.70000000e-008,-5.40624560e-005
,,,-3.68000000e-008,-1.16874959e-004
,,,-3.66000000e-008,-1.36874960e-004
,,,-3.64000000e-008,-1.70312462e-004
,,,-3.62000000e-008,-1.41249960e-004
,,,-3.60000000e-008,-7.21874569e-005
,,,-3.58000000e-008,-1.12499540e-005
,,,-3.56000000e-008,4.34375486e-005
,,,-3.54000000e-008,7.62500502e-005
,,,-3.52000000e-008,4.21875486e-005
,,,-3.50000000e-008,-4.46874556e-005
,,,-3.48000000e-008,-1.16874959e-004
,,,-3.46000000e-008,-1.97812463e-004
,,,-3.44000000e-008,-1.84374962e-004
,,,-3.42000000e-008,-9.37499579e-005
,,,-3.40000000e-008,-3.49999551e-005
,,,-3.38000000e-008,5.25000491e-005
,,,-3.36000000e-008,1.18750052e-004
,,,-3.34000000e-008,7.50000501e-005
,,,-3.32000000e-008,-1.84374543e-005
,,,-3.30000000e-008,-1.36562460e-004
,,,-3.28000000e-008,-2.51874965e-004
,,,-3.26000000e-008,-2.02187463e-004
,,,-3.24000000e-008,-1.04687458e-004
,,,-3.22000000e-008,2.53125478e-005
,,,-3.20000000e-008,6.46875496e-005
,,,-3.18000000e-008,8.21875505e-005
,,,-3.16000000e-008,3.75004674e-006
,,,-3.14000000e-008,-5.78124562e-005
,,,-3.12000000e-008,-1.24374959e-004
,,,-3.10000000e-008,-2.16249964e-004
,,,-3.08000000e-008,-1.66249961e-004
,,,-3.06000000e-008,-7.06249568e-005
,,,-3.04000000e-008,-5.93745372e-006
,,,-3.02000000e-008,8.00000504e-005
,,,-3.00000000e-008,5.96875494e-005
,,,-2.98000000e-008,-2.49999546e-005
,,,-2.96000000e-008,-9.62499580e-005
,,,-2.94000000e-008,-1.39999960e-004
,,,-2.92000000e-008,-1.28124960e-004
,,,-2.90000000e-008,-5.78124562e-005
,,,-2.88000000e-008,-1.24999540e-005
,,,-2.86000000e-008,1.53125473e-005
,,,-2.84000000e-008,-3.37499550e-005
,,,-2.82000000e-008,-2.65624547e-005
,,,-2.80000000e-008,-3.34374550e-005
,,,-2.78000000e-008,-9.68749580e-005
,,,-2.76000000e-008,-4.56249556e-005
,,,-2.74000000e-008,-6.62499566e-005
,,,-2.72000000e-008,-5.68749561e-005
,,,-2.70000000e-008,-9.37495388e-006
,,,-2.68000000e-008,-5.56249561e-005
,,,-2.66000000e-008,-6.81249567e-005
,,,-2.64000000e-008,-7.99999572e-005
,,,-2.62000000e-008,-8.09374573e-005
,,,-2.60000000e-008,-2.28124545e-005
,,,-2.58000000e-008,1.84375474e-005
,,,-2.56000000e-008,-1.99999544e-005
,,,-2.54000000e-008,-4.46874556e-005
,,,-2.52000000e-008,-1.10312459e-004
,,,-2.50000000e-008,-1.35937460e-004
,,,-2.48000000e-008,-1.26249959e-004
,,,-2.46000000e-008,-6.28124564e-005
,,,-2.44000000e-008,2.09375476e-005
,,,-2.42000000e-008,5.12500490e-005
,,,-2.40000000e-008,5.93750494e-005
,,,-2.38000000e-008,-7.18745378e-006
,,,-2.36000000e-008,-1.14374959e-004
,,,-2.34000000e-008,-2.00312463e-004
,,,-2.32000000e-008,-2.18124964e-004
,,,-2.30000000e-008,-1.02187458e-004
,,,-2.28000000e-008,6.84375498e-005
,,,-2.26000000e-008,1.58125054e-004
,,,-2.24000000e-008,1.50937554e-004
,,,-2.22000000e-008,2.50000478e-005
,,,-2.20000000e-008,-1.20937459e-004
,,,-2.18000000e-008,-2.29687464e-004
,,,-2.16000000e-008,-2.47812465e-004
,,,-2.14000000e-008,-1.89062462e-004
,,,-2.12000000e-008,-7.24999569e-005
,,,-2.10000000e-008,6.43750496e-005
,,,-2.08000000e-008,1.17187552e-004
,,,-2.06000000e-008,1.19062552e-004
,,,-2.04000000e-008,1.25000472e-005
,,,-2.02000000e-008,-1.31874960e-004
,,,-2.00000000e-008,-1.92187463e-004
,,,-1.98000000e-008,-2.17499964e-004
,,,-1.96000000e-008,-1.33749960e-004
,,,-1.94000000e-008,-3.62499552e-005
,,,-1.92000000e-008,1.93750475e-005
,,,-1.90000000e-008,6.37500496e-005
,,,-1.88000000e-008,2.18750476e-005
,,,-1.86000000e-008,-3.12495358e-006
,,,-1.84000000e-008,-3.46874551e-005
,,,-1.82000000e-008,-8.87499576e-005
,,,-1.80000000e-008,-1.18749959e-004
,,,-1.78000000e-008,-1.27812460e-004
,,,-1.76000000e-008,-1.25937459e-004
,,,-1.74000000e-008,-4.71874557e-005
,,,-1.72000000e-008,2.09375476e-005
,,,-1.70000000e-008,3.59375483e-005
,,,-1.68000000e-008,3.34375482e-005
,,,-1.66000000e-008,1.46875473e-005
,,,-1.64000000e-008,-9.99995391e-006
,,,-1.62000000e-008,-4.56249556e-005
,,,-1.60000000e-008,-1.19999959e-004
,,,-1.58000000e-008,-1.65937461e-004
,,,-1.56000000e-008,-1.89062462e-004
,,,-1.54000000e-008,-9.43749579e-005
,,,-1.52000000e-008,3.43754673e-006
,,,-1.50000000e-008,1.20000052e-004
,,,-1.48000000e-008,1.52812554e-004
,,,-1.46000000e-008,8.90625508e-005
,,,-1.44000000e-008,-3.46874551e-005
,,,-1.42000000e-008,-1.67499961e-004
,,,-1.40000000e-008,-2.60312466e-004
,,,-1.38000000e-008,-2.41874965e-004
,,,-1.36000000e-008,-1.67499961e-004
,,,-1.34000000e-008,1.68750474e-005
,,,-1.32000000e-008,1.85937555e-004
,,,-1.30000000e-008,2.31562558e-004
,,,-1.28000000e-008,1.79375055e-004
,,,-1.26000000e-008,-8.74995385e-006
,,,-1.24000000e-008,-2.08124963e-004
,,,-1.22000000e-008,-2.78437467e-004
,,,-1.20000000e-008,-2.89999967e-004
,,,-1.18000000e-008,-1.21249959e-004
,,,-1.16000000e-008,2.81250479e-005
,,,-1.14000000e-008,1.00312551e-004
,,,-1.12000000e-008,1.27187553e-004
,,,-1.10000000e-008,7.18750500e-005
,,,-1.08000000e-008,-2.18745354e-006
,,,-1.06000000e-008,-9.18749578e-005
,,,-1.04000000e-008,-1.70937462e-004
,,,-1.02000000e-008,-1.54999961e-004
,,,-1.00000000e-008,-1.34062460e-004
,,,-9.80000000e-009,-1.13749959e-004
,,,-9.60000000e-009,-7.15624568e-005
,,,-9.40000000e-009,-6.56245375e-006
,,,-9.20000000e-009,5.34375491e-005
,,,-9.00000000e-009,8.78125507e-005
,,,-8.80000000e-009,7.25000500e-005
,,,-8.60000000e-009,1.18750471e-005
,,,-8.40000000e-009,-1.34374960e-004
,,,-8.20000000e-009,-2.38437465e-004
,,,-8.00000000e-009,-3.09062468e-004
,,,-7.80000000e-009,-2.48437465e-004
,,,-7.60000000e-009,-3.78124552e-005
,,,-7.40000000e-009,1.13750052e-004
,,,-7.20000000e-009,2.19375057e-004
,,,-7.00000000e-009,1.89687556e-004
,,,-6.80000000e-009,3.15625481e-005
,,,-6.60000000e-009,-1.27187459e-004
,,,-6.40000000e-009,-3.11562468e-004
,,,-6.20000000e-009,-4.21249973e-004
,,,-6.00000000e-009,-3.27187469e-004
,,,-5.80000000e-009,-1.28437460e-004
,,,-5.60000000e-009,1.51875054e-004
,,,-5.40000000e-009,3.13437561e-004
,,,-5.20000000e-009,2.81562560e-004
,,,-5.00000000e-009,1.04062552e-004
,,,-4.80000000e-009,-1.37187460e-004
,,,-4.60000000e-009,-3.45937470e-004
,,,-4.40000000e-009,-4.09374973e-004
,,,-4.20000000e-009,-3.27812469e-004
,,,-4.00000000e-009,-1.40624960e-004
,,,-3.80000000e-009,4.93750489e-005
,,,-3.60000000e-009,1.95937556e-004
,,,-3.40000000e-009,2.24062557e-004
,,,-3.20000000e-009,8.81250508e-005
,,,-3.00000000e-009,-9.31249579e-005
,,,-2.80000000e-009,-2.70937466e-004
,,,-2.60000000e-009,-3.46562470e-004
,,,-2.40000000e-009,-2.62187466e-004
,,,-2.20000000e-009,-1.10312459e-004
,,,-2.00000000e-009,2.78125479e-005
,,,-1.80000000e-009,4.93750489e-005
,,,-1.60000000e-009,5.18750490e-005
,,,-1.40000000e-009,-9.37453478e-007
,,,-1.20000000e-009,-3.96874553e-005
,,,-1.00000000e-009,-4.59374556e-005
,,,-8.00000000e-010,-8.49999575e-005
,,,-6.00000000e-010,-1.20937459e-004
,,,-4.00000000e-010,-1.35624960e-004
,,,-2.00000000e-010,-1.67499961e-004
,,,0.00000000e+000,-1.61562461e-004
,,,2.00000000e-010,-1.03749958e-004
,,,4.00000000e-010,-4.37495364e-006
,,,6.00000000e-010,8.93750508e-005
,,,8.00000000e-010,1.48437554e-004
,,,1.00000000e-009,8.53125506e-005
,,,1.20000000e-009,-6.46874565e-005
,,,1.40000000e-009,-2.39687465e-004
,,,1.60000000e-009,-3.66874971e-004
,,,1.80000000e-009,-3.36874969e-004
,,,2.00000000e-009,-1.45312460e-004
,,,2.20000000e-009,7.71875502e-005
,,,2.40000000e-009,2.27187557e-004
,,,2.60000000e-009,2.52812559e-004
,,,2.80000000e-009,1.12812552e-004
,,,3.00000000e-009,-7.74999571e-005
,,,3.20000000e-009,-2.49374965e-004
,,,3.40000000e-009,-3.67499971e-004
,,,3.60000000e-009,-3.24374969e-004
,,,3.80000000e-009,-1.60937461e-004
,,,4.00000000e-009,5.78125493e-005
,,,4.20000000e-009,2.41875058e-004
,,,4.40000000e-009,2.80937560e-004
,,,4.60000000e-009,1.71875055e-004
,,,4.80000000e-009,-3.99999553e-005
,,,5.00000000e-009,-1.76874962e-004
,,,5.20000000e-009,-2.85624967e-004
,,,5.40000000e-009,-2.80312467e-004
,,,5.60000000e-009,-1.52187461e-004
,,,5.80000000e-009,-2.99999549e-005
,,,6.00000000e-009,1.11875052e-004
,,,6.20000000e-009,2.12187557e-004
,,,6.40000000e-009,1.52812554e-004
,,,6.60000000e-009,5.00000489e-005
,,,6.80000000e-009,-1.04062458e-004
,,,7.00000000e-009,-2.46562465e-004
,,,7.20000000e-009,-2.66874966e-004
,,,7.40000000e-009,-1.93124963e-004
