Data/20220819/UCLA_to_R2B_VPOL_E_NEG50_01_Ch2.csv

"Record Length",5000,"Points",-1.00800000e-007,3.18750481e-005
"Sample Interval",2.00000000e-010,s,-1.00600000e-007,6.34375496e-005
"Trigger Point",504,"Samples",-1.00400000e-007,1.07187552e-004
"Trigger Time",0.00000000e+000,s,-1.00200000e-007,1.30312553e-004
"",,,-1.00000000e-007,1.24375052e-004
"Horizontal Offset",-1.00800000e-007,s,-9.98000000e-008,9.25000510e-005
,,,-9.96000000e-008,5.15625490e-005
,,,-9.94000000e-008,-3.43745360e-006
,,,-9.92000000e-008,-3.68749552e-005
,,,-9.90000000e-008,-1.31249541e-005
,,,-9.88000000e-008,4.43750487e-005
,,,-9.86000000e-008,1.29687553e-004
,,,-9.84000000e-008,1.58125054e-004
,,,-9.82000000e-008,1.30625053e-004
,,,-9.80000000e-008,6.84375498e-005
,,,-9.78000000e-008,-2.78124548e-005
,,,-9.76000000e-008,-2.81249548e-005
,,,-9.74000000e-008,-2.62499547e-005
,,,-9.72000000e-008,1.56254664e-006
,,,-9.70000000e-008,8.59375506e-005
,,,-9.68000000e-008,9.65625512e-005
,,,-9.66000000e-008,1.14375052e-004
,,,-9.64000000e-008,1.02187551e-004
,,,-9.62000000e-008,5.31250491e-005
,,,-9.60000000e-008,5.18750490e-005
,,,-9.58000000e-008,4.21875486e-005
,,,-9.56000000e-008,3.90625484e-005
,,,-9.54000000e-008,1.56250473e-005
,,,-9.52000000e-008,2.15625476e-005
,,,-9.50000000e-008,3.00000480e-005
,,,-9.48000000e-008,4.43750487e-005
,,,-9.46000000e-008,9.37500510e-005
,,,-9.44000000e-008,1.42812553e-004
,,,-9.42000000e-008,1.37500053e-004
,,,-9.40000000e-008,9.21875509e-005
,,,-9.38000000e-008,1.84375474e-005
,,,-9.36000000e-008,-5.81249562e-005
,,,-9.34000000e-008,-5.90624562e-005
,,,-9.32000000e-008,2.50004668e-006
,,,-9.30000000e-008,8.75000507e-005
,,,-9.28000000e-008,1.46562554e-004
,,,-9.26000000e-008,1.52500054e-004
,,,-9.24000000e-008,1.22812552e-004
,,,-9.22000000e-008,6.96875499e-005
,,,-9.20000000e-008,3.09375480e-005
,,,-9.18000000e-008,-3.12495358e-006
,,,-9.16000000e-008,-2.84374548e-005
,,,-9.14000000e-008,8.12504695e-006
,,,-9.12000000e-008,1.68750474e-005
,,,-9.10000000e-008,5.81250493e-005
,,,-9.08000000e-008,1.08750052e-004
,,,-9.06000000e-008,1.24062552e-004
,,,-9.04000000e-008,1.35625053e-004
,,,-9.02000000e-008,1.21250052e-004
,,,-9.00000000e-008,6.71875498e-005
,,,-8.98000000e-008,1.87504666e-006
,,,-8.96000000e-008,-6.74999566e-005
,,,-8.94000000e-008,-7.99999572e-005
,,,-8.92000000e-008,3.12504671e-006
,,,-8.90000000e-008,8.21875505e-005
,,,-8.88000000e-008,1.79062555e-004
,,,-8.86000000e-008,2.06562556e-004
,,,-8.84000000e-008,1.55312554e-004
,,,-8.82000000e-008,7.40625501e-005
,,,-8.80000000e-008,-1.53124542e-005
,,,-8.78000000e-008,-6.96874567e-005
,,,-8.76000000e-008,-7.24999569e-005
,,,-8.74000000e-008,-3.24999550e-005
,,,-8.72000000e-008,3.71875483e-005
,,,-8.70000000e-008,1.00937551e-004
,,,-8.68000000e-008,1.76250055e-004
,,,-8.66000000e-008,1.81250055e-004
,,,-8.64000000e-008,1.62500054e-004
,,,-8.62000000e-008,9.59375511e-005
,,,-8.60000000e-008,-1.81249543e-005
,,,-8.58000000e-008,-9.24999578e-005
,,,-8.56000000e-008,-1.13437459e-004
,,,-8.54000000e-008,-6.03124563e-005
,,,-8.52000000e-008,6.09375495e-005
,,,-8.50000000e-008,1.62187554e-004
,,,-8.48000000e-008,2.52812559e-004
,,,-8.46000000e-008,2.35000058e-004
,,,-8.44000000e-008,1.24687552e-004
,,,-8.42000000e-008,-1.62499542e-005
,,,-8.40000000e-008,-1.19062459e-004
,,,-8.38000000e-008,-1.27187459e-004
,,,-8.36000000e-008,-4.06249554e-005
,,,-8.34000000e-008,7.43750501e-005
,,,-8.32000000e-008,1.65000054e-004
,,,-8.30000000e-008,1.71562555e-004
,,,-8.28000000e-008,1.41875053e-004
,,,-8.26000000e-008,9.09375509e-005
,,,-8.24000000e-008,4.43750487e-005
,,,-8.22000000e-008,2.81250479e-005
,,,-8.20000000e-008,1.40625472e-005
,,,-8.18000000e-008,-2.09374544e-005
,,,-8.16000000e-008,-3.12495358e-006
,,,-8.14000000e-008,1.68750474e-005
,,,-8.12000000e-008,6.28125495e-005
,,,-8.10000000e-008,9.53125511e-005
,,,-8.08000000e-008,1.41562553e-004
,,,-8.06000000e-008,1.70000055e-004
,,,-8.04000000e-008,1.24062552e-004
,,,-8.02000000e-008,6.00000494e-005
,,,-8.00000000e-008,-2.24999545e-005
,,,-7.98000000e-008,-9.78124581e-005
,,,-7.96000000e-008,-7.03124568e-005
,,,-7.94000000e-008,-6.24995373e-006
,,,-7.92000000e-008,1.18437552e-004
,,,-7.90000000e-008,2.17187557e-004
,,,-7.88000000e-008,2.21562557e-004
,,,-7.86000000e-008,1.61875054e-004
,,,-7.84000000e-008,6.53125497e-005
,,,-7.82000000e-008,-3.71874552e-005
,,,-7.80000000e-008,-6.28124564e-005
,,,-7.78000000e-008,-7.96874572e-005
,,,-7.76000000e-008,-3.28124550e-005
,,,-7.74000000e-008,5.06250490e-005
,,,-7.72000000e-008,1.31562553e-004
,,,-7.70000000e-008,2.11875057e-004
,,,-7.68000000e-008,2.06562556e-004
,,,-7.66000000e-008,1.46250054e-004
,,,-7.64000000e-008,3.21875481e-005
,,,-7.62000000e-008,-9.06249577e-005
,,,-7.60000000e-008,-1.15624959e-004
,,,-7.58000000e-008,-7.71874571e-005
,,,-7.56000000e-008,3.62500483e-005
,,,-7.54000000e-008,1.65937554e-004
,,,-7.52000000e-008,2.02812556e-004
,,,-7.50000000e-008,1.95937556e-004
,,,-7.48000000e-008,1.10312552e-004
,,,-7.46000000e-008,3.25000481e-005
,,,-7.44000000e-008,-3.74999552e-005
,,,-7.42000000e-008,-4.24999555e-005
,,,-7.40000000e-008,5.31254682e-006
,,,-7.38000000e-008,4.28125486e-005
,,,-7.36000000e-008,7.50000501e-005
,,,-7.34000000e-008,7.12500500e-005
,,,-7.32000000e-008,5.37500491e-005
,,,-7.30000000e-008,5.65625493e-005
,,,-7.28000000e-008,8.93750508e-005
,,,-7.26000000e-008,1.28125053e-004
,,,-7.24000000e-008,1.46875054e-004
,,,-7.22000000e-008,6.25000495e-005
,,,-7.20000000e-008,-1.37499541e-005
,,,-7.18000000e-008,-9.78124581e-005
,,,-7.16000000e-008,-9.09374578e-005
,,,-7.14000000e-008,5.31254682e-006
,,,-7.12000000e-008,1.32187553e-004
,,,-7.10000000e-008,2.36562558e-004
,,,-7.08000000e-008,2.72187559e-004
,,,-7.06000000e-008,1.74375055e-004
,,,-7.04000000e-008,4.03125485e-005
,,,-7.02000000e-008,-1.18437459e-004
,,,-7.00000000e-008,-1.76874962e-004
,,,-6.98000000e-008,-1.32499960e-004
,,,-6.96000000e-008,-1.53124542e-005
,,,-6.94000000e-008,1.55312554e-004
,,,-6.92000000e-008,2.32187558e-004
,,,-6.90000000e-008,2.49062558e-004
,,,-6.88000000e-008,1.60312554e-004
,,,-6.86000000e-008,3.71875483e-005
,,,-6.84000000e-008,-6.59374566e-005
,,,-6.82000000e-008,-1.34062460e-004
,,,-6.80000000e-008,-1.02812458e-004
,,,-6.78000000e-008,-1.87499543e-005
,,,-6.76000000e-008,8.21875505e-005
,,,-6.74000000e-008,2.07500056e-004
,,,-6.72000000e-008,2.46250058e-004
,,,-6.70000000e-008,1.74062555e-004
,,,-6.68000000e-008,8.62500507e-005
,,,-6.66000000e-008,-4.12499554e-005
,,,-6.64000000e-008,-8.49999575e-005
,,,-6.62000000e-008,-5.43749560e-005
,,,-6.60000000e-008,4.06254676e-006
,,,-6.58000000e-008,1.00312551e-004
,,,-6.56000000e-008,1.30000053e-004
,,,-6.54000000e-008,1.39062553e-004
,,,-6.52000000e-008,1.05625052e-004
,,,-6.50000000e-008,4.00000485e-005
,,,-6.48000000e-008,3.53125482e-005
,,,-6.46000000e-008,4.00000485e-005
,,,-6.44000000e-008,6.50000497e-005
,,,-6.42000000e-008,7.65625502e-005
,,,-6.40000000e-008,4.18750486e-005
,,,-6.38000000e-008,-1.03124539e-005
,,,-6.36000000e-008,-3.56249551e-005
,,,-6.34000000e-008,-8.43745383e-006
,,,-6.32000000e-008,7.50000501e-005
,,,-6.30000000e-008,1.71875055e-004
,,,-6.28000000e-008,2.20000057e-004
,,,-6.26000000e-008,1.58750054e-004
,,,-6.24000000e-008,3.78125484e-005
,,,-6.22000000e-008,-6.09374563e-005
,,,-6.20000000e-008,-1.27187459e-004
,,,-6.18000000e-008,-7.03124568e-005
,,,-6.16000000e-008,5.78125493e-005
,,,-6.14000000e-008,1.58125054e-004
,,,-6.12000000e-008,2.33125058e-004
,,,-6.10000000e-008,2.03125056e-004
,,,-6.08000000e-008,1.08125052e-004
,,,-6.06000000e-008,1.40625472e-005
,,,-6.04000000e-008,-7.96874572e-005
,,,-6.02000000e-008,-8.49999575e-005
,,,-6.00000000e-008,-4.46874556e-005
,,,-5.98000000e-008,7.81254694e-006
,,,-5.96000000e-008,1.09375052e-004
,,,-5.94000000e-008,1.43750053e-004
,,,-5.92000000e-008,1.45312553e-004
,,,-5.90000000e-008,1.17500052e-004
,,,-5.88000000e-008,5.68750493e-005
,,,-5.86000000e-008,6.25046596e-007
,,,-5.84000000e-008,-4.15624554e-005
,,,-5.82000000e-008,-6.03124563e-005
,,,-5.80000000e-008,-2.28124545e-005
,,,-5.78000000e-008,3.68750483e-005
,,,-5.76000000e-008,1.18437552e-004
,,,-5.74000000e-008,1.58125054e-004
,,,-5.72000000e-008,1.51250054e-004
,,,-5.70000000e-008,1.07812552e-004
,,,-5.68000000e-008,4.84375489e-005
,,,-5.66000000e-008,-9.99995391e-006
,,,-5.64000000e-008,-2.43749546e-005
,,,-5.62000000e-008,-2.15624545e-005
,,,-5.60000000e-008,2.34375477e-005
,,,-5.58000000e-008,6.06250494e-005
,,,-5.56000000e-008,1.02812551e-004
,,,-5.54000000e-008,1.22812552e-004
,,,-5.52000000e-008,1.20625052e-004
,,,-5.50000000e-008,9.15625509e-005
,,,-5.48000000e-008,6.84375498e-005
,,,-5.46000000e-008,4.40625487e-005
,,,-5.44000000e-008,-5.62495370e-006
,,,-5.42000000e-008,-3.34374550e-005
,,,-5.40000000e-008,-9.37453478e-007
,,,-5.38000000e-008,4.37500486e-005
,,,-5.36000000e-008,1.30000053e-004
,,,-5.34000000e-008,1.62812554e-004
,,,-5.32000000e-008,1.49062554e-004
,,,-5.30000000e-008,9.34375510e-005
,,,-5.28000000e-008,2.56250478e-005
,,,-5.26000000e-008,-4.96874558e-005
,,,-5.24000000e-008,-2.49999546e-005
,,,-5.22000000e-008,1.25000472e-005
,,,-5.20000000e-008,9.09375509e-005
,,,-5.18000000e-008,1.32187553e-004
,,,-5.16000000e-008,9.71875512e-005
,,,-5.14000000e-008,5.65625493e-005
,,,-5.12000000e-008,1.21875471e-005
,,,-5.10000000e-008,9.68754703e-006
,,,-5.08000000e-008,4.59375487e-005
,,,-5.06000000e-008,8.34375505e-005
,,,-5.04000000e-008,1.04062552e-004
,,,-5.02000000e-008,9.25000510e-005
,,,-5.00000000e-008,5.56250492e-005
,,,-4.98000000e-008,1.03125471e-005
,,,-4.96000000e-008,-2.59374547e-005
,,,-4.94000000e-008,2.09375476e-005
,,,-4.92000000e-008,9.28125510e-005
,,,-4.90000000e-008,1.54375054e-004
,,,-4.88000000e-008,1.72187555e-004
,,,-4.86000000e-008,9.09375509e-005
,,,-4.84000000e-008,1.56250473e-005
,,,-4.82000000e-008,-5.71874562e-005
,,,-4.80000000e-008,-7.40624570e-005
,,,-4.78000000e-008,-1.87499543e-005
,,,-4.76000000e-008,6.56250497e-005
,,,-4.74000000e-008,1.41250053e-004
,,,-4.72000000e-008,1.65000054e-004
,,,-4.70000000e-008,1.42812553e-004
,,,-4.68000000e-008,9.71875512e-005
,,,-4.66000000e-008,1.18750471e-005
,,,-4.64000000e-008,-4.43749555e-005
,,,-4.62000000e-008,-5.06249558e-005
,,,-4.60000000e-008,-2.99999549e-005
,,,-4.58000000e-008,6.21875495e-005
,,,-4.56000000e-008,1.41562553e-004
,,,-4.54000000e-008,1.77812555e-004
,,,-4.52000000e-008,1.77812555e-004
,,,-4.50000000e-008,7.96875504e-005
,,,-4.48000000e-008,3.43754673e-006
,,,-4.46000000e-008,-8.09374573e-005
,,,-4.44000000e-008,-8.65624575e-005
,,,-4.42000000e-008,3.12546581e-007
,,,-4.40000000e-008,9.18750509e-005
,,,-4.38000000e-008,1.63437554e-004
,,,-4.36000000e-008,1.75000055e-004
,,,-4.34000000e-008,1.06250052e-004
,,,-4.32000000e-008,1.21875471e-005
,,,-4.30000000e-008,-5.74999562e-005
,,,-4.28000000e-008,-4.62499556e-005
,,,-4.26000000e-008,3.03125480e-005
,,,-4.24000000e-008,1.22187552e-004
,,,-4.22000000e-008,1.83125055e-004
,,,-4.20000000e-008,1.46250054e-004
,,,-4.18000000e-008,7.12500500e-005
,,,-4.16000000e-008,-1.56249542e-005
,,,-4.14000000e-008,-5.40624560e-005
,,,-4.12000000e-008,-1.90624543e-005
,,,-4.10000000e-008,4.96875489e-005
,,,-4.08000000e-008,1.45312553e-004
,,,-4.06000000e-008,1.77500055e-004
,,,-4.04000000e-008,1.21875052e-004
,,,-4.02000000e-008,5.15625490e-005
,,,-4.00000000e-008,-2.93749548e-005
,,,-3.98000000e-008,-6.84374567e-005
,,,-3.96000000e-008,-2.34374545e-005
,,,-3.94000000e-008,2.78125479e-005
,,,-3.92000000e-008,8.90625508e-005
,,,-3.90000000e-008,1.21875052e-004
,,,-3.88000000e-008,1.19687552e-004
,,,-3.86000000e-008,9.65625512e-005
,,,-3.84000000e-008,4.03125485e-005
,,,-3.82000000e-008,1.34375472e-005
,,,-3.80000000e-008,-1.71874543e-005
,,,-3.78000000e-008,-3.90624553e-005
,,,-3.76000000e-008,-6.56245375e-006
,,,-3.74000000e-008,5.65625493e-005
,,,-3.72000000e-008,1.32187553e-004
,,,-3.70000000e-008,1.74375055e-004
,,,-3.68000000e-008,1.24687552e-004
,,,-3.66000000e-008,6.09375495e-005
,,,-3.64000000e-008,-1.84374543e-005
,,,-3.62000000e-008,-6.62499566e-005
,,,-3.60000000e-008,-3.74999552e-005
,,,-3.58000000e-008,2.00000475e-005
,,,-3.56000000e-008,1.13437552e-004
,,,-3.54000000e-008,1.43750053e-004
,,,-3.52000000e-008,1.34375053e-004
,,,-3.50000000e-008,8.53125506e-005
,,,-3.48000000e-008,2.09375476e-005
,,,-3.46000000e-008,1.12500471e-005
,,,-3.44000000e-008,1.78125474e-005
,,,-3.42000000e-008,1.90625475e-005
,,,-3.40000000e-008,6.09375495e-005
,,,-3.38000000e-008,6.65625497e-005
,,,-3.36000000e-008,5.09375490e-005
,,,-3.34000000e-008,5.62500492e-005
,,,-3.32000000e-008,6.18750495e-005
,,,-3.30000000e-008,1.09687552e-004
,,,-3.28000000e-008,1.29375053e-004
,,,-3.26000000e-008,1.19687552e-004
,,,-3.24000000e-008,8.31250505e-005
,,,-3.22000000e-008,1.18750471e-005
,,,-3.20000000e-008,-1.71874543e-005
,,,-3.18000000e-008,-2.65624547e-005
,,,-3.16000000e-008,2.75000479e-005
,,,-3.14000000e-008,9.96875513e-005
,,,-3.12000000e-008,1.16250052e-004
,,,-3.10000000e-008,1.54687554e-004
,,,-3.08000000e-008,1.20312552e-004
,,,-3.06000000e-008,6.50000497e-005
,,,-3.04000000e-008,2.37500477e-005
,,,-3.02000000e-008,-2.71874547e-005
,,,-3.00000000e-008,-2.59374547e-005
,,,-2.98000000e-008,-2.34374545e-005
,,,-2.96000000e-008,-4.68745366e-006
,,,-2.94000000e-008,6.03125494e-005
,,,-2.92000000e-008,1.04687552e-004
,,,-2.90000000e-008,1.83437555e-004
,,,-2.88000000e-008,1.89687556e-004
,,,-2.86000000e-008,1.27500053e-004
,,,-2.84000000e-008,4.46875487e-005
,,,-2.82000000e-008,-6.43749565e-005
,,,-2.80000000e-008,-1.01562458e-004
,,,-2.78000000e-008,-6.18749564e-005
,,,-2.76000000e-008,3.25000481e-005
,,,-2.74000000e-008,1.55312554e-004
,,,-2.72000000e-008,2.10625057e-004
,,,-2.70000000e-008,1.84687555e-004
,,,-2.68000000e-008,1.35937553e-004
,,,-2.66000000e-008,2.09375476e-005
,,,-2.64000000e-008,-4.90624558e-005
,,,-2.62000000e-008,-9.24999578e-005
,,,-2.60000000e-008,-8.62499575e-005
,,,-2.58000000e-008,-9.37495388e-006
,,,-2.56000000e-008,3.46875482e-005
,,,-2.54000000e-008,1.34062553e-004
,,,-2.52000000e-008,1.67812555e-004
,,,-2.50000000e-008,1.70000055e-004
,,,-2.48000000e-008,1.29375053e-004
,,,-2.46000000e-008,4.93750489e-005
,,,-2.44000000e-008,-2.12499544e-005
,,,-2.42000000e-008,-7.59374570e-005
,,,-2.40000000e-008,-9.53124580e-005
,,,-2.38000000e-008,-2.43749546e-005
,,,-2.36000000e-008,6.40625496e-005
,,,-2.34000000e-008,1.88437556e-004
,,,-2.32000000e-008,2.50000058e-004
,,,-2.30000000e-008,2.26562557e-004
,,,-2.28000000e-008,1.04375052e-004
,,,-2.26000000e-008,-5.31249560e-005
,,,-2.24000000e-008,-1.07499959e-004
,,,-2.22000000e-008,-9.46874579e-005
,,,-2.20000000e-008,-2.78124548e-005
,,,-2.18000000e-008,9.15625509e-005
,,,-2.16000000e-008,1.71250055e-004
,,,-2.14000000e-008,1.94687556e-004
,,,-2.12000000e-008,1.69062555e-004
,,,-2.10000000e-008,9.15625509e-005
,,,-2.08000000e-008,4.46875487e-005
,,,-2.06000000e-008,-2.93749548e-005
,,,-2.04000000e-008,-5.40624560e-005
,,,-2.02000000e-008,-4.06249554e-005
,,,-2.00000000e-008,-9.99995391e-006
,,,-1.98000000e-008,6.31250496e-005
,,,-1.96000000e-008,1.25625053e-004
,,,-1.94000000e-008,1.47187554e-004
,,,-1.92000000e-008,1.74687555e-004
,,,-1.90000000e-008,1.08750052e-004
,,,-1.88000000e-008,5.06250490e-005
,,,-1.86000000e-008,-1.93749544e-005
,,,-1.84000000e-008,-7.78124571e-005
,,,-1.82000000e-008,-5.24999559e-005
,,,-1.80000000e-008,5.31254682e-006
,,,-1.78000000e-008,8.62500507e-005
,,,-1.76000000e-008,1.58437554e-004
,,,-1.74000000e-008,1.76562555e-004
,,,-1.72000000e-008,1.50625054e-004
,,,-1.70000000e-008,8.06250504e-005
,,,-1.68000000e-008,2.03125475e-005
,,,-1.66000000e-008,-2.03124544e-005
,,,-1.64000000e-008,-7.28124569e-005
,,,-1.62000000e-008,-6.15624564e-005
,,,-1.60000000e-008,-2.43749546e-005
,,,-1.58000000e-008,3.50000482e-005
,,,-1.56000000e-008,1.45625053e-004
,,,-1.54000000e-008,1.94687556e-004
,,,-1.52000000e-008,2.02500056e-004
,,,-1.50000000e-008,1.33750053e-004
,,,-1.48000000e-008,2.25000476e-005
,,,-1.46000000e-008,-8.71874576e-005
,,,-1.44000000e-008,-1.51874961e-004
,,,-1.42000000e-008,-9.62499580e-005
,,,-1.40000000e-008,1.46875473e-005
,,,-1.38000000e-008,1.45937553e-004
,,,-1.36000000e-008,2.51875059e-004
,,,-1.34000000e-008,2.49375058e-004
,,,-1.32000000e-008,1.57500054e-004
,,,-1.30000000e-008,3.03125480e-005
,,,-1.28000000e-008,-7.78124571e-005
,,,-1.26000000e-008,-9.40624579e-005
,,,-1.24000000e-008,-4.68749557e-005
,,,-1.22000000e-008,3.78125484e-005
,,,-1.20000000e-008,1.19375052e-004
,,,-1.18000000e-008,1.46250054e-004
,,,-1.16000000e-008,1.63750054e-004
,,,-1.14000000e-008,1.36875053e-004
,,,-1.12000000e-008,1.01562551e-004
,,,-1.10000000e-008,5.21875490e-005
,,,-1.08000000e-008,-3.43745360e-006
,,,-1.06000000e-008,-2.81245357e-006
,,,-1.04000000e-008,-3.15624549e-005
,,,-1.02000000e-008,1.06250471e-005
,,,-1.00000000e-008,5.90625494e-005
,,,-9.80000000e-009,9.31250510e-005
,,,-9.60000000e-009,1.34687553e-004
,,,-9.40000000e-009,1.39687553e-004
,,,-9.20000000e-009,1.15937552e-004
,,,-9.00000000e-009,7.09375499e-005
,,,-8.80000000e-009,-4.37495364e-006
,,,-8.60000000e-009,-3.59374551e-005
,,,-8.40000000e-009,-3.90624553e-005
,,,-8.20000000e-009,-1.93749544e-005
,,,-8.00000000e-009,5.03125490e-005
,,,-7.80000000e-009,8.75000507e-005
,,,-7.60000000e-009,1.35937553e-004
,,,-7.40000000e-009,1.53437554e-004
,,,-7.20000000e-009,1.18125052e-004
,,,-7.00000000e-009,8.12500504e-005
,,,-6.80000000e-009,-7.18745378e-006
,,,-6.60000000e-009,-8.74999576e-005
,,,-6.40000000e-009,-1.01249958e-004
,,,-6.20000000e-009,-7.46874570e-005
,,,-6.00000000e-009,5.18750490e-005
,,,-5.80000000e-009,1.42187553e-004
,,,-5.60000000e-009,1.83437555e-004
,,,-5.40000000e-009,1.65625054e-004
,,,-5.20000000e-009,5.28125491e-005
,,,-5.00000000e-009,-4.62499556e-005
,,,-4.80000000e-009,-1.11874959e-004
,,,-4.60000000e-009,-1.11562459e-004
,,,-4.40000000e-009,-9.99995391e-006
,,,-4.20000000e-009,8.25000505e-005
,,,-4.00000000e-009,1.50000054e-004
,,,-3.80000000e-009,1.69375055e-004
,,,-3.60000000e-009,1.04687552e-004
,,,-3.40000000e-009,3.25000481e-005
,,,-3.20000000e-009,-3.09374549e-005
,,,-3.00000000e-009,-2.06249544e-005
,,,-2.80000000e-009,1.09375471e-005
,,,-2.60000000e-009,2.37500477e-005
,,,-2.40000000e-009,6.03125494e-005
,,,-2.20000000e-009,3.81250484e-005
,,,-2.00000000e-009,3.81250484e-005
,,,-1.80000000e-009,3.87500484e-005
,,,-1.60000000e-009,5.06250490e-005
,,,-1.40000000e-009,7.18750500e-005
,,,-1.20000000e-009,6.87500498e-005
,,,-1.00000000e-009,5.84375493e-005
,,,-8.00000000e-010,4.31250486e-005
,,,-6.00000000e-010,-5.31245369e-006
,,,-4.00000000e-010,-7.49995379e-006
,,,-2.00000000e-010,3.75004674e-006
,,,0.00000000e+000,1.06250471e-005
,,,2.00000000e-010,8.28125505e-005
,,,4.00000000e-010,1.09687552e-004
,,,6.00000000e-010,1.23125052e-004
,,,8.00000000e-010,1.03437551e-004
,,,1.00000000e-009,4.46875487e-005
,,,1.20000000e-009,-7.81245380e-006
,,,1.40000000e-009,-3.59374551e-005
,,,1.60000000e-009,-4.59374556e-005
,,,1.80000000e-009,-2.56249547e-005
,,,2.00000000e-009,3.18750481e-005
,,,2.20000000e-009,9.68750512e-005
,,,2.40000000e-009,1.41875053e-004
,,,2.60000000e-009,1.45937553e-004
,,,2.80000000e-009,8.46875506e-005
,,,3.00000000e-009,-1.28124540e-005
,,,3.20000000e-009,-9.03124577e-005
,,,3.40000000e-009,-8.65624575e-005
,,,3.60000000e-009,-3.99999553e-005
,,,3.80000000e-009,5.06250490e-005
,,,4.00000000e-009,1.43125053e-004
,,,4.20000000e-009,1.62812554e-004
,,,4.40000000e-009,1.30937553e-004
,,,4.60000000e-009,7.59375502e-005
,,,4.80000000e-009,7.18754691e-006
,,,5.00000000e-009,-4.18749554e-005
,,,5.20000000e-009,-3.40624551e-005
,,,5.40000000e-009,1.06250471e-005
,,,5.60000000e-009,4.25000486e-005
,,,5.80000000e-009,9.46875511e-005
,,,6.00000000e-009,1.10625052e-004
,,,6.20000000e-009,1.02187551e-004
,,,6.40000000e-009,9.37500510e-005
,,,6.60000000e-009,7.12500500e-005
,,,6.80000000e-009,4.71875488e-005
,,,7.00000000e-009,3.81250484e-005
,,,7.20000000e-009,1.78125474e-005
,,,7.40000000e-009,1.03125471e-005
,,,7.60000000e-009,3.34375482e-005
,,,7.80000000e-009,6.50000497e-005
,,,8.00000000e-009,9.09375509e-005
,,,8.20000000e-009,1.21875052e-004
,,,8.40000000e-009,1.04062552e-004
