Data/20220819/UCLA_to_R2A_VPOL_E_80_01_Ch2.csv

"Record Length",5000,"Points",-1.00800000e-007,-3.06249549e-005
"Sample Interval",2.00000000e-010,s,-1.00600000e-007,8.62500507e-005
"Trigger Point",504,"Samples",-1.00400000e-007,1.07812552e-004
"Trigger Time",0.00000000e+000,s,-1.00200000e-007,4.93750489e-005
"",,,-1.00000000e-007,-1.06249539e-005
"Horizontal Offset",-1.00800000e-007,s,-9.98000000e-008,-9.06249577e-005
,,,-9.96000000e-008,-1.45624960e-004
,,,-9.94000000e-008,-1.58437461e-004
,,,-9.92000000e-008,-1.16249959e-004
,,,-9.90000000e-008,-3.03124549e-005
,,,-9.88000000e-008,1.15000052e-004
,,,-9.86000000e-008,1.48437554e-004
,,,-9.84000000e-008,8.81250508e-005
,,,-9.82000000e-008,-4.59374556e-005
,,,-9.80000000e-008,-1.82499962e-004
,,,-9.78000000e-008,-2.46874965e-004
,,,-9.76000000e-008,-1.74062462e-004
,,,-9.74000000e-008,-4.21874554e-005
,,,-9.72000000e-008,9.50000511e-005
,,,-9.70000000e-008,1.75000055e-004
,,,-9.68000000e-008,1.57500054e-004
,,,-9.66000000e-008,5.03125490e-005
,,,-9.64000000e-008,-8.90624577e-005
,,,-9.62000000e-008,-1.96249963e-004
,,,-9.60000000e-008,-2.50937465e-004
,,,-9.58000000e-008,-1.59687461e-004
,,,-9.56000000e-008,3.75004674e-006
,,,-9.54000000e-008,1.36250053e-004
,,,-9.52000000e-008,1.89375056e-004
,,,-9.50000000e-008,1.24062552e-004
,,,-9.48000000e-008,-4.99995367e-006
,,,-9.46000000e-008,-1.24062459e-004
,,,-9.44000000e-008,-1.92812463e-004
,,,-9.42000000e-008,-1.49999961e-004
,,,-9.40000000e-008,-1.21874959e-004
,,,-9.38000000e-008,-1.40624541e-005
,,,-9.36000000e-008,2.56250478e-005
,,,-9.34000000e-008,5.37500491e-005
,,,-9.32000000e-008,7.93750503e-005
,,,-9.30000000e-008,3.81250484e-005
,,,-9.28000000e-008,-4.21874554e-005
,,,-9.26000000e-008,-8.18749573e-005
,,,-9.24000000e-008,-1.28124960e-004
,,,-9.22000000e-008,-8.74999576e-005
,,,-9.20000000e-008,-6.09374563e-005
,,,-9.18000000e-008,-3.31249550e-005
,,,-9.16000000e-008,2.81254670e-006
,,,-9.14000000e-008,5.93754685e-006
,,,-9.12000000e-008,6.40625496e-005
,,,-9.10000000e-008,4.31250486e-005
,,,-9.08000000e-008,1.31250472e-005
,,,-9.06000000e-008,-5.87499562e-005
,,,-9.04000000e-008,-1.23749959e-004
,,,-9.02000000e-008,-1.23124959e-004
,,,-9.00000000e-008,-1.44062460e-004
,,,-8.98000000e-008,-5.96874563e-005
,,,-8.96000000e-008,-1.84374543e-005
,,,-8.94000000e-008,2.46875477e-005
,,,-8.92000000e-008,1.05625052e-004
,,,-8.90000000e-008,9.03125509e-005
,,,-8.88000000e-008,-3.12495358e-006
,,,-8.86000000e-008,-6.21874564e-005
,,,-8.84000000e-008,-1.83749962e-004
,,,-8.82000000e-008,-1.98749963e-004
,,,-8.80000000e-008,-1.26874959e-004
,,,-8.78000000e-008,-2.96874548e-005
,,,-8.76000000e-008,3.81250484e-005
,,,-8.74000000e-008,7.90625503e-005
,,,-8.72000000e-008,8.62500507e-005
,,,-8.70000000e-008,3.75000483e-005
,,,-8.68000000e-008,-1.15624540e-005
,,,-8.66000000e-008,-6.06249563e-005
,,,-8.64000000e-008,-1.70624962e-004
,,,-8.62000000e-008,-1.75624962e-004
,,,-8.60000000e-008,-1.17499959e-004
,,,-8.58000000e-008,-4.40624555e-005
,,,-8.56000000e-008,5.46875492e-005
,,,-8.54000000e-008,9.37500510e-005
,,,-8.52000000e-008,9.37500510e-005
,,,-8.50000000e-008,4.96875489e-005
,,,-8.48000000e-008,-1.49999541e-005
,,,-8.46000000e-008,-9.40624579e-005
,,,-8.44000000e-008,-1.79999962e-004
,,,-8.42000000e-008,-2.01249963e-004
,,,-8.40000000e-008,-1.62812461e-004
,,,-8.38000000e-008,-7.18749568e-005
,,,-8.36000000e-008,8.00000504e-005
,,,-8.34000000e-008,1.70312555e-004
,,,-8.32000000e-008,1.77500055e-004
,,,-8.30000000e-008,3.71875483e-005
,,,-8.28000000e-008,-1.05312458e-004
,,,-8.26000000e-008,-2.31562464e-004
,,,-8.24000000e-008,-2.67187466e-004
,,,-8.22000000e-008,-2.10624963e-004
,,,-8.20000000e-008,-6.99999568e-005
,,,-8.18000000e-008,8.21875505e-005
,,,-8.16000000e-008,2.24687557e-004
,,,-8.14000000e-008,2.42812558e-004
,,,-8.12000000e-008,9.93750513e-005
,,,-8.10000000e-008,-9.68749580e-005
,,,-8.08000000e-008,-2.65624966e-004
,,,-8.06000000e-008,-3.09062468e-004
,,,-8.04000000e-008,-2.07499963e-004
,,,-8.02000000e-008,-5.99999563e-005
,,,-8.00000000e-008,9.53125511e-005
,,,-7.98000000e-008,1.84375055e-004
,,,-7.96000000e-008,1.68750055e-004
,,,-7.94000000e-008,8.28125505e-005
,,,-7.92000000e-008,-5.81249562e-005
,,,-7.90000000e-008,-1.72499962e-004
,,,-7.88000000e-008,-2.25312464e-004
,,,-7.86000000e-008,-1.82499962e-004
,,,-7.84000000e-008,-9.65624580e-005
,,,-7.82000000e-008,5.50000492e-005
,,,-7.80000000e-008,1.26562553e-004
,,,-7.78000000e-008,1.21250052e-004
,,,-7.76000000e-008,7.90625503e-005
,,,-7.74000000e-008,-2.18749545e-005
,,,-7.72000000e-008,-6.09374563e-005
,,,-7.70000000e-008,-9.09374578e-005
,,,-7.68000000e-008,-9.09374578e-005
,,,-7.66000000e-008,-9.62499580e-005
,,,-7.64000000e-008,-7.06249568e-005
,,,-7.62000000e-008,-2.37499546e-005
,,,-7.60000000e-008,4.37500486e-005
,,,-7.58000000e-008,7.68750502e-005
,,,-7.56000000e-008,8.00000504e-005
,,,-7.54000000e-008,4.03125485e-005
,,,-7.52000000e-008,-1.06249539e-005
,,,-7.50000000e-008,-7.59374570e-005
,,,-7.48000000e-008,-1.55937461e-004
,,,-7.46000000e-008,-2.04374963e-004
,,,-7.44000000e-008,-1.55937461e-004
,,,-7.42000000e-008,-5.31249560e-005
,,,-7.40000000e-008,7.96875504e-005
,,,-7.38000000e-008,2.06875056e-004
,,,-7.36000000e-008,1.35312553e-004
,,,-7.34000000e-008,4.53125487e-005
,,,-7.32000000e-008,-1.17812459e-004
,,,-7.30000000e-008,-2.25312464e-004
,,,-7.28000000e-008,-2.13124964e-004
,,,-7.26000000e-008,-1.31562460e-004
,,,-7.24000000e-008,-3.53124551e-005
,,,-7.22000000e-008,7.53125501e-005
,,,-7.20000000e-008,1.53437554e-004
,,,-7.18000000e-008,1.19687552e-004
,,,-7.16000000e-008,7.18750500e-005
,,,-7.14000000e-008,-5.34374560e-005
,,,-7.12000000e-008,-1.84999962e-004
,,,-7.10000000e-008,-2.43749965e-004
,,,-7.08000000e-008,-1.62187461e-004
,,,-7.06000000e-008,-6.59374566e-005
,,,-7.04000000e-008,2.75000479e-005
,,,-7.02000000e-008,8.68750507e-005
,,,-7.00000000e-008,5.78125493e-005
,,,-6.98000000e-008,4.00000485e-005
,,,-6.96000000e-008,-2.49999546e-005
,,,-6.94000000e-008,-1.03124958e-004
,,,-6.92000000e-008,-1.28749960e-004
,,,-6.90000000e-008,-1.34062460e-004
,,,-6.88000000e-008,-8.59374575e-005
,,,-6.86000000e-008,-3.62499552e-005
,,,-6.84000000e-008,2.59375478e-005
,,,-6.82000000e-008,5.09375490e-005
,,,-6.80000000e-008,4.03125485e-005
,,,-6.78000000e-008,6.03125494e-005
,,,-6.76000000e-008,7.81254694e-006
,,,-6.74000000e-008,-7.49995379e-006
,,,-6.72000000e-008,-4.65624556e-005
,,,-6.70000000e-008,-1.27187459e-004
,,,-6.68000000e-008,-1.29374960e-004
,,,-6.66000000e-008,-5.56249561e-005
,,,-6.64000000e-008,2.75000479e-005
,,,-6.62000000e-008,1.14062552e-004
,,,-6.60000000e-008,9.75000512e-005
,,,-6.58000000e-008,4.65625488e-005
,,,-6.56000000e-008,-7.53124570e-005
,,,-6.54000000e-008,-1.35624960e-004
,,,-6.52000000e-008,-1.53749961e-004
,,,-6.50000000e-008,-1.37499960e-004
,,,-6.48000000e-008,-6.99999568e-005
,,,-6.46000000e-008,1.59375473e-005
,,,-6.44000000e-008,6.68750497e-005
,,,-6.42000000e-008,1.03750051e-004
,,,-6.40000000e-008,3.75000483e-005
,,,-6.38000000e-008,-5.93749563e-005
,,,-6.36000000e-008,-1.17499959e-004
,,,-6.34000000e-008,-1.55624961e-004
,,,-6.32000000e-008,-8.90624577e-005
,,,-6.30000000e-008,-1.74999543e-005
,,,-6.28000000e-008,3.96875485e-005
,,,-6.26000000e-008,7.93750503e-005
,,,-6.24000000e-008,4.68750488e-005
,,,-6.22000000e-008,-1.43749541e-005
,,,-6.20000000e-008,-3.28124550e-005
,,,-6.18000000e-008,-9.12499578e-005
,,,-6.16000000e-008,-1.06874959e-004
,,,-6.14000000e-008,-6.93749567e-005
,,,-6.12000000e-008,-3.03124549e-005
,,,-6.10000000e-008,2.75000479e-005
,,,-6.08000000e-008,2.96875480e-005
,,,-6.06000000e-008,-2.03124544e-005
,,,-6.04000000e-008,-7.31249569e-005
,,,-6.02000000e-008,-6.78124567e-005
,,,-6.00000000e-008,-4.78124557e-005
,,,-5.98000000e-008,-1.46874541e-005
,,,-5.96000000e-008,-2.31249545e-005
,,,-5.94000000e-008,-4.43749555e-005
,,,-5.92000000e-008,-8.03124572e-005
,,,-5.90000000e-008,-7.43749570e-005
,,,-5.88000000e-008,-4.09374554e-005
,,,-5.86000000e-008,8.43754697e-006
,,,-5.84000000e-008,3.87500484e-005
,,,-5.82000000e-008,2.96875480e-005
,,,-5.80000000e-008,7.81254694e-006
,,,-5.78000000e-008,-5.68749561e-005
,,,-5.76000000e-008,-6.28124564e-005
,,,-5.74000000e-008,-9.18749578e-005
,,,-5.72000000e-008,-7.93749572e-005
,,,-5.70000000e-008,7.81254694e-006
,,,-5.68000000e-008,4.75000488e-005
,,,-5.66000000e-008,1.00312551e-004
,,,-5.64000000e-008,7.50000501e-005
,,,-5.62000000e-008,-4.81249557e-005
,,,-5.60000000e-008,-1.38437460e-004
,,,-5.58000000e-008,-1.54374961e-004
,,,-5.56000000e-008,-1.42187460e-004
,,,-5.54000000e-008,-3.21874550e-005
,,,-5.52000000e-008,1.84375474e-005
,,,-5.50000000e-008,7.12500500e-005
,,,-5.48000000e-008,9.00000508e-005
,,,-5.46000000e-008,3.87500484e-005
,,,-5.44000000e-008,-5.65624561e-005
,,,-5.42000000e-008,-1.41249960e-004
,,,-5.40000000e-008,-1.79374962e-004
,,,-5.38000000e-008,-1.52187461e-004
,,,-5.36000000e-008,-2.56249547e-005
,,,-5.34000000e-008,6.62500497e-005
,,,-5.32000000e-008,8.40625506e-005
,,,-5.30000000e-008,8.12500504e-005
,,,-5.28000000e-008,-7.49995379e-006
,,,-5.26000000e-008,-9.12499578e-005
,,,-5.24000000e-008,-1.18749959e-004
,,,-5.22000000e-008,-1.31562460e-004
,,,-5.20000000e-008,-6.37499565e-005
,,,-5.18000000e-008,-3.81249552e-005
,,,-5.16000000e-008,-2.87499548e-005
,,,-5.14000000e-008,4.68750488e-005
,,,-5.12000000e-008,4.37500486e-005
,,,-5.10000000e-008,1.40625472e-005
,,,-5.08000000e-008,-3.06249549e-005
,,,-5.06000000e-008,-8.93749577e-005
,,,-5.04000000e-008,-6.59374566e-005
,,,-5.02000000e-008,-7.24999569e-005
,,,-5.00000000e-008,-7.18749568e-005
,,,-4.98000000e-008,-7.93749572e-005
,,,-4.96000000e-008,-7.21874569e-005
,,,-4.94000000e-008,-5.93745372e-006
,,,-4.92000000e-008,6.06250494e-005
,,,-4.90000000e-008,9.37500510e-005
,,,-4.88000000e-008,6.90625498e-005
,,,-4.86000000e-008,-3.43745360e-006
,,,-4.84000000e-008,-9.93749582e-005
,,,-4.82000000e-008,-1.58749961e-004
,,,-4.80000000e-008,-1.58437461e-004
,,,-4.78000000e-008,-7.96874572e-005
,,,-4.76000000e-008,2.00000475e-005
,,,-4.74000000e-008,1.16875052e-004
,,,-4.72000000e-008,1.51562554e-004
,,,-4.70000000e-008,1.20000052e-004
,,,-4.68000000e-008,2.18754667e-006
,,,-4.66000000e-008,-1.47187460e-004
,,,-4.64000000e-008,-2.48749965e-004
,,,-4.62000000e-008,-2.55937466e-004
,,,-4.60000000e-008,-9.96874582e-005
,,,-4.58000000e-008,5.78125493e-005
,,,-4.56000000e-008,1.11562552e-004
,,,-4.54000000e-008,1.40937553e-004
,,,-4.52000000e-008,4.18750486e-005
,,,-4.50000000e-008,-5.12499559e-005
,,,-4.48000000e-008,-7.78124571e-005
,,,-4.46000000e-008,-1.46562460e-004
,,,-4.44000000e-008,-1.64999961e-004
,,,-4.42000000e-008,-1.02499958e-004
,,,-4.40000000e-008,-6.46874565e-005
,,,-4.38000000e-008,3.50000482e-005
,,,-4.36000000e-008,1.08750052e-004
,,,-4.34000000e-008,8.18750505e-005
,,,-4.32000000e-008,8.75004698e-006
,,,-4.30000000e-008,-5.68749561e-005
,,,-4.28000000e-008,-9.96874582e-005
,,,-4.26000000e-008,-1.27187459e-004
,,,-4.24000000e-008,-9.31249579e-005
,,,-4.22000000e-008,-7.59374570e-005
,,,-4.20000000e-008,-6.34374564e-005
,,,-4.18000000e-008,-1.21874540e-005
,,,-4.16000000e-008,2.78125479e-005
,,,-4.14000000e-008,4.81250489e-005
,,,-4.12000000e-008,5.75000493e-005
,,,-4.10000000e-008,-1.74999543e-005
,,,-4.08000000e-008,-9.49999579e-005
,,,-4.06000000e-008,-1.56562461e-004
,,,-4.04000000e-008,-1.64999961e-004
,,,-4.02000000e-008,-1.87812462e-004
,,,-4.00000000e-008,-1.04999958e-004
,,,-3.98000000e-008,7.18754691e-006
,,,-3.96000000e-008,1.41250053e-004
,,,-3.94000000e-008,1.95000056e-004
,,,-3.92000000e-008,1.35312553e-004
,,,-3.90000000e-008,-6.21874564e-005
,,,-3.88000000e-008,-1.99062463e-004
,,,-3.86000000e-008,-2.49687465e-004
,,,-3.84000000e-008,-2.08749963e-004
,,,-3.82000000e-008,-4.84374557e-005
,,,-3.80000000e-008,7.21875500e-005
,,,-3.78000000e-008,1.65312554e-004
,,,-3.76000000e-008,1.92500056e-004
,,,-3.74000000e-008,8.21875505e-005
,,,-3.72000000e-008,-2.62499547e-005
,,,-3.70000000e-008,-1.54687461e-004
,,,-3.68000000e-008,-2.60937466e-004
,,,-3.66000000e-008,-2.38749965e-004
,,,-3.64000000e-008,-1.54687461e-004
,,,-3.62000000e-008,-2.68749547e-005
,,,-3.60000000e-008,1.04687552e-004
,,,-3.58000000e-008,1.29375053e-004
,,,-3.56000000e-008,1.19375052e-004
,,,-3.54000000e-008,9.68754703e-006
,,,-3.52000000e-008,-7.87499572e-005
,,,-3.50000000e-008,-1.54062461e-004
,,,-3.48000000e-008,-2.12499964e-004
,,,-3.46000000e-008,-1.85937462e-004
,,,-3.44000000e-008,-9.37499579e-005
,,,-3.42000000e-008,2.56250478e-005
,,,-3.40000000e-008,1.12812552e-004
,,,-3.38000000e-008,1.27500053e-004
,,,-3.36000000e-008,9.46875511e-005
,,,-3.34000000e-008,-2.28124545e-005
,,,-3.32000000e-008,-6.59374566e-005
,,,-3.30000000e-008,-1.28749960e-004
,,,-3.28000000e-008,-1.67812461e-004
,,,-3.26000000e-008,-1.58124961e-004
,,,-3.24000000e-008,-1.04687458e-004
,,,-3.22000000e-008,-3.53124551e-005
,,,-3.20000000e-008,8.68750507e-005
,,,-3.18000000e-008,1.46875054e-004
,,,-3.16000000e-008,1.34062553e-004
,,,-3.14000000e-008,2.96875480e-005
,,,-3.12000000e-008,-1.33437460e-004
,,,-3.10000000e-008,-2.37187465e-004
,,,-3.08000000e-008,-2.44999965e-004
,,,-3.06000000e-008,-1.99374963e-004
,,,-3.04000000e-008,-7.40624570e-005
,,,-3.02000000e-008,5.71875493e-005
,,,-3.00000000e-008,1.73750055e-004
,,,-2.98000000e-008,2.11250057e-004
,,,-2.96000000e-008,1.37812553e-004
,,,-2.94000000e-008,-4.09374554e-005
,,,-2.92000000e-008,-2.09999963e-004
,,,-2.90000000e-008,-2.58437466e-004
,,,-2.88000000e-008,-2.13124964e-004
,,,-2.86000000e-008,-8.99999577e-005
,,,-2.84000000e-008,4.78125488e-005
,,,-2.82000000e-008,1.32812553e-004
,,,-2.80000000e-008,1.98437556e-004
,,,-2.78000000e-008,1.36562553e-004
,,,-2.76000000e-008,1.25000472e-005
,,,-2.74000000e-008,-1.16249959e-004
,,,-2.72000000e-008,-2.44999965e-004
,,,-2.70000000e-008,-2.55312466e-004
,,,-2.68000000e-008,-1.93437463e-004
,,,-2.66000000e-008,-4.56249556e-005
,,,-2.64000000e-008,8.62500507e-005
,,,-2.62000000e-008,1.43125053e-004
,,,-2.60000000e-008,1.55937554e-004
,,,-2.58000000e-008,8.18750505e-005
,,,-2.56000000e-008,-6.37499565e-005
,,,-2.54000000e-008,-1.36874960e-004
,,,-2.52000000e-008,-2.04062463e-004
,,,-2.50000000e-008,-2.53437465e-004
,,,-2.48000000e-008,-1.66249961e-004
,,,-2.46000000e-008,-4.78124557e-005
,,,-2.44000000e-008,1.00000051e-004
,,,-2.42000000e-008,2.00937556e-004
,,,-2.40000000e-008,1.71250055e-004
,,,-2.38000000e-008,2.43750477e-005
,,,-2.36000000e-008,-6.62499566e-005
,,,-2.34000000e-008,-1.57812461e-004
,,,-2.32000000e-008,-2.24687464e-004
,,,-2.30000000e-008,-1.82812462e-004
,,,-2.28000000e-008,-1.13437459e-004
,,,-2.26000000e-008,6.87504689e-006
,,,-2.24000000e-008,1.32187553e-004
,,,-2.22000000e-008,1.90937556e-004
,,,-2.20000000e-008,1.41875053e-004
,,,-2.18000000e-008,1.93750475e-005
,,,-2.16000000e-008,-1.64062461e-004
,,,-2.14000000e-008,-2.43124965e-004
,,,-2.12000000e-008,-2.53124965e-004
,,,-2.10000000e-008,-1.79062462e-004
,,,-2.08000000e-008,-2.59374547e-005
,,,-2.06000000e-008,9.87500513e-005
,,,-2.04000000e-008,2.02500056e-004
,,,-2.02000000e-008,1.98437556e-004
,,,-2.00000000e-008,9.06250509e-005
,,,-1.98000000e-008,-8.21874573e-005
,,,-1.96000000e-008,-2.36562465e-004
,,,-1.94000000e-008,-2.83437467e-004
,,,-1.92000000e-008,-1.80937462e-004
,,,-1.90000000e-008,-3.24999550e-005
,,,-1.88000000e-008,1.08125052e-004
,,,-1.86000000e-008,1.87500055e-004
,,,-1.84000000e-008,1.60000054e-004
,,,-1.82000000e-008,7.71875502e-005
,,,-1.80000000e-008,-3.03124549e-005
,,,-1.78000000e-008,-1.26562459e-004
,,,-1.76000000e-008,-1.92812463e-004
,,,-1.74000000e-008,-1.97187463e-004
,,,-1.72000000e-008,-1.44062460e-004
,,,-1.70000000e-008,1.25004663e-006
,,,-1.68000000e-008,1.06562552e-004
,,,-1.66000000e-008,1.51875054e-004
,,,-1.64000000e-008,1.27500053e-004
,,,-1.62000000e-008,9.37546611e-007
,,,-1.60000000e-008,-1.01249958e-004
,,,-1.58000000e-008,-1.64374961e-004
,,,-1.56000000e-008,-1.97187463e-004
,,,-1.54000000e-008,-1.49374961e-004
,,,-1.52000000e-008,-7.68749571e-005
,,,-1.50000000e-008,-4.68745366e-006
,,,-1.48000000e-008,1.01250051e-004
,,,-1.46000000e-008,1.35625053e-004
,,,-1.44000000e-008,9.12500509e-005
,,,-1.42000000e-008,-9.99995391e-006
,,,-1.40000000e-008,-1.02499958e-004
,,,-1.38000000e-008,-1.37812460e-004
,,,-1.36000000e-008,-1.47187460e-004
,,,-1.34000000e-008,-1.14062459e-004
,,,-1.32000000e-008,-7.18749568e-005
,,,-1.30000000e-008,2.43750477e-005
,,,-1.28000000e-008,1.22500052e-004
,,,-1.26000000e-008,1.18437552e-004
,,,-1.24000000e-008,6.06250494e-005
,,,-1.22000000e-008,-2.09374544e-005
,,,-1.20000000e-008,-1.55937461e-004
,,,-1.18000000e-008,-2.14374964e-004
,,,-1.16000000e-008,-1.86874962e-004
,,,-1.14000000e-008,-1.29374960e-004
,,,-1.12000000e-008,6.25046596e-007
,,,-1.10000000e-008,1.28437553e-004
,,,-1.08000000e-008,1.71250055e-004
,,,-1.06000000e-008,1.37500053e-004
,,,-1.04000000e-008,5.09375490e-005
,,,-1.02000000e-008,-8.24999574e-005
,,,-1.00000000e-008,-2.14999964e-004
,,,-9.80000000e-009,-2.38749965e-004
,,,-9.60000000e-009,-1.85312462e-004
,,,-9.40000000e-009,-3.40624551e-005
,,,-9.20000000e-009,1.27187553e-004
,,,-9.00000000e-009,1.76875055e-004
,,,-8.80000000e-009,1.55937554e-004
,,,-8.60000000e-009,3.78125484e-005
,,,-8.40000000e-009,-9.65624580e-005
,,,-8.20000000e-009,-1.91562463e-004
,,,-8.00000000e-009,-2.51874965e-004
,,,-7.80000000e-009,-2.21562464e-004
,,,-7.60000000e-009,-1.09687459e-004
,,,-7.40000000e-009,3.87500484e-005
,,,-7.20000000e-009,1.29062553e-004
,,,-7.00000000e-009,1.45625053e-004
,,,-6.80000000e-009,4.62500488e-005
,,,-6.60000000e-009,-9.37499579e-005
,,,-6.40000000e-009,-1.94374963e-004
,,,-6.20000000e-009,-2.14687464e-004
,,,-6.00000000e-009,-2.05937463e-004
,,,-5.80000000e-009,-1.10312459e-004
,,,-5.60000000e-009,-1.56245351e-006
,,,-5.40000000e-009,7.34375501e-005
,,,-5.20000000e-009,1.63437554e-004
,,,-5.00000000e-009,1.17812552e-004
,,,-4.80000000e-009,1.21875471e-005
,,,-4.60000000e-009,-9.74999581e-005
,,,-4.40000000e-009,-2.01562463e-004
,,,-4.20000000e-009,-2.10937463e-004
,,,-4.00000000e-009,-1.22499959e-004
,,,-3.80000000e-009,-5.53124561e-005
,,,-3.60000000e-009,2.46875477e-005
,,,-3.40000000e-009,4.56250487e-005
,,,-3.20000000e-009,5.71875493e-005
,,,-3.00000000e-009,-6.24953464e-007
,,,-2.80000000e-009,-5.15624559e-005
,,,-2.60000000e-009,-1.19062459e-004
,,,-2.40000000e-009,-2.01249963e-004
,,,-2.20000000e-009,-1.99374963e-004
,,,-2.00000000e-009,-1.59374961e-004
,,,-1.80000000e-009,-6.96874567e-005
,,,-1.60000000e-009,3.40625482e-005
,,,-1.40000000e-009,9.71875512e-005
,,,-1.20000000e-009,1.10625052e-004
,,,-1.00000000e-009,1.96875475e-005
,,,-8.00000000e-010,-7.65624571e-005
,,,-6.00000000e-010,-1.51249961e-004
,,,-4.00000000e-010,-2.17499964e-004
,,,-2.00000000e-010,-1.76874962e-004
,,,0.00000000e+000,-7.03124568e-005
,,,2.00000000e-010,3.50000482e-005
,,,4.00000000e-010,1.46250054e-004
,,,6.00000000e-010,1.51875054e-004
,,,8.00000000e-010,4.90625489e-005
,,,1.00000000e-009,-7.46874570e-005
,,,1.20000000e-009,-1.47187460e-004
,,,1.40000000e-009,-1.64999961e-004
,,,1.60000000e-009,-1.53749961e-004
,,,1.80000000e-009,-9.68749580e-005
,,,2.00000000e-009,-3.87499553e-005
,,,2.20000000e-009,1.46875473e-005
,,,2.40000000e-009,8.59375506e-005
,,,2.60000000e-009,8.43750506e-005
,,,2.80000000e-009,1.15625471e-005
,,,3.00000000e-009,-7.99999572e-005
,,,3.20000000e-009,-1.56249961e-004
,,,3.40000000e-009,-1.64999961e-004
,,,3.60000000e-009,-1.29999960e-004
,,,3.80000000e-009,-6.71874566e-005
,,,4.00000000e-009,7.50004692e-006
,,,4.20000000e-009,5.71875493e-005
,,,4.40000000e-009,8.53125506e-005
,,,4.60000000e-009,7.37500501e-005
,,,4.80000000e-009,6.87504689e-006
,,,5.00000000e-009,-5.18749559e-005
,,,5.20000000e-009,-1.32187460e-004
,,,5.40000000e-009,-1.71249962e-004
,,,5.60000000e-009,-1.15624959e-004
,,,5.80000000e-009,-5.15624559e-005
,,,6.00000000e-009,5.12500490e-005
,,,6.20000000e-009,9.12500509e-005
,,,6.40000000e-009,8.43750506e-005
,,,6.60000000e-009,6.65625497e-005
,,,6.80000000e-009,7.81254694e-006
,,,7.00000000e-009,-9.21874578e-005
,,,7.20000000e-009,-2.12187464e-004
,,,7.40000000e-009,-2.24062464e-004
,,,7.60000000e-009,-1.32499960e-004
