Data/20220819/UCLA_to_R2B_VPOL_E_30_01_Ch2.csv

"Record Length",5000,"Points",-1.00800000e-007,2.71875479e-005
"Sample Interval",2.00000000e-010,s,-1.00600000e-007,8.62500507e-005
"Trigger Point",504,"Samples",-1.00400000e-007,1.11875052e-004
"Trigger Time",0.00000000e+000,s,-1.00200000e-007,1.32500053e-004
"",,,-1.00000000e-007,1.25000053e-004
"Horizontal Offset",-1.00800000e-007,s,-9.98000000e-008,1.18437552e-004
,,,-9.96000000e-008,9.56250511e-005
,,,-9.94000000e-008,5.31250491e-005
,,,-9.92000000e-008,1.00000470e-005
,,,-9.90000000e-008,-2.34374545e-005
,,,-9.88000000e-008,-3.74995361e-006
,,,-9.86000000e-008,3.71875483e-005
,,,-9.84000000e-008,9.53125511e-005
,,,-9.82000000e-008,1.30625053e-004
,,,-9.80000000e-008,1.27500053e-004
,,,-9.78000000e-008,1.16562552e-004
,,,-9.76000000e-008,8.15625504e-005
,,,-9.74000000e-008,3.87500484e-005
,,,-9.72000000e-008,-9.06245386e-006
,,,-9.70000000e-008,-4.31249555e-005
,,,-9.68000000e-008,-1.59374542e-005
,,,-9.66000000e-008,2.59375478e-005
,,,-9.64000000e-008,8.68750507e-005
,,,-9.62000000e-008,1.35625053e-004
,,,-9.60000000e-008,1.47500054e-004
,,,-9.58000000e-008,1.35000053e-004
,,,-9.56000000e-008,8.21875505e-005
,,,-9.54000000e-008,3.71875483e-005
,,,-9.52000000e-008,-1.46874541e-005
,,,-9.50000000e-008,-5.90624562e-005
,,,-9.48000000e-008,-1.99999544e-005
,,,-9.46000000e-008,3.65625483e-005
,,,-9.44000000e-008,1.29687553e-004
,,,-9.42000000e-008,1.74375055e-004
,,,-9.40000000e-008,1.75312555e-004
,,,-9.38000000e-008,9.03125509e-005
,,,-9.36000000e-008,4.37504677e-006
,,,-9.34000000e-008,-4.90624558e-005
,,,-9.32000000e-008,-4.46874556e-005
,,,-9.30000000e-008,-8.74995385e-006
,,,-9.28000000e-008,5.37500491e-005
,,,-9.26000000e-008,8.87500508e-005
,,,-9.24000000e-008,1.07187552e-004
,,,-9.22000000e-008,1.10625052e-004
,,,-9.20000000e-008,8.28125505e-005
,,,-9.18000000e-008,5.06250490e-005
,,,-9.16000000e-008,1.84375474e-005
,,,-9.14000000e-008,-7.49995379e-006
,,,-9.12000000e-008,1.71875474e-005
,,,-9.10000000e-008,2.12500476e-005
,,,-9.08000000e-008,4.34375486e-005
,,,-9.06000000e-008,7.56250502e-005
,,,-9.04000000e-008,1.03125051e-004
,,,-9.02000000e-008,1.22187552e-004
,,,-9.00000000e-008,1.21562552e-004
,,,-8.98000000e-008,8.90625508e-005
,,,-8.96000000e-008,3.34375482e-005
,,,-8.94000000e-008,-3.62499552e-005
,,,-8.92000000e-008,-3.46874551e-005
,,,-8.90000000e-008,-2.81245357e-006
,,,-8.88000000e-008,6.40625496e-005
,,,-8.86000000e-008,1.25625053e-004
,,,-8.84000000e-008,1.35000053e-004
,,,-8.82000000e-008,1.15937552e-004
,,,-8.80000000e-008,7.43750501e-005
,,,-8.78000000e-008,6.87504689e-006
,,,-8.76000000e-008,-9.37495388e-006
,,,-8.74000000e-008,-3.74995361e-006
,,,-8.72000000e-008,3.12504671e-006
,,,-8.70000000e-008,7.43750501e-005
,,,-8.68000000e-008,1.18437552e-004
,,,-8.66000000e-008,1.44062553e-004
,,,-8.64000000e-008,1.04062552e-004
,,,-8.62000000e-008,7.09375499e-005
,,,-8.60000000e-008,6.31250496e-005
,,,-8.58000000e-008,3.75000483e-005
,,,-8.56000000e-008,4.96875489e-005
,,,-8.54000000e-008,4.12500485e-005
,,,-8.52000000e-008,2.84375479e-005
,,,-8.50000000e-008,5.43750491e-005
,,,-8.48000000e-008,5.31250491e-005
,,,-8.46000000e-008,7.25000500e-005
,,,-8.44000000e-008,8.50000506e-005
,,,-8.42000000e-008,5.43750491e-005
,,,-8.40000000e-008,5.87500494e-005
,,,-8.38000000e-008,4.56250487e-005
,,,-8.36000000e-008,8.03125504e-005
,,,-8.34000000e-008,7.40625501e-005
,,,-8.32000000e-008,3.12500481e-005
,,,-8.30000000e-008,-1.59374542e-005
,,,-8.28000000e-008,-1.96874544e-005
,,,-8.26000000e-008,9.06254700e-006
,,,-8.24000000e-008,8.15625504e-005
,,,-8.22000000e-008,1.14687552e-004
,,,-8.20000000e-008,1.37500053e-004
,,,-8.18000000e-008,1.09062552e-004
,,,-8.16000000e-008,7.25000500e-005
,,,-8.14000000e-008,2.09375476e-005
,,,-8.12000000e-008,-1.90624543e-005
,,,-8.10000000e-008,-2.65624547e-005
,,,-8.08000000e-008,4.68754679e-006
,,,-8.06000000e-008,6.84375498e-005
,,,-8.04000000e-008,1.55312554e-004
,,,-8.02000000e-008,1.52812554e-004
,,,-8.00000000e-008,1.29375053e-004
,,,-7.98000000e-008,5.78125493e-005
,,,-7.96000000e-008,-3.43745360e-006
,,,-7.94000000e-008,-9.37453478e-007
,,,-7.92000000e-008,2.00000475e-005
,,,-7.90000000e-008,6.03125494e-005
,,,-7.88000000e-008,6.46875496e-005
,,,-7.86000000e-008,3.90625484e-005
,,,-7.84000000e-008,4.31250486e-005
,,,-7.82000000e-008,4.31250486e-005
,,,-7.80000000e-008,8.28125505e-005
,,,-7.78000000e-008,1.03750051e-004
,,,-7.76000000e-008,9.28125510e-005
,,,-7.74000000e-008,8.46875506e-005
,,,-7.72000000e-008,3.46875482e-005
,,,-7.70000000e-008,-8.12495382e-006
,,,-7.68000000e-008,-1.37499541e-005
,,,-7.66000000e-008,-4.68745366e-006
,,,-7.64000000e-008,4.46875487e-005
,,,-7.62000000e-008,1.29062553e-004
,,,-7.60000000e-008,1.57812554e-004
,,,-7.58000000e-008,1.92812556e-004
,,,-7.56000000e-008,1.12187552e-004
,,,-7.54000000e-008,2.81250479e-005
,,,-7.52000000e-008,-3.03124549e-005
,,,-7.50000000e-008,-6.40624565e-005
,,,-7.48000000e-008,-1.24995349e-006
,,,-7.46000000e-008,4.43750487e-005
,,,-7.44000000e-008,8.56250506e-005
,,,-7.42000000e-008,1.34375053e-004
,,,-7.40000000e-008,1.51562554e-004
,,,-7.38000000e-008,1.26250053e-004
,,,-7.36000000e-008,4.25000486e-005
,,,-7.34000000e-008,-2.18749545e-005
,,,-7.32000000e-008,-7.06249568e-005
,,,-7.30000000e-008,-5.81249562e-005
,,,-7.28000000e-008,7.81254694e-006
,,,-7.26000000e-008,8.37500505e-005
,,,-7.24000000e-008,1.48750054e-004
,,,-7.22000000e-008,1.39062553e-004
,,,-7.20000000e-008,1.15625052e-004
,,,-7.18000000e-008,6.84375498e-005
,,,-7.16000000e-008,3.68750483e-005
,,,-7.14000000e-008,1.71875474e-005
,,,-7.12000000e-008,5.00004680e-006
,,,-7.10000000e-008,3.43754673e-006
,,,-7.08000000e-008,4.68750488e-005
,,,-7.06000000e-008,8.50000506e-005
,,,-7.04000000e-008,9.75000512e-005
,,,-7.02000000e-008,1.14687552e-004
,,,-7.00000000e-008,1.07812552e-004
,,,-6.98000000e-008,1.29062553e-004
,,,-6.96000000e-008,1.03437551e-004
,,,-6.94000000e-008,4.21875486e-005
,,,-6.92000000e-008,-4.21874554e-005
,,,-6.90000000e-008,-1.15937459e-004
,,,-6.88000000e-008,-7.21874569e-005
,,,-6.86000000e-008,3.84375484e-005
,,,-6.84000000e-008,1.65937554e-004
,,,-6.82000000e-008,2.64687559e-004
,,,-6.80000000e-008,2.23125057e-004
,,,-6.78000000e-008,1.05937552e-004
,,,-6.76000000e-008,-3.78124552e-005
,,,-6.74000000e-008,-1.38749960e-004
,,,-6.72000000e-008,-1.52187461e-004
,,,-6.70000000e-008,-7.84374572e-005
,,,-6.68000000e-008,3.09375480e-005
,,,-6.66000000e-008,1.88125056e-004
,,,-6.64000000e-008,2.64062559e-004
,,,-6.62000000e-008,2.57187559e-004
,,,-6.60000000e-008,1.59375054e-004
,,,-6.58000000e-008,3.43754673e-006
,,,-6.56000000e-008,-1.20624959e-004
,,,-6.54000000e-008,-1.42499960e-004
,,,-6.52000000e-008,-7.15624568e-005
,,,-6.50000000e-008,4.46875487e-005
,,,-6.48000000e-008,1.27187553e-004
,,,-6.46000000e-008,1.97187556e-004
,,,-6.44000000e-008,1.64687554e-004
,,,-6.42000000e-008,1.38437553e-004
,,,-6.40000000e-008,8.68750507e-005
,,,-6.38000000e-008,-1.46874541e-005
,,,-6.36000000e-008,-5.71874562e-005
,,,-6.34000000e-008,-7.87499572e-005
,,,-6.32000000e-008,-4.84374557e-005
,,,-6.30000000e-008,3.90625484e-005
,,,-6.28000000e-008,7.00000499e-005
,,,-6.26000000e-008,1.20625052e-004
,,,-6.24000000e-008,1.19062552e-004
,,,-6.22000000e-008,1.24062552e-004
,,,-6.20000000e-008,1.32187553e-004
,,,-6.18000000e-008,9.34375510e-005
,,,-6.16000000e-008,3.43750482e-005
,,,-6.14000000e-008,-2.99999549e-005
,,,-6.12000000e-008,-6.84374567e-005
,,,-6.10000000e-008,-4.53124556e-005
,,,-6.08000000e-008,3.75000483e-005
,,,-6.06000000e-008,1.27187553e-004
,,,-6.04000000e-008,2.02187556e-004
,,,-6.02000000e-008,2.12812557e-004
,,,-6.00000000e-008,1.68437555e-004
,,,-5.98000000e-008,3.78125484e-005
,,,-5.96000000e-008,-7.53124570e-005
,,,-5.94000000e-008,-1.46562460e-004
,,,-5.92000000e-008,-1.30937460e-004
,,,-5.90000000e-008,1.31250472e-005
,,,-5.88000000e-008,1.45625053e-004
,,,-5.86000000e-008,2.31875058e-004
,,,-5.84000000e-008,2.25937557e-004
,,,-5.82000000e-008,1.12187552e-004
,,,-5.80000000e-008,1.25000472e-005
,,,-5.78000000e-008,-5.81249562e-005
,,,-5.76000000e-008,-7.74999571e-005
,,,-5.74000000e-008,-2.31249545e-005
,,,-5.72000000e-008,4.31250486e-005
,,,-5.70000000e-008,1.06875052e-004
,,,-5.68000000e-008,1.40000053e-004
,,,-5.66000000e-008,1.40625053e-004
,,,-5.64000000e-008,1.00625051e-004
,,,-5.62000000e-008,1.56250473e-005
,,,-5.60000000e-008,-1.53124542e-005
,,,-5.58000000e-008,9.37546611e-007
,,,-5.56000000e-008,3.06250480e-005
,,,-5.54000000e-008,7.28125500e-005
,,,-5.52000000e-008,6.12500495e-005
,,,-5.50000000e-008,3.21875481e-005
,,,-5.48000000e-008,4.75000488e-005
,,,-5.46000000e-008,6.00000494e-005
,,,-5.44000000e-008,8.81250508e-005
,,,-5.42000000e-008,9.90625513e-005
,,,-5.40000000e-008,6.46875496e-005
,,,-5.38000000e-008,2.40625477e-005
,,,-5.36000000e-008,9.37546611e-007
,,,-5.34000000e-008,9.37504701e-006
,,,-5.32000000e-008,3.53125482e-005
,,,-5.30000000e-008,4.50000487e-005
,,,-5.28000000e-008,8.87500508e-005
,,,-5.26000000e-008,1.09375052e-004
,,,-5.24000000e-008,1.28125053e-004
,,,-5.22000000e-008,9.75000512e-005
,,,-5.20000000e-008,3.90625484e-005
,,,-5.18000000e-008,-3.06249549e-005
,,,-5.16000000e-008,-5.78124562e-005
,,,-5.14000000e-008,-1.56249542e-005
,,,-5.12000000e-008,7.68750502e-005
,,,-5.10000000e-008,1.52812554e-004
,,,-5.08000000e-008,1.77500055e-004
,,,-5.06000000e-008,1.22187552e-004
,,,-5.04000000e-008,3.40625482e-005
,,,-5.02000000e-008,-8.43745383e-006
,,,-5.00000000e-008,-3.90624553e-005
,,,-4.98000000e-008,-1.74999543e-005
,,,-4.96000000e-008,2.71875479e-005
,,,-4.94000000e-008,8.25000505e-005
,,,-4.92000000e-008,1.43437553e-004
,,,-4.90000000e-008,1.26875053e-004
,,,-4.88000000e-008,7.40625501e-005
,,,-4.86000000e-008,2.34375477e-005
,,,-4.84000000e-008,-1.93749544e-005
,,,-4.82000000e-008,6.25004686e-006
,,,-4.80000000e-008,4.93750489e-005
,,,-4.78000000e-008,8.87500508e-005
,,,-4.76000000e-008,1.13437552e-004
,,,-4.74000000e-008,6.90625498e-005
,,,-4.72000000e-008,4.12500485e-005
,,,-4.70000000e-008,4.65661288e-011
,,,-4.68000000e-008,1.87500475e-005
,,,-4.66000000e-008,4.78125488e-005
,,,-4.64000000e-008,8.28125505e-005
,,,-4.62000000e-008,1.10937552e-004
,,,-4.60000000e-008,9.34375510e-005
,,,-4.58000000e-008,7.09375499e-005
,,,-4.56000000e-008,-6.24953464e-007
,,,-4.54000000e-008,-4.24999555e-005
,,,-4.52000000e-008,-1.24999540e-005
,,,-4.50000000e-008,5.90625494e-005
,,,-4.48000000e-008,1.12500052e-004
,,,-4.46000000e-008,1.42812553e-004
,,,-4.44000000e-008,8.96875508e-005
,,,-4.42000000e-008,3.31250481e-005
,,,-4.40000000e-008,-1.15624540e-005
,,,-4.38000000e-008,-3.24999550e-005
,,,-4.36000000e-008,3.21875481e-005
,,,-4.34000000e-008,7.68750502e-005
,,,-4.32000000e-008,1.01562551e-004
,,,-4.30000000e-008,1.08125052e-004
,,,-4.28000000e-008,8.40625506e-005
,,,-4.26000000e-008,6.06250494e-005
,,,-4.24000000e-008,1.43750472e-005
,,,-4.22000000e-008,-6.24995373e-006
,,,-4.20000000e-008,2.90625479e-005
,,,-4.18000000e-008,8.87500508e-005
,,,-4.16000000e-008,1.76250055e-004
,,,-4.14000000e-008,1.72187555e-004
,,,-4.12000000e-008,9.65625512e-005
,,,-4.10000000e-008,-1.40624541e-005
,,,-4.08000000e-008,-7.40624570e-005
,,,-4.06000000e-008,-5.62499561e-005
,,,-4.04000000e-008,3.34375482e-005
,,,-4.02000000e-008,1.17500052e-004
,,,-4.00000000e-008,1.70937555e-004
,,,-3.98000000e-008,1.56562554e-004
,,,-3.96000000e-008,1.24375052e-004
,,,-3.94000000e-008,5.06250490e-005
,,,-3.92000000e-008,-3.37499550e-005
,,,-3.90000000e-008,-6.40624565e-005
,,,-3.88000000e-008,-8.96874577e-005
,,,-3.86000000e-008,-9.99995391e-006
,,,-3.84000000e-008,1.04062552e-004
,,,-3.82000000e-008,1.77812555e-004
,,,-3.80000000e-008,2.11250057e-004
,,,-3.78000000e-008,1.26875053e-004
,,,-3.76000000e-008,2.09375476e-005
,,,-3.74000000e-008,-1.62499542e-005
,,,-3.72000000e-008,-4.09374554e-005
,,,-3.70000000e-008,1.12500471e-005
,,,-3.68000000e-008,3.78125484e-005
,,,-3.66000000e-008,6.12500495e-005
,,,-3.64000000e-008,1.00000051e-004
,,,-3.62000000e-008,9.93750513e-005
,,,-3.60000000e-008,1.16562552e-004
,,,-3.58000000e-008,1.16250052e-004
,,,-3.56000000e-008,6.81250498e-005
,,,-3.54000000e-008,4.28125486e-005
,,,-3.52000000e-008,-3.12495358e-006
,,,-3.50000000e-008,-1.49999541e-005
,,,-3.48000000e-008,-3.18749549e-005
,,,-3.46000000e-008,-2.15624545e-005
,,,-3.44000000e-008,3.28125481e-005
,,,-3.42000000e-008,9.56250511e-005
,,,-3.40000000e-008,1.67187555e-004
,,,-3.38000000e-008,1.98750056e-004
,,,-3.36000000e-008,1.26875053e-004
,,,-3.34000000e-008,3.87500484e-005
,,,-3.32000000e-008,-6.62499566e-005
,,,-3.30000000e-008,-1.12812459e-004
,,,-3.28000000e-008,-5.56249561e-005
,,,-3.26000000e-008,3.06250480e-005
,,,-3.24000000e-008,1.43750053e-004
,,,-3.22000000e-008,2.19375057e-004
,,,-3.20000000e-008,2.25312557e-004
,,,-3.18000000e-008,1.61562554e-004
,,,-3.16000000e-008,2.53125478e-005
,,,-3.14000000e-008,-7.15624568e-005
,,,-3.12000000e-008,-1.05937458e-004
,,,-3.10000000e-008,-7.56249570e-005
,,,-3.08000000e-008,4.25000486e-005
,,,-3.06000000e-008,1.19062552e-004
,,,-3.04000000e-008,1.76875055e-004
,,,-3.02000000e-008,1.55312554e-004
,,,-3.00000000e-008,1.29375053e-004
,,,-2.98000000e-008,7.53125501e-005
,,,-2.96000000e-008,2.46875477e-005
,,,-2.94000000e-008,-2.96874548e-005
,,,-2.92000000e-008,-5.53124561e-005
,,,-2.90000000e-008,-4.09374554e-005
,,,-2.88000000e-008,3.37500482e-005
,,,-2.86000000e-008,8.56250506e-005
,,,-2.84000000e-008,1.31562553e-004
,,,-2.82000000e-008,1.52500054e-004
,,,-2.80000000e-008,1.18125052e-004
,,,-2.78000000e-008,1.22187552e-004
,,,-2.76000000e-008,6.25000495e-005
,,,-2.74000000e-008,3.43754673e-006
,,,-2.72000000e-008,-7.65624571e-005
,,,-2.70000000e-008,-1.35312460e-004
,,,-2.68000000e-008,-7.03124568e-005
,,,-2.66000000e-008,5.68750493e-005
,,,-2.64000000e-008,1.98125056e-004
,,,-2.62000000e-008,2.99687561e-004
,,,-2.60000000e-008,2.46875058e-004
,,,-2.58000000e-008,1.19062552e-004
,,,-2.56000000e-008,-4.90624558e-005
,,,-2.54000000e-008,-1.61562461e-004
,,,-2.52000000e-008,-1.82187462e-004
,,,-2.50000000e-008,-1.32812460e-004
,,,-2.48000000e-008,1.15625471e-005
,,,-2.46000000e-008,1.82187555e-004
,,,-2.44000000e-008,3.23125062e-004
,,,-2.42000000e-008,3.44687563e-004
,,,-2.40000000e-008,2.05000056e-004
,,,-2.38000000e-008,4.37504677e-006
,,,-2.36000000e-008,-1.77499962e-004
,,,-2.34000000e-008,-2.40312465e-004
,,,-2.32000000e-008,-1.45937460e-004
,,,-2.30000000e-008,2.31250477e-005
,,,-2.28000000e-008,1.77500055e-004
,,,-2.26000000e-008,2.59062559e-004
,,,-2.24000000e-008,2.45000058e-004
,,,-2.22000000e-008,1.95625056e-004
,,,-2.20000000e-008,8.93750508e-005
,,,-2.18000000e-008,-4.46874556e-005
,,,-2.16000000e-008,-1.06562458e-004
,,,-2.14000000e-008,-1.19062459e-004
,,,-2.12000000e-008,-7.46874570e-005
,,,-2.10000000e-008,4.06250485e-005
,,,-2.08000000e-008,1.23125052e-004
,,,-2.06000000e-008,1.75000055e-004
,,,-2.04000000e-008,2.02187556e-004
,,,-2.02000000e-008,1.75312555e-004
,,,-2.00000000e-008,1.31250053e-004
,,,-1.98000000e-008,4.87500489e-005
,,,-1.96000000e-008,-4.93749558e-005
,,,-1.94000000e-008,-1.32499960e-004
,,,-1.92000000e-008,-1.37499960e-004
,,,-1.90000000e-008,-4.06249554e-005
,,,-1.88000000e-008,9.71875512e-005
,,,-1.86000000e-008,2.48437558e-004
,,,-1.84000000e-008,3.02187561e-004
,,,-1.82000000e-008,2.70937559e-004
,,,-1.80000000e-008,1.54062554e-004
,,,-1.78000000e-008,-2.37499546e-005
,,,-1.76000000e-008,-1.66249961e-004
,,,-1.74000000e-008,-2.12499964e-004
,,,-1.72000000e-008,-1.48749960e-004
,,,-1.70000000e-008,4.96875489e-005
,,,-1.68000000e-008,2.38437558e-004
,,,-1.66000000e-008,3.29062562e-004
,,,-1.64000000e-008,3.02500061e-004
,,,-1.62000000e-008,1.54062554e-004
,,,-1.60000000e-008,-2.90624548e-005
,,,-1.58000000e-008,-1.61562461e-004
,,,-1.56000000e-008,-1.96874963e-004
,,,-1.54000000e-008,-1.16874959e-004
,,,-1.52000000e-008,2.50004668e-006
,,,-1.50000000e-008,1.60937554e-004
,,,-1.48000000e-008,2.55937559e-004
,,,-1.46000000e-008,2.57187559e-004
,,,-1.44000000e-008,1.66875054e-004
,,,-1.42000000e-008,1.50000473e-005
,,,-1.40000000e-008,-9.84374581e-005
,,,-1.38000000e-008,-1.13124959e-004
,,,-1.36000000e-008,-6.71874566e-005
,,,-1.34000000e-008,2.59375478e-005
,,,-1.32000000e-008,9.43750510e-005
,,,-1.30000000e-008,1.29687553e-004
,,,-1.28000000e-008,1.60937554e-004
,,,-1.26000000e-008,1.44687553e-004
,,,-1.24000000e-008,1.40625053e-004
,,,-1.22000000e-008,7.40625501e-005
,,,-1.20000000e-008,-7.18745378e-006
,,,-1.18000000e-008,-5.18749559e-005
,,,-1.16000000e-008,-8.31249574e-005
,,,-1.14000000e-008,-2.40624546e-005
,,,-1.12000000e-008,5.56250492e-005
,,,-1.10000000e-008,1.11562552e-004
,,,-1.08000000e-008,1.87812555e-004
,,,-1.06000000e-008,1.79062555e-004
,,,-1.04000000e-008,1.60000054e-004
,,,-1.02000000e-008,6.50000497e-005
,,,-1.00000000e-008,-5.03124558e-005
,,,-9.80000000e-009,-1.39374960e-004
,,,-9.60000000e-009,-1.47499960e-004
,,,-9.40000000e-009,-4.59374556e-005
,,,-9.20000000e-009,1.22187552e-004
,,,-9.00000000e-009,2.60625059e-004
,,,-8.80000000e-009,2.86875060e-004
,,,-8.60000000e-009,1.96562556e-004
,,,-8.40000000e-009,5.71875493e-005
,,,-8.20000000e-009,-6.78124567e-005
,,,-8.00000000e-009,-1.28437460e-004
,,,-7.80000000e-009,-9.99999582e-005
,,,-7.60000000e-009,-1.56249542e-005
,,,-7.40000000e-009,1.14375052e-004
,,,-7.20000000e-009,1.95937556e-004
,,,-7.00000000e-009,2.25937557e-004
,,,-6.80000000e-009,1.75937555e-004
,,,-6.60000000e-009,5.46875492e-005
,,,-6.40000000e-009,-5.37499560e-005
,,,-6.20000000e-009,-9.93749582e-005
,,,-6.00000000e-009,-8.09374573e-005
,,,-5.80000000e-009,-5.31245369e-006
,,,-5.60000000e-009,3.50000482e-005
,,,-5.40000000e-009,8.71875507e-005
,,,-5.20000000e-009,1.02500051e-004
,,,-5.00000000e-009,8.81250508e-005
,,,-4.80000000e-009,7.21875500e-005
,,,-4.60000000e-009,4.53125487e-005
,,,-4.40000000e-009,1.34375472e-005
,,,-4.20000000e-009,1.56254664e-006
,,,-4.00000000e-009,-2.71874547e-005
,,,-3.80000000e-009,-1.37499541e-005
,,,-3.60000000e-009,5.00004680e-006
,,,-3.40000000e-009,2.40625477e-005
,,,-3.20000000e-009,7.25000500e-005
,,,-3.00000000e-009,1.17500052e-004
,,,-2.80000000e-009,1.29375053e-004
,,,-2.60000000e-009,9.75000512e-005
,,,-2.40000000e-009,2.09375476e-005
,,,-2.20000000e-009,-4.81249557e-005
,,,-2.00000000e-009,-9.40624579e-005
,,,-1.80000000e-009,-6.62499566e-005
,,,-1.60000000e-009,6.25046596e-007
,,,-1.40000000e-009,9.03125509e-005
,,,-1.20000000e-009,1.50937554e-004
,,,-1.00000000e-009,1.58750054e-004
,,,-8.00000000e-010,8.56250506e-005
,,,-6.00000000e-010,-6.24995373e-006
,,,-4.00000000e-010,-8.53124575e-005
,,,-2.00000000e-010,-1.18437459e-004
,,,0.00000000e+000,-7.40624570e-005
,,,2.00000000e-010,5.18750490e-005
,,,4.00000000e-010,1.57187554e-004
,,,6.00000000e-010,1.97500056e-004
,,,8.00000000e-010,1.50312554e-004
,,,1.00000000e-009,2.37500477e-005
,,,1.20000000e-009,-9.56249580e-005
,,,1.40000000e-009,-1.14999959e-004
,,,1.60000000e-009,-6.90624567e-005
,,,1.80000000e-009,4.37500486e-005
,,,2.00000000e-009,1.37187553e-004
,,,2.20000000e-009,1.69062555e-004
,,,2.40000000e-009,1.56562554e-004
,,,2.60000000e-009,8.90625508e-005
,,,2.80000000e-009,-1.24995349e-006
,,,3.00000000e-009,-6.46874565e-005
,,,3.20000000e-009,-9.56249580e-005
,,,3.40000000e-009,-2.71874547e-005
,,,3.60000000e-009,6.50000497e-005
,,,3.80000000e-009,1.34375053e-004
,,,4.00000000e-009,1.62187554e-004
,,,4.20000000e-009,1.19375052e-004
,,,4.40000000e-009,4.65625488e-005
,,,4.60000000e-009,1.21875471e-005
,,,4.80000000e-009,-9.37495388e-006
,,,5.00000000e-009,1.87504666e-006
,,,5.20000000e-009,2.46875477e-005
,,,5.40000000e-009,3.34375482e-005
,,,5.60000000e-009,6.53125497e-005
,,,5.80000000e-009,6.31250496e-005
,,,6.00000000e-009,1.03437551e-004
,,,6.20000000e-009,1.01250051e-004
,,,6.40000000e-009,9.68750512e-005
,,,6.60000000e-009,6.53125497e-005
,,,6.80000000e-009,1.81250474e-005
,,,7.00000000e-009,5.00004680e-006
,,,7.20000000e-009,-1.96874544e-005
,,,7.40000000e-009,4.65661288e-011
,,,7.60000000e-009,3.62500483e-005
,,,7.80000000e-009,8.18750505e-005
,,,8.00000000e-009,1.32812553e-004
,,,8.20000000e-009,1.44687553e-004
,,,8.40000000e-009,1.17187552e-004
,,,8.60000000e-009,4.96875489e-005
