Data/20220819/UCLA_to_R2A_VPOL_E_NEG80_01_Ch2.csv

"Record Length",5000,"Points",-1.00800000e-007,-1.16874959e-004
"Sample Interval",2.00000000e-010,s,-1.00600000e-007,-1.21249959e-004
"Trigger Point",504,"Samples",-1.00400000e-007,-1.07499959e-004
"Trigger Time",0.00000000e+000,s,-1.00200000e-007,-7.37499569e-005
"",,,-1.00000000e-007,-6.03124563e-005
"Horizontal Offset",-1.00800000e-007,s,-9.98000000e-008,-7.93749572e-005
,,,-9.96000000e-008,-9.43749579e-005
,,,-9.94000000e-008,-9.96874582e-005
,,,-9.92000000e-008,-1.20312459e-004
,,,-9.90000000e-008,-4.46874556e-005
,,,-9.88000000e-008,2.50000478e-005
,,,-9.86000000e-008,2.65625478e-005
,,,-9.84000000e-008,-3.12499549e-005
,,,-9.82000000e-008,-1.17187459e-004
,,,-9.80000000e-008,-2.01562463e-004
,,,-9.78000000e-008,-2.16874964e-004
,,,-9.76000000e-008,-1.48749960e-004
,,,-9.74000000e-008,-1.99999544e-005
,,,-9.72000000e-008,7.31250500e-005
,,,-9.70000000e-008,1.34375053e-004
,,,-9.68000000e-008,7.81250503e-005
,,,-9.66000000e-008,-5.43749560e-005
,,,-9.64000000e-008,-2.05937463e-004
,,,-9.62000000e-008,-2.96874968e-004
,,,-9.60000000e-008,-2.64374966e-004
,,,-9.58000000e-008,-1.32499960e-004
,,,-9.56000000e-008,2.18754667e-006
,,,-9.54000000e-008,1.37187553e-004
,,,-9.52000000e-008,1.60625054e-004
,,,-9.50000000e-008,4.18750486e-005
,,,-9.48000000e-008,-1.15624959e-004
,,,-9.46000000e-008,-2.74062466e-004
,,,-9.44000000e-008,-3.18437469e-004
,,,-9.42000000e-008,-2.06874963e-004
,,,-9.40000000e-008,-7.37499569e-005
,,,-9.38000000e-008,1.09687552e-004
,,,-9.36000000e-008,1.68125055e-004
,,,-9.34000000e-008,1.23750052e-004
,,,-9.32000000e-008,-9.37495388e-006
,,,-9.30000000e-008,-1.72499962e-004
,,,-9.28000000e-008,-2.58749966e-004
,,,-9.26000000e-008,-2.35312465e-004
,,,-9.24000000e-008,-1.29687460e-004
,,,-9.22000000e-008,1.00000470e-005
,,,-9.20000000e-008,6.53125497e-005
,,,-9.18000000e-008,6.28125495e-005
,,,-9.16000000e-008,2.15625476e-005
,,,-9.14000000e-008,-1.04999958e-004
,,,-9.12000000e-008,-1.42812460e-004
,,,-9.10000000e-008,-1.40624960e-004
,,,-9.08000000e-008,-8.09374573e-005
,,,-9.06000000e-008,-5.87499562e-005
,,,-9.04000000e-008,-1.71874543e-005
,,,-9.02000000e-008,-1.59374542e-005
,,,-9.00000000e-008,-7.09374568e-005
,,,-8.98000000e-008,-9.59374580e-005
,,,-8.96000000e-008,-6.90624567e-005
,,,-8.94000000e-008,-5.28124559e-005
,,,-8.92000000e-008,8.75004698e-006
,,,-8.90000000e-008,6.25004686e-006
,,,-8.88000000e-008,-1.56249542e-005
,,,-8.86000000e-008,-7.84374572e-005
,,,-8.84000000e-008,-1.47187460e-004
,,,-8.82000000e-008,-1.50312461e-004
,,,-8.80000000e-008,-1.16874959e-004
,,,-8.78000000e-008,-4.12499554e-005
,,,-8.76000000e-008,5.06250490e-005
,,,-8.74000000e-008,4.34375486e-005
,,,-8.72000000e-008,2.53125478e-005
,,,-8.70000000e-008,-4.21874554e-005
,,,-8.68000000e-008,-1.48749960e-004
,,,-8.66000000e-008,-1.94062463e-004
,,,-8.64000000e-008,-2.03124963e-004
,,,-8.62000000e-008,-1.02187458e-004
,,,-8.60000000e-008,1.12500471e-005
,,,-8.58000000e-008,7.06250499e-005
,,,-8.56000000e-008,9.53125511e-005
,,,-8.54000000e-008,1.21875471e-005
,,,-8.52000000e-008,-7.46874570e-005
,,,-8.50000000e-008,-2.02812463e-004
,,,-8.48000000e-008,-2.54687466e-004
,,,-8.46000000e-008,-1.93437463e-004
,,,-8.44000000e-008,-7.65624571e-005
,,,-8.42000000e-008,4.46875487e-005
,,,-8.40000000e-008,1.04062552e-004
,,,-8.38000000e-008,7.90625503e-005
,,,-8.36000000e-008,4.43750487e-005
,,,-8.34000000e-008,-7.90624572e-005
,,,-8.32000000e-008,-1.62812461e-004
,,,-8.30000000e-008,-1.83749962e-004
,,,-8.28000000e-008,-1.71249962e-004
,,,-8.26000000e-008,-7.99999572e-005
,,,-8.24000000e-008,6.87504689e-006
,,,-8.22000000e-008,2.68750478e-005
,,,-8.20000000e-008,4.03125485e-005
,,,-8.18000000e-008,9.37546611e-007
,,,-8.16000000e-008,-3.37499550e-005
,,,-8.14000000e-008,-8.71874576e-005
,,,-8.12000000e-008,-1.33124960e-004
,,,-8.10000000e-008,-1.11874959e-004
,,,-8.08000000e-008,-1.20937459e-004
,,,-8.06000000e-008,-7.56249570e-005
,,,-8.04000000e-008,-2.90624548e-005
,,,-8.02000000e-008,-1.53124542e-005
,,,-8.00000000e-008,4.09375485e-005
,,,-7.98000000e-008,4.09375485e-005
,,,-7.96000000e-008,-3.62499552e-005
,,,-7.94000000e-008,-8.43749574e-005
,,,-7.92000000e-008,-1.40624960e-004
,,,-7.90000000e-008,-1.35937460e-004
,,,-7.88000000e-008,-1.04062458e-004
,,,-7.86000000e-008,-5.43749560e-005
,,,-7.84000000e-008,-1.56249542e-005
,,,-7.82000000e-008,1.43750472e-005
,,,-7.80000000e-008,2.25000476e-005
,,,-7.78000000e-008,-1.78124543e-005
,,,-7.76000000e-008,-8.34374574e-005
,,,-7.74000000e-008,-1.40312460e-004
,,,-7.72000000e-008,-1.45937460e-004
,,,-7.70000000e-008,-1.13437459e-004
,,,-7.68000000e-008,-8.46874575e-005
,,,-7.66000000e-008,-2.62499547e-005
,,,-7.64000000e-008,9.06254700e-006
,,,-7.62000000e-008,1.87504666e-006
,,,-7.60000000e-008,-1.74999543e-005
,,,-7.58000000e-008,-7.24999569e-005
,,,-7.56000000e-008,-1.15624959e-004
,,,-7.54000000e-008,-1.15937459e-004
,,,-7.52000000e-008,-1.02812458e-004
,,,-7.50000000e-008,-4.46874556e-005
,,,-7.48000000e-008,-6.12499563e-005
,,,-7.46000000e-008,-3.78124552e-005
,,,-7.44000000e-008,-9.99995391e-006
,,,-7.42000000e-008,-3.96874553e-005
,,,-7.40000000e-008,-1.18749540e-005
,,,-7.38000000e-008,-4.78124557e-005
,,,-7.36000000e-008,-1.06874959e-004
,,,-7.34000000e-008,-8.31249574e-005
,,,-7.32000000e-008,-9.37499579e-005
,,,-7.30000000e-008,-7.87499572e-005
,,,-7.28000000e-008,-4.06249554e-005
,,,-7.26000000e-008,-5.03124558e-005
,,,-7.24000000e-008,1.56254664e-006
,,,-7.22000000e-008,2.43750477e-005
,,,-7.20000000e-008,1.84375474e-005
,,,-7.18000000e-008,-4.06249554e-005
,,,-7.16000000e-008,-1.30937460e-004
,,,-7.14000000e-008,-1.38749960e-004
,,,-7.12000000e-008,-1.29999960e-004
,,,-7.10000000e-008,-1.01562458e-004
,,,-7.08000000e-008,-5.65624561e-005
,,,-7.06000000e-008,-9.37453478e-007
,,,-7.04000000e-008,5.96875494e-005
,,,-7.02000000e-008,6.37500496e-005
,,,-7.00000000e-008,4.06254676e-006
,,,-6.98000000e-008,-1.04999958e-004
,,,-6.96000000e-008,-1.64687461e-004
,,,-6.94000000e-008,-1.44374960e-004
,,,-6.92000000e-008,-1.11562459e-004
,,,-6.90000000e-008,-5.06249558e-005
,,,-6.88000000e-008,2.56250478e-005
,,,-6.86000000e-008,5.12500490e-005
,,,-6.84000000e-008,6.15625495e-005
,,,-6.82000000e-008,1.15625471e-005
,,,-6.80000000e-008,-9.12499578e-005
,,,-6.78000000e-008,-1.39062460e-004
,,,-6.76000000e-008,-1.49062461e-004
,,,-6.74000000e-008,-1.61562461e-004
,,,-6.72000000e-008,-8.93749577e-005
,,,-6.70000000e-008,-6.06249563e-005
,,,-6.68000000e-008,1.56250473e-005
,,,-6.66000000e-008,5.34375491e-005
,,,-6.64000000e-008,2.21875476e-005
,,,-6.62000000e-008,-5.18749559e-005
,,,-6.60000000e-008,-1.12499959e-004
,,,-6.58000000e-008,-1.75937462e-004
,,,-6.56000000e-008,-1.79062462e-004
,,,-6.54000000e-008,-1.34062460e-004
,,,-6.52000000e-008,-7.24999569e-005
,,,-6.50000000e-008,1.56254664e-006
,,,-6.48000000e-008,6.93750499e-005
,,,-6.46000000e-008,5.43750491e-005
,,,-6.44000000e-008,2.43750477e-005
,,,-6.42000000e-008,-6.06249563e-005
,,,-6.40000000e-008,-1.69062461e-004
,,,-6.38000000e-008,-2.11249963e-004
,,,-6.36000000e-008,-1.51874961e-004
,,,-6.34000000e-008,-1.01874958e-004
,,,-6.32000000e-008,8.75004698e-006
,,,-6.30000000e-008,5.09375490e-005
,,,-6.28000000e-008,5.00000489e-005
,,,-6.26000000e-008,2.09375476e-005
,,,-6.24000000e-008,-3.43749551e-005
,,,-6.22000000e-008,-1.35937460e-004
,,,-6.20000000e-008,-1.72187462e-004
,,,-6.18000000e-008,-1.85624962e-004
,,,-6.16000000e-008,-9.49999579e-005
,,,-6.14000000e-008,-4.68749557e-005
,,,-6.12000000e-008,1.12500471e-005
,,,-6.10000000e-008,6.21875495e-005
,,,-6.08000000e-008,4.12500485e-005
,,,-6.06000000e-008,4.03125485e-005
,,,-6.04000000e-008,-4.31249555e-005
,,,-6.02000000e-008,-1.33749960e-004
,,,-6.00000000e-008,-1.57499961e-004
,,,-5.98000000e-008,-1.72187462e-004
,,,-5.96000000e-008,-1.49374961e-004
,,,-5.94000000e-008,-5.90624562e-005
,,,-5.92000000e-008,-2.18745354e-006
,,,-5.90000000e-008,6.68750497e-005
,,,-5.88000000e-008,1.15625052e-004
,,,-5.86000000e-008,3.93750484e-005
,,,-5.84000000e-008,-3.15624549e-005
,,,-5.82000000e-008,-1.68124961e-004
,,,-5.80000000e-008,-2.42812465e-004
,,,-5.78000000e-008,-2.69062466e-004
,,,-5.76000000e-008,-1.95312463e-004
,,,-5.74000000e-008,-6.62499566e-005
,,,-5.72000000e-008,4.84375489e-005
,,,-5.70000000e-008,1.55937554e-004
,,,-5.68000000e-008,1.67812555e-004
,,,-5.66000000e-008,4.50000487e-005
,,,-5.64000000e-008,-1.12187459e-004
,,,-5.62000000e-008,-2.73124966e-004
,,,-5.60000000e-008,-3.50937470e-004
,,,-5.58000000e-008,-2.80937467e-004
,,,-5.56000000e-008,-1.27812460e-004
,,,-5.54000000e-008,8.62500507e-005
,,,-5.52000000e-008,2.30312558e-004
,,,-5.50000000e-008,2.33750058e-004
,,,-5.48000000e-008,8.43750506e-005
,,,-5.46000000e-008,-1.42187460e-004
,,,-5.44000000e-008,-2.75624967e-004
,,,-5.42000000e-008,-3.11562468e-004
,,,-5.40000000e-008,-2.53749965e-004
,,,-5.38000000e-008,-6.21874564e-005
,,,-5.36000000e-008,5.81250493e-005
,,,-5.34000000e-008,1.40625053e-004
,,,-5.32000000e-008,1.45000053e-004
,,,-5.30000000e-008,2.09375476e-005
,,,-5.28000000e-008,-8.06249573e-005
,,,-5.26000000e-008,-2.05624963e-004
,,,-5.24000000e-008,-1.94999963e-004
,,,-5.22000000e-008,-1.64062461e-004
,,,-5.20000000e-008,-1.21249959e-004
,,,-5.18000000e-008,8.43754697e-006
,,,-5.16000000e-008,5.40625491e-005
,,,-5.14000000e-008,6.15625495e-005
,,,-5.12000000e-008,5.50000492e-005
,,,-5.10000000e-008,-8.74995385e-006
,,,-5.08000000e-008,-6.40624565e-005
,,,-5.06000000e-008,-1.03749958e-004
,,,-5.04000000e-008,-1.27499959e-004
,,,-5.02000000e-008,-1.46874960e-004
,,,-5.00000000e-008,-1.40937460e-004
,,,-4.98000000e-008,-6.53124565e-005
,,,-4.96000000e-008,-2.46874546e-005
,,,-4.94000000e-008,4.37504677e-006
,,,-4.92000000e-008,9.06250509e-005
,,,-4.90000000e-008,3.50000482e-005
,,,-4.88000000e-008,-2.99999549e-005
,,,-4.86000000e-008,-9.49999579e-005
,,,-4.84000000e-008,-2.12499964e-004
,,,-4.82000000e-008,-2.39999965e-004
,,,-4.80000000e-008,-2.04062463e-004
,,,-4.78000000e-008,-1.15312459e-004
,,,-4.76000000e-008,2.37500477e-005
,,,-4.74000000e-008,1.27187553e-004
,,,-4.72000000e-008,1.66250054e-004
,,,-4.70000000e-008,4.21875486e-005
,,,-4.68000000e-008,-1.05937458e-004
,,,-4.66000000e-008,-2.71249966e-004
,,,-4.64000000e-008,-3.49687470e-004
,,,-4.62000000e-008,-2.70312466e-004
,,,-4.60000000e-008,-1.03749958e-004
,,,-4.58000000e-008,6.53125497e-005
,,,-4.56000000e-008,1.55937554e-004
,,,-4.54000000e-008,1.50000054e-004
,,,-4.52000000e-008,7.75000502e-005
,,,-4.50000000e-008,-7.68749571e-005
,,,-4.48000000e-008,-2.44999965e-004
,,,-4.46000000e-008,-2.67499966e-004
,,,-4.44000000e-008,-2.58749966e-004
,,,-4.42000000e-008,-1.40624960e-004
,,,-4.40000000e-008,2.50000478e-005
,,,-4.38000000e-008,8.34375505e-005
,,,-4.36000000e-008,1.50312554e-004
,,,-4.34000000e-008,1.06250052e-004
,,,-4.32000000e-008,-2.56249547e-005
,,,-4.30000000e-008,-1.31249960e-004
,,,-4.28000000e-008,-2.03124963e-004
,,,-4.26000000e-008,-2.06874963e-004
,,,-4.24000000e-008,-1.83124962e-004
,,,-4.22000000e-008,-8.99999577e-005
,,,-4.20000000e-008,3.75004674e-006
,,,-4.18000000e-008,4.25000486e-005
,,,-4.16000000e-008,1.06250052e-004
,,,-4.14000000e-008,6.25000495e-005
,,,-4.12000000e-008,-2.81245357e-006
,,,-4.10000000e-008,-5.49999560e-005
,,,-4.08000000e-008,-1.64374961e-004
,,,-4.06000000e-008,-2.03749963e-004
,,,-4.04000000e-008,-1.96874963e-004
,,,-4.02000000e-008,-1.30624960e-004
,,,-4.00000000e-008,1.62500473e-005
,,,-3.98000000e-008,1.06875052e-004
,,,-3.96000000e-008,1.46250054e-004
,,,-3.94000000e-008,1.17812552e-004
,,,-3.92000000e-008,-1.87495352e-006
,,,-3.90000000e-008,-1.36874960e-004
,,,-3.88000000e-008,-2.38437465e-004
,,,-3.86000000e-008,-2.42499965e-004
,,,-3.84000000e-008,-1.75624962e-004
,,,-3.82000000e-008,-4.84374557e-005
,,,-3.80000000e-008,9.81250512e-005
,,,-3.78000000e-008,1.00937551e-004
,,,-3.76000000e-008,5.71875493e-005
,,,-3.74000000e-008,-1.71874543e-005
,,,-3.72000000e-008,-1.64374961e-004
,,,-3.70000000e-008,-1.86249962e-004
,,,-3.68000000e-008,-1.87812462e-004
,,,-3.66000000e-008,-1.30312460e-004
,,,-3.64000000e-008,-1.87499543e-005
,,,-3.62000000e-008,8.43754697e-006
,,,-3.60000000e-008,2.71875479e-005
,,,-3.58000000e-008,-5.62495370e-006
,,,-3.56000000e-008,-7.71874571e-005
,,,-3.54000000e-008,-8.37499574e-005
,,,-3.52000000e-008,-9.74999581e-005
,,,-3.50000000e-008,-9.87499581e-005
,,,-3.48000000e-008,-1.00312458e-004
,,,-3.46000000e-008,-9.12499578e-005
,,,-3.44000000e-008,-7.56249570e-005
,,,-3.42000000e-008,-6.78124567e-005
,,,-3.40000000e-008,-5.06249558e-005
,,,-3.38000000e-008,-4.24999555e-005
,,,-3.36000000e-008,-6.96874567e-005
,,,-3.34000000e-008,2.18754667e-006
,,,-3.32000000e-008,1.87500475e-005
,,,-3.30000000e-008,-1.90624543e-005
,,,-3.28000000e-008,-3.78124552e-005
,,,-3.26000000e-008,-1.45312460e-004
,,,-3.24000000e-008,-1.36562460e-004
,,,-3.22000000e-008,-1.04062458e-004
,,,-3.20000000e-008,-8.74999576e-005
,,,-3.18000000e-008,-2.15624545e-005
,,,-3.16000000e-008,1.59375473e-005
,,,-3.14000000e-008,5.71875493e-005
,,,-3.12000000e-008,-2.09374544e-005
,,,-3.10000000e-008,-6.93749567e-005
,,,-3.08000000e-008,-1.14062459e-004
,,,-3.06000000e-008,-1.61562461e-004
,,,-3.04000000e-008,-8.15624573e-005
,,,-3.02000000e-008,-1.37499541e-005
,,,-3.00000000e-008,2.81254670e-006
,,,-2.98000000e-008,1.09375471e-005
,,,-2.96000000e-008,-9.99995391e-006
,,,-2.94000000e-008,-5.81249562e-005
,,,-2.92000000e-008,-8.56249575e-005
,,,-2.90000000e-008,-9.93749582e-005
,,,-2.88000000e-008,-4.93749558e-005
,,,-2.86000000e-008,-6.81249567e-005
,,,-2.84000000e-008,-3.37499550e-005
,,,-2.82000000e-008,-2.09374544e-005
,,,-2.80000000e-008,-1.01249958e-004
,,,-2.78000000e-008,-9.65624580e-005
,,,-2.76000000e-008,-1.00624958e-004
,,,-2.74000000e-008,-6.49999565e-005
,,,-2.72000000e-008,2.50000478e-005
,,,-2.70000000e-008,4.06254676e-006
,,,-2.68000000e-008,-1.84374543e-005
,,,-2.66000000e-008,-5.34374560e-005
,,,-2.64000000e-008,-1.18437459e-004
,,,-2.62000000e-008,-9.21874578e-005
,,,-2.60000000e-008,-1.16562459e-004
,,,-2.58000000e-008,-8.84374576e-005
,,,-2.56000000e-008,-3.59374551e-005
,,,-2.54000000e-008,-2.53124546e-005
,,,-2.52000000e-008,1.15625471e-005
,,,-2.50000000e-008,-4.34374555e-005
,,,-2.48000000e-008,-3.24999550e-005
,,,-2.46000000e-008,-6.74999566e-005
,,,-2.44000000e-008,-1.25312459e-004
,,,-2.42000000e-008,-1.09687459e-004
,,,-2.40000000e-008,-1.41562460e-004
,,,-2.38000000e-008,-1.01249958e-004
,,,-2.36000000e-008,8.43754697e-006
,,,-2.34000000e-008,1.87500475e-005
,,,-2.32000000e-008,1.65625474e-005
,,,-2.30000000e-008,-1.87499543e-005
,,,-2.28000000e-008,-6.40624565e-005
,,,-2.26000000e-008,-7.46874570e-005
,,,-2.24000000e-008,-1.12187459e-004
,,,-2.22000000e-008,-1.08437459e-004
,,,-2.20000000e-008,-9.15624578e-005
,,,-2.18000000e-008,-4.49999556e-005
,,,-2.16000000e-008,3.93750484e-005
,,,-2.14000000e-008,1.68750474e-005
,,,-2.12000000e-008,2.28125476e-005
,,,-2.10000000e-008,-1.56249542e-005
,,,-2.08000000e-008,-8.24999574e-005
,,,-2.06000000e-008,-1.17499959e-004
,,,-2.04000000e-008,-1.51874961e-004
,,,-2.02000000e-008,-1.49374961e-004
,,,-2.00000000e-008,-1.08437459e-004
,,,-1.98000000e-008,-2.49999546e-005
,,,-1.96000000e-008,7.62500502e-005
,,,-1.94000000e-008,8.84375508e-005
,,,-1.92000000e-008,4.06250485e-005
,,,-1.90000000e-008,-3.09374549e-005
,,,-1.88000000e-008,-1.47812460e-004
,,,-1.86000000e-008,-1.89374962e-004
,,,-1.84000000e-008,-1.92187463e-004
,,,-1.82000000e-008,-1.24999959e-004
,,,-1.80000000e-008,-1.56245351e-006
,,,-1.78000000e-008,4.34375486e-005
,,,-1.76000000e-008,1.02187551e-004
,,,-1.74000000e-008,5.59375492e-005
,,,-1.72000000e-008,-3.28124550e-005
,,,-1.70000000e-008,-6.28124564e-005
,,,-1.68000000e-008,-1.57187461e-004
,,,-1.66000000e-008,-1.38437460e-004
,,,-1.64000000e-008,-1.39062460e-004
,,,-1.62000000e-008,-9.90624581e-005
,,,-1.60000000e-008,4.65661288e-011
,,,-1.58000000e-008,-1.09374540e-005
,,,-1.56000000e-008,2.93750480e-005
,,,-1.54000000e-008,1.40625472e-005
,,,-1.52000000e-008,-8.12499573e-005
,,,-1.50000000e-008,-3.68749552e-005
,,,-1.48000000e-008,-8.96874577e-005
,,,-1.46000000e-008,-1.51562461e-004
,,,-1.44000000e-008,-1.23124959e-004
,,,-1.42000000e-008,-1.32499960e-004
,,,-1.40000000e-008,-5.31249560e-005
,,,-1.38000000e-008,1.43750472e-005
,,,-1.36000000e-008,2.28125476e-005
,,,-1.34000000e-008,1.96875475e-005
,,,-1.32000000e-008,-7.49995379e-006
,,,-1.30000000e-008,-6.09374563e-005
,,,-1.28000000e-008,-1.17499959e-004
,,,-1.26000000e-008,-1.87499962e-004
,,,-1.24000000e-008,-1.39062460e-004
,,,-1.22000000e-008,-1.00624958e-004
,,,-1.20000000e-008,-1.96874544e-005
,,,-1.18000000e-008,4.18750486e-005
,,,-1.16000000e-008,3.78125484e-005
,,,-1.14000000e-008,4.93750489e-005
,,,-1.12000000e-008,-3.43745360e-006
,,,-1.10000000e-008,-8.40624574e-005
,,,-1.08000000e-008,-1.31874960e-004
,,,-1.06000000e-008,-1.42812460e-004
,,,-1.04000000e-008,-7.40624570e-005
,,,-1.02000000e-008,-6.84374567e-005
,,,-1.00000000e-008,-3.12499549e-005
,,,-9.80000000e-009,3.18750481e-005
,,,-9.60000000e-009,4.68754679e-006
,,,-9.40000000e-009,-3.74995361e-006
,,,-9.20000000e-009,-3.40624551e-005
,,,-9.00000000e-009,-1.43749960e-004
,,,-8.80000000e-009,-1.17812459e-004
,,,-8.60000000e-009,-1.06249958e-004
,,,-8.40000000e-009,-8.21874573e-005
,,,-8.20000000e-009,-4.24999555e-005
,,,-8.00000000e-009,-3.34374550e-005
,,,-7.80000000e-009,-1.43749541e-005
,,,-7.60000000e-009,7.50004692e-006
,,,-7.40000000e-009,-6.24995373e-006
,,,-7.20000000e-009,-3.56249551e-005
,,,-7.00000000e-009,-9.18749578e-005
,,,-6.80000000e-009,-1.19062459e-004
,,,-6.60000000e-009,-1.91874963e-004
,,,-6.40000000e-009,-1.63749961e-004
,,,-6.20000000e-009,-9.62499580e-005
,,,-6.00000000e-009,-4.87499557e-005
,,,-5.80000000e-009,2.06250475e-005
,,,-5.60000000e-009,1.84375474e-005
,,,-5.40000000e-009,-6.24995373e-006
,,,-5.20000000e-009,-2.56249547e-005
,,,-5.00000000e-009,-1.42499960e-004
,,,-4.80000000e-009,-2.00624963e-004
,,,-4.60000000e-009,-1.84999962e-004
,,,-4.40000000e-009,-1.45624960e-004
,,,-4.20000000e-009,-4.99999558e-005
,,,-4.00000000e-009,1.59375473e-005
,,,-3.80000000e-009,4.15625485e-005
,,,-3.60000000e-009,-3.74995361e-006
,,,-3.40000000e-009,-6.43749565e-005
,,,-3.20000000e-009,-9.99999582e-005
,,,-3.00000000e-009,-1.76562462e-004
,,,-2.80000000e-009,-1.43749960e-004
,,,-2.60000000e-009,-8.71874576e-005
,,,-2.40000000e-009,-8.59374575e-005
,,,-2.20000000e-009,-5.65624561e-005
,,,-2.00000000e-009,-6.40624565e-005
,,,-1.80000000e-009,-9.06249577e-005
,,,-1.60000000e-009,-7.21874569e-005
,,,-1.40000000e-009,-4.78124557e-005
,,,-1.20000000e-009,-4.37495364e-006
,,,-1.00000000e-009,-2.96874548e-005
,,,-8.00000000e-010,-2.87499548e-005
,,,-6.00000000e-010,-5.46874560e-005
,,,-4.00000000e-010,-1.72812462e-004
,,,-2.00000000e-010,-1.71874962e-004
,,,0.00000000e+000,-1.43437460e-004
,,,2.00000000e-010,-1.10312459e-004
,,,4.00000000e-010,2.09375476e-005
,,,6.00000000e-010,6.81250498e-005
,,,8.00000000e-010,5.00000489e-005
,,,1.00000000e-009,-7.81245380e-006
,,,1.20000000e-009,-1.05312458e-004
,,,1.40000000e-009,-1.93437463e-004
,,,1.60000000e-009,-2.53437465e-004
,,,1.80000000e-009,-1.90937463e-004
,,,2.00000000e-009,-5.37499560e-005
,,,2.20000000e-009,1.18750471e-005
,,,2.40000000e-009,1.32812553e-004
,,,2.60000000e-009,8.15625504e-005
,,,2.80000000e-009,-1.56249542e-005
,,,3.00000000e-009,-8.03124572e-005
,,,3.20000000e-009,-2.32187464e-004
,,,3.40000000e-009,-2.09062463e-004
,,,3.60000000e-009,-1.79999962e-004
,,,3.80000000e-009,-1.26249959e-004
,,,4.00000000e-009,-1.34374541e-005
,,,4.20000000e-009,-1.09374540e-005
,,,4.40000000e-009,2.46875477e-005
,,,4.60000000e-009,-1.68749542e-005
,,,4.80000000e-009,-7.78124571e-005
,,,5.00000000e-009,-7.84374572e-005
,,,5.20000000e-009,-1.06562458e-004
,,,5.40000000e-009,-8.78124576e-005
,,,5.60000000e-009,-6.28124564e-005
,,,5.80000000e-009,-1.16874959e-004
,,,6.00000000e-009,-7.96874572e-005
,,,6.20000000e-009,-9.06249577e-005
,,,6.40000000e-009,-6.99999568e-005
,,,6.60000000e-009,5.90625494e-005
,,,6.80000000e-009,6.00000494e-005
,,,7.00000000e-009,6.68750497e-005
,,,7.20000000e-009,-9.99995391e-006
