Data/20220819/UCLA_to_R2B_VPOL_E_20_01_Ch2.csv

"Record Length",5000,"Points",-1.00800000e-007,8.65625507e-005
"Sample Interval",2.00000000e-010,s,-1.00600000e-007,4.53125487e-005
"Trigger Point",504,"Samples",-1.00400000e-007,5.62504683e-006
"Trigger Time",0.00000000e+000,s,-1.00200000e-007,-1.03124539e-005
"",,,-1.00000000e-007,3.28125481e-005
"Horizontal Offset",-1.00800000e-007,s,-9.98000000e-008,8.28125505e-005
,,,-9.96000000e-008,1.29687553e-004
,,,-9.94000000e-008,1.49687554e-004
,,,-9.92000000e-008,1.28437553e-004
,,,-9.90000000e-008,7.00000499e-005
,,,-9.88000000e-008,-7.18745378e-006
,,,-9.86000000e-008,-6.49999565e-005
,,,-9.84000000e-008,-6.34374564e-005
,,,-9.82000000e-008,8.43754697e-006
,,,-9.80000000e-008,8.00000504e-005
,,,-9.78000000e-008,1.52812554e-004
,,,-9.76000000e-008,1.71562555e-004
,,,-9.74000000e-008,1.28750053e-004
,,,-9.72000000e-008,8.96875508e-005
,,,-9.70000000e-008,4.28125486e-005
,,,-9.68000000e-008,6.87504689e-006
,,,-9.66000000e-008,1.03125471e-005
,,,-9.64000000e-008,3.00000480e-005
,,,-9.62000000e-008,6.12500495e-005
,,,-9.60000000e-008,1.07187552e-004
,,,-9.58000000e-008,1.40312553e-004
,,,-9.56000000e-008,1.51250054e-004
,,,-9.54000000e-008,1.30312553e-004
,,,-9.52000000e-008,7.62500502e-005
,,,-9.50000000e-008,3.62500483e-005
,,,-9.48000000e-008,3.06250480e-005
,,,-9.46000000e-008,3.40625482e-005
,,,-9.44000000e-008,6.15625495e-005
,,,-9.42000000e-008,8.34375505e-005
,,,-9.40000000e-008,7.46875501e-005
,,,-9.38000000e-008,8.25000505e-005
,,,-9.36000000e-008,6.90625498e-005
,,,-9.34000000e-008,5.15625490e-005
,,,-9.32000000e-008,5.93750494e-005
,,,-9.30000000e-008,6.59375497e-005
,,,-9.28000000e-008,7.56250502e-005
,,,-9.26000000e-008,9.43750510e-005
,,,-9.24000000e-008,7.81250503e-005
,,,-9.22000000e-008,6.65625497e-005
,,,-9.20000000e-008,3.68750483e-005
,,,-9.18000000e-008,2.59375478e-005
,,,-9.16000000e-008,2.62500478e-005
,,,-9.14000000e-008,5.34375491e-005
,,,-9.12000000e-008,8.84375508e-005
,,,-9.10000000e-008,1.20312552e-004
,,,-9.08000000e-008,1.03750051e-004
,,,-9.06000000e-008,1.04375052e-004
,,,-9.04000000e-008,6.37500496e-005
,,,-9.02000000e-008,4.93750489e-005
,,,-9.00000000e-008,2.28125476e-005
,,,-8.98000000e-008,2.62500478e-005
,,,-8.96000000e-008,4.34375486e-005
,,,-8.94000000e-008,6.00000494e-005
,,,-8.92000000e-008,7.75000502e-005
,,,-8.90000000e-008,9.21875509e-005
,,,-8.88000000e-008,8.03125504e-005
,,,-8.86000000e-008,5.50000492e-005
,,,-8.84000000e-008,4.53125487e-005
,,,-8.82000000e-008,3.59375483e-005
,,,-8.80000000e-008,3.68750483e-005
,,,-8.78000000e-008,6.62500497e-005
,,,-8.76000000e-008,7.12500500e-005
,,,-8.74000000e-008,9.68750512e-005
,,,-8.72000000e-008,9.46875511e-005
,,,-8.70000000e-008,7.31250500e-005
,,,-8.68000000e-008,3.87500484e-005
,,,-8.66000000e-008,2.15625476e-005
,,,-8.64000000e-008,4.21875486e-005
,,,-8.62000000e-008,8.59375506e-005
,,,-8.60000000e-008,1.44062553e-004
,,,-8.58000000e-008,1.66562554e-004
,,,-8.56000000e-008,1.21562552e-004
,,,-8.54000000e-008,6.40625496e-005
,,,-8.52000000e-008,-1.06249539e-005
,,,-8.50000000e-008,-4.09374554e-005
,,,-8.48000000e-008,-1.21874540e-005
,,,-8.46000000e-008,4.53125487e-005
,,,-8.44000000e-008,1.19375052e-004
,,,-8.42000000e-008,1.77500055e-004
,,,-8.40000000e-008,1.80625055e-004
,,,-8.38000000e-008,1.54375054e-004
,,,-8.36000000e-008,6.06250494e-005
,,,-8.34000000e-008,-1.24999540e-005
,,,-8.32000000e-008,-6.03124563e-005
,,,-8.30000000e-008,-4.34374555e-005
,,,-8.28000000e-008,3.93750484e-005
,,,-8.26000000e-008,1.12812552e-004
,,,-8.24000000e-008,1.57187554e-004
,,,-8.22000000e-008,1.60312554e-004
,,,-8.20000000e-008,1.19375052e-004
,,,-8.18000000e-008,8.25000505e-005
,,,-8.16000000e-008,3.15625481e-005
,,,-8.14000000e-008,6.25046596e-007
,,,-8.12000000e-008,7.50004692e-006
,,,-8.10000000e-008,3.15625481e-005
,,,-8.08000000e-008,6.06250494e-005
,,,-8.06000000e-008,1.02500051e-004
,,,-8.04000000e-008,1.01562551e-004
,,,-8.02000000e-008,7.37500501e-005
,,,-8.00000000e-008,4.81250489e-005
,,,-7.98000000e-008,2.81250479e-005
,,,-7.96000000e-008,5.81250493e-005
,,,-7.94000000e-008,9.03125509e-005
,,,-7.92000000e-008,1.18437552e-004
,,,-7.90000000e-008,1.01875051e-004
,,,-7.88000000e-008,5.81250493e-005
,,,-7.86000000e-008,6.56254688e-006
,,,-7.84000000e-008,-1.59374542e-005
,,,-7.82000000e-008,-1.06249539e-005
,,,-7.80000000e-008,3.03125480e-005
,,,-7.78000000e-008,1.02187551e-004
,,,-7.76000000e-008,1.66875054e-004
,,,-7.74000000e-008,1.78750055e-004
,,,-7.72000000e-008,1.27500053e-004
,,,-7.70000000e-008,5.40625491e-005
,,,-7.68000000e-008,-1.28124540e-005
,,,-7.66000000e-008,-5.40624560e-005
,,,-7.64000000e-008,-2.43749546e-005
,,,-7.62000000e-008,4.56250487e-005
,,,-7.60000000e-008,1.21562552e-004
,,,-7.58000000e-008,1.73437555e-004
,,,-7.56000000e-008,1.59062554e-004
,,,-7.54000000e-008,1.34687553e-004
,,,-7.52000000e-008,6.21875495e-005
,,,-7.50000000e-008,3.12546581e-007
,,,-7.48000000e-008,-7.81245380e-006
,,,-7.46000000e-008,-6.56245375e-006
,,,-7.44000000e-008,3.46875482e-005
,,,-7.42000000e-008,9.59375511e-005
,,,-7.40000000e-008,1.30937553e-004
,,,-7.38000000e-008,1.39062553e-004
,,,-7.36000000e-008,1.16250052e-004
,,,-7.34000000e-008,5.56250492e-005
,,,-7.32000000e-008,2.34375477e-005
,,,-7.30000000e-008,2.15625476e-005
,,,-7.28000000e-008,4.43750487e-005
,,,-7.26000000e-008,9.68750512e-005
,,,-7.24000000e-008,1.20625052e-004
,,,-7.22000000e-008,1.42812553e-004
,,,-7.20000000e-008,1.09687552e-004
,,,-7.18000000e-008,5.90625494e-005
,,,-7.16000000e-008,2.28125476e-005
,,,-7.14000000e-008,3.12504671e-006
,,,-7.12000000e-008,4.31250486e-005
,,,-7.10000000e-008,8.96875508e-005
,,,-7.08000000e-008,1.20937552e-004
,,,-7.06000000e-008,1.29375053e-004
,,,-7.04000000e-008,8.93750508e-005
,,,-7.02000000e-008,5.37500491e-005
,,,-7.00000000e-008,1.84375474e-005
,,,-6.98000000e-008,9.37546611e-007
,,,-6.96000000e-008,2.90625479e-005
,,,-6.94000000e-008,3.93750484e-005
,,,-6.92000000e-008,6.12500495e-005
,,,-6.90000000e-008,9.12500509e-005
,,,-6.88000000e-008,8.78125507e-005
,,,-6.86000000e-008,8.75000507e-005
,,,-6.84000000e-008,6.37500496e-005
,,,-6.82000000e-008,6.03125494e-005
,,,-6.80000000e-008,6.12500495e-005
,,,-6.78000000e-008,6.84375498e-005
,,,-6.76000000e-008,7.87500503e-005
,,,-6.74000000e-008,7.34375501e-005
,,,-6.72000000e-008,7.06250499e-005
,,,-6.70000000e-008,5.53125492e-005
,,,-6.68000000e-008,3.12500481e-005
,,,-6.66000000e-008,3.75000483e-005
,,,-6.64000000e-008,6.56250497e-005
,,,-6.62000000e-008,1.08437552e-004
,,,-6.60000000e-008,1.48125054e-004
,,,-6.58000000e-008,1.41875053e-004
,,,-6.56000000e-008,1.09687552e-004
,,,-6.54000000e-008,5.34375491e-005
,,,-6.52000000e-008,-2.37499546e-005
,,,-6.50000000e-008,-4.18749554e-005
,,,-6.48000000e-008,-3.53124551e-005
,,,-6.46000000e-008,3.28125481e-005
,,,-6.44000000e-008,1.14375052e-004
,,,-6.42000000e-008,1.75937555e-004
,,,-6.40000000e-008,1.89062556e-004
,,,-6.38000000e-008,1.37187553e-004
,,,-6.36000000e-008,4.68750488e-005
,,,-6.34000000e-008,-1.28124540e-005
,,,-6.32000000e-008,-5.28124559e-005
,,,-6.30000000e-008,-2.56249547e-005
,,,-6.28000000e-008,2.59375478e-005
,,,-6.26000000e-008,1.16562552e-004
,,,-6.24000000e-008,1.70000055e-004
,,,-6.22000000e-008,1.82187555e-004
,,,-6.20000000e-008,1.51562554e-004
,,,-6.18000000e-008,1.02187551e-004
,,,-6.16000000e-008,5.34375491e-005
,,,-6.14000000e-008,1.71875474e-005
,,,-6.12000000e-008,-4.99995367e-006
,,,-6.10000000e-008,2.31250477e-005
,,,-6.08000000e-008,5.31250491e-005
,,,-6.06000000e-008,7.96875504e-005
,,,-6.04000000e-008,9.96875513e-005
,,,-6.02000000e-008,9.18750509e-005
,,,-6.00000000e-008,7.78125503e-005
,,,-5.98000000e-008,6.18750495e-005
,,,-5.96000000e-008,2.75000479e-005
,,,-5.94000000e-008,4.65625488e-005
,,,-5.92000000e-008,5.09375490e-005
,,,-5.90000000e-008,5.71875493e-005
,,,-5.88000000e-008,3.71875483e-005
,,,-5.86000000e-008,2.84375479e-005
,,,-5.84000000e-008,4.81250489e-005
,,,-5.82000000e-008,4.84375489e-005
,,,-5.80000000e-008,7.90625503e-005
,,,-5.78000000e-008,9.62500511e-005
,,,-5.76000000e-008,9.46875511e-005
,,,-5.74000000e-008,1.11875052e-004
,,,-5.72000000e-008,1.06875052e-004
,,,-5.70000000e-008,7.68750502e-005
,,,-5.68000000e-008,6.03125494e-005
,,,-5.66000000e-008,1.71875474e-005
,,,-5.64000000e-008,8.75004698e-006
,,,-5.62000000e-008,3.18750481e-005
,,,-5.60000000e-008,5.50000492e-005
,,,-5.58000000e-008,1.05312552e-004
,,,-5.56000000e-008,1.16250052e-004
,,,-5.54000000e-008,1.19375052e-004
,,,-5.52000000e-008,9.65625512e-005
,,,-5.50000000e-008,6.43750496e-005
,,,-5.48000000e-008,4.75000488e-005
,,,-5.46000000e-008,8.75004698e-006
,,,-5.44000000e-008,8.43754697e-006
,,,-5.42000000e-008,1.81250474e-005
,,,-5.40000000e-008,5.28125491e-005
,,,-5.38000000e-008,1.16250052e-004
,,,-5.36000000e-008,1.32500053e-004
,,,-5.34000000e-008,1.40937553e-004
,,,-5.32000000e-008,1.01875051e-004
,,,-5.30000000e-008,6.06250494e-005
,,,-5.28000000e-008,3.34375482e-005
,,,-5.26000000e-008,2.56250478e-005
,,,-5.24000000e-008,4.90625489e-005
,,,-5.22000000e-008,6.25000495e-005
,,,-5.20000000e-008,8.50000506e-005
,,,-5.18000000e-008,1.00312551e-004
,,,-5.16000000e-008,1.01250051e-004
,,,-5.14000000e-008,7.65625502e-005
,,,-5.12000000e-008,6.53125497e-005
,,,-5.10000000e-008,3.28125481e-005
,,,-5.08000000e-008,6.81250498e-005
,,,-5.06000000e-008,7.50000501e-005
,,,-5.04000000e-008,1.04687552e-004
,,,-5.02000000e-008,1.15937552e-004
,,,-5.00000000e-008,8.03125504e-005
,,,-4.98000000e-008,2.31250477e-005
,,,-4.96000000e-008,1.00000470e-005
,,,-4.94000000e-008,7.18754691e-006
,,,-4.92000000e-008,4.34375486e-005
,,,-4.90000000e-008,7.65625502e-005
,,,-4.88000000e-008,1.25625053e-004
,,,-4.86000000e-008,1.32812553e-004
,,,-4.84000000e-008,1.08125052e-004
,,,-4.82000000e-008,8.18750505e-005
,,,-4.80000000e-008,2.00000475e-005
,,,-4.78000000e-008,3.43754673e-006
,,,-4.76000000e-008,1.56250473e-005
,,,-4.74000000e-008,4.59375487e-005
,,,-4.72000000e-008,9.53125511e-005
,,,-4.70000000e-008,1.11875052e-004
,,,-4.68000000e-008,1.02187551e-004
,,,-4.66000000e-008,7.59375502e-005
,,,-4.64000000e-008,2.78125479e-005
,,,-4.62000000e-008,3.68750483e-005
,,,-4.60000000e-008,5.15625490e-005
,,,-4.58000000e-008,7.65625502e-005
,,,-4.56000000e-008,1.05000052e-004
,,,-4.54000000e-008,1.02500051e-004
,,,-4.52000000e-008,7.28125500e-005
,,,-4.50000000e-008,2.12500476e-005
,,,-4.48000000e-008,-2.09374544e-005
,,,-4.46000000e-008,-1.34374541e-005
,,,-4.44000000e-008,3.50000482e-005
,,,-4.42000000e-008,1.11250052e-004
,,,-4.40000000e-008,1.96250056e-004
,,,-4.38000000e-008,1.91875056e-004
,,,-4.36000000e-008,1.50312554e-004
,,,-4.34000000e-008,5.21875490e-005
,,,-4.32000000e-008,-4.43749555e-005
,,,-4.30000000e-008,-7.53124570e-005
,,,-4.28000000e-008,-3.93749553e-005
,,,-4.26000000e-008,5.03125490e-005
,,,-4.24000000e-008,1.52812554e-004
,,,-4.22000000e-008,2.14062557e-004
,,,-4.20000000e-008,2.22500057e-004
,,,-4.18000000e-008,1.50625054e-004
,,,-4.16000000e-008,4.56250487e-005
,,,-4.14000000e-008,-4.59374556e-005
,,,-4.12000000e-008,-8.06249573e-005
,,,-4.10000000e-008,-4.03124553e-005
,,,-4.08000000e-008,3.81250484e-005
,,,-4.06000000e-008,1.35000053e-004
,,,-4.04000000e-008,1.62187554e-004
,,,-4.02000000e-008,1.50000054e-004
,,,-4.00000000e-008,1.00937551e-004
,,,-3.98000000e-008,4.78125488e-005
,,,-3.96000000e-008,1.34375472e-005
,,,-3.94000000e-008,1.34375472e-005
,,,-3.92000000e-008,2.96875480e-005
,,,-3.90000000e-008,7.15625500e-005
,,,-3.88000000e-008,8.18750505e-005
,,,-3.86000000e-008,8.53125506e-005
,,,-3.84000000e-008,7.40625501e-005
,,,-3.82000000e-008,4.53125487e-005
,,,-3.80000000e-008,5.87500494e-005
,,,-3.78000000e-008,8.84375508e-005
,,,-3.76000000e-008,1.25312553e-004
,,,-3.74000000e-008,1.33125053e-004
,,,-3.72000000e-008,1.05000052e-004
,,,-3.70000000e-008,4.15625485e-005
,,,-3.68000000e-008,-7.49995379e-006
,,,-3.66000000e-008,-1.21874540e-005
,,,-3.64000000e-008,1.40625472e-005
,,,-3.62000000e-008,6.46875496e-005
,,,-3.60000000e-008,1.26562553e-004
,,,-3.58000000e-008,1.40937553e-004
,,,-3.56000000e-008,9.68750512e-005
,,,-3.54000000e-008,6.90625498e-005
,,,-3.52000000e-008,-5.31245369e-006
,,,-3.50000000e-008,-1.78124543e-005
,,,-3.48000000e-008,-2.18745354e-006
,,,-3.46000000e-008,4.50000487e-005
,,,-3.44000000e-008,1.13750052e-004
,,,-3.42000000e-008,1.30937553e-004
,,,-3.40000000e-008,1.23437552e-004
,,,-3.38000000e-008,6.40625496e-005
,,,-3.36000000e-008,2.00000475e-005
,,,-3.34000000e-008,1.59375473e-005
,,,-3.32000000e-008,5.15625490e-005
,,,-3.30000000e-008,1.14687552e-004
,,,-3.28000000e-008,1.26562553e-004
,,,-3.26000000e-008,1.51562554e-004
,,,-3.24000000e-008,1.23437552e-004
,,,-3.22000000e-008,6.40625496e-005
,,,-3.20000000e-008,1.87500475e-005
,,,-3.18000000e-008,-1.03124539e-005
,,,-3.16000000e-008,-1.03124539e-005
,,,-3.14000000e-008,5.25000491e-005
,,,-3.12000000e-008,1.20000052e-004
,,,-3.10000000e-008,1.44687553e-004
,,,-3.08000000e-008,1.53125054e-004
,,,-3.06000000e-008,8.37500505e-005
,,,-3.04000000e-008,7.81254694e-006
,,,-3.02000000e-008,-2.81249548e-005
,,,-3.00000000e-008,-6.24953464e-007
,,,-2.98000000e-008,4.21875486e-005
,,,-2.96000000e-008,8.59375506e-005
,,,-2.94000000e-008,1.12187552e-004
,,,-2.92000000e-008,1.00937551e-004
,,,-2.90000000e-008,7.28125500e-005
,,,-2.88000000e-008,4.90625489e-005
,,,-2.86000000e-008,4.81250489e-005
,,,-2.84000000e-008,5.96875494e-005
,,,-2.82000000e-008,9.56250511e-005
,,,-2.80000000e-008,1.20625052e-004
,,,-2.78000000e-008,1.30312553e-004
,,,-2.76000000e-008,7.31250500e-005
,,,-2.74000000e-008,1.56250473e-005
,,,-2.72000000e-008,-3.12495358e-006
,,,-2.70000000e-008,-3.74995361e-006
,,,-2.68000000e-008,5.59375492e-005
,,,-2.66000000e-008,1.39062553e-004
,,,-2.64000000e-008,1.58437554e-004
,,,-2.62000000e-008,1.26562553e-004
,,,-2.60000000e-008,6.93750499e-005
,,,-2.58000000e-008,6.87504689e-006
,,,-2.56000000e-008,-3.37499550e-005
,,,-2.54000000e-008,-1.90624543e-005
,,,-2.52000000e-008,3.25000481e-005
,,,-2.50000000e-008,6.21875495e-005
,,,-2.48000000e-008,1.08750052e-004
,,,-2.46000000e-008,1.21562552e-004
,,,-2.44000000e-008,1.10625052e-004
,,,-2.42000000e-008,7.56250502e-005
,,,-2.40000000e-008,5.50000492e-005
,,,-2.38000000e-008,4.46875487e-005
,,,-2.36000000e-008,5.34375491e-005
,,,-2.34000000e-008,8.03125504e-005
,,,-2.32000000e-008,7.87500503e-005
,,,-2.30000000e-008,6.96875499e-005
,,,-2.28000000e-008,4.84375489e-005
,,,-2.26000000e-008,4.00000485e-005
,,,-2.24000000e-008,4.43750487e-005
,,,-2.22000000e-008,7.71875502e-005
,,,-2.20000000e-008,1.29375053e-004
,,,-2.18000000e-008,1.54375054e-004
,,,-2.16000000e-008,1.41562553e-004
,,,-2.14000000e-008,8.90625508e-005
,,,-2.12000000e-008,1.75000474e-005
,,,-2.10000000e-008,-3.90624553e-005
,,,-2.08000000e-008,-6.18749564e-005
,,,-2.06000000e-008,-9.68745389e-006
,,,-2.04000000e-008,6.78125498e-005
,,,-2.02000000e-008,1.57812554e-004
,,,-2.00000000e-008,1.88437556e-004
,,,-1.98000000e-008,1.57187554e-004
,,,-1.96000000e-008,8.81250508e-005
,,,-1.94000000e-008,6.56254688e-006
,,,-1.92000000e-008,-4.03124553e-005
,,,-1.90000000e-008,-3.68749552e-005
,,,-1.88000000e-008,3.09375480e-005
,,,-1.86000000e-008,9.68750512e-005
,,,-1.84000000e-008,1.43437553e-004
,,,-1.82000000e-008,1.41562553e-004
,,,-1.80000000e-008,1.03750051e-004
,,,-1.78000000e-008,6.40625496e-005
,,,-1.76000000e-008,6.28125495e-005
,,,-1.74000000e-008,7.37500501e-005
,,,-1.72000000e-008,9.21875509e-005
,,,-1.70000000e-008,8.71875507e-005
,,,-1.68000000e-008,5.81250493e-005
,,,-1.66000000e-008,1.09375471e-005
,,,-1.64000000e-008,-3.12453449e-007
,,,-1.62000000e-008,2.09375476e-005
,,,-1.60000000e-008,8.25000505e-005
,,,-1.58000000e-008,1.22187552e-004
,,,-1.56000000e-008,1.58437554e-004
,,,-1.54000000e-008,1.46875054e-004
,,,-1.52000000e-008,8.50000506e-005
,,,-1.50000000e-008,1.15625471e-005
,,,-1.48000000e-008,-3.78124552e-005
,,,-1.46000000e-008,-5.18749559e-005
,,,-1.44000000e-008,-1.24995349e-006
,,,-1.42000000e-008,8.84375508e-005
,,,-1.40000000e-008,1.66875054e-004
,,,-1.38000000e-008,2.01250056e-004
,,,-1.36000000e-008,1.45000053e-004
,,,-1.34000000e-008,6.62500497e-005
,,,-1.32000000e-008,-1.68749542e-005
,,,-1.30000000e-008,-4.74999557e-005
,,,-1.28000000e-008,-3.12495358e-006
,,,-1.26000000e-008,6.87500498e-005
,,,-1.24000000e-008,1.44375053e-004
,,,-1.22000000e-008,1.63125054e-004
,,,-1.20000000e-008,1.43125053e-004
,,,-1.18000000e-008,7.34375501e-005
,,,-1.16000000e-008,-6.24995373e-006
,,,-1.14000000e-008,-3.49999551e-005
,,,-1.12000000e-008,-2.12499544e-005
,,,-1.10000000e-008,4.87500489e-005
,,,-1.08000000e-008,1.39062553e-004
,,,-1.06000000e-008,1.91562556e-004
,,,-1.04000000e-008,1.60937554e-004
,,,-1.02000000e-008,7.71875502e-005
,,,-1.00000000e-008,-3.31249550e-005
,,,-9.80000000e-009,-6.15624564e-005
,,,-9.60000000e-009,-4.34374555e-005
,,,-9.40000000e-009,5.25000491e-005
,,,-9.20000000e-009,1.48750054e-004
,,,-9.00000000e-009,1.74375055e-004
,,,-8.80000000e-009,1.54375054e-004
,,,-8.60000000e-009,9.18750509e-005
,,,-8.40000000e-009,1.87500475e-005
,,,-8.20000000e-009,-1.34374541e-005
,,,-8.00000000e-009,-5.31245369e-006
,,,-7.80000000e-009,3.34375482e-005
,,,-7.60000000e-009,9.93750513e-005
,,,-7.40000000e-009,1.13750052e-004
,,,-7.20000000e-009,9.53125511e-005
,,,-7.00000000e-009,2.12500476e-005
,,,-6.80000000e-009,-2.15624545e-005
,,,-6.60000000e-009,-3.59374551e-005
,,,-6.40000000e-009,1.71875474e-005
,,,-6.20000000e-009,1.03750051e-004
,,,-6.00000000e-009,1.43750053e-004
,,,-5.80000000e-009,1.32187553e-004
,,,-5.60000000e-009,7.53125501e-005
,,,-5.40000000e-009,-2.68749547e-005
,,,-5.20000000e-009,-7.68749571e-005
,,,-5.00000000e-009,-8.28124574e-005
,,,-4.80000000e-009,-1.06249539e-005
,,,-4.60000000e-009,1.05625052e-004
,,,-4.40000000e-009,1.79687555e-004
,,,-4.20000000e-009,2.22187557e-004
,,,-4.00000000e-009,1.66875054e-004
,,,-3.80000000e-009,5.75000493e-005
,,,-3.60000000e-009,-4.46874556e-005
,,,-3.40000000e-009,-1.21562459e-004
,,,-3.20000000e-009,-9.81249581e-005
,,,-3.00000000e-009,-4.06245363e-006
,,,-2.80000000e-009,9.50000511e-005
,,,-2.60000000e-009,1.84375055e-004
,,,-2.40000000e-009,1.75625055e-004
,,,-2.20000000e-009,1.25000053e-004
,,,-2.00000000e-009,4.37500486e-005
,,,-1.80000000e-009,-3.93749553e-005
,,,-1.60000000e-009,-6.43749565e-005
,,,-1.40000000e-009,-5.12499559e-005
,,,-1.20000000e-009,-3.43745360e-006
,,,-1.00000000e-009,5.43750491e-005
,,,-8.00000000e-010,8.96875508e-005
,,,-6.00000000e-010,9.40625510e-005
,,,-4.00000000e-010,6.59375497e-005
,,,-2.00000000e-010,4.25000486e-005
,,,0.00000000e+000,3.71875483e-005
,,,2.00000000e-010,4.56250487e-005
,,,4.00000000e-010,4.90625489e-005
,,,6.00000000e-010,6.03125494e-005
,,,8.00000000e-010,4.06250485e-005
,,,1.00000000e-009,2.12500476e-005
,,,1.20000000e-009,1.81250474e-005
,,,1.40000000e-009,3.93750484e-005
,,,1.60000000e-009,7.87500503e-005
,,,1.80000000e-009,1.02812551e-004
,,,2.00000000e-009,1.08125052e-004
,,,2.20000000e-009,9.75000512e-005
,,,2.40000000e-009,5.37500491e-005
,,,2.60000000e-009,1.18750471e-005
,,,2.80000000e-009,-2.59374547e-005
,,,3.00000000e-009,6.25046596e-007
,,,3.20000000e-009,3.68750483e-005
,,,3.40000000e-009,7.15625500e-005
,,,3.60000000e-009,9.12500509e-005
,,,3.80000000e-009,6.87500498e-005
,,,4.00000000e-009,5.12500490e-005
,,,4.20000000e-009,3.12500481e-005
,,,4.40000000e-009,3.90625484e-005
,,,4.60000000e-009,6.31250496e-005
,,,4.80000000e-009,8.06250504e-005
,,,5.00000000e-009,9.43750510e-005
,,,5.20000000e-009,7.59375502e-005
,,,5.40000000e-009,5.53125492e-005
,,,5.60000000e-009,6.31250496e-005
,,,5.80000000e-009,6.03125494e-005
,,,6.00000000e-009,7.03125499e-005
,,,6.20000000e-009,1.04687552e-004
,,,6.40000000e-009,1.01250051e-004
,,,6.60000000e-009,1.14062552e-004
,,,6.80000000e-009,8.18750505e-005
,,,7.00000000e-009,4.71875488e-005
,,,7.20000000e-009,4.03125485e-005
,,,7.40000000e-009,5.53125492e-005
,,,7.60000000e-009,8.37500505e-005
,,,7.80000000e-009,1.09687552e-004
,,,8.00000000e-009,1.11875052e-004
,,,8.20000000e-009,7.53125501e-005
,,,8.40000000e-009,2.90625479e-005
,,,8.60000000e-009,-3.12495358e-006
,,,8.80000000e-009,-1.03124539e-005
,,,9.00000000e-009,3.37500482e-005
