Data/20220819/UCLA_to_R2B_VPOL_E_NEG70_01_Ch2.csv

"Record Length",5000,"Points",-1.00800000e-007,-8.74999576e-005
"Sample Interval",2.00000000e-010,s,-1.00600000e-007,-9.43749579e-005
"Trigger Point",504,"Samples",-1.00400000e-007,-9.12499578e-005
"Trigger Time",0.00000000e+000,s,-1.00200000e-007,-2.68749547e-005
"",,,-1.00000000e-007,3.62500483e-005
"Horizontal Offset",-1.00800000e-007,s,-9.98000000e-008,8.15625504e-005
,,,-9.96000000e-008,1.33750053e-004
,,,-9.94000000e-008,1.15625052e-004
,,,-9.92000000e-008,4.50000487e-005
,,,-9.90000000e-008,-7.81249571e-005
,,,-9.88000000e-008,-1.88124962e-004
,,,-9.86000000e-008,-1.60624961e-004
,,,-9.84000000e-008,-8.24999574e-005
,,,-9.82000000e-008,7.00000499e-005
,,,-9.80000000e-008,1.86875055e-004
,,,-9.78000000e-008,1.96875056e-004
,,,-9.76000000e-008,1.14687552e-004
,,,-9.74000000e-008,8.12504695e-006
,,,-9.72000000e-008,-1.53749961e-004
,,,-9.70000000e-008,-2.07499963e-004
,,,-9.68000000e-008,-1.71874962e-004
,,,-9.66000000e-008,-6.24999564e-005
,,,-9.64000000e-008,5.46875492e-005
,,,-9.62000000e-008,1.90625056e-004
,,,-9.60000000e-008,1.78750055e-004
,,,-9.58000000e-008,6.65625497e-005
,,,-9.56000000e-008,-4.18749554e-005
,,,-9.54000000e-008,-1.65312461e-004
,,,-9.52000000e-008,-2.25937464e-004
,,,-9.50000000e-008,-1.22187459e-004
,,,-9.48000000e-008,-3.28124550e-005
,,,-9.46000000e-008,8.15625504e-005
,,,-9.44000000e-008,1.50625054e-004
,,,-9.42000000e-008,1.37812553e-004
,,,-9.40000000e-008,7.21875500e-005
,,,-9.38000000e-008,-6.56245375e-006
,,,-9.36000000e-008,-1.11874959e-004
,,,-9.34000000e-008,-1.46562460e-004
,,,-9.32000000e-008,-1.15624959e-004
,,,-9.30000000e-008,-4.28124555e-005
,,,-9.28000000e-008,7.65625502e-005
,,,-9.26000000e-008,1.68125055e-004
,,,-9.24000000e-008,1.28437553e-004
,,,-9.22000000e-008,7.53125501e-005
,,,-9.20000000e-008,5.62504683e-006
,,,-9.18000000e-008,-7.68749571e-005
,,,-9.16000000e-008,-1.17187459e-004
,,,-9.14000000e-008,-1.19999959e-004
,,,-9.12000000e-008,-8.56249575e-005
,,,-9.10000000e-008,-1.18749540e-005
,,,-9.08000000e-008,7.12500500e-005
,,,-9.06000000e-008,1.17187552e-004
,,,-9.04000000e-008,8.62500507e-005
,,,-9.02000000e-008,4.25000486e-005
,,,-9.00000000e-008,-2.49999546e-005
,,,-8.98000000e-008,-7.06249568e-005
,,,-8.96000000e-008,-9.37499579e-005
,,,-8.94000000e-008,-1.20624959e-004
,,,-8.92000000e-008,-6.18749564e-005
,,,-8.90000000e-008,-2.81245357e-006
,,,-8.88000000e-008,1.16875052e-004
,,,-8.86000000e-008,1.46250054e-004
,,,-8.84000000e-008,1.41875053e-004
,,,-8.82000000e-008,7.50000501e-005
,,,-8.80000000e-008,-1.87499543e-005
,,,-8.78000000e-008,-1.39687460e-004
,,,-8.76000000e-008,-1.94999963e-004
,,,-8.74000000e-008,-1.52187461e-004
,,,-8.72000000e-008,-4.81249557e-005
,,,-8.70000000e-008,1.15625052e-004
,,,-8.68000000e-008,1.64375054e-004
,,,-8.66000000e-008,1.62812554e-004
,,,-8.64000000e-008,8.68750507e-005
,,,-8.62000000e-008,-4.12499554e-005
,,,-8.60000000e-008,-1.88749962e-004
,,,-8.58000000e-008,-2.33749965e-004
,,,-8.56000000e-008,-1.74999962e-004
,,,-8.54000000e-008,-4.71874557e-005
,,,-8.52000000e-008,7.12500500e-005
,,,-8.50000000e-008,1.70625055e-004
,,,-8.48000000e-008,1.52187554e-004
,,,-8.46000000e-008,1.25937553e-004
,,,-8.44000000e-008,5.53125492e-005
,,,-8.42000000e-008,-6.03124563e-005
,,,-8.40000000e-008,-1.14687459e-004
,,,-8.38000000e-008,-1.43124960e-004
,,,-8.36000000e-008,-1.28124960e-004
,,,-8.34000000e-008,-4.49999556e-005
,,,-8.32000000e-008,7.87500503e-005
,,,-8.30000000e-008,1.66875054e-004
,,,-8.28000000e-008,1.98437556e-004
,,,-8.26000000e-008,1.62812554e-004
,,,-8.24000000e-008,6.90625498e-005
,,,-8.22000000e-008,-5.24999559e-005
,,,-8.20000000e-008,-1.61562461e-004
,,,-8.18000000e-008,-2.09062463e-004
,,,-8.16000000e-008,-1.68124961e-004
,,,-8.14000000e-008,-4.09374554e-005
,,,-8.12000000e-008,8.96875508e-005
,,,-8.10000000e-008,1.92812556e-004
,,,-8.08000000e-008,2.17812557e-004
,,,-8.06000000e-008,1.25312553e-004
,,,-8.04000000e-008,-2.18749545e-005
,,,-8.02000000e-008,-1.24374959e-004
,,,-8.00000000e-008,-2.30312464e-004
,,,-7.98000000e-008,-2.29374964e-004
,,,-7.96000000e-008,-1.34999960e-004
,,,-7.94000000e-008,-1.24995349e-006
,,,-7.92000000e-008,1.62500054e-004
,,,-7.90000000e-008,2.98750061e-004
,,,-7.88000000e-008,2.57187559e-004
,,,-7.86000000e-008,1.32500053e-004
,,,-7.84000000e-008,-6.40624565e-005
,,,-7.82000000e-008,-2.47499965e-004
,,,-7.80000000e-008,-2.99374968e-004
,,,-7.78000000e-008,-1.75312462e-004
,,,-7.76000000e-008,-1.09374540e-005
,,,-7.74000000e-008,1.92812556e-004
,,,-7.72000000e-008,2.74687560e-004
,,,-7.70000000e-008,2.23750057e-004
,,,-7.68000000e-008,9.15625509e-005
,,,-7.66000000e-008,-1.07812459e-004
,,,-7.64000000e-008,-2.61249966e-004
,,,-7.62000000e-008,-2.93124967e-004
,,,-7.60000000e-008,-2.09999963e-004
,,,-7.58000000e-008,-1.12499540e-005
,,,-7.56000000e-008,1.21250052e-004
,,,-7.54000000e-008,2.00625056e-004
,,,-7.52000000e-008,1.57187554e-004
,,,-7.50000000e-008,8.25000505e-005
,,,-7.48000000e-008,-1.24995349e-006
,,,-7.46000000e-008,-6.78124567e-005
,,,-7.44000000e-008,-1.08749959e-004
,,,-7.42000000e-008,-8.65624575e-005
,,,-7.40000000e-008,-6.37499565e-005
,,,-7.38000000e-008,3.37500482e-005
,,,-7.36000000e-008,5.25000491e-005
,,,-7.34000000e-008,1.25312553e-004
,,,-7.32000000e-008,1.14062552e-004
,,,-7.30000000e-008,6.37500496e-005
,,,-7.28000000e-008,6.87500498e-005
,,,-7.26000000e-008,-2.81245357e-006
,,,-7.24000000e-008,-6.90624567e-005
,,,-7.22000000e-008,-8.99999577e-005
,,,-7.20000000e-008,-1.27812460e-004
,,,-7.18000000e-008,-9.71874581e-005
,,,-7.16000000e-008,1.43750472e-005
,,,-7.14000000e-008,7.84375503e-005
,,,-7.12000000e-008,1.32187553e-004
,,,-7.10000000e-008,1.51250054e-004
,,,-7.08000000e-008,1.03437551e-004
,,,-7.06000000e-008,-2.31249545e-005
,,,-7.04000000e-008,-1.53437461e-004
,,,-7.02000000e-008,-1.94687463e-004
,,,-7.00000000e-008,-1.89687462e-004
,,,-6.98000000e-008,-7.28124569e-005
,,,-6.96000000e-008,1.17187552e-004
,,,-6.94000000e-008,2.20625057e-004
,,,-6.92000000e-008,2.62500059e-004
,,,-6.90000000e-008,1.80312555e-004
,,,-6.88000000e-008,-2.12499544e-005
,,,-6.86000000e-008,-2.00937463e-004
,,,-6.84000000e-008,-2.86874967e-004
,,,-6.82000000e-008,-2.30312464e-004
,,,-6.80000000e-008,-6.46874565e-005
,,,-6.78000000e-008,1.24375052e-004
,,,-6.76000000e-008,2.40625058e-004
,,,-6.74000000e-008,2.02500056e-004
,,,-6.72000000e-008,8.71875507e-005
,,,-6.70000000e-008,-4.37499555e-005
,,,-6.68000000e-008,-1.95312463e-004
,,,-6.66000000e-008,-2.39687465e-004
,,,-6.64000000e-008,-1.83124962e-004
,,,-6.62000000e-008,-5.12499559e-005
,,,-6.60000000e-008,8.56250506e-005
,,,-6.58000000e-008,1.73437555e-004
,,,-6.56000000e-008,1.43750053e-004
,,,-6.54000000e-008,7.21875500e-005
,,,-6.52000000e-008,-3.06249549e-005
,,,-6.50000000e-008,-8.46874575e-005
,,,-6.48000000e-008,-1.23124959e-004
,,,-6.46000000e-008,-7.31249569e-005
,,,-6.44000000e-008,-4.56249556e-005
,,,-6.42000000e-008,2.43750477e-005
,,,-6.40000000e-008,8.34375505e-005
,,,-6.38000000e-008,9.65625512e-005
,,,-6.36000000e-008,9.21875509e-005
,,,-6.34000000e-008,1.25004663e-006
,,,-6.32000000e-008,-4.15624554e-005
,,,-6.30000000e-008,-3.65624552e-005
,,,-6.28000000e-008,-6.81249567e-005
,,,-6.26000000e-008,-2.49999546e-005
,,,-6.24000000e-008,-1.40624541e-005
,,,-6.22000000e-008,-2.68749547e-005
,,,-6.20000000e-008,3.12504671e-006
,,,-6.18000000e-008,3.18750481e-005
,,,-6.16000000e-008,2.34375477e-005
,,,-6.14000000e-008,3.31250481e-005
,,,-6.12000000e-008,1.25000472e-005
,,,-6.10000000e-008,-1.15624540e-005
,,,-6.08000000e-008,-5.90624562e-005
,,,-6.06000000e-008,-4.15624554e-005
,,,-6.04000000e-008,-5.43749560e-005
,,,-6.02000000e-008,-3.46874551e-005
,,,-6.00000000e-008,3.59375483e-005
,,,-5.98000000e-008,1.09687552e-004
,,,-5.96000000e-008,8.50000506e-005
,,,-5.94000000e-008,9.25000510e-005
,,,-5.92000000e-008,-2.81245357e-006
,,,-5.90000000e-008,-5.31249560e-005
,,,-5.88000000e-008,-9.56249580e-005
,,,-5.86000000e-008,-8.09374573e-005
,,,-5.84000000e-008,-4.06245363e-006
,,,-5.82000000e-008,4.34375486e-005
,,,-5.80000000e-008,8.37500505e-005
,,,-5.78000000e-008,4.93750489e-005
,,,-5.76000000e-008,-4.09374554e-005
,,,-5.74000000e-008,-4.90624558e-005
,,,-5.72000000e-008,-6.71874566e-005
,,,-5.70000000e-008,-8.18749573e-005
,,,-5.68000000e-008,-3.24999550e-005
,,,-5.66000000e-008,1.75000474e-005
,,,-5.64000000e-008,2.43750477e-005
,,,-5.62000000e-008,4.06250485e-005
,,,-5.60000000e-008,1.25000472e-005
,,,-5.58000000e-008,-2.96874548e-005
,,,-5.56000000e-008,-6.28124564e-005
,,,-5.54000000e-008,-1.46874541e-005
,,,-5.52000000e-008,-2.18749545e-005
,,,-5.50000000e-008,-9.06245386e-006
,,,-5.48000000e-008,4.37504677e-006
,,,-5.46000000e-008,1.25004663e-006
,,,-5.44000000e-008,2.34375477e-005
,,,-5.42000000e-008,3.68750483e-005
,,,-5.40000000e-008,2.93750480e-005
,,,-5.38000000e-008,4.37504677e-006
,,,-5.36000000e-008,-2.71874547e-005
,,,-5.34000000e-008,-1.53124542e-005
,,,-5.32000000e-008,-3.49999551e-005
,,,-5.30000000e-008,-3.12495358e-006
,,,-5.28000000e-008,2.87500479e-005
,,,-5.26000000e-008,7.81254694e-006
,,,-5.24000000e-008,1.50000473e-005
,,,-5.22000000e-008,3.37500482e-005
,,,-5.20000000e-008,-3.53124551e-005
,,,-5.18000000e-008,-2.74999547e-005
,,,-5.16000000e-008,-7.37499569e-005
,,,-5.14000000e-008,-9.28124578e-005
,,,-5.12000000e-008,-6.53124565e-005
,,,-5.10000000e-008,-3.12495358e-006
,,,-5.08000000e-008,3.81250484e-005
,,,-5.06000000e-008,7.84375503e-005
,,,-5.04000000e-008,8.09375504e-005
,,,-5.02000000e-008,8.40625506e-005
,,,-5.00000000e-008,2.96875480e-005
,,,-4.98000000e-008,-3.84374553e-005
,,,-4.96000000e-008,-1.07187459e-004
,,,-4.94000000e-008,-9.56249580e-005
,,,-4.92000000e-008,-6.68749566e-005
,,,-4.90000000e-008,3.50000482e-005
,,,-4.88000000e-008,1.69687555e-004
,,,-4.86000000e-008,2.02812556e-004
,,,-4.84000000e-008,1.27812553e-004
,,,-4.82000000e-008,1.84375474e-005
,,,-4.80000000e-008,-1.44374960e-004
,,,-4.78000000e-008,-2.22187464e-004
,,,-4.76000000e-008,-1.79687462e-004
,,,-4.74000000e-008,-1.00624958e-004
,,,-4.72000000e-008,5.78125493e-005
,,,-4.70000000e-008,1.38125053e-004
,,,-4.68000000e-008,1.62812554e-004
,,,-4.66000000e-008,1.09375052e-004
,,,-4.64000000e-008,-1.28124540e-005
,,,-4.62000000e-008,-1.09062459e-004
,,,-4.60000000e-008,-1.83437462e-004
,,,-4.58000000e-008,-1.48437460e-004
,,,-4.56000000e-008,-3.18749549e-005
,,,-4.54000000e-008,5.96875494e-005
,,,-4.52000000e-008,1.20937552e-004
,,,-4.50000000e-008,1.42187553e-004
,,,-4.48000000e-008,9.34375510e-005
,,,-4.46000000e-008,4.81250489e-005
,,,-4.44000000e-008,-3.09374549e-005
,,,-4.42000000e-008,-8.18749573e-005
,,,-4.40000000e-008,-8.90624577e-005
,,,-4.38000000e-008,-7.43749570e-005
,,,-4.36000000e-008,-4.37495364e-006
,,,-4.34000000e-008,3.46875482e-005
,,,-4.32000000e-008,8.96875508e-005
,,,-4.30000000e-008,7.71875502e-005
,,,-4.28000000e-008,3.68750483e-005
,,,-4.26000000e-008,2.65625478e-005
,,,-4.24000000e-008,-4.71874557e-005
,,,-4.22000000e-008,-5.43749560e-005
,,,-4.20000000e-008,-5.37499560e-005
,,,-4.18000000e-008,-7.53124570e-005
,,,-4.16000000e-008,-4.34374555e-005
,,,-4.14000000e-008,-3.24999550e-005
,,,-4.12000000e-008,1.18750471e-005
,,,-4.10000000e-008,1.03437551e-004
,,,-4.08000000e-008,1.06250052e-004
,,,-4.06000000e-008,1.01250051e-004
,,,-4.04000000e-008,5.75000493e-005
,,,-4.02000000e-008,-3.56249551e-005
,,,-4.00000000e-008,-1.34999960e-004
,,,-3.98000000e-008,-1.53749961e-004
,,,-3.96000000e-008,-1.04062458e-004
,,,-3.94000000e-008,1.21875471e-005
,,,-3.92000000e-008,1.21250052e-004
,,,-3.90000000e-008,2.40625058e-004
,,,-3.88000000e-008,1.73125055e-004
,,,-3.86000000e-008,5.65625493e-005
,,,-3.84000000e-008,-7.87499572e-005
,,,-3.82000000e-008,-2.20937464e-004
,,,-3.80000000e-008,-2.06874963e-004
,,,-3.78000000e-008,-1.34687460e-004
,,,-3.76000000e-008,-2.74999547e-005
,,,-3.74000000e-008,1.15625052e-004
,,,-3.72000000e-008,1.67812555e-004
,,,-3.70000000e-008,1.85312555e-004
,,,-3.68000000e-008,7.12500500e-005
,,,-3.66000000e-008,-2.65624547e-005
,,,-3.64000000e-008,-1.05624958e-004
,,,-3.62000000e-008,-1.85624962e-004
,,,-3.60000000e-008,-1.26874959e-004
,,,-3.58000000e-008,-4.71874557e-005
,,,-3.56000000e-008,4.15625485e-005
,,,-3.54000000e-008,1.56875054e-004
,,,-3.52000000e-008,2.02187556e-004
,,,-3.50000000e-008,1.59062554e-004
,,,-3.48000000e-008,8.71875507e-005
,,,-3.46000000e-008,4.68754679e-006
,,,-3.44000000e-008,-1.00312458e-004
,,,-3.42000000e-008,-1.65937461e-004
,,,-3.40000000e-008,-1.41249960e-004
,,,-3.38000000e-008,-6.74999566e-005
,,,-3.36000000e-008,4.03125485e-005
,,,-3.34000000e-008,1.45312553e-004
,,,-3.32000000e-008,1.40937553e-004
,,,-3.30000000e-008,1.42500053e-004
,,,-3.28000000e-008,9.12500509e-005
,,,-3.26000000e-008,-2.71874547e-005
,,,-3.24000000e-008,-1.08437459e-004
,,,-3.22000000e-008,-1.85937462e-004
,,,-3.20000000e-008,-1.79062462e-004
,,,-3.18000000e-008,-7.87499572e-005
,,,-3.16000000e-008,3.31250481e-005
,,,-3.14000000e-008,1.81875055e-004
,,,-3.12000000e-008,2.21250057e-004
,,,-3.10000000e-008,1.80625055e-004
,,,-3.08000000e-008,6.56250497e-005
,,,-3.06000000e-008,-9.84374581e-005
,,,-3.04000000e-008,-1.85937462e-004
,,,-3.02000000e-008,-2.32499964e-004
,,,-3.00000000e-008,-1.54687461e-004
,,,-2.98000000e-008,3.12504671e-006
,,,-2.96000000e-008,1.56250054e-004
,,,-2.94000000e-008,2.43437558e-004
,,,-2.92000000e-008,1.90000056e-004
,,,-2.90000000e-008,6.84375498e-005
,,,-2.88000000e-008,-5.96874563e-005
,,,-2.86000000e-008,-2.06874963e-004
,,,-2.84000000e-008,-2.14062464e-004
,,,-2.82000000e-008,-1.35937460e-004
,,,-2.80000000e-008,-2.62499547e-005
,,,-2.78000000e-008,9.90625513e-005
,,,-2.76000000e-008,1.38750053e-004
,,,-2.74000000e-008,1.28437553e-004
,,,-2.72000000e-008,7.28125500e-005
,,,-2.70000000e-008,-2.18749545e-005
,,,-2.68000000e-008,-6.96874567e-005
,,,-2.66000000e-008,-1.44687460e-004
,,,-2.64000000e-008,-1.05312458e-004
,,,-2.62000000e-008,-6.24999564e-005
,,,-2.60000000e-008,1.12500471e-005
,,,-2.58000000e-008,1.11562552e-004
,,,-2.56000000e-008,1.25937553e-004
,,,-2.54000000e-008,1.23437552e-004
,,,-2.52000000e-008,8.28125505e-005
,,,-2.50000000e-008,3.62500483e-005
,,,-2.48000000e-008,-2.96874548e-005
,,,-2.46000000e-008,-9.78124581e-005
,,,-2.44000000e-008,-9.43749579e-005
,,,-2.42000000e-008,-8.37499574e-005
,,,-2.40000000e-008,-1.78124543e-005
,,,-2.38000000e-008,6.96875499e-005
,,,-2.36000000e-008,1.08750052e-004
,,,-2.34000000e-008,1.04062552e-004
,,,-2.32000000e-008,1.02812551e-004
,,,-2.30000000e-008,3.12500481e-005
,,,-2.28000000e-008,-5.68749561e-005
,,,-2.26000000e-008,-1.31249960e-004
,,,-2.24000000e-008,-1.89687462e-004
,,,-2.22000000e-008,-1.63124961e-004
,,,-2.20000000e-008,-4.65624556e-005
,,,-2.18000000e-008,9.87500513e-005
,,,-2.16000000e-008,2.02812556e-004
,,,-2.14000000e-008,1.83437555e-004
,,,-2.12000000e-008,1.38125053e-004
,,,-2.10000000e-008,3.12546581e-007
,,,-2.08000000e-008,-1.24999959e-004
,,,-2.06000000e-008,-1.89374962e-004
,,,-2.04000000e-008,-1.80624962e-004
,,,-2.02000000e-008,-6.03124563e-005
,,,-2.00000000e-008,1.04375052e-004
,,,-1.98000000e-008,1.76562555e-004
,,,-1.96000000e-008,1.93750056e-004
,,,-1.94000000e-008,1.03125051e-004
,,,-1.92000000e-008,-2.03124544e-005
,,,-1.90000000e-008,-1.16874959e-004
,,,-1.88000000e-008,-1.70937462e-004
,,,-1.86000000e-008,-1.43749960e-004
,,,-1.84000000e-008,-8.12499573e-005
,,,-1.82000000e-008,-6.24953464e-007
,,,-1.80000000e-008,8.12500504e-005
,,,-1.78000000e-008,8.68750507e-005
,,,-1.76000000e-008,8.03125504e-005
,,,-1.74000000e-008,3.56250483e-005
,,,-1.72000000e-008,-4.18749554e-005
,,,-1.70000000e-008,-7.81249571e-005
,,,-1.68000000e-008,-1.29062460e-004
,,,-1.66000000e-008,-7.59374570e-005
,,,-1.64000000e-008,-2.15624545e-005
,,,-1.62000000e-008,4.00000485e-005
,,,-1.60000000e-008,1.29062553e-004
,,,-1.58000000e-008,8.96875508e-005
,,,-1.56000000e-008,5.00000489e-005
,,,-1.54000000e-008,2.18750476e-005
,,,-1.52000000e-008,-3.53124551e-005
,,,-1.50000000e-008,-7.06249568e-005
,,,-1.48000000e-008,-7.56249570e-005
,,,-1.46000000e-008,-4.34374555e-005
,,,-1.44000000e-008,-3.43745360e-006
,,,-1.42000000e-008,5.18750490e-005
,,,-1.40000000e-008,7.68750502e-005
,,,-1.38000000e-008,2.75000479e-005
,,,-1.36000000e-008,2.09375476e-005
,,,-1.34000000e-008,-1.12499540e-005
,,,-1.32000000e-008,-6.06249563e-005
,,,-1.30000000e-008,-6.09374563e-005
,,,-1.28000000e-008,-6.87499567e-005
,,,-1.26000000e-008,-8.40624574e-005
,,,-1.24000000e-008,-3.43745360e-006
,,,-1.22000000e-008,4.25000486e-005
,,,-1.20000000e-008,6.50000497e-005
,,,-1.18000000e-008,5.28125491e-005
,,,-1.16000000e-008,4.65661288e-011
,,,-1.14000000e-008,-4.06249554e-005
,,,-1.12000000e-008,-3.96874553e-005
,,,-1.10000000e-008,-2.37499546e-005
,,,-1.08000000e-008,7.50004692e-006
,,,-1.06000000e-008,2.53125478e-005
,,,-1.04000000e-008,4.75000488e-005
,,,-1.02000000e-008,3.25000481e-005
,,,-1.00000000e-008,-8.74995385e-006
,,,-9.80000000e-009,-3.68749552e-005
,,,-9.60000000e-009,-5.06249558e-005
,,,-9.40000000e-009,-3.56249551e-005
,,,-9.20000000e-009,-1.18749540e-005
,,,-9.00000000e-009,6.56254688e-006
,,,-8.80000000e-009,-1.06249539e-005
,,,-8.60000000e-009,-2.65624547e-005
,,,-8.40000000e-009,-2.56249547e-005
,,,-8.20000000e-009,-2.87499548e-005
,,,-8.00000000e-009,-2.43749546e-005
,,,-7.80000000e-009,-3.12453449e-007
,,,-7.60000000e-009,-1.31249541e-005
,,,-7.40000000e-009,-2.21874545e-005
,,,-7.20000000e-009,-3.71874552e-005
,,,-7.00000000e-009,-3.28124550e-005
,,,-6.80000000e-009,-9.99995391e-006
,,,-6.60000000e-009,3.50000482e-005
,,,-6.40000000e-009,5.40625491e-005
,,,-6.20000000e-009,5.31250491e-005
,,,-6.00000000e-009,1.59375473e-005
,,,-5.80000000e-009,-2.40624546e-005
,,,-5.60000000e-009,-5.09374559e-005
,,,-5.40000000e-009,-8.93749577e-005
,,,-5.20000000e-009,-6.90624567e-005
,,,-5.00000000e-009,-3.18749549e-005
,,,-4.80000000e-009,1.84375474e-005
,,,-4.60000000e-009,6.09375495e-005
,,,-4.40000000e-009,4.46875487e-005
,,,-4.20000000e-009,-4.06245363e-006
,,,-4.00000000e-009,-4.09374554e-005
,,,-3.80000000e-009,-9.99999582e-005
,,,-3.60000000e-009,-9.49999579e-005
,,,-3.40000000e-009,-9.18749578e-005
,,,-3.20000000e-009,-3.53124551e-005
,,,-3.00000000e-009,2.37500477e-005
,,,-2.80000000e-009,6.21875495e-005
,,,-2.60000000e-009,4.96875489e-005
,,,-2.40000000e-009,7.81254694e-006
,,,-2.20000000e-009,-6.09374563e-005
,,,-2.00000000e-009,-1.04062458e-004
,,,-1.80000000e-009,-1.32812460e-004
,,,-1.60000000e-009,-8.65624575e-005
,,,-1.40000000e-009,-1.43749541e-005
,,,-1.20000000e-009,5.78125493e-005
,,,-1.00000000e-009,7.12500500e-005
,,,-8.00000000e-010,3.87500484e-005
,,,-6.00000000e-010,2.03125475e-005
,,,-4.00000000e-010,-4.59374556e-005
,,,-2.00000000e-010,-9.65624580e-005
,,,0.00000000e+000,-1.05624958e-004
,,,2.00000000e-010,-1.00624958e-004
,,,4.00000000e-010,-4.84374557e-005
,,,6.00000000e-010,3.65625483e-005
,,,8.00000000e-010,2.59375478e-005
,,,1.00000000e-009,5.71875493e-005
,,,1.20000000e-009,9.06254700e-006
,,,1.40000000e-009,-6.46874565e-005
,,,1.60000000e-009,-7.34374569e-005
,,,1.80000000e-009,-9.84374581e-005
,,,2.00000000e-009,-9.71874581e-005
,,,2.20000000e-009,-6.31249564e-005
,,,2.40000000e-009,-4.74999557e-005
,,,2.60000000e-009,3.62500483e-005
,,,2.80000000e-009,3.90625484e-005
,,,3.00000000e-009,7.93750503e-005
,,,3.20000000e-009,4.93750489e-005
,,,3.40000000e-009,1.15625471e-005
,,,3.60000000e-009,-3.99999553e-005
,,,3.80000000e-009,-4.96874558e-005
,,,4.00000000e-009,-6.34374564e-005
,,,4.20000000e-009,-1.24999540e-005
,,,4.40000000e-009,2.96875480e-005
,,,4.60000000e-009,5.87500494e-005
,,,4.80000000e-009,7.96875504e-005
,,,5.00000000e-009,7.40625501e-005
,,,5.20000000e-009,3.50000482e-005
,,,5.40000000e-009,-2.93749548e-005
,,,5.60000000e-009,-5.34374560e-005
,,,5.80000000e-009,-8.90624577e-005
,,,6.00000000e-009,-6.96874567e-005
,,,6.20000000e-009,-2.18745354e-006
,,,6.40000000e-009,-4.37495364e-006
,,,6.60000000e-009,3.50000482e-005
,,,6.80000000e-009,3.84375484e-005
,,,7.00000000e-009,3.40625482e-005
,,,7.20000000e-009,5.28125491e-005
,,,7.40000000e-009,1.59375473e-005
,,,7.60000000e-009,-2.71874547e-005
,,,7.80000000e-009,-7.46874570e-005
