Data/20220819/UCLA_to_R2A_VPOL_E_NEG10_01_Ch2.csv

"Record Length",5000,"Points",-1.00800000e-007,9.43750510e-005
"Sample Interval",2.00000000e-010,s,-1.00600000e-007,3.84375484e-005
"Trigger Point",504,"Samples",-1.00400000e-007,-2.68749547e-005
"Trigger Time",0.00000000e+000,s,-1.00200000e-007,-5.40624560e-005
"",,,-1.00000000e-007,-5.31249560e-005
"Horizontal Offset",-1.00800000e-007,s,-9.98000000e-008,-1.24999540e-005
,,,-9.96000000e-008,4.21875486e-005
,,,-9.94000000e-008,9.25000510e-005
,,,-9.92000000e-008,1.32500053e-004
,,,-9.90000000e-008,1.32187553e-004
,,,-9.88000000e-008,8.96875508e-005
,,,-9.86000000e-008,-6.24953464e-007
,,,-9.84000000e-008,-6.81249567e-005
,,,-9.82000000e-008,-1.09374959e-004
,,,-9.80000000e-008,-6.96874567e-005
,,,-9.78000000e-008,8.12504695e-006
,,,-9.76000000e-008,9.09375509e-005
,,,-9.74000000e-008,1.63125054e-004
,,,-9.72000000e-008,1.66250054e-004
,,,-9.70000000e-008,1.15937552e-004
,,,-9.68000000e-008,1.81250474e-005
,,,-9.66000000e-008,-5.06249558e-005
,,,-9.64000000e-008,-7.90624572e-005
,,,-9.62000000e-008,-5.46874560e-005
,,,-9.60000000e-008,2.84375479e-005
,,,-9.58000000e-008,9.71875512e-005
,,,-9.56000000e-008,1.40000053e-004
,,,-9.54000000e-008,1.27812553e-004
,,,-9.52000000e-008,9.75000512e-005
,,,-9.50000000e-008,4.50000487e-005
,,,-9.48000000e-008,6.87504689e-006
,,,-9.46000000e-008,-1.68749542e-005
,,,-9.44000000e-008,-2.37499546e-005
,,,-9.42000000e-008,-2.74999547e-005
,,,-9.40000000e-008,-9.37495388e-006
,,,-9.38000000e-008,2.93750480e-005
,,,-9.36000000e-008,6.84375498e-005
,,,-9.34000000e-008,1.07187552e-004
,,,-9.32000000e-008,9.56250511e-005
,,,-9.30000000e-008,6.71875498e-005
,,,-9.28000000e-008,2.25000476e-005
,,,-9.26000000e-008,-2.03124544e-005
,,,-9.24000000e-008,-5.09374559e-005
,,,-9.22000000e-008,-4.06249554e-005
,,,-9.20000000e-008,9.37546611e-007
,,,-9.18000000e-008,5.65625493e-005
,,,-9.16000000e-008,1.04375052e-004
,,,-9.14000000e-008,1.48750054e-004
,,,-9.12000000e-008,1.23125052e-004
,,,-9.10000000e-008,8.03125504e-005
,,,-9.08000000e-008,1.50000473e-005
,,,-9.06000000e-008,-4.06249554e-005
,,,-9.04000000e-008,-5.28124559e-005
,,,-9.02000000e-008,-4.81249557e-005
,,,-9.00000000e-008,6.25004686e-006
,,,-8.98000000e-008,6.90625498e-005
,,,-8.96000000e-008,1.38750053e-004
,,,-8.94000000e-008,1.51875054e-004
,,,-8.92000000e-008,1.16562552e-004
,,,-8.90000000e-008,2.68750478e-005
,,,-8.88000000e-008,-6.62499566e-005
,,,-8.86000000e-008,-1.16874959e-004
,,,-8.84000000e-008,-1.16562459e-004
,,,-8.82000000e-008,-3.31249550e-005
,,,-8.80000000e-008,6.43750496e-005
,,,-8.78000000e-008,1.41562553e-004
,,,-8.76000000e-008,1.62812554e-004
,,,-8.74000000e-008,1.14062552e-004
,,,-8.72000000e-008,3.50000482e-005
,,,-8.70000000e-008,-2.43749546e-005
,,,-8.68000000e-008,-6.84374567e-005
,,,-8.66000000e-008,-4.87499557e-005
,,,-8.64000000e-008,-1.87495352e-006
,,,-8.62000000e-008,5.78125493e-005
,,,-8.60000000e-008,1.22187552e-004
,,,-8.58000000e-008,1.34375053e-004
,,,-8.56000000e-008,1.26875053e-004
,,,-8.54000000e-008,7.18750500e-005
,,,-8.52000000e-008,3.06250480e-005
,,,-8.50000000e-008,-8.43745383e-006
,,,-8.48000000e-008,-3.81249552e-005
,,,-8.46000000e-008,-3.31249550e-005
,,,-8.44000000e-008,3.12504671e-006
,,,-8.42000000e-008,5.40625491e-005
,,,-8.40000000e-008,1.08125052e-004
,,,-8.38000000e-008,1.14375052e-004
,,,-8.36000000e-008,9.53125511e-005
,,,-8.34000000e-008,4.65625488e-005
,,,-8.32000000e-008,-1.28124540e-005
,,,-8.30000000e-008,-4.37499555e-005
,,,-8.28000000e-008,-5.40624560e-005
,,,-8.26000000e-008,-1.81249543e-005
,,,-8.24000000e-008,3.87500484e-005
,,,-8.22000000e-008,8.56250506e-005
,,,-8.20000000e-008,1.08125052e-004
,,,-8.18000000e-008,9.78125512e-005
,,,-8.16000000e-008,7.34375501e-005
,,,-8.14000000e-008,4.18750486e-005
,,,-8.12000000e-008,6.25004686e-006
,,,-8.10000000e-008,-5.93745372e-006
,,,-8.08000000e-008,-1.68749542e-005
,,,-8.06000000e-008,-1.06249539e-005
,,,-8.04000000e-008,3.15625481e-005
,,,-8.02000000e-008,5.75000493e-005
,,,-8.00000000e-008,9.68750512e-005
,,,-7.98000000e-008,9.15625509e-005
,,,-7.96000000e-008,7.96875504e-005
,,,-7.94000000e-008,3.21875481e-005
,,,-7.92000000e-008,-2.53124546e-005
,,,-7.90000000e-008,-4.12499554e-005
,,,-7.88000000e-008,-4.09374554e-005
,,,-7.86000000e-008,-3.74995361e-006
,,,-7.84000000e-008,4.62500488e-005
,,,-7.82000000e-008,6.59375497e-005
,,,-7.80000000e-008,9.00000508e-005
,,,-7.78000000e-008,8.53125506e-005
,,,-7.76000000e-008,6.15625495e-005
,,,-7.74000000e-008,5.03125490e-005
,,,-7.72000000e-008,-9.37453478e-007
,,,-7.70000000e-008,-2.53124546e-005
,,,-7.68000000e-008,-1.12499540e-005
,,,-7.66000000e-008,1.62500473e-005
,,,-7.64000000e-008,6.56250497e-005
,,,-7.62000000e-008,9.53125511e-005
,,,-7.60000000e-008,1.22187552e-004
,,,-7.58000000e-008,9.59375511e-005
,,,-7.56000000e-008,6.68750497e-005
,,,-7.54000000e-008,1.62500473e-005
,,,-7.52000000e-008,-4.71874557e-005
,,,-7.50000000e-008,-5.62499561e-005
,,,-7.48000000e-008,-3.84374553e-005
,,,-7.46000000e-008,2.93750480e-005
,,,-7.44000000e-008,1.07812552e-004
,,,-7.42000000e-008,1.29062553e-004
,,,-7.40000000e-008,1.17812552e-004
,,,-7.38000000e-008,6.37500496e-005
,,,-7.36000000e-008,-2.24999545e-005
,,,-7.34000000e-008,-3.81249552e-005
,,,-7.32000000e-008,-4.90624558e-005
,,,-7.30000000e-008,-3.12453449e-007
,,,-7.28000000e-008,6.12500495e-005
,,,-7.26000000e-008,9.96875513e-005
,,,-7.24000000e-008,1.18750052e-004
,,,-7.22000000e-008,1.05000052e-004
,,,-7.20000000e-008,6.06250494e-005
,,,-7.18000000e-008,1.71875474e-005
,,,-7.16000000e-008,-2.56249547e-005
,,,-7.14000000e-008,-1.59374542e-005
,,,-7.12000000e-008,-1.24995349e-006
,,,-7.10000000e-008,4.06250485e-005
,,,-7.08000000e-008,9.00000508e-005
,,,-7.06000000e-008,8.37500505e-005
,,,-7.04000000e-008,6.09375495e-005
,,,-7.02000000e-008,3.43750482e-005
,,,-7.00000000e-008,-1.24995349e-006
,,,-6.98000000e-008,-3.12495358e-006
,,,-6.96000000e-008,2.81254670e-006
,,,-6.94000000e-008,2.40625477e-005
,,,-6.92000000e-008,3.87500484e-005
,,,-6.90000000e-008,3.50000482e-005
,,,-6.88000000e-008,4.84375489e-005
,,,-6.86000000e-008,2.81250479e-005
,,,-6.84000000e-008,1.43750472e-005
,,,-6.82000000e-008,2.62500478e-005
,,,-6.80000000e-008,4.40625487e-005
,,,-6.78000000e-008,6.78125498e-005
,,,-6.76000000e-008,7.21875500e-005
,,,-6.74000000e-008,5.84375493e-005
,,,-6.72000000e-008,3.25000481e-005
,,,-6.70000000e-008,8.75004698e-006
,,,-6.68000000e-008,6.25046596e-007
,,,-6.66000000e-008,1.93750475e-005
,,,-6.64000000e-008,5.06250490e-005
,,,-6.62000000e-008,8.25000505e-005
,,,-6.60000000e-008,9.28125510e-005
,,,-6.58000000e-008,8.00000504e-005
,,,-6.56000000e-008,3.43750482e-005
,,,-6.54000000e-008,-1.87499543e-005
,,,-6.52000000e-008,-3.62499552e-005
,,,-6.50000000e-008,-3.46874551e-005
,,,-6.48000000e-008,1.12500471e-005
,,,-6.46000000e-008,7.59375502e-005
,,,-6.44000000e-008,9.90625513e-005
,,,-6.42000000e-008,9.37500510e-005
,,,-6.40000000e-008,4.90625489e-005
,,,-6.38000000e-008,1.96875475e-005
,,,-6.36000000e-008,-1.34374541e-005
,,,-6.34000000e-008,-1.96874544e-005
,,,-6.32000000e-008,8.43754697e-006
,,,-6.30000000e-008,4.68750488e-005
,,,-6.28000000e-008,7.78125503e-005
,,,-6.26000000e-008,9.84375512e-005
,,,-6.24000000e-008,7.87500503e-005
,,,-6.22000000e-008,7.50000501e-005
,,,-6.20000000e-008,3.75000483e-005
,,,-6.18000000e-008,1.06250471e-005
,,,-6.16000000e-008,1.31250472e-005
,,,-6.14000000e-008,2.62500478e-005
,,,-6.12000000e-008,5.15625490e-005
,,,-6.10000000e-008,4.81250489e-005
,,,-6.08000000e-008,5.28125491e-005
,,,-6.06000000e-008,4.43750487e-005
,,,-6.04000000e-008,2.00000475e-005
,,,-6.02000000e-008,6.87504689e-006
,,,-6.00000000e-008,-1.87495352e-006
,,,-5.98000000e-008,7.18754691e-006
,,,-5.96000000e-008,2.50000478e-005
,,,-5.94000000e-008,2.75000479e-005
,,,-5.92000000e-008,4.84375489e-005
,,,-5.90000000e-008,3.18750481e-005
,,,-5.88000000e-008,1.00000470e-005
,,,-5.86000000e-008,1.46875473e-005
,,,-5.84000000e-008,9.68754703e-006
,,,-5.82000000e-008,3.34375482e-005
,,,-5.80000000e-008,6.40625496e-005
,,,-5.78000000e-008,7.90625503e-005
,,,-5.76000000e-008,8.06250504e-005
,,,-5.74000000e-008,4.71875488e-005
,,,-5.72000000e-008,2.25000476e-005
,,,-5.70000000e-008,1.56254664e-006
,,,-5.68000000e-008,1.21875471e-005
,,,-5.66000000e-008,3.56250483e-005
,,,-5.64000000e-008,5.56250492e-005
,,,-5.62000000e-008,8.56250506e-005
,,,-5.60000000e-008,9.25000510e-005
,,,-5.58000000e-008,5.84375493e-005
,,,-5.56000000e-008,2.65625478e-005
,,,-5.54000000e-008,-1.90624543e-005
,,,-5.52000000e-008,-3.24999550e-005
,,,-5.50000000e-008,-2.62499547e-005
,,,-5.48000000e-008,1.03125471e-005
,,,-5.46000000e-008,4.21875486e-005
,,,-5.44000000e-008,7.78125503e-005
,,,-5.42000000e-008,9.65625512e-005
,,,-5.40000000e-008,7.81250503e-005
,,,-5.38000000e-008,4.46875487e-005
,,,-5.36000000e-008,-1.12499540e-005
,,,-5.34000000e-008,-3.81249552e-005
,,,-5.32000000e-008,-3.03124549e-005
,,,-5.30000000e-008,4.06254676e-006
,,,-5.28000000e-008,7.75000502e-005
,,,-5.26000000e-008,1.20625052e-004
,,,-5.24000000e-008,1.56250054e-004
,,,-5.22000000e-008,1.18125052e-004
,,,-5.20000000e-008,6.25000495e-005
,,,-5.18000000e-008,-2.06249544e-005
,,,-5.16000000e-008,-3.62499552e-005
,,,-5.14000000e-008,-3.40624551e-005
,,,-5.12000000e-008,9.37546611e-007
,,,-5.10000000e-008,6.37500496e-005
,,,-5.08000000e-008,1.07187552e-004
,,,-5.06000000e-008,1.01250051e-004
,,,-5.04000000e-008,7.75000502e-005
,,,-5.02000000e-008,1.43750472e-005
,,,-5.00000000e-008,-3.81249552e-005
,,,-4.98000000e-008,-5.28124559e-005
,,,-4.96000000e-008,-3.12499549e-005
,,,-4.94000000e-008,6.87504689e-006
,,,-4.92000000e-008,4.96875489e-005
,,,-4.90000000e-008,7.25000500e-005
,,,-4.88000000e-008,8.62500507e-005
,,,-4.86000000e-008,4.87500489e-005
,,,-4.84000000e-008,4.56250487e-005
,,,-4.82000000e-008,1.75000474e-005
,,,-4.80000000e-008,1.00000470e-005
,,,-4.78000000e-008,2.25000476e-005
,,,-4.76000000e-008,3.65625483e-005
,,,-4.74000000e-008,4.90625489e-005
,,,-4.72000000e-008,6.71875498e-005
,,,-4.70000000e-008,6.18750495e-005
,,,-4.68000000e-008,5.96875494e-005
,,,-4.66000000e-008,4.09375485e-005
,,,-4.64000000e-008,3.34375482e-005
,,,-4.62000000e-008,5.09375490e-005
,,,-4.60000000e-008,4.06250485e-005
,,,-4.58000000e-008,3.96875485e-005
,,,-4.56000000e-008,2.06250475e-005
,,,-4.54000000e-008,7.50004692e-006
,,,-4.52000000e-008,6.87504689e-006
,,,-4.50000000e-008,9.37546611e-007
,,,-4.48000000e-008,3.68750483e-005
,,,-4.46000000e-008,6.03125494e-005
,,,-4.44000000e-008,7.71875502e-005
,,,-4.42000000e-008,7.31250500e-005
,,,-4.40000000e-008,5.84375493e-005
,,,-4.38000000e-008,8.43754697e-006
,,,-4.36000000e-008,-2.87499548e-005
,,,-4.34000000e-008,-3.40624551e-005
,,,-4.32000000e-008,6.25004686e-006
,,,-4.30000000e-008,6.75000498e-005
,,,-4.28000000e-008,1.21250052e-004
,,,-4.26000000e-008,1.35937553e-004
,,,-4.24000000e-008,9.84375512e-005
,,,-4.22000000e-008,5.31250491e-005
,,,-4.20000000e-008,-2.40624546e-005
,,,-4.18000000e-008,-5.21874559e-005
,,,-4.16000000e-008,-4.03124553e-005
,,,-4.14000000e-008,6.56254688e-006
,,,-4.12000000e-008,7.65625502e-005
,,,-4.10000000e-008,1.23750052e-004
,,,-4.08000000e-008,1.12500052e-004
,,,-4.06000000e-008,8.87500508e-005
,,,-4.04000000e-008,1.90625475e-005
,,,-4.02000000e-008,-3.71874552e-005
,,,-4.00000000e-008,-6.43749565e-005
,,,-3.98000000e-008,-6.34374564e-005
,,,-3.96000000e-008,-8.43745383e-006
,,,-3.94000000e-008,4.90625489e-005
,,,-3.92000000e-008,1.15937552e-004
,,,-3.90000000e-008,1.37187553e-004
,,,-3.88000000e-008,1.06875052e-004
,,,-3.86000000e-008,4.71875488e-005
,,,-3.84000000e-008,-1.49999541e-005
,,,-3.82000000e-008,-6.74999566e-005
,,,-3.80000000e-008,-5.99999563e-005
,,,-3.78000000e-008,-9.68745389e-006
,,,-3.76000000e-008,6.78125498e-005
,,,-3.74000000e-008,1.14375052e-004
,,,-3.72000000e-008,1.36562553e-004
,,,-3.70000000e-008,1.04687552e-004
,,,-3.68000000e-008,3.43750482e-005
,,,-3.66000000e-008,-1.21874540e-005
,,,-3.64000000e-008,-4.68749557e-005
,,,-3.62000000e-008,-4.68749557e-005
,,,-3.60000000e-008,-2.81245357e-006
,,,-3.58000000e-008,3.62500483e-005
,,,-3.56000000e-008,8.34375505e-005
,,,-3.54000000e-008,8.75000507e-005
,,,-3.52000000e-008,8.96875508e-005
,,,-3.50000000e-008,3.56250483e-005
,,,-3.48000000e-008,1.84375474e-005
,,,-3.46000000e-008,-2.81245357e-006
,,,-3.44000000e-008,-3.74995361e-006
,,,-3.42000000e-008,3.43754673e-006
,,,-3.40000000e-008,3.50000482e-005
,,,-3.38000000e-008,4.90625489e-005
,,,-3.36000000e-008,8.40625506e-005
,,,-3.34000000e-008,8.78125507e-005
,,,-3.32000000e-008,8.15625504e-005
,,,-3.30000000e-008,7.34375501e-005
,,,-3.28000000e-008,3.28125481e-005
,,,-3.26000000e-008,2.15625476e-005
,,,-3.24000000e-008,5.62504683e-006
,,,-3.22000000e-008,1.18750471e-005
,,,-3.20000000e-008,3.00000480e-005
,,,-3.18000000e-008,3.21875481e-005
,,,-3.16000000e-008,4.43750487e-005
,,,-3.14000000e-008,5.81250493e-005
,,,-3.12000000e-008,5.71875493e-005
,,,-3.10000000e-008,5.90625494e-005
,,,-3.08000000e-008,3.06250480e-005
,,,-3.06000000e-008,-3.12495358e-006
,,,-3.04000000e-008,-3.78124552e-005
,,,-3.02000000e-008,-3.31249550e-005
,,,-3.00000000e-008,-1.43749541e-005
,,,-2.98000000e-008,3.28125481e-005
,,,-2.96000000e-008,9.09375509e-005
,,,-2.94000000e-008,1.23437552e-004
,,,-2.92000000e-008,1.24062552e-004
,,,-2.90000000e-008,7.75000502e-005
,,,-2.88000000e-008,1.37500472e-005
,,,-2.86000000e-008,-3.40624551e-005
,,,-2.84000000e-008,-6.09374563e-005
,,,-2.82000000e-008,-1.28124540e-005
,,,-2.80000000e-008,3.65625483e-005
,,,-2.78000000e-008,1.22812552e-004
,,,-2.76000000e-008,1.55000054e-004
,,,-2.74000000e-008,1.35937553e-004
,,,-2.72000000e-008,8.25000505e-005
,,,-2.70000000e-008,-8.12495382e-006
,,,-2.68000000e-008,-8.09374573e-005
,,,-2.66000000e-008,-1.15937459e-004
,,,-2.64000000e-008,-5.74999562e-005
,,,-2.62000000e-008,1.90625475e-005
,,,-2.60000000e-008,1.02187551e-004
,,,-2.58000000e-008,1.49375054e-004
,,,-2.56000000e-008,1.40937553e-004
,,,-2.54000000e-008,7.71875502e-005
,,,-2.52000000e-008,-1.49999541e-005
,,,-2.50000000e-008,-6.90624567e-005
,,,-2.48000000e-008,-7.49999570e-005
,,,-2.46000000e-008,-5.90624562e-005
,,,-2.44000000e-008,2.46875477e-005
,,,-2.42000000e-008,9.78125512e-005
,,,-2.40000000e-008,1.55312554e-004
,,,-2.38000000e-008,1.60937554e-004
,,,-2.36000000e-008,1.17187552e-004
,,,-2.34000000e-008,4.31250486e-005
,,,-2.32000000e-008,-2.68749547e-005
,,,-2.30000000e-008,-6.65624566e-005
,,,-2.28000000e-008,-4.21874554e-005
,,,-2.26000000e-008,1.56250473e-005
,,,-2.24000000e-008,7.09375499e-005
,,,-2.22000000e-008,1.13125052e-004
,,,-2.20000000e-008,1.01875051e-004
,,,-2.18000000e-008,9.31250510e-005
,,,-2.16000000e-008,5.46875492e-005
,,,-2.14000000e-008,2.81254670e-006
,,,-2.12000000e-008,-4.68749557e-005
,,,-2.10000000e-008,-6.56249566e-005
,,,-2.08000000e-008,-5.28124559e-005
,,,-2.06000000e-008,-8.74995385e-006
,,,-2.04000000e-008,4.71875488e-005
,,,-2.02000000e-008,8.21875505e-005
,,,-2.00000000e-008,1.12187552e-004
,,,-1.98000000e-008,1.02812551e-004
,,,-1.96000000e-008,7.50000501e-005
,,,-1.94000000e-008,2.93750480e-005
,,,-1.92000000e-008,-2.09374544e-005
,,,-1.90000000e-008,-5.53124561e-005
,,,-1.88000000e-008,-4.09374554e-005
,,,-1.86000000e-008,-4.06245363e-006
,,,-1.84000000e-008,7.59375502e-005
,,,-1.82000000e-008,1.38750053e-004
,,,-1.80000000e-008,1.60000054e-004
,,,-1.78000000e-008,1.46562554e-004
,,,-1.76000000e-008,7.03125499e-005
,,,-1.74000000e-008,-9.06245386e-006
,,,-1.72000000e-008,-7.03124568e-005
,,,-1.70000000e-008,-9.12499578e-005
,,,-1.68000000e-008,-6.99999568e-005
,,,-1.66000000e-008,7.18754691e-006
,,,-1.64000000e-008,8.62500507e-005
,,,-1.62000000e-008,1.52187554e-004
,,,-1.60000000e-008,1.61250054e-004
,,,-1.58000000e-008,1.13437552e-004
,,,-1.56000000e-008,4.09375485e-005
,,,-1.54000000e-008,-3.93749553e-005
,,,-1.52000000e-008,-1.17812459e-004
,,,-1.50000000e-008,-1.02499958e-004
,,,-1.48000000e-008,-3.59374551e-005
,,,-1.46000000e-008,4.46875487e-005
,,,-1.44000000e-008,1.53750054e-004
,,,-1.42000000e-008,1.96875056e-004
,,,-1.40000000e-008,1.94687556e-004
,,,-1.38000000e-008,1.09687552e-004
,,,-1.36000000e-008,-2.81245357e-006
,,,-1.34000000e-008,-8.24999574e-005
,,,-1.32000000e-008,-1.24999959e-004
,,,-1.30000000e-008,-7.24999569e-005
,,,-1.28000000e-008,4.06254676e-006
,,,-1.26000000e-008,1.18437552e-004
,,,-1.24000000e-008,1.95000056e-004
,,,-1.22000000e-008,1.86875055e-004
,,,-1.20000000e-008,1.35625053e-004
,,,-1.18000000e-008,3.62500483e-005
,,,-1.16000000e-008,-9.12499578e-005
,,,-1.14000000e-008,-1.23437459e-004
,,,-1.12000000e-008,-1.27187459e-004
,,,-1.10000000e-008,-4.31249555e-005
,,,-1.08000000e-008,7.50000501e-005
,,,-1.06000000e-008,1.50937554e-004
,,,-1.04000000e-008,1.81875055e-004
,,,-1.02000000e-008,1.40625053e-004
,,,-1.00000000e-008,6.81250498e-005
,,,-9.80000000e-009,-1.15624540e-005
,,,-9.60000000e-009,-9.65624580e-005
,,,-9.40000000e-009,-9.90624581e-005
,,,-9.20000000e-009,-5.15624559e-005
,,,-9.00000000e-009,3.59375483e-005
,,,-8.80000000e-009,1.15625052e-004
,,,-8.60000000e-009,1.72500055e-004
,,,-8.40000000e-009,1.56562554e-004
,,,-8.20000000e-009,9.06250509e-005
,,,-8.00000000e-009,1.87500475e-005
,,,-7.80000000e-009,-4.68749557e-005
,,,-7.60000000e-009,-7.65624571e-005
,,,-7.40000000e-009,-5.09374559e-005
,,,-7.20000000e-009,-1.56245351e-006
,,,-7.00000000e-009,2.34375477e-005
,,,-6.80000000e-009,6.81250498e-005
,,,-6.60000000e-009,1.02500051e-004
,,,-6.40000000e-009,1.01250051e-004
,,,-6.20000000e-009,8.28125505e-005
,,,-6.00000000e-009,3.15625481e-005
,,,-5.80000000e-009,-1.90624543e-005
,,,-5.60000000e-009,-6.62499566e-005
,,,-5.40000000e-009,-8.43749574e-005
,,,-5.20000000e-009,-5.46874560e-005
,,,-5.00000000e-009,-1.31249541e-005
,,,-4.80000000e-009,7.43750501e-005
,,,-4.60000000e-009,1.20937552e-004
,,,-4.40000000e-009,1.46250054e-004
,,,-4.20000000e-009,1.16562552e-004
,,,-4.00000000e-009,4.25000486e-005
,,,-3.80000000e-009,-5.03124558e-005
,,,-3.60000000e-009,-1.32499960e-004
,,,-3.40000000e-009,-1.31562460e-004
,,,-3.20000000e-009,-6.40624565e-005
,,,-3.00000000e-009,3.53125482e-005
,,,-2.80000000e-009,1.38750053e-004
,,,-2.60000000e-009,1.63437554e-004
,,,-2.40000000e-009,1.45937553e-004
,,,-2.20000000e-009,6.18750495e-005
,,,-2.00000000e-009,-5.43749560e-005
,,,-1.80000000e-009,-1.30624960e-004
,,,-1.60000000e-009,-1.50937461e-004
,,,-1.40000000e-009,-1.05624958e-004
,,,-1.20000000e-009,-1.28124540e-005
,,,-1.00000000e-009,9.93750513e-005
,,,-8.00000000e-010,1.67500055e-004
,,,-6.00000000e-010,1.71250055e-004
,,,-4.00000000e-010,1.14375052e-004
,,,-2.00000000e-010,1.40625472e-005
,,,0.00000000e+000,-7.96874572e-005
,,,2.00000000e-010,-1.35624960e-004
,,,4.00000000e-010,-1.03437458e-004
,,,6.00000000e-010,-1.96874544e-005
,,,8.00000000e-010,7.93750503e-005
,,,1.00000000e-009,1.50625054e-004
,,,1.20000000e-009,1.63750054e-004
,,,1.40000000e-009,1.09375052e-004
,,,1.60000000e-009,2.15625476e-005
,,,1.80000000e-009,-2.74999547e-005
,,,2.00000000e-009,-7.49999570e-005
,,,2.20000000e-009,-6.96874567e-005
,,,2.40000000e-009,-3.18749549e-005
,,,2.60000000e-009,-5.31245369e-006
,,,2.80000000e-009,6.71875498e-005
,,,3.00000000e-009,1.01562551e-004
,,,3.20000000e-009,1.05312552e-004
,,,3.40000000e-009,6.84375498e-005
,,,3.60000000e-009,2.50000478e-005
,,,3.80000000e-009,-2.18749545e-005
,,,4.00000000e-009,-3.49999551e-005
,,,4.20000000e-009,-2.28124545e-005
,,,4.40000000e-009,4.06254676e-006
,,,4.60000000e-009,4.65625488e-005
,,,4.80000000e-009,9.03125509e-005
,,,5.00000000e-009,1.15312552e-004
,,,5.20000000e-009,1.23437552e-004
,,,5.40000000e-009,9.50000511e-005
,,,5.60000000e-009,4.28125486e-005
,,,5.80000000e-009,-1.43749541e-005
,,,6.00000000e-009,-1.90624543e-005
,,,6.20000000e-009,-2.31249545e-005
,,,6.40000000e-009,1.75000474e-005
,,,6.60000000e-009,5.15625490e-005
,,,6.80000000e-009,7.31250500e-005
,,,7.00000000e-009,6.68750497e-005
,,,7.20000000e-009,6.75000498e-005
,,,7.40000000e-009,4.21875486e-005
,,,7.60000000e-009,2.46875477e-005
,,,7.80000000e-009,-1.37499541e-005
,,,8.00000000e-009,-3.40624551e-005
,,,8.20000000e-009,-4.12499554e-005
,,,8.40000000e-009,-3.74995361e-006
