Data/20220819/UCLA_to_R2A_VPOL_E_NEG70_01_Ch2.csv

"Record Length",5000,"Points",-1.00800000e-007,-2.47187465e-004
"Sample Interval",2.00000000e-010,s,-1.00600000e-007,-2.49687465e-004
"Trigger Point",504,"Samples",-1.00400000e-007,-9.53124580e-005
"Trigger Time",0.00000000e+000,s,-1.00200000e-007,7.25000500e-005
"",,,-1.00000000e-007,1.69375055e-004
"Horizontal Offset",-1.00800000e-007,s,-9.98000000e-008,1.60625054e-004
,,,-9.96000000e-008,4.71875488e-005
,,,-9.94000000e-008,-1.09687459e-004
,,,-9.92000000e-008,-2.28749964e-004
,,,-9.90000000e-008,-2.82499967e-004
,,,-9.88000000e-008,-2.01249963e-004
,,,-9.86000000e-008,-1.12812459e-004
,,,-9.84000000e-008,5.62500492e-005
,,,-9.82000000e-008,1.35937553e-004
,,,-9.80000000e-008,9.43750510e-005
,,,-9.78000000e-008,-2.18749545e-005
,,,-9.76000000e-008,-1.43437460e-004
,,,-9.74000000e-008,-2.21874964e-004
,,,-9.72000000e-008,-1.82187462e-004
,,,-9.70000000e-008,-1.78437462e-004
,,,-9.68000000e-008,-6.96874567e-005
,,,-9.66000000e-008,-4.96874558e-005
,,,-9.64000000e-008,-4.06245363e-006
,,,-9.62000000e-008,3.53125482e-005
,,,-9.60000000e-008,-5.34374560e-005
,,,-9.58000000e-008,-8.12499573e-005
,,,-9.56000000e-008,-8.37499574e-005
,,,-9.54000000e-008,-1.12187459e-004
,,,-9.52000000e-008,-2.93749548e-005
,,,-9.50000000e-008,-6.78124567e-005
,,,-9.48000000e-008,-5.37499560e-005
,,,-9.46000000e-008,-8.99999577e-005
,,,-9.44000000e-008,-9.46874579e-005
,,,-9.42000000e-008,-4.56249556e-005
,,,-9.40000000e-008,-3.21874550e-005
,,,-9.38000000e-008,2.62500478e-005
,,,-9.36000000e-008,2.81250479e-005
,,,-9.34000000e-008,-5.59374561e-005
,,,-9.32000000e-008,-9.93749582e-005
,,,-9.30000000e-008,-2.07187463e-004
,,,-9.28000000e-008,-2.22812464e-004
,,,-9.26000000e-008,-1.56874961e-004
,,,-9.24000000e-008,-6.03124563e-005
,,,-9.22000000e-008,3.03125480e-005
,,,-9.20000000e-008,7.93750503e-005
,,,-9.18000000e-008,4.71875488e-005
,,,-9.16000000e-008,-4.90624558e-005
,,,-9.14000000e-008,-1.81562462e-004
,,,-9.12000000e-008,-2.16874964e-004
,,,-9.10000000e-008,-1.94687463e-004
,,,-9.08000000e-008,-1.03749958e-004
,,,-9.06000000e-008,2.93750480e-005
,,,-9.04000000e-008,6.93750499e-005
,,,-9.02000000e-008,7.71875502e-005
,,,-9.00000000e-008,2.75000479e-005
,,,-8.98000000e-008,-7.40624570e-005
,,,-8.96000000e-008,-8.49999575e-005
,,,-8.94000000e-008,-1.29999960e-004
,,,-8.92000000e-008,-1.04062458e-004
,,,-8.90000000e-008,-6.74999566e-005
,,,-8.88000000e-008,-6.34374564e-005
,,,-8.86000000e-008,-2.59374547e-005
,,,-8.84000000e-008,-4.62499556e-005
,,,-8.82000000e-008,-6.78124567e-005
,,,-8.80000000e-008,-1.02187458e-004
,,,-8.78000000e-008,-8.06249573e-005
,,,-8.76000000e-008,-5.15624559e-005
,,,-8.74000000e-008,-5.40624560e-005
,,,-8.72000000e-008,-6.90624567e-005
,,,-8.70000000e-008,-7.90624572e-005
,,,-8.68000000e-008,-1.27499959e-004
,,,-8.66000000e-008,-8.62499575e-005
,,,-8.64000000e-008,-5.87499562e-005
,,,-8.62000000e-008,-4.21874554e-005
,,,-8.60000000e-008,4.06254676e-006
,,,-8.58000000e-008,9.37504701e-006
,,,-8.56000000e-008,-2.68749547e-005
,,,-8.54000000e-008,-7.53124570e-005
,,,-8.52000000e-008,-8.21874573e-005
,,,-8.50000000e-008,-7.96874572e-005
,,,-8.48000000e-008,-1.03124958e-004
,,,-8.46000000e-008,-6.56245375e-006
,,,-8.44000000e-008,6.25004686e-006
,,,-8.42000000e-008,-3.12499549e-005
,,,-8.40000000e-008,-2.18749545e-005
,,,-8.38000000e-008,-9.15624578e-005
,,,-8.36000000e-008,-1.49374961e-004
,,,-8.34000000e-008,-1.05937458e-004
,,,-8.32000000e-008,-9.93749582e-005
,,,-8.30000000e-008,-7.46874570e-005
,,,-8.28000000e-008,-3.40624551e-005
,,,-8.26000000e-008,-1.71874543e-005
,,,-8.24000000e-008,-6.43749565e-005
,,,-8.22000000e-008,-1.10312459e-004
,,,-8.20000000e-008,-1.06874959e-004
,,,-8.18000000e-008,-1.08437459e-004
,,,-8.16000000e-008,-7.24999569e-005
,,,-8.14000000e-008,-1.53124542e-005
,,,-8.12000000e-008,1.87500475e-005
,,,-8.10000000e-008,-2.18745354e-006
,,,-8.08000000e-008,-4.09374554e-005
,,,-8.06000000e-008,-1.16249959e-004
,,,-8.04000000e-008,-1.45312460e-004
,,,-8.02000000e-008,-1.29999960e-004
,,,-8.00000000e-008,-3.03124549e-005
,,,-7.98000000e-008,2.09375476e-005
,,,-7.96000000e-008,5.78125493e-005
,,,-7.94000000e-008,5.28125491e-005
,,,-7.92000000e-008,-4.40624555e-005
,,,-7.90000000e-008,-1.15624959e-004
,,,-7.88000000e-008,-1.72812462e-004
,,,-7.86000000e-008,-2.05624963e-004
,,,-7.84000000e-008,-1.33437460e-004
,,,-7.82000000e-008,-6.06249563e-005
,,,-7.80000000e-008,-1.31249541e-005
,,,-7.78000000e-008,4.78125488e-005
,,,-7.76000000e-008,-2.53124546e-005
,,,-7.74000000e-008,-7.37499569e-005
,,,-7.72000000e-008,-1.19999959e-004
,,,-7.70000000e-008,-1.29999960e-004
,,,-7.68000000e-008,-7.87499572e-005
,,,-7.66000000e-008,-2.24999545e-005
,,,-7.64000000e-008,-5.28124559e-005
,,,-7.62000000e-008,-5.34374560e-005
,,,-7.60000000e-008,-5.49999560e-005
,,,-7.58000000e-008,-4.09374554e-005
,,,-7.56000000e-008,-2.71874547e-005
,,,-7.54000000e-008,-9.06245386e-006
,,,-7.52000000e-008,-6.24953464e-007
,,,-7.50000000e-008,-1.18749540e-005
,,,-7.48000000e-008,-4.12499554e-005
,,,-7.46000000e-008,-1.19062459e-004
,,,-7.44000000e-008,-1.75937462e-004
,,,-7.42000000e-008,-1.77499962e-004
,,,-7.40000000e-008,-1.44687460e-004
,,,-7.38000000e-008,-5.09374559e-005
,,,-7.36000000e-008,3.46875482e-005
,,,-7.34000000e-008,6.81250498e-005
,,,-7.32000000e-008,3.06250480e-005
,,,-7.30000000e-008,-6.15624564e-005
,,,-7.28000000e-008,-1.60624961e-004
,,,-7.26000000e-008,-2.21874964e-004
,,,-7.24000000e-008,-2.24062464e-004
,,,-7.22000000e-008,-1.02187458e-004
,,,-7.20000000e-008,5.93754685e-006
,,,-7.18000000e-008,8.25000505e-005
,,,-7.16000000e-008,1.31562553e-004
,,,-7.14000000e-008,6.96875499e-005
,,,-7.12000000e-008,-6.56245375e-006
,,,-7.10000000e-008,-1.34687460e-004
,,,-7.08000000e-008,-2.38749965e-004
,,,-7.06000000e-008,-2.16874964e-004
,,,-7.04000000e-008,-1.40312460e-004
,,,-7.02000000e-008,-8.43745383e-006
,,,-7.00000000e-008,1.03750051e-004
,,,-6.98000000e-008,1.11562552e-004
,,,-6.96000000e-008,6.25000495e-005
,,,-6.94000000e-008,-6.96874567e-005
,,,-6.92000000e-008,-1.60312461e-004
,,,-6.90000000e-008,-2.02499963e-004
,,,-6.88000000e-008,-2.10937463e-004
,,,-6.86000000e-008,-1.90624962e-004
,,,-6.84000000e-008,-1.11874959e-004
,,,-6.82000000e-008,-4.96874558e-005
,,,-6.80000000e-008,1.53125473e-005
,,,-6.78000000e-008,2.93750480e-005
,,,-6.76000000e-008,-7.18745378e-006
,,,-6.74000000e-008,-4.28124555e-005
,,,-6.72000000e-008,-7.34374569e-005
,,,-6.70000000e-008,-1.52812461e-004
,,,-6.68000000e-008,-2.11249963e-004
,,,-6.66000000e-008,-1.55624961e-004
,,,-6.64000000e-008,-9.31249579e-005
,,,-6.62000000e-008,-2.53124546e-005
,,,-6.60000000e-008,7.68750502e-005
,,,-6.58000000e-008,8.68750507e-005
,,,-6.56000000e-008,5.06250490e-005
,,,-6.54000000e-008,-1.56245351e-006
,,,-6.52000000e-008,-1.37187460e-004
,,,-6.50000000e-008,-2.00312463e-004
,,,-6.48000000e-008,-1.90624962e-004
,,,-6.46000000e-008,-1.57499961e-004
,,,-6.44000000e-008,-6.78124567e-005
,,,-6.42000000e-008,2.25000476e-005
,,,-6.40000000e-008,8.00000504e-005
,,,-6.38000000e-008,5.46875492e-005
,,,-6.36000000e-008,-1.15624540e-005
,,,-6.34000000e-008,-9.99999582e-005
,,,-6.32000000e-008,-2.06249963e-004
,,,-6.30000000e-008,-1.95312463e-004
,,,-6.28000000e-008,-1.88749962e-004
,,,-6.26000000e-008,-1.42499960e-004
,,,-6.24000000e-008,-5.12499559e-005
,,,-6.22000000e-008,5.81250493e-005
,,,-6.20000000e-008,1.15937552e-004
,,,-6.18000000e-008,1.01562551e-004
,,,-6.16000000e-008,3.62500483e-005
,,,-6.14000000e-008,-5.34374560e-005
,,,-6.12000000e-008,-1.82187462e-004
,,,-6.10000000e-008,-2.19687464e-004
,,,-6.08000000e-008,-1.86562462e-004
,,,-6.06000000e-008,-1.14062459e-004
,,,-6.04000000e-008,4.65661288e-011
,,,-6.02000000e-008,6.37500496e-005
,,,-6.00000000e-008,1.10312552e-004
,,,-5.98000000e-008,5.68750493e-005
,,,-5.96000000e-008,-2.65624547e-005
,,,-5.94000000e-008,-1.32812460e-004
,,,-5.92000000e-008,-2.60624966e-004
,,,-5.90000000e-008,-2.67812466e-004
,,,-5.88000000e-008,-1.99687463e-004
,,,-5.86000000e-008,-1.19687459e-004
,,,-5.84000000e-008,3.00000480e-005
,,,-5.82000000e-008,1.02187551e-004
,,,-5.80000000e-008,7.06250499e-005
,,,-5.78000000e-008,2.15625476e-005
,,,-5.76000000e-008,-1.01249958e-004
,,,-5.74000000e-008,-1.98124963e-004
,,,-5.72000000e-008,-2.31874964e-004
,,,-5.70000000e-008,-1.79374962e-004
,,,-5.68000000e-008,-9.71874581e-005
,,,-5.66000000e-008,-1.81249543e-005
,,,-5.64000000e-008,7.62500502e-005
,,,-5.62000000e-008,6.78125498e-005
,,,-5.60000000e-008,2.75000479e-005
,,,-5.58000000e-008,-9.99995391e-006
,,,-5.56000000e-008,-1.48124960e-004
,,,-5.54000000e-008,-1.62187461e-004
,,,-5.52000000e-008,-1.24062459e-004
,,,-5.50000000e-008,-8.12499573e-005
,,,-5.48000000e-008,-8.43749574e-005
,,,-5.46000000e-008,-7.53124570e-005
,,,-5.44000000e-008,-3.03124549e-005
,,,-5.42000000e-008,1.43750472e-005
,,,-5.40000000e-008,-3.74995361e-006
,,,-5.38000000e-008,-1.24995349e-006
,,,-5.36000000e-008,-8.46874575e-005
,,,-5.34000000e-008,-1.27812460e-004
,,,-5.32000000e-008,-1.44999960e-004
,,,-5.30000000e-008,-1.92812463e-004
,,,-5.28000000e-008,-1.63749961e-004
,,,-5.26000000e-008,-6.31249564e-005
,,,-5.24000000e-008,4.31250486e-005
,,,-5.22000000e-008,1.15937552e-004
,,,-5.20000000e-008,8.93750508e-005
,,,-5.18000000e-008,4.90625489e-005
,,,-5.16000000e-008,-1.01562458e-004
,,,-5.14000000e-008,-2.07499963e-004
,,,-5.12000000e-008,-1.92812463e-004
,,,-5.10000000e-008,-1.48124960e-004
,,,-5.08000000e-008,-6.65624566e-005
,,,-5.06000000e-008,6.40625496e-005
,,,-5.04000000e-008,7.28125500e-005
,,,-5.02000000e-008,4.68750488e-005
,,,-5.00000000e-008,-3.40624551e-005
,,,-4.98000000e-008,-1.37499960e-004
,,,-4.96000000e-008,-2.37499965e-004
,,,-4.94000000e-008,-1.96249963e-004
,,,-4.92000000e-008,-1.07499959e-004
,,,-4.90000000e-008,-1.05312458e-004
,,,-4.88000000e-008,-2.81249548e-005
,,,-4.86000000e-008,1.96875475e-005
,,,-4.84000000e-008,-3.90624553e-005
,,,-4.82000000e-008,-2.46874546e-005
,,,-4.80000000e-008,-6.74999566e-005
,,,-4.78000000e-008,-1.06874959e-004
,,,-4.76000000e-008,-8.43749574e-005
,,,-4.74000000e-008,-8.59374575e-005
,,,-4.72000000e-008,-8.90624577e-005
,,,-4.70000000e-008,-7.56249570e-005
,,,-4.68000000e-008,-6.28124564e-005
,,,-4.66000000e-008,-3.31249550e-005
,,,-4.64000000e-008,-1.84374543e-005
,,,-4.62000000e-008,-8.12495382e-006
,,,-4.60000000e-008,-4.99999558e-005
,,,-4.58000000e-008,-7.65624571e-005
,,,-4.56000000e-008,-9.15624578e-005
,,,-4.54000000e-008,-1.23124959e-004
,,,-4.52000000e-008,-1.45624960e-004
,,,-4.50000000e-008,-1.35312460e-004
,,,-4.48000000e-008,-7.56249570e-005
,,,-4.46000000e-008,1.56250473e-005
,,,-4.44000000e-008,3.00000480e-005
,,,-4.42000000e-008,1.12500471e-005
,,,-4.40000000e-008,-3.81249552e-005
,,,-4.38000000e-008,-1.36874960e-004
,,,-4.36000000e-008,-1.75312462e-004
,,,-4.34000000e-008,-1.68124961e-004
,,,-4.32000000e-008,-1.00624958e-004
,,,-4.30000000e-008,1.59375473e-005
,,,-4.28000000e-008,5.62500492e-005
,,,-4.26000000e-008,6.56250497e-005
,,,-4.24000000e-008,-1.59374542e-005
,,,-4.22000000e-008,-1.11249959e-004
,,,-4.20000000e-008,-1.49999961e-004
,,,-4.18000000e-008,-1.83749962e-004
,,,-4.16000000e-008,-7.43749570e-005
,,,-4.14000000e-008,2.53125478e-005
,,,-4.12000000e-008,2.78125479e-005
,,,-4.10000000e-008,3.75000483e-005
,,,-4.08000000e-008,-5.15624559e-005
,,,-4.06000000e-008,-1.75624962e-004
,,,-4.04000000e-008,-1.83437462e-004
,,,-4.02000000e-008,-1.72812462e-004
,,,-4.00000000e-008,-9.31249579e-005
,,,-3.98000000e-008,1.31250472e-005
,,,-3.96000000e-008,7.90625503e-005
,,,-3.94000000e-008,2.18750476e-005
,,,-3.92000000e-008,-7.68749571e-005
,,,-3.90000000e-008,-1.84687462e-004
,,,-3.88000000e-008,-2.51562465e-004
,,,-3.86000000e-008,-2.08749963e-004
,,,-3.84000000e-008,-6.71874566e-005
,,,-3.82000000e-008,1.81250474e-005
,,,-3.80000000e-008,8.31250505e-005
,,,-3.78000000e-008,6.43750496e-005
,,,-3.76000000e-008,-4.09374554e-005
,,,-3.74000000e-008,-1.31249960e-004
,,,-3.72000000e-008,-1.91562463e-004
,,,-3.70000000e-008,-1.58124961e-004
,,,-3.68000000e-008,-7.21874569e-005
,,,-3.66000000e-008,1.43750472e-005
,,,-3.64000000e-008,3.62500483e-005
,,,-3.62000000e-008,-5.62495370e-006
,,,-3.60000000e-008,-5.34374560e-005
,,,-3.58000000e-008,-1.10624959e-004
,,,-3.56000000e-008,-1.59687461e-004
,,,-3.54000000e-008,-1.48749960e-004
,,,-3.52000000e-008,-7.65624571e-005
,,,-3.50000000e-008,6.25004686e-006
,,,-3.48000000e-008,2.81250479e-005
,,,-3.46000000e-008,-4.18749554e-005
,,,-3.44000000e-008,-1.20624959e-004
,,,-3.42000000e-008,-1.92812463e-004
,,,-3.40000000e-008,-1.79999962e-004
,,,-3.38000000e-008,-7.96874572e-005
,,,-3.36000000e-008,-2.12499544e-005
,,,-3.34000000e-008,9.18750509e-005
,,,-3.32000000e-008,9.59375511e-005
,,,-3.30000000e-008,-8.12495382e-006
,,,-3.28000000e-008,-9.62499580e-005
,,,-3.26000000e-008,-2.17499964e-004
,,,-3.24000000e-008,-2.18749964e-004
,,,-3.22000000e-008,-1.35937460e-004
,,,-3.20000000e-008,2.40625477e-005
,,,-3.18000000e-008,1.55937554e-004
,,,-3.16000000e-008,1.47500054e-004
,,,-3.14000000e-008,7.31250500e-005
,,,-3.12000000e-008,-9.68749580e-005
,,,-3.10000000e-008,-2.74687466e-004
,,,-3.08000000e-008,-2.72187466e-004
,,,-3.06000000e-008,-2.11874963e-004
,,,-3.04000000e-008,-6.28124564e-005
,,,-3.02000000e-008,9.50000511e-005
,,,-3.00000000e-008,1.21250052e-004
,,,-2.98000000e-008,5.06250490e-005
,,,-2.96000000e-008,-5.37499560e-005
,,,-2.94000000e-008,-1.66874961e-004
,,,-2.92000000e-008,-2.27187464e-004
,,,-2.90000000e-008,-2.01562463e-004
,,,-2.88000000e-008,-8.93749577e-005
,,,-2.86000000e-008,-1.56249542e-005
,,,-2.84000000e-008,3.25000481e-005
,,,-2.82000000e-008,1.87500475e-005
,,,-2.80000000e-008,-5.53124561e-005
,,,-2.78000000e-008,-8.09374573e-005
,,,-2.76000000e-008,-8.49999575e-005
,,,-2.74000000e-008,-8.62499575e-005
,,,-2.72000000e-008,-3.28124550e-005
,,,-2.70000000e-008,-5.06249558e-005
,,,-2.68000000e-008,-5.49999560e-005
,,,-2.66000000e-008,-1.05937458e-004
,,,-2.64000000e-008,-1.34374960e-004
,,,-2.62000000e-008,-6.71874566e-005
,,,-2.60000000e-008,-5.62499561e-005
,,,-2.58000000e-008,-9.37495388e-006
,,,-2.56000000e-008,1.25000472e-005
,,,-2.54000000e-008,-4.49999556e-005
,,,-2.52000000e-008,-1.05624958e-004
,,,-2.50000000e-008,-1.62812461e-004
,,,-2.48000000e-008,-2.36562465e-004
,,,-2.46000000e-008,-1.81874962e-004
,,,-2.44000000e-008,-9.15624578e-005
,,,-2.42000000e-008,1.68750474e-005
,,,-2.40000000e-008,1.07187552e-004
,,,-2.38000000e-008,1.22187552e-004
,,,-2.36000000e-008,2.59375478e-005
,,,-2.34000000e-008,-1.38124960e-004
,,,-2.32000000e-008,-2.23749964e-004
,,,-2.30000000e-008,-2.59062466e-004
,,,-2.28000000e-008,-2.02499963e-004
,,,-2.26000000e-008,-3.28124550e-005
,,,-2.24000000e-008,8.00000504e-005
,,,-2.22000000e-008,1.86562555e-004
,,,-2.20000000e-008,1.55000054e-004
,,,-2.18000000e-008,-3.49999551e-005
,,,-2.16000000e-008,-1.65312461e-004
,,,-2.14000000e-008,-2.91249967e-004
,,,-2.12000000e-008,-2.87499967e-004
,,,-2.10000000e-008,-1.21562459e-004
,,,-2.08000000e-008,-3.56249551e-005
,,,-2.06000000e-008,7.59375502e-005
,,,-2.04000000e-008,8.06250504e-005
,,,-2.02000000e-008,-3.40624551e-005
,,,-2.00000000e-008,-7.65624571e-005
,,,-1.98000000e-008,-1.39687460e-004
,,,-1.96000000e-008,-1.48749960e-004
,,,-1.94000000e-008,-8.93749577e-005
,,,-1.92000000e-008,-7.34374569e-005
,,,-1.90000000e-008,-7.43749570e-005
,,,-1.88000000e-008,-7.78124571e-005
,,,-1.86000000e-008,-7.09374568e-005
,,,-1.84000000e-008,-4.15624554e-005
,,,-1.82000000e-008,-2.34374545e-005
,,,-1.80000000e-008,2.90625479e-005
,,,-1.78000000e-008,1.71875474e-005
,,,-1.76000000e-008,-1.06249539e-005
,,,-1.74000000e-008,-1.16874959e-004
,,,-1.72000000e-008,-2.14687464e-004
,,,-1.70000000e-008,-2.01562463e-004
,,,-1.68000000e-008,-1.38437460e-004
,,,-1.66000000e-008,-5.93745372e-006
,,,-1.64000000e-008,8.65625507e-005
,,,-1.62000000e-008,7.90625503e-005
,,,-1.60000000e-008,5.12500490e-005
,,,-1.58000000e-008,-7.90624572e-005
,,,-1.56000000e-008,-2.08749963e-004
,,,-1.54000000e-008,-2.33437465e-004
,,,-1.52000000e-008,-2.22812464e-004
,,,-1.50000000e-008,-1.20624959e-004
,,,-1.48000000e-008,1.87504666e-006
,,,-1.46000000e-008,1.00625051e-004
,,,-1.44000000e-008,1.34375053e-004
,,,-1.42000000e-008,5.34375491e-005
,,,-1.40000000e-008,-8.78124576e-005
,,,-1.38000000e-008,-1.65624961e-004
,,,-1.36000000e-008,-2.34062465e-004
,,,-1.34000000e-008,-1.65312461e-004
,,,-1.32000000e-008,-7.03124568e-005
,,,-1.30000000e-008,1.53125473e-005
,,,-1.28000000e-008,8.87500508e-005
,,,-1.26000000e-008,5.31250491e-005
,,,-1.24000000e-008,-5.93745372e-006
,,,-1.22000000e-008,-9.71874581e-005
,,,-1.20000000e-008,-1.87499962e-004
,,,-1.18000000e-008,-1.82499962e-004
,,,-1.16000000e-008,-1.19374959e-004
,,,-1.14000000e-008,-5.49999560e-005
,,,-1.12000000e-008,3.62500483e-005
,,,-1.10000000e-008,1.31250472e-005
,,,-1.08000000e-008,-7.34374569e-005
,,,-1.06000000e-008,-1.26249959e-004
,,,-1.04000000e-008,-1.23124959e-004
,,,-1.02000000e-008,-7.59374570e-005
,,,-1.00000000e-008,-1.93749544e-005
,,,-9.80000000e-009,1.12500471e-005
,,,-9.60000000e-009,-9.18749578e-005
,,,-9.40000000e-009,-1.45937460e-004
,,,-9.20000000e-009,-1.34062460e-004
,,,-9.00000000e-009,-1.34999960e-004
,,,-8.80000000e-009,-3.21874550e-005
,,,-8.60000000e-009,4.50000487e-005
,,,-8.40000000e-009,5.50000492e-005
,,,-8.20000000e-009,3.96875485e-005
,,,-8.00000000e-009,-8.65624575e-005
,,,-7.80000000e-009,-1.84374962e-004
,,,-7.60000000e-009,-2.32499964e-004
,,,-7.40000000e-009,-1.81874962e-004
,,,-7.20000000e-009,-4.96874558e-005
,,,-7.00000000e-009,-6.56245375e-006
,,,-6.80000000e-009,6.62500497e-005
,,,-6.60000000e-009,3.18750481e-005
,,,-6.40000000e-009,-7.59374570e-005
,,,-6.20000000e-009,-1.63437461e-004
,,,-6.00000000e-009,-2.59062466e-004
,,,-5.80000000e-009,-1.93749963e-004
,,,-5.60000000e-009,-1.23437459e-004
,,,-5.40000000e-009,-3.12499549e-005
,,,-5.20000000e-009,3.25000481e-005
,,,-5.00000000e-009,-1.87495352e-006
,,,-4.80000000e-009,-2.24999545e-005
,,,-4.60000000e-009,-8.40624574e-005
,,,-4.40000000e-009,-1.58437461e-004
,,,-4.20000000e-009,-1.61562461e-004
,,,-4.00000000e-009,-1.43749960e-004
,,,-3.80000000e-009,-1.09374959e-004
,,,-3.60000000e-009,-1.71874543e-005
,,,-3.40000000e-009,5.31254682e-006
,,,-3.20000000e-009,1.56254664e-006
,,,-3.00000000e-009,-5.28124559e-005
,,,-2.80000000e-009,-1.24062459e-004
,,,-2.60000000e-009,-1.35312460e-004
,,,-2.40000000e-009,-1.45624960e-004
,,,-2.20000000e-009,-1.06874959e-004
,,,-2.00000000e-009,-9.81249581e-005
,,,-1.80000000e-009,-8.93749577e-005
,,,-1.60000000e-009,-5.40624560e-005
,,,-1.40000000e-009,-8.18749573e-005
,,,-1.20000000e-009,-6.81249567e-005
,,,-1.00000000e-009,-7.21874569e-005
,,,-8.00000000e-010,-9.09374578e-005
,,,-6.00000000e-010,-4.15624554e-005
,,,-4.00000000e-010,-7.93749572e-005
,,,-2.00000000e-010,-1.21249959e-004
,,,0.00000000e+000,-1.80312462e-004
,,,2.00000000e-010,-1.95624963e-004
,,,4.00000000e-010,-8.81249576e-005
,,,6.00000000e-010,-3.34374550e-005
,,,8.00000000e-010,4.03125485e-005
,,,1.00000000e-009,4.84375489e-005
,,,1.20000000e-009,-3.81249552e-005
,,,1.40000000e-009,-1.26874959e-004
,,,1.60000000e-009,-2.25624964e-004
,,,1.80000000e-009,-2.48437465e-004
,,,2.00000000e-009,-1.63437461e-004
,,,2.20000000e-009,-5.59374561e-005
,,,2.40000000e-009,7.75000502e-005
,,,2.60000000e-009,1.01875051e-004
,,,2.80000000e-009,1.50000473e-005
,,,3.00000000e-009,-6.71874566e-005
,,,3.20000000e-009,-2.07499963e-004
,,,3.40000000e-009,-2.37187465e-004
,,,3.60000000e-009,-2.02812463e-004
,,,3.80000000e-009,-1.24687459e-004
,,,4.00000000e-009,-6.56245375e-006
,,,4.20000000e-009,2.15625476e-005
,,,4.40000000e-009,1.87504666e-006
,,,4.60000000e-009,-2.40624546e-005
,,,4.80000000e-009,-5.15624559e-005
,,,5.00000000e-009,-8.68749576e-005
,,,5.20000000e-009,-9.96874582e-005
,,,5.40000000e-009,-8.99999577e-005
,,,5.60000000e-009,-1.05937458e-004
,,,5.80000000e-009,-1.05624958e-004
,,,6.00000000e-009,-5.43749560e-005
,,,6.20000000e-009,-5.81249562e-005
,,,6.40000000e-009,-1.99999544e-005
,,,6.60000000e-009,5.34375491e-005
,,,6.80000000e-009,2.81254670e-006
,,,7.00000000e-009,-1.93749544e-005
,,,7.20000000e-009,-6.03124563e-005
